Timestamp,Acc.X,Acc.Y,Acc.Z,Comp.X,Comp.Y,Comp.Z,Comp.TrueHeading,Comp.MagneticHeading,Comp.HeadingAccuracy,Gyro.X,Gyro.Y,Gyro.Z,Motion.Yaw,Motion.Pitch,Motion.Roll,Motion.X,Motion.Y,Motion.Z,Motion.W
634795918126490000,0.08211143,0.08211143,-0.9970675,0,0,0,0,0,0,0,0,0,0,0,0,0,0,0,0
634795918126690000,0.08602151,0.08602151,-1.012708,0,0,0,0,0,0,0,0,0,0,0,0,0,0,0,0
634795918126890000,0.08993158,0.09384164,-1.004888,0,0,0,0,0,0,0,0,0,0,0,0,0,0,0,0
634795918127090000,0.09775171,0.09384164,-0.9970675,0,0,0,0,0,0,0,0,0,0,0,0,0,0,0,0
634795918127290000,0.09775171,0.08211143,-1.000978,0,0,0,0,0,0,0,0,0,0,0,0,0,0,0,0
634795918127490000,0.08993158,0.07820137,-1.000978,0,0,0,0,0,0,-0.04320994,-0.03207661,-0.04860216,0,0,0,0,0,0,0
634795918127690000,0.08602151,0.09384164,-0.9970675,0,0,0,0,0,0,-0.07512487,-0.04377669,-0.004955735,0,0,0,0,0,0,0
634795918127890000,0.08211143,0.1055719,-1.004888,-20.34,-6.66,-39.24,106,8,5,-0.02932861,-0.02140914,0.04296941,0,0,0,0,0,0,0
634795918128090000,0.08211143,0.1016618,-1.000978,-20.34,-6.66,-39.24,106,8,5,0.1388325,-0.01289661,0.06745467,0,0,0,0,0,0,0
634795918128300000,0.08602151,0.08993158,-0.9892473,-19.86,-4.26,-38.88,102,4,5,0.1441378,-0.0756894,0.0791454,0,0,0,0,0,0,0
634795918128490000,0.08993158,0.07038123,-1.000978,-19.14,-2.28,-37.68,99,1,5,-0.004868671,-0.004392389,-0.005980796,0,0,0,0,0,0,0
634795918128690000,0.08602151,0.07820137,-1.012708,-19.14,-2.28,-37.68,96,358,5,-0.1251108,0.07326647,-0.06126857,0,0,0,0,0,0,0
634795918128890000,0.08602151,0.09775171,-1.000978,-19.14,-2.28,-37.68,96,358,5,-0.1069531,0.0274703,-0.0324899,0,0,0,0,0,0,0
634795918129090000,0.09384164,0.1016618,-1.004888,-19.14,-2.28,-37.68,96,358,5,0.06649826,-0.0863887,0.03349866,0,0,0,0,0,0,0
634795918129290000,0.08993158,0.08993158,-1.012708,-19.14,-2.28,-37.68,98,0,5,0.04835546,-0.004421022,0.02280309,0,0,0,0,0,0,0
634795918129490000,0.08602151,0.08993158,-1.008798,-18.84,-3.12,-37.38,100,2,5,-0.008041873,0.00513157,0.01530839,0,0,0,0,0,0,0
634795918129690000,0.08211143,0.08993158,-1.000978,-18.84,-3.12,-37.38,100,2,5,-0.0815081,-0.02575001,-0.02194279,4.529954,-0.09269547,0.08574175,0.00329072,0.06296547,-0.765777,0.640008
634795918129890000,0.08211143,0.08602151,-1.000978,-18.84,-3.12,-37.38,100,2,5,-0.09533484,-0.03637353,-0.04000024,4.531474,-0.09377407,0.08548903,0.002800436,0.06330009,-0.7652643,0.6405903
634795918130100000,0.08602151,0.1016618,-1.012708,-18.84,-3.12,-37.38,100,2,5,0.01855822,-0.03848591,-0.02719421,4.532028,-0.09337544,0.08326209,0.002055823,0.0624382,-0.7651688,0.6407917
634795918130290000,0.09384164,0.1094819,-1.008798,-18.84,-3.12,-37.38,99,1,5,0.1270602,-0.01084393,0.0004575545,4.531745,-0.09094977,0.08306587,0.002766427,0.06144715,-0.7653403,0.6406799
634795918130490000,0.09775171,0.1016618,-1.004888,-17.88,-2.94,-37.56,101,3,5,0.05363477,-0.01723035,0.02385188,4.531166,-0.09059024,0.0833931,0.003024985,0.06141303,-0.7655272,0.6404589
634795918130690000,0.09384164,0.09384164,-1.004888,-17.88,-2.94,-37.56,101,3,5,-0.03365011,0.02537048,-0.02825226,4.52874,-0.092345,0.08538543,0.003304114,0.06271575,-0.7661872,0.6395412
634795918130890000,0.08993158,0.08602151,-1.000978,-17.88,-2.94,-37.56,101,3,5,-0.03147877,0.07755763,0.02174376,4.527135,-0.09416579,0.08830154,0.003894301,0.06433813,-0.7665508,0.6389408
634795918131090000,0.09384164,0.09384164,-0.9853373,-17.88,-2.94,-37.56,100,2,5,0.02813593,0.02009107,0.002541202,4.526234,-0.09449982,0.08982622,0.004403254,0.0649488,-0.7667788,0.638602
634795918131300000,0.08993158,0.09775171,-0.9853373,-17.88,-2.94,-37.56,99,1,5,0.008990095,-0.07354649,0.06000308,4.527434,-0.09301876,0.08955169,0.004731928,0.06429654,-0.7664518,0.639058
634795918131490000,0.08993158,0.09775171,-0.9970675,-17.88,-2.94,-37.56,99,1,5,0.02602472,-0.07455378,0.02804738,4.527745,-0.09301066,0.08874964,0.004416157,0.0640391,-0.7663784,0.6391742
634795918131690000,0.09384164,0.09775171,-1.012708,-17.88,-2.94,-37.56,99,1,5,-0.006940824,-0.03621528,0.01310438,4.527246,-0.09313392,0.08835161,0.004239613,0.06395875,-0.7665467,0.6389816
634795918131890000,0.09775171,0.09775171,-1.016618,-18.36,-2.88,-37.44,100,2,5,-0.01119709,-0.007486837,0.004572594,4.526774,-0.0938356,0.0884738,0.00407762,0.06426554,-0.7666711,0.6388025
634795918132090000,0.09775171,0.09775171,-1.012708,-18.36,-2.88,-37.44,100,2,5,0.03565351,-0.008552875,-0.01563715,4.526408,-0.0941174,0.08919156,0.004275579,0.06460088,-0.7667559,0.6386657
634795918132290000,0.09384164,0.1016618,-1.004888,-18.36,-2.88,-37.44,100,2,5,0.03141864,0.02337271,-0.01987031,4.526126,-0.09388901,0.08968555,0.004547585,0.06466968,-0.7668371,0.6385593
634795918132490000,0.08993158,0.09775171,-0.9931574,-18.36,-2.88,-37.44,100,2,5,-0.03239816,0.03079312,-0.0219678,4.525703,-0.0938766,0.09098362,0.005064776,0.06507617,-0.7669309,0.6384014
634795918132690000,0.09384164,0.08993158,-0.9853373,-18.36,-2.88,-37.44,100,2,5,-0.1057913,0.003085064,-0.0336448,4.524472,-0.09717918,0.09210037,0.004481412,0.06669435,-0.7671783,0.6379415
634795918132890000,0.113392,0.08602151,-0.9931574,-17.94,-2.76,-37.2,100,2,5,-0.1653168,-0.08204966,-0.01338865,4.524808,-0.09993649,0.09035623,0.00291913,0.06719913,-0.7670369,0.6380676
634795918133090000,0.1290323,0.09775171,-1.012708,-17.94,-2.76,-37.2,100,2,5,-0.1577874,-0.2533899,0.02069678,4.525604,-0.1013997,0.08798563,0.001513124,0.0670087,-0.7668124,0.6383622
634795918133290000,0.113392,0.1212121,-1.032258,-17.94,-2.76,-37.2,99,1,5,-0.1545287,-0.2799955,0.05264428,4.528636,-0.1027956,0.08747888,0.0007703601,0.0673843,-0.7658136,0.639522
634795918133500000,0.08993158,0.1212121,-1.036168,-17.94,-2.76,-37.2,98,0,5,-0.1150298,0.1105764,-0.03360233,4.527787,-0.1085377,0.09561634,0.002092308,0.07216843,-0.7656046,0.6392472
634795918133690000,0.08602151,0.113392,-1.024438,-17.94,-2.76,-37.2,102,4,5,-0.1224641,0.1350133,-0.09421985,4.523787,-0.1118443,0.09937655,0.002630255,0.074623,-0.7666236,0.6377404
634795918133890000,0.08602151,0.1016618,-0.9892473,-17.82,-2.34,-37.62,101,3,5,-0.1224641,0.1350133,-0.09421985,4.521824,-0.1133587,0.09841824,0.001851839,0.07489823,-0.7672279,0.6369836
634795918134090000,0.0742913,0.1055719,-0.9736071,-17.82,-2.34,-37.62,101,3,5,0.2329411,-0.2693928,-0.03665442,4.520292,-0.1118531,0.09320807,0.0003791113,0.0726717,-0.7679605,0.636361
634795918134290000,0.06647116,0.113392,-0.9931574,-17.82,-2.34,-37.62,99,1,5,0.2212346,-0.247044,-0.06855149,4.51988,-0.1072602,0.0871433,-0.0004841911,0.06898972,-0.7684652,0.6361615
634795918134490000,0.06647116,0.1094819,-1.032258,-17.82,-2.34,-37.62,100,2,5,-0.0374263,0.01581084,-0.06635897,4.518971,-0.1036327,0.08114672,-0.001613557,0.06569929,-0.7696221,0.6351654
634795918134700000,0.07820137,0.113392,-1.040078,-17.82,-2.34,-37.62,101,3,5,-0.1023456,0.2168797,-0.03118399,4.517438,-0.1040163,0.07883239,-0.002578614,0.0651168,-0.7696221,0.6351654
634795918134890000,0.08602151,0.113392,-1.004888,-17.82,-2.34,-37.62,101,3,5,-0.02360202,0.2402926,-0.03115132,4.514637,-0.1075761,0.08211601,-0.002346786,0.0675273,-0.7702868,0.6341079
634795918135090000,0.0742913,0.1055719,-0.9775171,-18.18,-2.64,-37.62,102,4,5,0.1349214,0.1168108,0.03274508,4.514081,-0.1060319,0.08353877,-0.001288484,0.06738155,-0.7704687,0.6339055
634795918135290000,0.07038123,0.09384164,-0.9736071,-18.18,-2.64,-37.62,101,3,5,0.1785405,-0.01408856,0.04232917,4.514461,-0.1042573,0.08416092,-0.0004981658,0.06689401,-0.7703874,0.634057
634795918135490000,0.0742913,0.09775171,-0.9892473,-18.18,-2.64,-37.62,100,2,5,0.2072746,-0.05451071,0.001900217,4.514682,-0.1010022,0.08201861,-0.0003015522,0.06496425,-0.7704936,0.6341287
634795918135690000,0.07820137,0.1055719,-1.000978,-18.18,-2.64,-37.62,100,2,5,0.2104673,0.006127139,0.01788605,4.516818,-0.0934713,0.07948076,0.001039727,0.06126272,-0.7701322,0.6349348
634795918135890000,0.08602151,0.1055719,-0.9931574,-18.18,-2.64,-37.62,100,2,5,0.02847669,0.06141268,0.0743035,4.517916,-0.09243345,0.07938754,0.001299772,0.06083435,-0.769818,0.6353564
634795918136090000,0.08211143,0.09384164,-0.9853373,-18.18,-2.64,-37.62,101,3,5,0.02847669,0.06141268,0.0743035,4.519212,-0.09269833,0.08041023,0.001570783,0.06126075,-0.7693674,0.6358604
634795918136290000,0.08211143,0.08211143,-0.9814272,-18.18,-2.64,-37.62,101,3,5,0.02210507,0.04435623,0.0317446,4.519714,-0.09314799,0.08144151,0.001810226,0.06176058,-0.7691625,0.6360593
634795918136490000,0.08211143,0.08211143,-0.9775171,-18.18,-2.64,-37.62,101,3,5,0.05080201,-0.02160987,-0.004450121,4.520253,-0.09262132,0.08115745,0.001851522,0.06146863,-0.7690159,0.6362646
634795918136690000,0.08993158,0.08993158,-0.9814272,-18.24,-3.12,-38.22,100,2,5,0.1869184,-0.2067513,0.01254885,4.520472,-0.09186887,0.07987892,0.00159115,0.0607746,-0.7690077,0.6363419
634795918136910000,0.08602151,0.1016618,-0.9931574,-18.24,-3.12,-38.22,99,1,5,0.2103314,-0.1524758,0.04765168,4.521369,-0.08894992,0.07667768,0.001258928,0.05863849,-0.7689034,0.6366692
634795918137090000,0.07820137,0.08602151,-1.000978,-18.24,-3.12,-38.22,100,2,5,0.116641,-0.07582161,0.003981842,4.521772,-0.08387041,0.07537138,0.002360938,0.05627168,-0.7689583,0.6368133
634795918137290000,0.08211143,0.07820137,-1.000978,-18.72,-4.14,-38.58,103,5,5,-0.03766309,0.01997824,-0.03326572,4.520909,-0.08434176,0.07596695,0.002464844,0.05664079,-0.7692031,0.6364845
634795918137490000,0.08993158,0.07820137,-0.9931574,-18.72,-4.14,-38.58,103,5,5,-0.06532347,0.005109208,-0.05881202,4.518612,-0.0861752,0.07721197,0.002427796,0.05773776,-0.7698459,0.6356083
634795918137690000,0.08993158,0.08602151,-0.9970675,-18.72,-4.14,-38.58,102,4,5,0.04002407,-0.07898407,-0.04819648,4.516466,-0.08711958,0.07750284,0.002302432,0.05819088,-0.770492,0.6347839
634795918137890000,0.08602151,0.09384164,-1.000978,-18.72,-4.14,-38.58,101,3,5,0.1453211,-0.08958896,-0.03542854,4.515036,-0.0854063,0.07680047,0.003179624,0.05665187,-0.7713565,0.6338688
634795918138100000,0.09384164,0.08993158,-1.012708,-18.72,-4.14,-38.58,102,4,5,0.08140509,-0.0565387,0.006111995,4.512921,-0.08246111,0.07718098,0.003756365,0.05628783,-0.7717582,0.6334089
634795918138290000,0.1055719,0.08211143,-1.016618,-18.72,-4.14,-38.58,102,4,5,0.02710597,0.03822257,0.005058199,4.511634,-0.08259582,0.07933116,0.004582246,0.05701515,-0.7721012,0.6329203
634795918138490000,0.1016618,0.07820137,-1.004888,-18.72,-4.14,-38.58,103,5,5,0.002605167,0.07545917,0.01247766,4.51071,-0.08297586,0.08204817,0.005540528,0.05801555,-0.7723047,0.6325733
634795918138690000,0.09384164,0.07820137,-0.9853373,-18.9,-4.56,-38.46,103,5,5,0.01746814,0.001989211,0.04011399,4.510407,-0.0827744,0.08393919,0.006345334,0.05853247,-0.7723512,0.6324614
634795918138890000,0.08602151,0.0742913,-0.9853373,-18.9,-4.56,-38.46,102,4,5,0.07169871,-0.07569934,0.04117194,4.510452,-0.08187318,0.08428133,0.00676154,0.05829233,-0.7723536,0.6324763
634795918139090000,0.08993158,0.0742913,-0.9970675,-18.9,-4.56,-38.46,102,4,5,-0.03265527,-0.0436769,0.002909315,4.509837,-0.08053255,0.08428431,0.007204377,0.05777332,-0.7725866,0.6322344
634795918139290000,0.09775171,0.08602151,-1.004888,-18.9,-4.56,-38.46,102,4,5,-0.01241999,-0.0287702,0.06038471,4.509044,-0.08073878,0.08447635,0.007236599,0.0579105,-0.7728255,0.6319294
634795918139490000,0.09775171,0.08211143,-1.004888,-19.08,-5.16,-38.82,103,5,5,0.03122368,-0.01704382,0.05291268,4.509005,-0.08023787,0.08511007,0.007641542,0.05791617,-0.7728341,0.6319135
634795918139690000,0.08602151,0.07038123,-0.9970675,-19.08,-5.16,-38.82,103,5,5,0.06101516,-0.07869077,0.04332699,4.508689,-0.07995701,0.08560395,0.007930762,0.05796184,-0.7729276,0.6317915
634795918139890000,0.0742913,0.06647116,-0.9892473,-19.08,-5.16,-38.82,103,5,5,0.1078001,-0.1116727,0.0401473,4.507898,-0.07901287,0.08554231,0.008227908,0.0575743,-0.7732065,0.6314818
634795918140090000,0.0742913,0.06256109,-0.9970675,-19.08,-5.16,-38.82,103,5,5,0.07157665,-0.08079175,0.001844345,4.507282,-0.07689619,0.08424938,0.008412359,0.0563468,-0.7734985,0.6312324
634795918140310000,0.07820137,0.05865103,-1.004888,-19.08,-5.16,-38.82,103,5,5,0.0183441,-0.02330072,-0.02689048,4.50609,-0.07520794,0.08266305,0.008362946,0.05519014,-0.7739662,0.6307619
634795918140490000,0.0742913,0.0742913,-0.9931574,-19.08,-5.16,-38.82,102,4,5,0.05451882,-0.06372371,-0.01731043,4.503809,-0.07344365,0.0805794,0.008172384,0.05384335,-0.7747902,0.6298684
634795918140690000,0.0742913,0.0742913,-0.9736071,-19.08,-5.16,-38.82,102,4,5,-0.1806536,0.2693565,0.003983545,4.502301,-0.07395457,0.08459722,0.009613431,0.05529467,-0.7751405,0.6292911
634795918140890000,0.08602151,0.06647116,-0.9736071,-18.96,-4.32,-38.4,100,2,5,-0.4296823,-0.003109378,-0.07372118,4.501231,-0.08066129,0.08542752,0.007856811,0.05814965,-0.7752628,0.6289074
634795918141090000,0.1055719,0.08211143,-0.9931574,-18.96,-4.32,-38.4,101,3,5,-0.2285437,-0.05731686,-0.0970988,4.49961,-0.0854926,0.08381879,0.005760496,0.05951392,-0.7756775,0.6282908
634795918141290000,0.1055719,0.09775171,-1.008798,-18.96,-4.32,-38.4,100,2,5,-0.105053,-0.1413536,0.04873145,4.500566,-0.08663201,0.08229196,0.004780252,0.05948064,-0.7753885,0.6286588
634795918141490000,0.1055719,0.08993158,-1.020528,-18.96,-4.32,-38.4,100,2,5,-0.04862599,-0.1605097,0.007228154,4.501688,-0.08716488,0.08075439,0.003758616,0.05973957,-0.7752609,0.6287985
634795918141690000,0.1055719,0.08602151,-1.028348,-18.96,-4.32,-38.4,100,2,5,0.1173638,-0.04014995,0.009372036,4.499953,-0.08816933,0.08255195,0.004416569,0.06015662,-0.7755276,0.6284255
634795918141890000,0.09384164,0.0742913,-1.012708,-18.48,-3.72,-38.88,101,3,5,0.1652194,-0.09866073,-0.08210918,4.499786,-0.08626151,0.08359241,0.005425652,0.05974187,-0.7756063,0.62836
634795918142090000,0.08211143,0.07038123,-0.9775171,-18.48,-3.72,-38.88,101,3,5,0.2141738,-0.003894357,-0.1277945,4.498204,-0.08295631,0.08376228,0.006576372,0.05850795,-0.7761957,0.627737
634795918142290000,0.09775171,0.07038123,-0.9423265,-18.48,-3.72,-38.88,101,3,5,-0.05401906,-0.1645953,0.06166689,4.4975,-0.08037066,0.08435642,0.00763947,0.05768746,-0.7764744,0.6274563
634795918142490000,0.08993158,0.07038123,-0.9579667,-18.48,-3.72,-38.88,100,2,5,-0.1221122,-0.285917,0.05528846,4.499816,-0.08052707,0.08145595,0.006395477,0.05684936,-0.775826,0.6283481
634795918142690000,0.07820137,0.06256109,-1.000978,-18.48,-3.72,-38.88,100,2,5,-0.02845903,-0.1401182,0.03934679,4.502229,-0.08272266,0.07739567,0.004058381,0.05625746,-0.7746184,0.6299114
634795918142890000,0.08993158,0.05865103,-1.004888,-18.48,-3.72,-38.88,100,2,5,-0.03165777,-0.01981197,-0.01171111,4.50472,-0.0827198,0.07721663,0.003919445,0.05638323,-0.7743406,0.6302397
634795918143110000,0.09775171,0.05474096,-0.9657869,-18.48,-3.48,-38.88,99,1,5,-0.04336137,0.008913384,0.02555911,4.506495,-0.08227134,0.07817352,0.004382112,0.05651384,-0.7737669,0.6309293
634795918143290000,0.1016618,0.04692082,-0.9462366,-18.48,-3.48,-38.88,98,0,5,0.05985208,-0.06341317,0.09580032,4.508941,-0.08058262,0.07832563,0.004905436,0.05591438,-0.7730381,0.6318715
634795918143490000,0.08993158,0.03128055,-0.9423265,-18.48,-3.48,-38.88,97,359,5,0.03110587,-0.1985651,0.1223907,4.51296,-0.07835841,0.07716179,0.005047173,0.05469858,-0.7718602,0.633415
634795918143690000,0.06647116,0.01173021,-0.9775171,-18.48,-3.48,-38.88,95,357,5,-0.03272987,-0.1421611,0.08931834,4.518039,-0.07707572,0.07587409,0.004818575,0.05380962,-0.7703187,0.6353664
634795918143890000,0.07038123,-0.007820137,-1.012708,-18.48,-3.48,-38.88,95,357,5,-0.03272987,-0.1421611,0.08931834,4.523308,-0.07765865,0.07316208,0.003446266,0.05318481,-0.7686991,0.6373863
634795918144090000,0.07820137,-0.01564027,-1.020528,-18.72,-2.82,-38.4,92,354,5,-0.06036227,0.089874,0.10305,4.533278,-0.07194614,0.07188332,0.00452188,0.05060593,-0.7656935,0.6411958
634795918144290000,0.05474096,-0.03519062,-1.000978,-18.72,-2.82,-38.4,90,352,5,0.07158218,0.1175409,0.1594091,4.540661,-0.06779647,0.07331418,0.00621858,0.04949781,-0.7633892,0.6440095
634795918144490000,0.03519062,-0.05474096,-0.969697,-18.72,-2.82,-38.4,90,352,5,0.09494723,0.08133689,0.1433824,4.549488,-0.06091499,0.07490814,0.008834853,0.04742227,-0.7606671,0.6473473
634795918144690000,0.02737048,-0.07038123,-0.9618768,-18.72,-2.82,-38.4,90,352,5,-0.04660056,-0.09956266,0.02413965,4.558969,-0.05394983,0.07313978,0.01020572,0.04425073,-0.7577909,0.6509153
634795918144900000,0.03519062,-0.06647116,-0.9970675,-18.72,-2.82,-38.4,85,347,5,-0.1572423,-0.1463886,-0.06631225,4.571232,-0.04724455,0.06512462,0.009105864,0.03916297,-0.7540963,0.6555319
634795918145090000,0.06256109,-0.04301075,-1.028348,-18.72,-2.82,-38.4,84,346,5,-0.1508128,-0.07184312,-0.04606633,4.578698,-0.04346466,0.06140804,0.008805228,0.0365546,-0.7517878,0.6583322
634795918145290000,0.06647116,-0.03519062,-1.016618,-18.84,-2.82,-38.1,84,346,5,-0.145448,-0.01014273,0.03796011,4.586806,-0.04006528,0.05997049,0.00924199,0.03484198,-0.7491996,0.6613627
634795918145490000,0.05083089,-0.05083089,-0.9814272,-18.84,-2.82,-38.1,84,346,5,-0.1113602,0.06538086,0.1166405,4.595767,-0.0365417,0.06055652,0.01047573,0.03376283,-0.7462788,0.6646941
634795918145690000,0.03519062,-0.0742913,-0.9462366,-18.84,-2.82,-38.1,87,349,5,-0.09857007,-0.0005660923,0.0793459,4.600781,-0.0345304,0.0606538,0.01109766,0.03307251,-0.7446421,0.6665517
634795918145900000,0.02346041,-0.08211143,-0.9423265,-18.84,-2.82,-38.1,86,348,5,-0.1464425,-0.05691522,0.0154709,4.607251,-0.03201032,0.05970013,0.01147915,0.03185396,-0.7425388,0.6689467
634795918146090000,0.01955034,-0.07820137,-0.9618768,-18.84,-2.82,-38.1,83,345,5,-0.3060647,0.0005384662,-0.0504852,4.618961,-0.03450298,0.05605495,0.009105899,0.03161544,-0.7386294,0.6733084
634795918146290000,0.01955034,-0.07820137,-0.9814272,-18.84,-2.82,-38.1,83,345,5,-0.2443397,0.09526207,-0.05790977,4.62619,-0.03478861,0.05514229,0.008558806,0.03144505,-0.7362011,0.6759777
634795918146490000,0.02737048,-0.08211143,-0.9618768,-19.2,-1.92,-37.32,80,342,5,-0.1645005,0.1664915,-0.08128867,4.630798,-0.03275061,0.05527758,0.009226555,0.03076193,-0.7346712,0.6776628
634795918146690000,0.03519062,-0.08602151,-0.914956,-19.2,-1.92,-37.32,80,342,5,-0.1293508,0.1621851,-0.123787,4.637191,-0.02920818,0.0560553,0.0106177,0.02975802,-0.7325426,0.6799875
634795918146890000,0.03519062,-0.08993158,-0.8875855,-19.2,-1.92,-37.32,80,342,5,-0.1665609,0.07280553,-0.1279904,4.642864,-0.02550244,0.05653846,0.01197363,0.02859889,-0.7306579,0.6820394
634795918147090000,0.03128055,-0.09384164,-0.8875855,-19.2,-1.92,-37.32,80,342,5,-0.1857169,0.005792338,-0.1503004,4.64813,-0.02894163,0.05732965,0.01101069,0.03015389,-0.728797,0.683977
634795918147290000,0.02737048,-0.09775171,-0.9032258,-19.2,-1.92,-37.32,79,341,5,-0.1335297,0.007949303,-0.1587802,4.651619,-0.03118682,0.05746782,0.01023911,0.03103714,-0.7275662,0.6852585
634795918147490000,0.03128055,-0.09775171,-0.9188661,-19.32,-1.26,-37.02,77,339,5,-0.1281748,0.01226218,-0.1725692,4.661641,-0.03655195,0.05805635,0.008448737,0.03323293,-0.7240274,0.6889184
634795918147690000,0.03128055,-0.1016618,-0.9423265,-19.32,-1.26,-37.02,77,339,5,-0.1398521,0.04842945,-0.1927895,4.666778,-0.03925538,0.05904209,0.007785936,0.03457083,-0.7221932,0.690783
634795918147890000,0.03519062,-0.1094819,-0.9736071,-19.32,-1.26,-37.02,77,339,5,-0.1557351,0.007994426,-0.1586812,4.671824,-0.04177761,0.06010079,0.007206975,0.03586508,-0.7203847,0.6926094
634795918148090000,0.04301075,-0.113392,-1.012708,-19.32,-1.26,-37.02,77,339,5,-0.1557351,0.007994426,-0.1586812,4.675366,-0.04372287,0.06040346,0.006577476,0.03668215,-0.719116,0.69389
634795918148310000,0.05474096,-0.1094819,-1.067449,-19.32,-1.26,-37.02,76,338,5,0.09546477,0.0165094,-0.1522138,4.687102,-0.03218913,0.05875242,0.009796851,0.03202033,-0.7152588,0.698057
634795918148490000,0.05865103,-0.09384164,-1.079179,-19.2,-0.96,-36.72,75,337,5,0.1103419,0.0984474,-0.110681,4.692218,-0.02771592,0.06014979,0.01177927,0.03093796,-0.7135192,0.6998532
634795918148690000,0.06256109,-0.0742913,-1.075269,-19.2,-0.96,-36.72,75,337,5,0.078393,0.03243022,-0.05741405,4.695724,-0.02669835,0.06164908,0.01261609,0.0311213,-0.7122836,0.701088
634795918148890000,0.05865103,-0.06647116,-1.075269,-19.2,-0.96,-36.72,76,338,5,0.1039004,-0.07183321,-0.02543313,4.701708,-0.02507973,0.06216467,0.01327519,0.03076534,-0.7101997,0.7032025
634795918149090000,0.05865103,-0.05474096,-1.12219,-19.2,-0.96,-36.72,79,341,5,0.05066941,-0.2857425,-0.0286042,4.707012,-0.02345323,0.05966556,0.01288129,0.02934392,-0.7083946,0.7050887
634795918149290000,0.06256109,-0.03519062,-1.219941,-19.2,-0.96,-36.72,80,342,5,0.06024424,-0.3793943,0.01291197,4.711542,-0.02289748,0.05404758,0.01102434,0.0271928,-0.7068829,0.7067217
634795918149500000,0.06256109,-0.01173021,-1.302053,-19.2,-0.96,-36.72,81,343,5,0.1325708,-0.2059256,0.04167393,4.718983,-0.0194993,0.0470022,0.009645873,0.0235394,-0.704381,0.7093661
634795918149690000,0.08211143,0.007820137,-1.294233,-19.2,-0.96,-36.72,81,343,5,0.08889052,0.1888938,0.1172424,4.723548,-0.01767707,0.05035221,0.01141751,0.02411143,-0.7027419,0.7109445
634795918149890000,0.1212121,0.01564027,-1.208211,-18.9,-0.3,-36.72,83,345,5,0.2804351,0.2867803,0.2566421,4.730701,-0.01248813,0.05577016,0.01507979,0.02426731,-0.7001926,0.7133821
634795918150090000,0.1524927,0.03910068,-1.12219,-18.9,-0.3,-36.72,85,347,5,0.3347106,0.365533,0.3109176,4.737848,-0.006631136,0.06261741,0.01947838,0.02472808,-0.6976283,0.715768
634795918150290000,0.1524927,0.05083089,-1.083089,-18.9,-0.3,-36.72,86,348,5,-0.1229411,0.1207122,0.3407159,4.742912,-0.004876375,0.06676888,0.02148977,0.02565594,-0.6957849,0.7174702
634795918150490000,0.1407625,0.05474096,-1.11437,-18.9,-0.3,-36.72,86,348,5,-0.1835709,0.01855623,0.2459998,4.749998,-0.005676031,0.07261001,0.02313581,0.02811125,-0.6931519,0.7198715
634795918150690000,0.1094819,0.07820137,-1.16911,-18.9,-0.3,-36.72,88,350,5,-0.2282684,0.09730931,0.1885317,4.757265,-0.01165128,0.07788205,0.02269593,0.03216155,-0.6903646,0.7223899
634795918150890000,0.08993158,0.1173021,-1.200391,-18.78,0.24,-36.72,87,349,5,-0.2740301,0.2185742,0.1150418,4.758363,-0.01459432,0.0805813,0.0225464,0.03416422,-0.689876,0.7227694
634795918151090000,0.08993158,0.1329423,-1.180841,-18.78,0.24,-36.72,90,352,5,-0.188892,0.2217668,0.1118044,4.758149,-0.02181077,0.0886215,0.02271783,0.03955396,-0.6896763,0.7226797
634795918151290000,0.09775171,0.1407625,-1.110459,-18.78,0.24,-36.72,90,352,5,0.01225258,-0.02619518,0.0872979,4.758149,-0.02181077,0.0886215,0.02271783,0.03955396,-0.6896763,0.7226797
634795918151490000,0.09384164,0.1368524,-1.047898,-18.78,0.24,-36.72,94,356,5,0.05799586,-0.2826619,0.02345333,4.756464,-0.02100825,0.08644998,0.0222906,0.03847452,-0.6903417,0.7221158
634795918151690000,0.09384164,0.1368524,-1.032258,-18.78,0.24,-36.72,94,356,5,-0.03778079,-0.4976355,-0.1617211,4.754198,-0.02052665,0.08225369,0.02105638,0.03677049,-0.6912456,0.7213765
634795918151890000,0.1055719,0.1524927,-1.043988,-18.78,0.24,-36.72,95,357,5,-0.2452922,-0.3784423,-0.2755932,4.738925,-0.02977109,0.06753373,0.0128929,0.03456297,-0.6968281,0.7162889
634795918152090000,0.1094819,0.1759531,-1.024438,-18.78,0.24,-36.72,95,357,5,-0.2389069,-0.1602761,-0.17555,4.732315,-0.03586483,0.06558311,0.01014895,0.03595477,-0.6991181,0.7140295
634795918152290000,0.09384164,0.1681329,-0.9501466,-18.48,0.84,-36.6,94,356,5,-0.1207553,-0.003821449,-0.07017475,4.727763,-0.04013872,0.06723892,0.00928909,0.03801802,-0.700632,0.7124488
634795918152490000,0.08211143,0.1329423,-0.856305,-18.48,0.84,-36.6,97,359,5,-0.05050499,-0.01441985,-0.01479992,4.724831,-0.04471755,0.06917392,0.008395905,0.04029795,-0.7015481,0.7114323
634795918152690000,0.08211143,0.09775171,-0.7937439,-18.48,0.84,-36.6,94,356,5,-0.1536755,0.02385873,-0.1733094,4.718997,-0.05246687,0.07175827,0.006675345,0.0439143,-0.7034031,0.7094019
634795918152900000,0.1094819,0.1094819,-0.742913,-18.48,0.84,-36.6,94,356,5,-0.04615273,-0.03567722,-0.07962369,4.712829,-0.05526996,0.07296777,0.006247043,0.04530924,-0.7054983,0.7072343
634795918153090000,0.1251222,0.1212121,-0.7311828,-18.96,2.4,-36.24,87,349,5,0.09752087,-0.03672666,0.07684178,4.70836,-0.05613207,0.07380021,0.006339016,0.04589301,-0.7070382,0.7056563
634795918153290000,0.1251222,0.113392,-0.7272727,-18.96,2.4,-36.24,88,350,5,0.09752087,-0.03672666,0.07684178,4.709574,-0.05461907,0.0748415,0.007213978,0.04572912,-0.7066205,0.7060767
634795918153490000,0.1055719,0.07038123,-0.6999022,-18.96,2.4,-36.24,88,350,5,0.2464779,-0.004764462,0.1417503,4.711834,-0.05159593,0.07870685,0.009597656,0.04603374,-0.7058027,0.706846
634795918153690000,0.113392,0.05083089,-0.684262,-18.96,2.4,-36.24,88,350,5,0.3677996,-0.2357013,0.1161858,4.713732,-0.04675006,0.0805577,0.011922,0.04498772,-0.7051995,0.7074798
634795918153890000,0.1173021,0.05083089,-0.7272727,-18.96,2.4,-36.24,85,347,5,0.336937,-0.2474078,0.08317999,4.717224,-0.04001594,0.07812702,0.01337252,0.04177804,-0.7041622,0.7086829
634795918154100000,0.1094819,0.05083089,-0.801564,-18.96,2.4,-36.24,83,345,5,0.2986249,-0.1377926,0.08107251,4.723381,-0.02995205,0.07526398,0.01581424,0.0372698,-0.7022328,0.7107953
634795918154290000,0.1016618,0.04692082,-0.8406647,-20.34,3.24,-35.82,82,344,5,0.3113956,0.01975922,0.1002457,4.727631,-0.02407289,0.0768913,0.01839951,0.03582234,-0.7007986,0.7122216
634795918154490000,0.08993158,0.03128055,-0.856305,-20.34,3.24,-35.82,82,344,5,0.3411939,-0.09304044,0.07046123,4.732397,-0.01798058,0.07739782,0.02066586,0.033917,-0.6991969,0.7138251
634795918154690000,0.09775171,0.01955034,-0.914956,-20.34,3.24,-35.82,82,344,5,0.3752491,-0.2409677,-0.0125245,4.736146,-0.01134706,0.07462585,0.02200618,0.03065021,-0.6980088,0.7150943
634795918154890000,0.1212121,0.01955034,-1.008798,-20.34,3.24,-35.82,79,341,5,0.2762762,-0.2654449,-0.08485318,4.738691,-0.005757332,0.07024395,0.02244028,0.02716147,-0.6972411,0.7159704
634795918155090000,0.1290323,0.01955034,-1.086999,-20.34,3.24,-35.82,78,340,5,0.06342479,-0.1643435,-0.08586048,4.740421,-0.003437042,0.0680313,0.0224772,0.02558005,-0.6966805,0.7165729
634795918155290000,0.1173021,0.01173021,-1.16129,-21.84,2.7,-35.34,79,341,5,-0.1653728,-0.2196708,-0.2018105,4.743117,-0.007768631,0.0669626,0.02051685,0.0267337,-0.6956708,0.7175698
634795918155490000,0.1055719,0.03519062,-1.251222,-21.84,2.7,-35.34,79,341,5,0.1836929,-0.187744,-0.08896205,4.743743,-0.009284019,0.06396663,0.01892259,0.02619205,-0.6954652,0.7178329
634795918155690000,0.08211143,0.08602151,-1.305963,-21.84,2.7,-35.34,78,340,5,0.3050145,-0.1909367,-0.01551615,4.746254,-0.004791498,0.06148541,0.01964209,0.02376411,-0.6946495,0.7186875
634795918155890000,0.04692082,0.1290323,-1.337243,-21.84,2.7,-35.34,78,340,5,-0.0493767,-0.1739091,-0.0442183,4.748232,-0.001962662,0.05940282,0.0199133,0.02205299,-0.6939936,0.7193677
634795918156090000,0.03910068,0.1681329,-1.372434,-21.84,2.7,-35.34,82,344,5,-0.2696587,-0.09617767,-0.1101488,4.749456,-0.002750635,0.05603862,0.01844951,0.02112774,-0.6935801,0.7198333
634795918156300000,0.05474096,0.1876833,-1.403715,-21.84,2.7,-35.34,82,344,5,-0.3345764,-0.1940544,-0.1207146,4.748497,-0.00775361,0.05355417,0.0157976,0.02196099,-0.6938972,0.7195657
634795918156490000,0.05083089,0.1994135,-1.415445,-21.84,2.7,-35.34,86,348,5,-0.1919702,-0.1312651,-0.08232661,4.744804,-0.01716352,0.04703295,0.01019085,0.02286114,-0.6951911,0.7183891
634795918156690000,0.03128055,0.1955034,-1.368524,-23.34,1.26,-34.68,93,355,5,0.0528151,0.02841233,-0.1322751,4.742418,-0.01688719,0.04699421,0.01030376,0.02273892,-0.6960513,0.717558
634795918156890000,0.03519062,0.1915933,-1.270772,-23.34,1.26,-34.68,95,357,5,-0.009968122,0.09436183,-0.3142314,4.736485,-0.01623869,0.04826665,0.01104753,0.0229369,-0.7012628,0.7124216
634795918157090000,0.05865103,0.2072336,-1.184751,-23.34,1.26,-34.68,95,357,5,-0.175946,0.05712267,-0.4451311,4.727716,-0.01877928,0.04891086,0.01046905,0.02400839,-0.7012628,0.7124216
634795918157290000,0.08211143,0.230694,-1.11828,-23.34,1.26,-34.68,95,357,5,-0.2004231,0.07098208,-0.4472595,4.71804,-0.02312994,0.04945099,0.009233059,0.0256818,-0.7046407,0.7090393
634795918157500000,0.09775171,0.226784,-0.9970675,-23.34,1.26,-34.68,95,357,5,-0.0748105,0.1305256,-0.3355159,4.709176,-0.02578068,0.05136656,0.009089564,0.02725431,-0.7077159,0.7059127
634795918157690000,0.1055719,0.1915933,-0.9071358,-23.1,-0.9,-35.04,101,3,5,-0.01841019,0.2230722,-0.1077172,4.696037,-0.02983499,0.0606904,0.01116984,0.03190438,-0.7121394,0.7012238
634795918157890000,0.1173021,0.113392,-0.7507331,-23.1,-0.9,-35.04,98,0,5,0.02094209,0.1347387,-0.04702413,4.690348,-0.03515935,0.06658483,0.01150567,0.0358319,-0.7139407,0.6991941
634795918158090000,0.1173021,0.06256109,-0.6608016,-23.1,-0.9,-35.04,98,0,5,0.001775923,0.1581061,0.007287752,4.686478,-0.03490543,0.0706526,0.0131201,0.03713623,-0.7152223,0.6977865
634795918158300000,0.1094819,0.03910068,-0.6060606,-23.1,-0.9,-35.04,92,354,5,-0.01309726,0.1357372,0.01795704,4.684887,-0.03492951,0.07372296,0.01424133,0.03820338,-0.7157181,0.6971982
634795918158490000,0.09775171,0.03519062,-0.6021506,-23.1,-0.9,-35.04,88,350,5,-0.2024771,0.1271725,-0.06182431,4.68342,-0.03558111,0.07829452,0.01568156,0.04001646,-0.7161264,0.696646
634795918158690000,0.09384164,0.03519062,-0.6373411,-22.56,-3,-35.94,90,352,5,-0.239725,0.06866739,-0.080938,4.680081,-0.04365754,0.08523308,0.01543173,0.04529483,-0.7169663,0.6954635
634795918158890000,0.1055719,0.03910068,-0.6647117,-22.56,-3,-35.94,90,352,5,0.03491153,-0.0462171,-0.006421064,4.679233,-0.04219866,0.08567595,0.01611717,0.0449187,-0.7172841,0.6951447
634795918159090000,0.1055719,0.03519062,-0.6803519,-22.56,-3,-35.94,90,352,5,0.4808219,-0.1110437,0.1191249,4.679934,-0.0367949,0.0851773,0.01780119,0.04281371,-0.7171702,0.6953539
634795918159290000,0.08993158,0.02737048,-0.6999022,-22.56,-3,-35.94,90,352,5,0.3861059,0.0007356608,0.10631,4.681123,-0.02749014,0.08612192,0.02135155,0.03981739,-0.7169286,0.695681
634795918159490000,0.06256109,0.02737048,-0.7546432,-22.56,-3,-35.94,90,352,5,0.0955729,0.01669946,0.1264816,4.6822,-0.02371573,0.08812654,0.02336267,0.03917341,-0.7165885,0.6960033
634795918159710000,0.03519062,0.02346041,-0.856305,-22.56,-3,-35.94,90,352,5,0.06257042,-0.08757512,0.1402676,4.684129,-0.02241325,0.08799171,0.02373029,0.03868274,-0.7159449,0.6966802
634795918159890000,0.03910068,0.03128055,-0.9931574,-21.24,-3.9,-36.84,93,355,5,0.4020275,-0.1152135,0.159358,4.68532,-0.01554585,0.08310819,0.02435203,0.03453889,-0.7157468,0.6970801
634795918160090000,0.05865103,0.05865103,-1.094819,-21.24,-3.9,-36.84,94,356,5,0.6063587,0.06469591,0.3392121,4.687391,-0.00704813,0.08064055,0.02639836,0.03066512,-0.7152041,0.6977435
634795918160290000,0.05865103,0.07038123,-1.13001,-21.24,-3.9,-36.84,96,358,5,0.5488906,0.1274726,0.4435061,4.692279,0.003712416,0.08063208,0.03008328,0.02688739,-0.7136515,0.6993379
634795918160490000,0.03128055,0.03910068,-1.16129,-21.24,-3.9,-36.84,96,358,5,0.2913481,0.05296252,0.4307354,4.696126,0.01043296,0.08183109,0.03281287,0.02497163,-0.7123768,0.7005848
634795918160690000,-0.007820137,0.007820137,-1.223851,-21.24,-3.9,-36.84,99,1,5,0.1646838,-0.07361706,0.254074,4.70144,0.01688337,0.08234382,0.03519389,0.02294727,-0.7105838,0.7023571
634795918160900000,-0.007820137,0.003910068,-1.302053,-21.24,-3.9,-36.84,98,0,5,0.1465296,0.07855915,0.1391232,4.703982,0.020226,0.08006537,0.03553208,0.0210041,-0.7097526,0.7032408
634795918161090000,0.03910068,0.01955034,-1.333333,-20.34,-4.08,-38.4,98,0,5,0.2476096,0.2839025,0.1348181,4.706113,0.02814603,0.08348858,0.03950949,0.01944018,-0.7090482,0.7037839
634795918161290000,0.09775171,0.05474096,-1.282502,-20.34,-4.08,-38.4,99,1,5,0.3348761,0.5829497,0.096471,4.706408,0.03236771,0.08932245,0.04305744,0.02000514,-0.7089275,0.7036815
634795918161490000,0.1290323,0.1212121,-1.1652,-20.34,-4.08,-38.4,99,1,5,0.1613875,0.4690776,0.1273078,4.70666,0.03696394,0.09869719,0.04798896,0.0216852,-0.7087878,0.7034534
634795918161690000,0.1524927,0.2033236,-1.14174,-20.34,-4.08,-38.4,100,2,5,-0.06209206,-0.2609831,0.1623892,4.706978,0.03755069,0.098624,0.04816606,0.02145911,-0.708683,0.7035539
634795918161890000,0.1524927,0.2424242,-1.251222,-20.34,-4.08,-38.4,104,6,5,0.2402048,-0.9165458,0.5508314,4.707988,0.03532267,0.08104551,0.04115462,0.01607355,-0.7084736,0.704353
634795918162090000,0.113392,0.2385142,-1.325513,-20.28,-4.02,-39.36,109,11,5,0.3125722,-0.3961397,0.5912719,4.710122,0.03756713,0.06355488,0.03574722,0.009147243,-0.7078471,0.7054013
634795918162290000,0.08602151,0.2033236,-1.231672,-20.28,-4.02,-39.36,109,11,5,0.03904998,-0.01617552,0.4263171,4.716421,0.04656506,0.05513489,0.03593469,0.003102373,-0.7056752,0.7076167
634795918162490000,0.08211143,0.1681329,-1.047898,-20.28,-4.02,-39.36,113,15,5,-0.2599757,-0.2502904,0.236885,4.716873,0.04587149,0.05566585,0.03587565,0.003543242,-0.705513,0.7077795
634795918162690000,0.0742913,0.1603128,-0.9814272,-20.28,-4.02,-39.36,113,15,5,-0.2812602,-0.5291173,0.1219291,4.714166,0.04110813,0.05085909,0.03250081,0.003476318,-0.7064703,0.7069875
634795918162890000,0.07038123,0.1564027,-0.9657869,-20.28,-4.02,-39.36,108,10,5,-0.2110213,-0.6440537,0.02188211,4.709472,0.03656125,0.04184282,0.02771563,0.00182686,-0.7081343,0.7055313
634795918163090000,0.06647116,0.1485826,-0.9423265,-20.28,-4.02,-39.36,108,10,5,-0.2599757,-0.5163467,-0.03559488,4.703045,0.02585268,0.03394568,0.02115193,0.002762473,-0.7103954,0.7034795
634795918163290000,0.06647116,0.1446725,-0.8875855,-20.28,-4.02,-39.36,107,9,5,-0.3706551,-0.3386211,-0.04942811,4.692029,0.005541086,0.02749634,0.01175836,0.007642888,-0.7142246,0.6997761
634795918163490000,0.06256109,0.1329423,-0.8250244,-21.18,-3.36,-39.54,104,6,5,-0.3866185,-0.2055929,-0.008980526,4.68703,-0.005121946,0.02632904,0.007638127,0.01102317,-0.7159275,0.6980458
634795918163690000,0.06647116,0.09775171,-0.7702835,-21.18,-3.36,-39.54,101,3,5,-0.3568202,-0.1640881,0.05912669,4.683363,-0.01126814,0.02521038,0.00511594,0.01282347,-0.7171763,0.696755
634795918163890000,0.08211143,0.05865103,-0.7233627,-21.18,-3.36,-39.54,101,3,5,-0.1332901,0.02966524,0.04209047,4.680285,-0.01519442,0.02554429,0.003889885,0.01434172,-0.7182192,0.6956583
634795918164090000,0.09775171,0.04692082,-0.6764418,-21.18,-3.36,-39.54,98,0,5,-0.1098504,-0.04058288,0.03463408,4.677503,-0.01774049,0.02739263,0.003690293,0.01589371,-0.7191525,0.6946607
634795918164290000,0.09775171,0.05474096,-0.6647117,-22.08,-2.76,-39.48,92,354,5,0.04235536,-0.2119054,0.114429,4.675458,-0.01969481,0.02705538,0.002993983,0.01638657,-0.719873,0.6939059
634795918164490000,0.0742913,0.04301075,-0.7233627,-22.08,-2.76,-39.48,91,353,5,0.1711279,-0.1842355,0.1335539,4.676127,-0.01723957,0.02545655,0.003178288,0.01503906,-0.7196492,0.6941677
634795918164690000,0.05474096,0.01955034,-0.801564,-22.08,-2.76,-39.48,91,353,5,0.294578,-0.02030662,0.05797392,4.676318,-0.01276278,0.02583969,0.00486875,0.01356156,-0.7196123,0.6942266
634795918164890000,0.04692082,0.01564027,-0.8289345,-22.08,-2.76,-39.48,91,353,5,0.3222479,0.2914964,0.01858258,4.675916,-0.006855249,0.03064227,0.008650165,0.01310101,-0.7197585,0.694047
634795918165090000,0.05474096,0.01564027,-0.8328446,-22.08,-2.76,-39.48,90,352,5,0.2105042,0.3000101,0.01326157,4.675955,-0.002364635,0.0369029,0.0124614,0.0136575,-0.7197321,0.6940057
634795918165290000,0.04692082,0.01173021,-0.8914956,-22.08,-2.76,-39.48,90,352,5,0.1775132,0.04458398,0.01647446,4.676169,0.0007212162,0.03938913,0.01442546,0.0134113,-0.7196613,0.6940459
634795918165490000,0.04301075,0.01564027,-1.016618,-22.62,-1.68,-39.06,88,350,5,0.1498389,0.03611892,-0.09204319,4.675971,0.003063679,0.03894269,0.01507889,0.01241196,-0.7197479,0.6939607
634795918165690000,0.04301075,0.03128055,-1.14565,-22.62,-1.68,-39.06,88,350,5,0.2083585,0.1797244,-0.1579994,4.673792,0.008557081,0.04035628,0.01750546,0.01090652,-0.7205268,0.6931203
634795918165890000,0.04692082,0.05474096,-1.208211,-22.62,-1.68,-39.06,89,351,5,0.3158453,0.3638354,-0.1398672,4.671674,0.01247263,0.04474604,0.02045517,0.01099572,-0.7212564,0.6922788
634795918166090000,0.07038123,0.07038123,-1.223851,-22.62,-1.68,-39.06,91,353,5,0.295625,0.3712849,-0.07385793,4.670019,0.01783204,0.05139863,0.02471776,0.01134597,-0.7218187,0.6915476
634795918166290000,0.09775171,0.06647116,-1.243402,-22.62,-1.68,-39.06,93,355,5,0.3818272,0.2233576,0.1347051,4.670306,0.02370143,0.05714845,0.02881944,0.01122092,-0.7217168,0.6914973
634795918166490000,0.0742913,0.04301075,-1.274682,-22.62,-1.68,-39.06,93,355,5,0.4861213,-0.1576562,0.2326138,4.6722,0.02859569,0.0593785,0.03130597,0.01025594,-0.7210745,0.6920739
634795918166690000,0.003910068,0.04301075,-1.313783,-22.86,-1.32,-38.82,93,355,5,0.4861213,-0.1576562,0.2326138,4.677299,0.04549408,0.05046677,0.0339399,0.00116282,-0.7193868,0.6937791
634795918166890000,-0.02737048,0.0742913,-1.341154,-22.86,-1.32,-38.82,91,353,5,0.1860098,-0.2523722,-0.3537939,4.671411,0.04832935,0.04575789,0.03322703,-0.001590276,-0.721429,0.691689
634795918167090000,0.03519062,0.1329423,-1.341154,-22.86,-1.32,-38.82,91,353,5,-0.4163223,0.06372683,-0.6358135,4.661033,0.04156017,0.04603136,0.03098873,0.0007854458,-0.7250099,0.6880406
634795918167290000,0.09384164,0.1798632,-1.286412,-22.86,-1.32,-38.82,91,353,5,-0.5355155,0.2978483,-0.562382,4.651033,0.03171039,0.05072677,0.02933021,0.005826268,-0.7284127,0.6844858
634795918167490000,0.09384164,0.1876833,-1.196481,-22.86,-1.32,-38.82,95,357,5,0.1338766,-0.05443802,0.0112455,4.647243,0.02850819,0.05297327,0.0290665,0.007706921,-0.7296883,0.6831184
634795918167690000,0.05474096,0.1564027,-1.11828,-22.86,-1.32,-38.82,95,357,5,0.2168862,-0.1608568,-0.09942466,4.644902,0.02897668,0.05382764,0.02954708,0.007793553,-0.7304848,0.6822449
634795918167890000,0.04301075,0.1446725,-1.071359,-22.62,-1.26,-39.06,102,4,5,-0.1375058,-0.08955426,-0.3825085,4.635761,0.03336811,0.05056036,0.02987554,0.004937535,-0.7336233,0.6788814
634795918168090000,0.06647116,0.1759531,-1.032258,-22.62,-1.26,-39.06,102,4,5,-0.3918556,-0.02251861,-0.4037931,4.627112,0.02722716,0.05029809,0.02772521,0.006981166,-0.7365353,0.6757947
634795918168290000,0.08211143,0.1955034,-0.9814272,-22.62,-1.26,-39.06,100,2,5,-0.3961126,-0.0118638,-0.1920123,4.621029,0.01744556,0.05080795,0.02464003,0.01068079,-0.7385415,0.6736729
634795918168490000,0.08211143,0.1564027,-0.9188661,-22.62,-1.26,-39.06,99,1,5,-0.1374903,-0.02139958,0.04851764,4.618631,0.009780168,0.05141842,0.02229961,0.01369035,-0.7392978,0.67287
634795918168690000,0.06256109,0.08602151,-0.8445748,-22.32,-0.96,-39.06,98,0,5,-0.01402346,0.002005294,0.09958246,4.617503,0.001955271,0.05330419,0.02037358,0.01720574,-0.7396002,0.6725181
634795918168890000,0.04301075,0.01955034,-0.7624633,-22.32,-0.96,-39.06,93,355,5,-0.02678395,0.03071319,0.01443657,4.616874,-0.003909826,0.05567503,0.01928443,0.02016565,-0.7397327,0.6723221
634795918169090000,0.05083089,0,-0.7233627,-22.32,-0.96,-39.06,93,355,5,-0.09487541,-0.008655477,-0.150497,4.611959,-0.008852958,0.05720782,0.01824491,0.0224643,-0.7413126,0.6705357
634795918169290000,0.0742913,0.01173021,-0.7272727,-22.32,-0.96,-39.06,87,349,5,0.04246231,0.04883247,-0.09088287,4.610784,-0.01069713,0.0572803,0.01766709,0.02316179,-0.7416844,0.6701162
634795918169490000,0.07820137,0.02346041,-0.7194526,-22.32,-0.96,-39.06,85,347,5,0.2265648,0.1062455,-0.006807381,4.611647,-0.009852171,0.05813419,0.01825694,0.02314231,-0.7413942,0.6704221
634795918169690000,0.07038123,0.01173021,-0.684262,-22.32,-0.96,-39.06,87,349,5,0.3297946,0.1359991,0.05064599,4.614031,-0.005684375,0.06054425,0.02052088,0.0224294,-0.7406125,0.6712443
634795918169890000,0.06256109,-0.007820137,-0.6568915,-22.32,-0.96,-39.06,87,349,5,0.312767,0.09338531,0.01233101,4.616708,0.0001709461,0.0637232,0.02363469,0.02135951,-0.7397392,0.6721392
634795918170090000,0.04692082,-0.01173021,-0.6608016,-22.5,-0.72,-39.18,86,348,5,0.270198,0.03908162,-0.04618382,4.620959,0.01033378,0.06706429,0.02824541,0.01878339,-0.7383741,0.6735379
634795918170290000,0.02737048,-0.007820137,-0.6959922,-22.5,-0.72,-39.18,84,346,5,0.1861242,-0.01411931,-0.01743856,4.623623,0.01369452,0.06694722,0.02931063,0.01754224,-0.7375078,0.6744742
634795918170490000,0.01173021,-0.003910068,-0.7546432,-22.5,-0.72,-39.18,84,346,5,0.1882526,-0.08430293,-0.00678631,4.62555,0.01595926,0.06599689,0.02970829,0.01641505,-0.7368861,0.6751643
634795918170690000,0.007820137,-0.01173021,-0.8406647,-22.5,-0.72,-39.18,84,346,5,0.1754819,-0.06827953,-0.02486004,4.628123,0.01917601,0.06421125,0.03011779,0.01466541,-0.7360581,0.676089
634795918170890000,0.01955034,-0.007820137,-0.9305963,-22.5,-0.72,-39.18,84,346,5,0.1797388,-0.05121043,-0.06527346,4.629711,0.02228045,0.06243479,0.03050353,0.01294617,-0.7355568,0.6766521
634795918171090000,0.03910068,0.02737048,-1.012708,-22.44,-0.24,-39.24,83,345,5,0.2255005,-0.2044077,0.1965137,4.632303,0.02552795,0.06014752,0.03074726,0.01101723,-0.7347153,0.6775889
634795918171290000,0.02737048,0.05865103,-1.110459,-22.44,-0.24,-39.24,83,345,5,0.237207,-0.2182426,0.3604043,4.642784,0.03199506,0.05300486,0.03028327,0.006378085,-0.7312216,0.6814377
634795918171490000,-0.003910068,0.02737048,-1.216031,-22.44,-0.24,-39.24,83,345,5,0.1925095,-0.0394401,0.2656883,4.651423,0.03537583,0.04853928,0.03100361,0.002411195,-0.7264981,0.6864644
634795918171690000,0.007820137,-0.03910068,-1.298143,-22.44,-0.24,-39.24,87,349,5,0.204216,0.2670386,0.1251824,4.656684,0.03911805,0.04837739,0.03100361,0.002411195,-0.7264981,0.6864644
634795918171890000,0.04692082,-0.003910068,-1.266862,-22.44,-0.24,-39.24,80,342,5,0.2457208,0.3447271,0.1762429,4.661619,0.04314446,0.05298841,0.03405239,0.002616906,-0.7247976,0.6881149
634795918172090000,0.08602151,0.06256109,-1.212121,-22.44,-0.24,-39.24,80,342,5,0.2670053,0.05630387,0.2986288,4.668998,0.04823208,0.05718505,0.03731327,0.002356426,-0.7222519,0.6906189
634795918172290000,0.1173021,0.08602151,-1.298143,-21.54,-0.12,-38.76,84,346,5,0.01902551,-0.5236807,0.2028485,4.678154,0.05115485,0.04588556,0.03425857,-0.002449657,-0.7190895,0.6940682
634795918172490000,0.1290323,0.1212121,-1.485826,-21.54,-0.12,-38.76,89,351,5,-0.3023705,-0.954692,0.08896086,4.680071,0.04615736,0.02945423,0.02662749,-0.006336499,-0.7184072,0.6950841
634795918172690000,0.1055719,0.1837732,-1.540567,-21.54,-0.12,-38.76,94,356,5,0.1435245,-0.2001563,0.3560682,4.68531,0.04679894,0.02298283,0.02455035,-0.008753248,-0.7165594,0.697039
634795918172890000,0.0742913,0.1876833,-1.364614,-21.54,-0.12,-38.76,94,356,5,0.1743871,0.3681481,0.4965459,4.693559,0.05064344,0.02762318,0.02758652,-0.008398841,-0.713681,0.699877
634795918173090000,0.05083089,0.1368524,-1.1261,-21.54,-0.12,-38.76,100,2,5,0.008354105,0.2893955,0.4092794,4.698752,0.05188632,0.03227878,0.02970012,-0.007134846,-0.7118732,0.7016434
634795918173290000,0.05474096,0.113392,-0.9970675,-21.36,0.12,-38.34,100,2,5,-0.1214382,-0.1777852,0.17088,4.702776,0.05107808,0.03451908,0.03022548,-0.005999786,-0.7104698,0.7030527
634795918173490000,0.07820137,0.1094819,-0.9618768,-21.36,0.12,-38.34,96,358,5,-0.132028,-0.3916945,0.04316672,4.702138,0.04309487,0.02304435,0.02334284,-0.007208527,-0.7106843,0.7030867
634795918173690000,0.08602151,0.1290323,-0.9345064,-21.36,0.12,-38.34,96,358,5,-0.162844,-0.3193272,-0.01003869,4.701163,0.03806496,0.02093422,0.02082203,-0.006173532,-0.711037,0.7028191
634795918173910000,0.06647116,0.1485826,-0.8797654,-21.36,0.12,-38.34,93,355,5,-0.2937437,-0.1362804,-0.005779764,4.700244,0.0296669,0.02119148,0.01796069,-0.003105666,-0.7113798,0.7025715
634795918174090000,0.03519062,0.1173021,-0.7781036,-21.36,0.12,-38.34,94,356,5,-0.3341842,-0.04264896,0.1772303,4.701532,0.02076483,0.02471292,0.01608477,0.001308603,-0.7109324,0.7030752
634795918174290000,0.01564027,0.05474096,-0.6803519,-21.12,0.3,-37.62,94,356,5,-0.09365837,-0.3874579,0.01649862,4.702619,0.0148797,0.02499115,0.01411283,0.003506028,-0.7105428,0.7035037
634795918174490000,0.02346041,0.01955034,-0.688172,-21.12,0.3,-37.62,94,356,5,-0.06277263,-0.5119722,-0.118637,4.701941,0.01316357,0.02168226,0.01233482,0.002947373,-0.7107841,0.7032959
634795918174690000,0.05474096,0.03910068,-0.7507331,-21.12,0.3,-37.62,94,356,5,-0.1957726,-0.1182046,-0.1026276,4.698075,0.008760929,0.00851655,0.006107649,-0.0001301278,-0.7121493,0.7020015
634795918174890000,0.08211143,0.06647116,-0.7468231,-21.12,0.3,-37.62,85,347,5,-0.1627652,0.2404004,0.08573689,4.699503,0.005268097,0.01253748,0.006311551,0.002529491,-0.7116429,0.7025084
634795918175100000,0.0742913,0.05083089,-0.6725318,-21.12,0.3,-37.62,86,348,5,0.08307911,0.06265804,0.2272654,4.701824,0.004353285,0.01584661,0.007162968,0.004025683,-0.7108203,0.7033256
634795918175290000,0.03910068,0,-0.6529814,-21.12,0.3,-37.62,88,350,5,0.2341851,-0.1682366,0.1740542,4.705597,0.006930112,0.01675761,0.008386395,0.00344609,-0.7094954,0.7046518
634795918175490000,0.01564027,-0.03128055,-0.7155425,-21.12,0.3,-37.62,88,350,5,0.2065153,-0.2139983,-0.09837949,4.706978,0.01182175,0.01401484,0.009136402,0.0007507102,-0.7090166,0.7051323
634795918175690000,0.05083089,-0.003910068,-0.8054741,-21.96,1.08,-36.9,86,348,5,0.0234478,-0.03089374,-0.2452426,4.704861,0.01403189,0.01233101,0.00931811,-0.0006364591,-0.709763,0.7043786
634795918175890000,0.06647116,0.02737048,-0.8680352,-21.96,1.08,-36.9,79,341,5,-0.01486462,-0.0479009,-0.1430609,4.705028,0.0139451,0.0121696,0.009230273,-0.000661677,-0.7097042,0.704439
634795918176090000,0.06256109,0.04301075,-0.9736071,-21.96,1.08,-36.9,81,343,5,0.2064728,0.03082366,0.03255437,4.707819,0.01844144,0.01388287,0.01142417,-0.001637775,-0.7087185,0.705397
634795918176290000,0.02737048,0.01173021,-1.086999,-21.96,1.08,-36.9,81,343,5,0.3639781,0.1425342,0.1336318,4.711657,0.02425981,0.01736784,0.01471564,-0.00244204,-0.7073614,0.7066947
634795918176490000,0.03910068,-0.02346041,-1.16129,-21.96,1.08,-36.9,84,346,5,0.2139224,0.2382528,-0.1888391,4.713207,0.02685189,0.02002132,0.01657167,-0.002408256,-0.7068137,0.7072015
634795918176690000,0.07820137,-0.01173021,-1.223851,-21.96,1.08,-36.9,85,347,5,-0.02766534,0.5351717,-0.2271512,4.713431,0.03165054,0.02320886,0.01939482,-0.002974477,-0.706732,0.7072092
634795918176890000,0.1016618,0.02737048,-1.231672,-21.96,1.08,-36.9,85,347,5,-0.02766534,0.5351717,-0.2271512,4.712392,0.03029442,0.04546415,0.02677826,0.005363325,-0.7070853,0.7066007
634795918177090000,0.08993158,0.02737048,-1.196481,-23.16,1.38,-35.7,78,340,5,0.3086773,0.3414827,0.08574211,4.715457,0.03248382,0.05599725,0.03125975,0.008361056,-0.7059731,0.7074991
634795918177300000,0.03519062,0.01564027,-1.204301,-23.16,1.38,-35.7,79,341,5,0.4832102,-0.1246289,0.04316108,4.71761,0.03771496,0.05709099,0.03348839,0.006937853,-0.7052272,0.708156
634795918177490000,-0.007820137,0.03128055,-1.278592,-23.16,1.38,-35.7,79,341,5,0.3363471,-0.2161523,-0.2420291,4.71807,0.04564309,0.05349958,0.03502983,0.002877198,-0.7050924,0.7082438
634795918177690000,0.003910068,0.05865103,-1.345064,-23.16,1.38,-35.7,82,344,5,-0.2415189,0.1616342,-0.6453705,4.712285,0.04829073,0.05153417,0.0352788,0.001144904,-0.7071424,0.7061896
634795918177890000,0.05474096,0.1212121,-1.329423,-23.16,1.38,-35.7,82,344,5,-0.5650434,0.5543333,-0.7315727,4.701924,0.04103804,0.05599678,0.03432072,0.005109131,-0.7107728,0.7025654
634795918178090000,0.08211143,0.1915933,-1.231672,-24.24,1.02,-35.94,85,347,5,-0.4266941,0.501122,-0.5123423,4.687315,0.02640772,0.07042884,0.03441592,0.01513229,-0.7157342,0.6973602
634795918178290000,0.05083089,0.2033236,-1.13783,-24.24,1.02,-35.94,85,347,5,-0.0158933,0.1126517,-0.1952032,4.683422,0.02564192,0.07210994,0.03478099,0.0159254,-0.7170705,0.6959502
634795918178500000,0.02737048,0.1603128,-1.110459,-24.24,1.02,-35.94,90,352,5,-0.05101348,-0.1725413,-0.3431305,4.676677,0.0242455,0.06926131,0.03332647,0.01532157,-0.7194266,0.6935993
634795918178690000,0.04301075,0.1564027,-1.106549,-24.24,1.02,-35.94,95,357,5,-0.2649072,-0.2321379,-0.515535,4.670288,0.02111912,0.06653142,0.03131025,0.01539867,-0.7216377,0.6913911
634795918178890000,0.05083089,0.172043,-1.063539,-24.24,1.02,-35.94,94,356,5,-0.2936413,-0.1778624,-0.4644522,4.661221,0.01542568,0.06264888,0.02801457,0.01598297,-0.7247535,0.6882529
634795918179090000,0.03519062,0.1407625,-0.9814272,-24.24,1.02,-35.94,94,356,5,-0.221274,0.02965599,-0.184561,4.656957,0.01178956,0.06135749,0.02633133,0.01679986,-0.7262006,0.6867729
634795918179290000,0.02346041,0.0742913,-0.8836755,-24.66,0.06,-35.94,95,357,5,-0.02967864,0.06159583,-0.09940178,4.650227,0.004803181,0.06336951,0.02472975,0.0199445,-0.7284238,0.6843898
634795918179490000,0.02737048,0.01955034,-0.7898338,-24.66,0.06,-35.94,96,358,5,0.01926806,0.1115931,-0.2164424,4.647449,0.003290176,0.06440616,0.02461846,0.02081618,-0.7293468,0.6833841
634795918179690000,0.05865103,0,-0.7272727,-24.66,0.06,-35.94,85,347,5,-0.282948,0.1295469,-0.3622412,4.64256,0.000402689,0.06645608,0.02443441,0.02250991,-0.7309599,0.6816112
634795918179890000,0.09775171,0.007820137,-0.6999022,-24.24,-1.86,-36.24,86,348,5,-0.282948,0.1295469,-0.3622412,4.639476,-0.003202677,0.06778788,0.02372978,0.02424489,-0.7319514,0.6805118
634795918180090000,0.113392,0.01955034,-0.7077224,-24.24,-1.86,-36.24,86,348,5,-0.1030653,0.01137601,-0.2398553,4.635321,-0.008344411,0.06913304,0.02252782,0.02653736,-0.7332801,0.6790351
634795918180290000,0.1055719,0.01955034,-0.7390029,-24.24,-1.86,-36.24,87,349,5,0.07893458,-0.005602321,-0.1802224,4.631459,-0.009162426,0.06944156,0.02241523,0.02689876,-0.7345747,0.6776238
634795918180490000,0.09384164,0.01173021,-0.7585533,-24.24,-1.86,-36.24,87,349,5,0.1299813,0.01354384,-0.187672,4.629034,-0.007616043,0.07077682,0.02346212,0.02675462,-0.7353975,0.676701
634795918180690000,0.1016618,0.02346041,-0.7585533,-24.24,-1.86,-36.24,87,349,5,0.1639893,0.01035137,-0.1014225,4.627244,-0.005321502,0.07168198,0.02459482,0.02619512,-0.7360204,0.6760051
634795918180890000,0.09384164,0.02346041,-0.7702835,-24.24,-1.86,-36.24,87,349,5,0.1448049,0.0731248,-0.02264944,4.627097,-0.00239563,0.07309842,0.02610691,0.02559515,-0.7360879,0.6758979
634795918181090000,0.07820137,0.003910068,-0.801564,-24.24,-1.86,-36.24,88,350,5,0.09475961,0.03161545,0.01566161,4.628111,-0.0003304481,0.07512748,0.02753875,0.02553464,-0.7357433,0.6762185
634795918181290000,0.05474096,-0.007820137,-0.8758553,-23.88,-3.18,-37.44,90,352,5,0.1543109,-0.2205893,0.02736532,4.629056,0.0008130074,0.07565653,0.02810797,0.02530617,-0.7354311,0.6765432
634795918181490000,0.04692082,-0.007820137,-1.012708,-23.88,-3.18,-37.44,89,351,5,0.2915959,-0.351489,0.0177925,4.632183,0.009572744,0.06638204,0.02763118,0.01898988,-0.7345825,0.6776905
634795918181690000,0.05083089,-0.003910068,-1.110459,-23.88,-3.18,-37.44,89,351,5,0.4107892,-0.07477865,0.1135551,4.635386,0.01688385,0.06488061,0.02953172,0.01584284,-0.7335745,0.6787822
634795918181910000,0.04301075,0.003910068,-1.13392,-23.88,-3.18,-37.44,90,352,5,0.3341649,0.1550762,0.2061427,4.638442,0.02112531,0.06606984,0.03138467,0.01473886,-0.7325586,0.6798203
634795918182090000,0.02737048,-0.003910068,-1.180841,-23.88,-3.18,-37.44,91,353,5,0.1670816,0.02097575,0.1784728,4.642848,0.02558303,0.0674752,0.03338413,0.01365776,-0.7310793,0.6813384
634795918182290000,0.04301075,-0.01955034,-1.278592,-23.88,-3.18,-37.44,91,353,5,0.2181449,-0.09393556,0.08478058,4.645638,0.02913618,0.06583034,0.03397734,0.01184538,-0.7301633,0.6823246
634795918182490000,0.08993158,0.02346041,-1.309873,-23.88,-3.18,-37.44,91,353,5,0.3266959,0.3466211,0.1411389,4.649551,0.04126692,0.06955135,0.03945492,0.008764645,-0.7288662,0.6834623
634795918182690000,0.1251222,0.08993158,-1.243402,-23.58,-4.56,-37.86,96,358,5,0.2436863,0.2997952,0.1719857,4.651706,0.04504251,0.07343364,0.04214839,0.008762829,-0.7281241,0.6840922
634795918182890000,0.1603128,0.1173021,-1.200391,-23.58,-4.56,-37.86,98,0,5,-0.05856916,-0.0673641,0.09107623,4.653738,0.04753112,0.07655489,0.04412488,0.008971188,-0.7274214,0.6847121
634795918183100000,0.1798632,0.1212121,-1.282502,-23.58,-4.56,-37.86,98,0,5,-0.1681357,-0.5058249,0.1868406,4.653984,0.04534983,0.07334828,0.04221261,0.008669802,-0.727346,0.6849166
634795918183290000,0.1642229,0.1251222,-1.368524,-23.58,-4.56,-37.86,98,0,5,0.04259853,-0.317457,0.3677589,4.657015,0.04365134,0.06510401,0.03862712,0.00651765,-0.7263413,0.686217
634795918183490000,0.1329423,0.113392,-1.317693,-23.58,-4.56,-37.86,102,4,5,0.09153629,0.1007923,0.4944017,4.663246,0.04578137,0.06348741,0.03875522,0.00530939,-0.7242128,0.6884662
634795918183690000,0.1173021,0.1016618,-1.1652,-23.58,-4.56,-37.86,102,4,5,-0.1340385,0.2827521,0.4188417,4.674524,0.0450995,0.07079875,0.04111798,0.008308901,-0.7202856,0.6924081
634795918183890000,0.1212121,0.08993158,-1.040078,-22.74,-5.52,-38.88,107,9,5,-0.3011218,0.08582984,0.3060338,4.677826,0.04013705,0.07210504,0.03985216,0.01061483,-0.7191109,0.6936705
634795918184090000,0.1407625,0.1094819,-0.9931574,-22.74,-5.52,-38.88,104,6,5,-0.2809016,-0.3143162,0.2496299,4.680101,0.0350666,0.06685245,0.03619495,0.01065459,-0.7183254,0.6946834
634795918184290000,0.1485826,0.1407625,-0.9814272,-22.74,-5.52,-38.88,104,6,5,-0.2766446,-0.3920046,0.2772998,4.682487,0.02984857,0.06066584,0.03215007,0.01041557,-0.7175049,0.6957332
634795918184490000,0.1290323,0.1485826,-0.9501466,-22.74,-5.52,-38.88,102,4,5,-0.5320587,-0.2121506,0.2953916,4.684132,0.02308106,0.05920971,0.02926355,0.01236049,-0.7169026,0.6964493
634795918184690000,0.09775171,0.1251222,-0.9032258,-22.56,-5.04,-39.84,101,3,5,-0.6523162,-0.2664261,0.2719786,4.686311,0.009173392,0.05896223,0.02431241,0.01728563,-0.716042,0.6974195
634795918184890000,0.06647116,0.08602151,-0.8954057,-22.56,-5.04,-39.84,104,6,5,-0.5661139,-0.4494728,0.2017398,4.687479,-0.01564574,0.04975652,0.01234638,0.0229671,-0.7154794,0.6981471
634795918185090000,0.05865103,0.04692082,-0.8758553,-22.56,-5.04,-39.84,104,6,5,-0.3649753,-0.3004813,0.09101822,4.686219,-0.02184653,0.0469569,0.009195072,0.0242027,-0.7158794,0.6977438
634795918185310000,0.07820137,0.03128055,-0.797654,-22.56,-5.04,-39.84,101,3,5,-0.2479106,0.3103352,0.0484125,4.684922,-0.02563953,0.04878437,0.0085432,0.02619192,-0.7162607,0.6972888
634795918185490000,0.09775171,0.03128055,-0.6999022,-22.56,-5.04,-39.84,97,359,5,-0.1329273,0.2049492,0.1069253,4.683871,-0.0300684,0.05448377,0.009057146,0.02975871,-0.7164846,0.6969091
634795918185690000,0.08993158,0.01955034,-0.6529814,-22.08,-3.84,-40.8,93,355,5,-0.01475224,0.01014852,0.1824574,4.684303,-0.03242874,0.05875111,0.009757712,0.03209194,-0.716231,0.6970567
634795918185890000,0.07038123,-0.003910068,-0.6608016,-22.08,-3.84,-40.8,93,355,5,0.1661643,-0.09628101,0.180329,4.686369,-0.03260612,0.06041574,0.0102588,0.03274562,-0.7154808,0.6977892
634795918186090000,0.05865103,-0.01173021,-0.6959922,-22.08,-3.84,-40.8,90,352,5,0.2576877,-0.122884,0.1025985,4.689831,-0.02602339,0.05858207,0.01184724,0.02977191,-0.7144034,0.6990001
634795918186290000,0.05083089,-0.003910068,-0.7468231,-22.08,-3.84,-40.8,89,351,5,0.09485007,0.004806535,0.05681892,4.690936,-0.02326918,0.05814838,0.01263896,0.0286436,-0.7140639,0.6993802
634795918186500000,0.05083089,-0.003910068,-0.797654,-22.08,-3.84,-40.8,89,351,5,0.1001525,0.02074555,-0.04959594,4.690893,-0.02157378,0.05905843,0.01355758,0.02835604,-0.7140899,0.699348
634795918186690000,0.07820137,0.007820137,-0.8719453,-21.18,-2.52,-41.46,88,350,5,0.1501032,-0.0899461,-0.1049053,4.689711,-0.0201261,0.05885828,0.01400874,0.02776088,-0.7145263,0.6989172
634795918186890000,0.09384164,0.03128055,-0.9814272,-21.18,-2.52,-41.46,88,350,5,0.2352412,-0.1772126,-0.07509104,4.688119,-0.01694417,0.05644631,0.01427894,0.02577028,-0.7151574,0.6983422
634795918187090000,0.08993158,0.04301075,-1.083089,-21.18,-2.52,-41.46,89,351,5,0.1479484,0.003683147,-0.1069701,4.684689,-0.007995367,0.05385995,0.01651543,0.02163902,-0.7164914,0.6970646
634795918187290000,0.1016618,0.04301075,-1.16911,-21.18,-2.52,-41.46,92,354,5,0.1479484,0.003683147,-0.1069701,4.682343,-0.006087303,0.05522132,0.01769338,0.02140911,-0.7173142,0.6961961
634795918187490000,0.1251222,0.05474096,-1.227762,-21.18,-2.52,-41.46,92,354,5,0.1499485,0.2601211,-0.03347346,4.680675,-0.00536418,0.05724084,0.01868776,0.02183701,-0.71788,0.6955733
634795918187690000,0.1407625,0.0742913,-1.262952,-21.18,-2.52,-41.46,92,354,5,0.2904262,0.138759,0.129331,4.679756,-0.002709389,0.06209838,0.02136505,0.02256342,-0.7181736,0.6951699
634795918187890000,0.113392,0.09384164,-1.282502,-21.18,-2.52,-41.46,95,357,5,0.4309039,-0.2283985,0.3858092,4.682095,0.002890825,0.06449163,0.02414588,0.02141243,-0.7173946,0.6959191
634795918188090000,0.04301075,0.1055719,-1.341154,-21.12,-1.5,-42.06,94,356,5,0.4319682,-0.4157021,0.3453687,4.688951,0.01197243,0.05996322,0.02562465,0.01666659,-0.7151358,0.6983169
634795918188290000,0.01955034,0.0742913,-1.415445,-21.12,-1.5,-42.06,96,358,5,0.08501387,-0.1262269,-0.08138211,4.693329,0.02177358,0.05097627,0.02581249,0.01007884,-0.7137336,0.699869
634795918188490000,0.05083089,0.06256109,-1.462366,-21.12,-1.5,-42.06,96,358,5,-0.2991754,0.09935763,-0.3421172,4.687669,0.01818538,0.05140173,0.02474108,0.0114383,-0.7156898,0.6978862
634795918188710000,0.06647116,0.1173021,-1.423265,-21.12,-1.5,-42.06,99,1,5,-0.1480527,0.3302945,-0.2750711,4.680987,0.01309514,0.05686128,0.02496819,0.01508227,-0.7179453,0.6954882
634795918188890000,0.05474096,0.1564027,-1.286412,-21.12,-1.5,-42.06,95,357,5,0.2861276,0.2345142,-0.03239614,4.679687,0.01467657,0.06033336,0.02677416,0.01570503,-0.7183817,0.6949564
634795918189090000,0.03519062,0.1407625,-1.13001,-20.64,-0.78,-42.18,98,0,5,0.2786781,-0.03691353,-0.1153791,4.678341,0.0204184,0.06296301,0.02972303,0.01453679,-0.718871,0.6943556
634795918189290000,0.03910068,0.1251222,-1.055718,-20.64,-0.78,-42.18,98,0,5,-0.02571291,-0.1859032,-0.37505,4.66179,0.01872993,0.05736184,0.02723292,0.01297279,-0.7246233,0.6884847
634795918189490000,0.07820137,0.1524927,-1.036168,-20.64,-0.78,-42.18,102,4,5,-0.3918064,-0.227408,-0.6166292,4.653765,0.01330042,0.0546652,0.02444316,0.01391318,-0.7273638,0.6856756
634795918189690000,0.1055719,0.1837732,-0.9931574,-20.64,-0.78,-42.18,101,3,5,-0.4077697,-0.2135731,-0.4750872,4.644169,0.00558424,0.05118155,0.02060514,0.01542592,-0.7306167,0.6823025
634795918189900000,0.09775171,0.1446725,-0.8680352,-20.64,-0.78,-42.18,100,2,5,-0.05756155,0.08014093,-0.08235183,4.639202,0.0003678798,0.05097032,0.01879116,0.01721279,-0.7322687,0.680539
634795918190090000,0.08993158,0.07038123,-0.742913,-20.64,-0.78,-42.18,100,2,5,-0.05756155,0.08014093,-0.08235183,4.636858,-0.00318861,0.05314803,0.01840082,0.01923432,-0.7330121,0.6796947
634795918190290000,0.09384164,0.02346041,-0.6647117,-20.64,-0.78,-42.18,101,3,5,-0.1607974,0.09079435,-0.2121492,4.630575,-0.01139474,0.05883968,0.01777405,0.0241198,-0.7349891,0.6774167
634795918190490000,0.113392,0.01955034,-0.6725318,-20.52,-1.02,-42.6,98,0,5,-0.3693855,-0.04431584,-0.4111593,4.61921,-0.02304244,0.0587405,0.01395303,0.02828748,-0.7386756,0.6733227
634795918190690000,0.1329423,0.04301075,-0.7155425,-20.52,-1.02,-42.6,91,353,5,-0.2874401,-0.1060245,-0.3462416,4.613222,-0.03066564,0.05707443,0.01086219,0.03050995,-0.7406017,0.6711633
634795918190890000,0.1251222,0.07820137,-0.7350929,-20.52,-1.02,-42.6,88,350,5,-0.02241796,0.06742514,-0.1589225,4.609188,-0.03423643,0.05734753,0.009829401,0.03190402,-0.7418939,0.6696857
634795918191090000,0.1251222,0.08211143,-0.7155425,-20.52,-1.02,-42.6,88,350,5,0.2095867,0.2621667,0.03051596,4.608079,-0.0333147,0.06148458,0.01169232,0.03293927,-0.7422112,0.6692541
634795918191290000,0.1290323,0.05474096,-0.6764418,-20.16,-1.08,-42.78,92,354,5,0.2244858,0.1227376,0.1060503,4.608768,-0.03076363,0.06536161,0.01397454,0.03329333,-0.7419562,0.6694753
634795918191490000,0.1055719,0.03519062,-0.688172,-20.16,-1.08,-42.78,92,354,5,0.1499864,-0.2135422,0.1549655,4.610583,-0.02686787,0.06826937,0.01632844,0.03283517,-0.7413628,0.6701018
634795918191690000,0.07038123,0.01564027,-0.7507331,-20.16,-1.08,-42.78,88,350,5,0.2627934,-0.1219962,0.07086851,4.615665,-0.01924825,0.06505668,0.01761588,0.02897971,-0.7398276,0.6719412
634795918191890000,0.03519062,-0.003910068,-0.8289345,-20.16,-1.08,-42.78,88,350,5,0.3309039,0.0780776,0.1708711,4.619833,-0.01286793,0.06676828,0.02033612,0.02723665,-0.7384899,0.6734072
634795918192090000,0.01173021,-0.01564027,-0.8954057,-20.16,-1.08,-42.78,87,349,5,0.3053624,-0.006010763,0.2145043,4.623111,-0.009061097,0.06710111,0.02169822,0.02597856,-0.737431,0.6745738
634795918192290000,0.01955034,-0.01173021,-0.9853373,-20.16,-1.08,-42.78,85,347,5,0.3905005,-0.1602865,0.1868345,4.628598,-0.002411604,0.0650717,0.02312974,0.02290581,-0.7356854,0.6765407
634795918192490000,0.04692082,0.003910068,-1.11828,-20.28,-0.96,-42.96,84,346,5,0.6225015,-0.02723451,0.1537708,4.632945,0.005975246,0.06047832,0.02423721,0.01831932,-0.7343513,0.6780893
634795918192690000,0.06256109,0.02346041,-1.219941,-20.28,-0.96,-42.96,84,346,5,0.4373264,0.1270296,0.3144688,4.637042,0.01712298,0.057307,0.02682526,0.01320527,-0.7330768,0.6794884
634795918192890000,0.06647116,0.02737048,-1.266862,-20.28,-0.96,-42.96,87,349,5,0.3905005,0.1887004,0.3336248,4.648701,0.03207945,0.06001377,0.03284634,0.008834625,-0.7291688,0.6834881
634795918193090000,0.06647116,0,-1.290323,-20.28,-0.96,-42.96,89,351,5,0.4277484,0.3451167,0.2442299,4.655263,0.03961253,0.06379104,0.0367716,0.007501103,-0.726934,0.6856811
634795918193300000,0.08602151,0.01173021,-1.266862,-20.28,-0.96,-42.96,89,351,5,0.421363,0.4483465,0.2037894,4.660548,0.04772258,0.0709269,0.04212286,0.007114452,-0.7251158,0.6873007
634795918193490000,0.1055719,0.05474096,-1.231672,-20.28,-0.96,-42.96,89,351,5,0.3277112,0.1035332,0.2059178,4.665983,0.0552609,0.07732259,0.04700942,0.006710968,-0.7232429,0.6889592
634795918193690000,0.1290323,0.1016618,-1.270772,-20.7,-1.5,-43.38,88,350,5,0.159564,-0.2008,0.1377781,4.670417,0.0609777,0.07697749,0.04884382,0.004632813,-0.7217316,0.690432
634795918193890000,0.1290323,0.1055719,-1.391984,-20.7,-1.5,-43.38,93,355,5,-0.1170624,-0.3763972,0.123912,4.673302,0.06014323,0.06726241,0.04505484,0.00163682,-0.7207576,0.6917195
634795918194090000,0.1251222,0.1251222,-1.395894,-20.7,-1.5,-43.38,97,359,5,0.2075135,-0.04115063,0.3037488,4.677893,0.06346774,0.06612778,0.04579633,0.0001505812,-0.7191712,0.6933221
634795918194290000,0.1251222,0.1368524,-1.176931,-20.7,-1.5,-43.38,97,359,5,0.4022667,0.2770312,0.3910152,4.684414,0.07094264,0.07080698,0.05006856,-0.0007483799,-0.716903,0.6953722
634795918194490000,0.113392,0.1016618,-1.000978,-20.7,-1.5,-43.38,98,0,5,0.1329893,0.2727743,0.2792716,4.689121,0.07382679,0.07591653,0.0528978,0.0001234579,-0.7152616,0.6968519
634795918194690000,0.1251222,0.09775171,-0.9345064,-20.7,-1.5,-43.38,100,2,5,-0.3735776,-0.2710712,0.03979887,4.689422,0.07058048,0.07539272,0.05157968,0.001109098,-0.7151564,0.6970579
634795918194890000,0.1407625,0.1446725,-0.9540567,-20.76,-1.86,-43.62,97,359,5,-0.4023117,-0.6499352,0.07916499,4.688257,0.06006503,0.06953787,0.04582655,0.002796449,-0.7155612,0.6970397
634795918195090000,0.1212121,0.1642229,-0.9853373,-20.76,-1.86,-43.62,97,359,5,-0.2990818,-0.6446142,0.1568151,4.68953,0.04491901,0.05001676,0.03357067,0.00141875,-0.7151309,0.6981826
634795918195290000,0.08211143,0.1251222,-0.9540567,-20.76,-1.86,-43.62,99,1,5,-0.2565128,-0.5360633,0.2472742,4.691092,0.03884744,0.04522634,0.02973816,0.001938694,-0.714586,0.6989126
634795918195490000,0.04692082,0.06647116,-0.8641251,-20.76,-1.86,-43.62,102,4,5,-0.2267145,-0.3977139,0.2472742,4.694314,0.03071809,0.0392729,0.02476687,0.002800809,-0.7134582,0.7002544
634795918195690000,0.01955034,0.02346041,-0.7741935,-21.78,-1.26,-44.28,93,355,5,-0.2831185,-0.3466311,0.1323239,4.696706,0.02360487,0.03381455,0.0203257,0.003450389,-0.7126182,0.7012491
634795918195890000,0.007820137,0,-0.7390029,-21.78,-1.26,-44.28,93,355,5,-0.3831556,-0.2870346,-0.03902105,4.697992,0.01854706,0.02786624,0.01643139,0.003176668,-0.7121695,0.7018081
634795918196090000,0.02737048,0.007820137,-0.742913,-21.78,-1.26,-44.28,88,350,5,-0.4310457,-0.1412357,-0.1209303,4.696119,0.005710602,0.02018154,0.009195361,0.005041548,-0.7128168,0.7012719
634795918196290000,0.05865103,0.03519062,-0.7507331,-21.78,-1.26,-44.28,86,348,5,-0.2852469,-0.1657047,-0.01130054,4.695432,-0.0009560584,0.01777291,0.006001521,0.006570971,-0.7130452,0.7010615
634795918196490000,0.06647116,0.05474096,-0.7468231,-21.78,-1.26,-44.28,87,349,5,0.02021852,-0.139099,0.07487456,4.696563,-0.002621412,0.01527274,0.004522779,0.006290892,-0.7126514,0.7014756
634795918196700000,0.05474096,0.04692082,-0.742913,-21.78,-1.26,-44.28,91,353,5,0.4267485,0.06097124,0.1195289,4.697866,0.001061678,0.01514697,0.005766558,0.00493812,-0.712205,0.7019305
634795918196890000,0.03910068,0.01955034,-0.742913,-21.78,-1.26,-44.28,91,353,5,0.4022713,0.03327404,0.07478836,4.699265,0.009166955,0.01730919,0.009379149,0.002817192,-0.7117252,0.7023897
634795918197090000,0.03128055,-0.01173021,-0.7741935,-22.44,-0.36,-44.04,89,351,5,0.1713344,-0.05186631,-0.03909959,4.69964,0.01512527,0.01776755,0.01163455,0.0008600207,-0.7115988,0.7024892
634795918197290000,0.04301075,-0.01173021,-0.8211144,-22.44,-0.36,-44.04,86,348,5,0.006399661,-0.03270887,-0.101872,4.698087,0.01664853,0.01726866,0.01199226,0.0001334828,-0.7121443,0.7019308
634795918197490000,0.05474096,0.003910068,-0.8758553,-22.44,-0.36,-44.04,83,345,5,0.1564571,0.03539898,-0.09972722,4.697269,0.01941609,0.01805484,0.01324319,-0.0005813771,-0.7124312,0.7016168
634795918197690000,0.05083089,0.003910068,-0.9462366,-22.44,-0.36,-44.04,83,345,5,0.321412,-0.09656908,-0.08162475,4.696793,0.02507997,0.01669872,0.0147464,-0.003078302,-0.7125921,0.7014169
634795918197900000,0.04301075,0.007820137,-1.102639,-22.44,-0.36,-44.04,83,345,5,0.2777788,-0.3839061,-0.1528947,4.695993,0.0305841,0.01272488,0.01525852,-0.006439387,-0.7128503,0.7011206
634795918198090000,0.04692082,0.01564027,-1.216031,-23.22,0.18,-43.62,83,345,5,0.4523117,-0.06357353,-0.1731047,4.694555,0.03438902,0.007780551,0.01482365,-0.009539808,-0.71332,0.7006168
634795918198290000,0.0742913,0.03910068,-1.270772,-23.22,0.18,-43.62,84,346,5,0.3884582,0.447242,-0.07305774,4.692332,0.04157257,0.004966617,0.01632198,-0.01310573,-0.7140422,0.6997897
634795918198490000,0.08602151,0.03519062,-1.188661,-23.22,0.18,-43.62,84,346,5,0.2533016,0.4525631,0.09718434,4.693638,0.05468249,0.01957679,0.02613105,-0.01265664,-0.7135915,0.6999601
634795918198690000,0.06256109,0.007820137,-1.1261,-23.22,0.18,-43.62,85,347,5,0.2948064,-0.02954355,0.07372382,4.695844,0.05797791,0.02201581,0.0281684,-0.01294728,-0.712813,0.7006687
634795918198890000,0.02346041,0.03128055,-1.188661,-23.22,0.18,-43.62,86,348,5,0.288421,-0.405215,-0.1870048,4.696009,0.0638461,0.0180105,0.02879893,-0.01644033,-0.7126837,0.7007013
634795918199090000,0.007820137,0.1290323,-1.360704,-23.22,0.18,-43.62,84,346,5,0.1458124,-0.01038696,-0.4232627,4.69182,0.06833625,0.01318216,0.02861111,-0.01979277,-0.7140664,0.699213
634795918199290000,0.04301075,0.1837732,-1.388074,-23.22,0.18,-43.62,84,346,5,-0.01698201,0.3737844,-0.453061,4.68488,0.06985878,0.01595807,0.03006657,-0.01946981,-0.7164999,0.696667
634795918199490000,0.05865103,0.1994135,-1.290323,-24.6,0.18,-43.74,86,348,5,-0.1041744,0.5876937,-0.2859777,4.679986,0.06900525,0.02170253,0.0317839,-0.01723967,-0.7182603,0.6948344
634795918199690000,0.04692082,0.1955034,-1.13783,-24.6,0.18,-43.74,96,358,5,0.1501637,0.5451247,-0.1188865,4.673047,0.0697329,0.04335892,0.03977156,-0.01010861,-0.7207947,0.6919328
634795918199890000,0.04301075,0.1681329,-1.036168,-24.6,0.18,-43.74,101,3,5,0.163981,0.1939081,-0.1997625,4.66888,0.07239151,0.04798376,0.04233561,-0.009552399,-0.7222409,0.6902786
634795918200110000,0.05474096,0.1564027,-1.032258,-24.6,0.18,-43.74,101,3,5,-0.412805,-0.2722341,-0.4072864,4.661561,0.06944323,0.0471729,0.04099326,-0.008918158,-0.7247725,0.6877098
634795918200290000,0.06256109,0.1798632,-1.083089,-25.86,-0.9,-43.44,100,2,5,-0.3148963,-0.191353,-0.2199827,4.65315,0.06177735,0.04310226,0.0368518,-0.007697326,-0.7276781,0.684885
634795918200490000,0.05865103,0.1876833,-1.079179,-25.86,-0.9,-43.44,98,0,5,-0.1594926,0.01830136,-0.03374824,4.648652,0.05424118,0.04076612,0.03340871,-0.005831601,-0.7292371,0.6834202
634795918200690000,0.04301075,0.1368524,-0.9853373,-25.86,-0.9,-43.44,98,0,5,-0.02327253,0.02465925,0.1024211,4.646192,0.04808092,0.04188383,0.03170665,-0.003242003,-0.7300924,0.6826048
634795918200890000,0.03519062,0.05865103,-0.8836755,-25.86,-0.9,-43.44,101,3,5,-0.120141,-0.2637384,0.04384239,4.646576,0.04451203,0.03983617,0.02974218,-0.002633112,-0.7299656,0.6828313
634795918201090000,0.02346041,0.01564027,-0.856305,-25.86,-0.9,-43.44,101,3,5,-0.2435823,-0.3871885,-0.03491463,4.645566,0.03836846,0.0338273,0.02545164,-0.002457137,-0.7303157,0.682631
634795918201300000,0.01955034,0.01173021,-0.8797654,-25.86,-0.9,-43.44,90,352,5,-0.3233991,-0.3861243,-0.12323,4.644616,0.03448438,0.02871537,0.02225887,-0.002795427,-0.7306426,0.6823915
634795918201490000,0.01564027,0.01955034,-0.9032258,-27.48,-2.34,-43.38,89,351,5,-0.3074358,-0.2052061,-0.2009008,4.642908,0.02850485,0.02261603,0.01798872,-0.002708434,-0.7312295,0.6818889
634795918201690000,0.01564027,0.03519062,-0.8993157,-27.48,-2.34,-43.38,89,351,5,-0.1286395,-0.07642192,-0.2147357,4.639855,0.02379632,0.01974892,0.0153324,-0.001988239,-0.7322732,0.6808355
634795918201890000,0.03128055,0.05474096,-0.8641251,-27.48,-2.34,-43.38,89,351,5,0.1629144,0.1534103,-0.04657524,4.637971,0.0271852,0.02346802,0.0178454,-0.001979401,-0.7329124,0.6800861
634795918202090000,0.04301075,0.05083089,-0.8093842,-27.48,-2.34,-43.38,91,353,5,0.1671713,0.1873937,0.03854819,4.638758,0.02907252,0.025859,0.01936382,-0.001850133,-0.7326433,0.6803347
634795918202290000,0.04301075,0.03910068,-0.7741935,-27.48,-2.34,-43.38,92,354,5,-0.03714215,0.08619317,-0.05940415,4.640073,0.0297513,0.02853274,0.0205746,-0.001175376,-0.7321954,0.6807827
634795918202490000,0.03910068,0.03128055,-0.7781036,-27.48,-2.34,-43.38,92,354,5,-0.02539364,0.0648695,-0.04342811,4.639299,0.02906847,0.03038955,0.02102153,-0.0003011972,-0.7324585,0.680487
634795918202690000,0.03128055,0.03519062,-0.8250244,-27.48,-2.34,-43.38,92,354,5,-0.04875349,-0.03305688,-0.02108364,4.63863,0.02852869,0.03175271,0.02133701,0.0003533917,-0.732685,0.6802334
634795918202890000,0.01955034,0.05474096,-0.8797654,-28.68,-3.6,-43.68,93,355,5,-0.04337564,-0.05965921,0.09913336,4.638554,0.02760172,0.03146851,0.0209177,0.000595476,-0.732711,0.6802182
634795918203090000,0.01564027,0.06256109,-0.911046,-28.68,-3.6,-43.68,92,354,5,0.1343776,0.2169645,0.191698,4.642763,0.02793312,0.03219187,0.02129375,0.0007649632,-0.7312772,0.6817475
634795918203290000,0.01955034,0.05083089,-0.9305963,-28.68,-3.6,-43.68,92,354,5,0.1769466,0.2574051,0.1650667,4.646154,0.03097415,0.03650761,0.02390552,0.001165492,-0.7301162,0.6829038
634795918203490000,0.01955034,0.01955034,-0.9736071,-28.68,-3.6,-43.68,95,357,5,0.1088172,0.1466413,0.1469047,4.648594,0.0339098,0.04030323,0.02629098,0.001422653,-0.7292788,0.6837099
634795918203690000,0.03519062,0.01564027,-1.016618,-29.52,-4.86,-42.54,94,356,5,0.05234832,0.01676738,0.1862811,4.651415,0.03544044,0.0416243,0.02729372,0.001355027,-0.7283129,0.6846997
634795918203890000,0.05083089,0.03519062,-1.079179,-29.52,-4.86,-42.54,94,356,5,0.05016517,0.0497391,0.1820242,4.653893,0.03552532,0.04139996,0.02723958,0.001280964,-0.7274643,0.6856034
634795918204090000,0.05474096,0.05865103,-1.14174,-29.52,-4.86,-42.54,94,356,5,0.08628742,-0.009859106,0.2607768,4.661726,0.03750896,0.04132557,0.02789026,0.0006431169,-0.7247751,0.6884205
634795918204290000,0.04692082,0.08211143,-1.180841,-29.52,-4.86,-42.54,96,358,5,0.3076463,-0.02368477,0.3331441,4.667176,0.04320073,0.04104257,0.02975082,-0.001435909,-0.7228952,0.6903154
634795918204490000,0.05474096,0.1016618,-1.196481,-29.52,-4.86,-42.54,98,0,5,0.3842705,0.3721975,0.2671622,4.671591,0.05011582,0.04738962,0.0344329,-0.001666564,-0.7213651,0.6916965
634795918204700000,0.08602151,0.1094819,-1.180841,-29.52,-4.86,-42.54,101,3,5,0.04689087,0.3583626,0.2714191,4.674957,0.05221009,0.05288458,0.0371374,-0.0004566167,-0.7201979,0.6927738
634795918204890000,0.1173021,0.1212121,-1.196481,-29.52,-4.86,-42.54,101,3,5,-0.2553542,-0.08755999,0.2671622,4.678795,0.04949117,0.05419481,0.03666483,0.001047321,-0.7188659,0.6941804
634795918205090000,0.1212121,0.1485826,-1.278592,-29.94,-6.9,-41.82,104,6,5,0.1213586,-0.3153042,0.1543308,4.681518,0.04426861,0.04622471,0.03199015,0.0001978655,-0.7179253,0.6953847
634795918205290000,0.1094819,0.1876833,-1.309873,-29.94,-6.9,-41.82,104,6,5,0.3022769,0.3157659,0.1745052,4.684044,0.04834819,0.04090095,0.03150342,-0.003079785,-0.7170419,0.696311
634795918205490000,0.1212121,0.2189638,-1.204301,-29.94,-6.9,-41.82,107,9,5,0.002154781,0.8947044,0.3054049,4.686236,0.05042219,0.05050873,0.03566669,-0.0004358186,-0.7162808,0.6969
634795918205690000,0.1485826,0.2111437,-1.036168,-29.94,-6.9,-41.82,107,9,5,-0.4086155,0.6041709,0.3447812,4.690853,0.04874611,0.06675899,0.04088072,0.005928555,-0.7146386,0.6982731
634795918205890000,0.1603128,0.1994135,-0.9501466,-29.94,-6.9,-41.82,110,12,5,-0.4767259,0.09332519,0.3139187,4.694857,0.0410831,0.07524215,0.04120828,0.01171569,-0.7131645,0.6996863
634795918206090000,0.1524927,0.1876833,-0.9618768,-29.4,-8.28,-41.94,109,11,5,-0.2532386,-0.4121799,0.334139,4.698248,0.03401303,0.07428574,0.03837037,0.01396664,-0.7119378,0.7010543
634795918206290000,0.1368524,0.1915933,-1.004888,-29.4,-8.28,-41.94,106,8,5,9.039768E-05,-0.3781247,0.2521937,4.702299,0.02442002,0.06567943,0.03191737,0.0144255,-0.710511,0.7028139
634795918206490000,0.1055719,0.2111437,-1.000978,-29.4,-8.28,-41.94,106,8,5,0.1213587,-0.2259404,0.3054049,4.704317,0.02374434,0.06522262,0.03150314,0.01453665,-0.7098001,0.7035483
634795918206690000,0.07820137,0.2072336,-0.9188661,-29.4,-8.28,-41.94,106,8,5,0.1447283,0.1167161,0.4799378,4.709882,0.02322674,0.06909037,0.03264769,0.01617296,-0.7078055,0.7054672
634795918206890000,0.08211143,0.1603128,-0.8523949,-29.4,-8.28,-41.94,110,12,5,0.2639183,-0.2387575,0.386286,4.715219,0.02466321,0.07162403,0.03400604,0.01664973,-0.7059116,0.7072872
634795918207090000,0.07038123,0.113392,-0.8523949,-29.4,-8.28,-41.94,109,11,5,0.3181938,-0.482465,0.3054049,4.718797,0.02990007,0.06810224,0.03459172,0.01361664,-0.7047113,0.7085196
634795918207290000,0.07038123,0.09775171,-0.9071358,-29.04,-9.6,-42,107,9,5,0.3171296,-0.3526295,0.2053677,4.720994,0.03591609,0.06034458,0.0339827,0.008782818,-0.7040085,0.7093237
634795918207490000,0.0742913,0.1212121,-0.9540567,-29.04,-9.6,-42,107,9,5,0.2032575,-0.02697802,0.1574091,4.72142,0.04452801,0.05427706,0.03490277,0.003604393,-0.7039022,0.7094297
634795918207690000,0.06256109,0.1485826,-0.9579667,-29.04,-9.6,-42,105,7,5,-7.937469E-06,0.1943223,0.2414829,4.722331,0.04516768,0.05745673,0.03624524,0.004525047,-0.7035744,0.7096823
634795918207890000,0.06647116,0.1290323,-0.9266862,-29.04,-9.6,-42,107,9,5,-0.03724826,-0.002600136,0.2393545,4.723651,0.0417757,0.05963277,0.03580185,0.006515048,-0.7030907,0.7101685
634795918208090000,0.0742913,0.1055719,-0.9188661,-29.04,-9.6,-42,109,11,5,0.0170253,-0.3165401,0.1456804,4.723382,0.0397377,0.05622458,0.03388225,0.00601524,-0.7031902,0.7101685
634795918208290000,0.08602151,0.1251222,-0.9579667,-29.04,-9.6,-42,109,11,5,0.06386537,-0.3261181,0.03495324,4.72148,0.04072952,0.05060101,0.03226278,0.003636764,-0.7038802,0.7095763
634795918208490000,0.09384164,0.1407625,-0.9970675,-28.92,-10.26,-42.3,108,10,5,0.06921192,-0.2399158,0.05833278,4.719128,0.04196072,0.0464164,0.03123039,0.001680553,-0.7047207,0.7087952
634795918208690000,0.08602151,0.1446725,-1.016618,-28.92,-10.26,-42.3,106,8,5,0.2032693,-0.02066142,0.1806639,4.716529,0.03973651,0.04600286,0.03029951,0.0022782,-0.7056395,0.7079193
634795918208890000,0.0742913,0.1368524,-1.008798,-28.92,-10.26,-42.3,109,11,5,0.5087019,-0.0004362424,0.2168475,4.716969,0.04293466,0.04725266,0.03187167,0.001599614,-0.7054859,0.7080052
634795918209090000,0.06256109,0.113392,-0.9892473,-28.92,-10.26,-42.3,110,12,5,0.5438213,0.1953462,0.2008841,4.717488,0.050071,0.04865742,0.03489279,-0.0004108246,-0.7053034,0.7080461
634795918209290000,0.07820137,0.05083089,-0.9853373,-28.92,-10.26,-42.3,110,12,5,0.1021423,0.288998,0.1944988,4.718416,0.05465078,0.05537724,0.03888022,0.0003740179,-0.7049759,0.7081647
634795918209490000,0.113392,0.02346041,-0.9931574,-28.5,-10.38,-42.9,109,11,5,-0.5055302,-0.09519017,-0.1364259,4.713517,0.03965044,0.05425858,0.0331867,0.005183456,-0.7066895,0.7067261
634795918209690000,0.1094819,0.06647116,-1.000978,-28.5,-10.38,-42.9,102,4,5,-0.5055302,-0.09519017,-0.1364259,4.713517,0.03965044,0.05425858,0.0331867,0.005183456,-0.7066895,0.7067261
634795918209890000,0.08993158,0.08602151,-0.9931574,-28.5,-10.38,-42.9,105,7,5,-0.1894553,0.01334675,-0.04487577,4.70555,0.02453422,0.05545675,0.02831082,0.01083557,-0.7094341,0.7041196
634795918210090000,0.08211143,0.0742913,-0.9970675,-28.5,-10.38,-42.9,105,7,5,-0.02453141,-0.123923,-0.07464939,4.701769,0.02236938,0.05474531,0.02731781,0.01130122,-0.7107558,0.7028174
634795918210300000,0.08602151,0.0742913,-1.032258,-28.5,-10.38,-42.9,107,9,5,-0.08943935,-0.2303455,-0.1395203,4.69669,0.01907086,0.0518589,0.02516247,0.01139461,-0.7125371,0.7010906
634795918210490000,0.08602151,0.06647116,-1.067449,-28.8,-10.68,-42.72,107,9,5,-0.06279828,-0.2122537,-0.2108053,4.692655,0.017061,0.04984676,0.02376428,0.01135707,-0.7139506,0.6997005
634795918210690000,0.08993158,0.06256109,-1.040078,-28.8,-10.68,-42.72,107,9,5,-0.1468126,0.07611093,-6.061474E-05,4.686415,0.01551032,0.04995954,0.02329915,0.01187746,-0.7161202,0.6974868
634795918210890000,0.09384164,0.07820137,-0.9657869,-28.8,-10.68,-42.72,107,9,5,-0.238336,-0.2048436,0.06059586,4.681785,0.009702682,0.05026924,0.02141708,0.01401534,-0.7176934,0.6958886
634795918211090000,0.07038123,0.0742913,-0.9384164,-28.8,-10.68,-42.72,106,8,5,-0.247914,-0.2559264,0.09569731,4.681167,0.004261494,0.04639256,0.01813732,0.01461311,-0.7178987,0.6957579
634795918211290000,0.05474096,0.05474096,-0.9618768,-28.8,-10.68,-42.72,106,8,5,-0.182963,-0.1899444,-0.007538712,4.679575,-0.0004866123,0.0436604,0.01551706,0.01535457,-0.7184375,0.6952489
634795918211490000,0.06256109,0.05474096,-0.9931574,-28.8,-10.68,-42.72,106,8,5,-0.1488437,-0.1431185,-0.01711163,4.677804,-0.002457619,0.04191601,0.01421892,0.01544357,-0.7190515,0.6946396
634795918211690000,0.05865103,0.06256109,-1.020528,-28.26,-10.38,-41.88,105,7,5,-0.1584135,-0.04945146,-0.05541012,4.675124,-0.006014109,0.04041504,0.01246567,0.0161843,-0.719966,0.6937087
634795918211890000,0.05083089,0.06256109,-1.024438,-28.26,-10.38,-41.88,105,7,5,-0.2445994,0.08994181,-0.05644837,4.671844,-0.009990691,0.04083371,0.01126619,0.01774245,-0.7210654,0.6925482
634795918212090000,0.03910068,0.06256109,-0.9970675,-28.26,-10.38,-41.88,105,7,5,-0.2999392,0.04627814,-0.05748812,4.665109,-0.02170682,0.04372608,0.008329418,0.02293941,-0.7232443,0.6901609
634795918212300000,0.03519062,0.06256109,-0.9775171,-28.26,-10.38,-41.88,107,9,5,-0.2414068,0.01751979,-0.1319396,4.66038,-0.02609706,0.04409325,0.007005515,0.02463713,-0.7248175,0.6884647
634795918212490000,0.03519062,0.06647116,-0.9618768,-28.26,-10.38,-41.88,107,9,5,-0.1040381,-0.02187665,-0.2191657,4.656574,-0.02781868,0.0443325,0.00654783,0.02533088,-0.7261018,0.6870893
634795918212690000,0.03519062,0.06647116,-0.969697,-28.08,-9.6,-42.3,106,8,5,-0.1742076,-0.1133877,-0.2574778,4.650487,-0.03045726,0.04371523,0.005496469,0.02606033,-0.7281637,0.6848856
634795918212890000,0.04301075,0.06647116,-1.004888,-28.08,-9.6,-42.3,106,8,5,-0.2040059,-0.09528179,-0.2553494,4.643901,-0.03435731,0.04154265,0.00345741,0.02672558,-0.7303928,0.6824955
634795918213090000,0.05083089,0.0742913,-1.028348,-28.08,-9.6,-42.3,106,8,5,-0.1667348,-0.006963234,-0.2457714,4.631318,-0.04219412,0.03957009,0.0002441957,0.02891377,-0.7345906,0.6778942
634795918213290000,0.05474096,0.08602151,-1.032258,-28.08,-9.6,-42.3,106,8,5,-0.009196249,0.02708846,-0.187239,4.62618,-0.04304289,0.04017723,0.0002552836,0.02943057,-0.7363084,0.6760057
634795918213490000,0.06647116,0.08211143,-1.032258,-28.08,-9.6,-42.3,106,8,5,0.01847446,0.1388043,-0.150987,4.623069,-0.04323625,0.04181278,0.0008393081,0.03005281,-0.7373321,0.6748611
634795918213690000,0.06647116,0.07038123,-1.032258,-28.08,-9.6,-42.3,106,8,5,-0.101764,0.1025766,-0.1275006,4.618751,-0.04519391,0.04429567,0.001163087,0.03160897,-0.7387189,0.6732711
634795918213890000,0.05865103,0.07820137,-1.036168,-28.08,-9.6,-42.3,106,8,5,-0.1804654,0.1642553,-0.1316857,4.614775,-0.04869962,0.04693449,0.001025666,0.03378902,-0.7399555,0.6718059
634795918214090000,0.07038123,0.08993158,-1.028348,-28.38,-9.18,-42.42,106,8,5,-0.1389004,0.2323438,-0.1284256,4.610739,-0.05202269,0.05111706,0.001531983,0.03641842,-0.7411783,0.6703179
634795918214290000,0.08993158,0.08993158,-1.012708,-28.38,-9.18,-42.42,106,8,5,0.008043241,0.180177,0.06211248,4.606687,-0.05384636,0.06064022,0.004535689,0.04027169,-0.7423165,0.6688228
634795918214490000,0.09384164,0.06647116,-0.9970675,-28.38,-9.18,-42.42,106,8,5,0.04847241,0.1747927,0.08764442,4.606549,-0.05391264,0.0630108,0.00539756,0.0410871,-0.7423128,0.6687708
634795918214690000,0.08602151,0.05865103,-0.9892473,-28.38,-9.18,-42.42,106,8,5,0.056933,0.1896206,0.06635736,4.606437,-0.05319834,0.06710302,0.007159906,0.0421874,-0.7422791,0.6687232
634795918214890000,0.08602151,0.05474096,-0.9775171,-28.38,-9.18,-42.42,104,6,5,0.001571475,0.1203884,0.02911736,4.606023,-0.05271626,0.07082223,0.00871256,0.04324771,-0.7423471,0.6685615
634795918215090000,0.09384164,0.05474096,-0.9931574,-28.08,-9.06,-42.84,103,5,5,0.05692938,0.04054698,0.02486567,4.605275,-0.05255961,0.07246101,0.009390594,0.04373271,-0.7425646,0.6682793
634795918215290000,0.1016618,0.06256109,-1.012708,-28.08,-9.06,-42.84,103,5,5,0.07395911,0.1490538,0.04614539,4.604711,-0.05122304,0.07414972,0.01047765,0.04379652,-0.7427446,0.6680588
634795918215500000,0.1173021,0.05865103,-1.020528,-28.08,-9.06,-42.84,103,5,5,-0.01331203,0.2043305,0.06849176,4.604345,-0.05090618,0.08032501,0.01288904,0.04573473,-0.7427324,0.6679003
634795918215690000,0.1173021,0.04692082,-1.020528,-28.08,-9.06,-42.84,103,5,5,0.04839642,0.08082789,0.07486638,4.60452,-0.05098629,0.08297157,0.01384279,0.04664748,-0.7426092,0.667955
634795918215890000,0.1016618,0.04692082,-1.024438,-28.08,-9.06,-42.84,103,5,5,0.2026922,0.05632444,0.02165341,4.60419,-0.04804372,0.08464252,0.0154548,0.04610902,-0.742748,0.6678028
634795918216090000,0.09775171,0.04692082,-1.024438,-28.08,-9.06,-42.84,102,4,5,0.08878803,0.08076287,-0.008134994,4.60312,-0.0452218,0.086555,0.01713297,0.04568905,-0.7431247,0.6673716
634795918216290000,0.1016618,0.04692082,-1.020528,-28.02,-9,-43.68,103,5,5,-0.04849808,0.04666266,0.01102276,4.60233,-0.04515576,0.08775592,0.0176202,0.04605737,-0.7433612,0.6670701
634795918216490000,0.1055719,0.04692082,-1.024438,-28.02,-9,-43.68,103,5,5,0.06112221,-0.01828296,0.01419405,4.60113,-0.04316974,0.08824432,0.01849174,0.04547061,-0.7437953,0.6666026
634795918216700000,0.1016618,0.04301075,-1.016618,-28.02,-9,-43.68,103,5,5,0.2367113,-0.01083488,0.02904914,4.60076,-0.0387938,0.08900499,0.02024171,0.04409241,-0.7439985,0.6664175
634795918216890000,0.08993158,0.03519062,-0.9853373,-28.02,-9,-43.68,103,5,5,0.2185969,-0.09811082,0.01086515,4.600566,-0.03687882,0.08973884,0.0211574,0.04362204,-0.7440883,0.6663198
634795918217090000,0.08993158,0.02737048,-0.9657869,-28.02,-9,-43.68,102,4,5,0.3707811,-0.2609373,-0.005136326,4.600008,-0.03309011,0.08844376,0.02194875,0.04177553,-0.7443842,0.666082
634795918217290000,0.09775171,0.01955034,-0.9931574,-28.02,-9,-43.68,102,4,5,0.436763,-0.3045705,-0.1466625,4.599241,-0.02647305,0.083943,0.02248959,0.03780701,-0.7448658,0.6657625
634795918217490000,0.1016618,0.01955034,-1.024438,-27.06,-9.12,-43.26,102,4,5,0.1068477,-0.1013018,-0.1711217,4.595765,-0.01812339,0.07825589,0.02320585,0.03276529,-0.7462764,0.6644242
634795918217690000,0.1016618,0.03519062,-1.028348,-27.06,-9.12,-43.26,101,3,5,-0.007024698,0.03063893,-0.1731733,4.589459,-0.01662636,0.07737195,0.02347361,0.03183939,-0.748407,0.6620591
634795918217890000,0.1094819,0.05083089,-1.020528,-27.06,-9.12,-43.26,102,4,5,0.04082819,0.1189313,-0.150755,4.585779,-0.0165112,0.07955086,0.02438729,0.03247226,-0.7495878,0.6606581
634795918218090000,0.1016618,0.04301075,-1.004888,-27.06,-9.12,-43.26,102,4,5,0.01310523,0.1295228,-0.05386156,4.583421,-0.01667094,0.08249902,0.02547964,0.03347515,-0.7503108,0.6597453
634795918218290000,0.09384164,0.03128055,-0.9853373,-27.06,-9.12,-43.26,103,5,5,0.1056557,-0.0003487534,-0.0006315678,4.582192,-0.01617694,0.08425796,0.02632366,0.03385344,-0.7506918,0.6592593
634795918218490000,0.08993158,0.01564027,-0.9892473,-27.06,-9.12,-43.26,103,5,5,0.1747989,-0.1237847,-0.008081038,4.581644,-0.01475406,0.08381629,0.02663587,0.03316662,-0.7509045,0.6590394
634795918218690000,0.08993158,0.01955034,-1.000978,-25.98,-8.94,-42.66,103,5,5,0.09069607,-0.07162727,-0.07301123,4.580307,-0.0122993,0.08191418,0.0267514,0.03160065,-0.7514187,0.6585255
634795918218890000,0.08602151,0.02737048,-1.004888,-25.98,-8.94,-42.66,103,5,5,-0.07003513,0.07201941,-0.08261224,4.576282,-0.01337433,0.08356178,0.02708209,0.03249232,-0.7526957,0.6570083
634795918219090000,0.08993158,0.02737048,-0.9892473,-25.98,-8.94,-42.66,102,4,5,-0.02421396,0.06665059,-0.05922238,4.574464,-0.01421738,0.08501112,0.02738114,0.03326049,-0.7532528,0.6563187
634795918219290000,0.09775171,0.02346041,-0.9736071,-25.98,-8.94,-42.66,102,4,5,0.006650062,-0.03551821,-0.06878146,4.573265,-0.01429677,0.08480989,0.02729921,0.03320801,-0.7536483,0.6558705
634795918219490000,0.09775171,0.02346041,-0.9853373,-25.26,-8.82,-42.12,102,4,5,-0.01145837,-0.07914357,-0.09429105,4.571082,-0.0146482,0.08363509,0.02677696,0.0329262,-0.7543796,0.6550651
634795918219690000,0.09384164,0.03519062,-0.9892473,-25.26,-8.82,-42.12,102,4,5,0.05557409,-0.02486819,-0.06767009,4.568987,-0.01462889,0.08306419,0.02660211,0.03270425,-0.7550759,0.6542807
634795918219890000,0.1055719,0.03128055,-0.9775171,-25.26,-8.82,-42.12,102,4,5,-0.04774345,-0.06318871,0.003579783,4.56679,-0.01379991,0.08249331,0.02669295,0.03217537,-0.7558179,0.6534458
634795918220100000,0.1016618,0.02346041,-0.9775171,-25.26,-8.82,-42.12,103,5,5,-0.09347394,-0.01423403,-0.04113215,4.566265,-0.01494741,0.08209013,0.02617421,0.03247045,-0.7559782,0.6532668
634795918220290000,0.09384164,0.02346041,-0.9814272,-25.26,-8.82,-42.12,102,4,5,-0.1019133,-0.01636876,-0.03791755,4.564903,-0.01695204,0.08243345,0.02567191,0.03332281,-0.7563835,0.6527746
634795918220490000,0.09775171,0.02346041,-0.9736071,-25.26,-8.82,-42.12,102,4,5,-0.07314085,-0.1632218,-0.03042977,4.563757,-0.01892924,0.08168565,0.02476298,0.03381244,-0.7567381,0.6523734
634795918220690000,0.1055719,0.02737048,-0.9892473,-25.26,-8.82,-42.12,102,4,5,-0.0380276,-0.2068551,-0.03997916,4.562623,-0.02022695,0.07871675,0.02323442,0.03332271,-0.7571408,0.6519874
634795918220890000,0.1094819,0.03519062,-1.028348,-24.84,-9.36,-41.94,103,5,5,-0.0008081321,-0.135552,-0.03997108,4.561296,-0.02080584,0.07566786,0.02191224,0.03253439,-0.7576183,0.6515182
634795918221090000,0.1094819,0.03128055,-1.040078,-24.84,-9.36,-41.94,103,5,5,-0.0210018,0.008110973,-0.01763097,4.559285,-0.02154326,0.0756719,0.02170655,0.03279321,-0.7582611,0.6507638
634795918221290000,0.1094819,0.02346041,-1.028348,-24.84,-9.36,-41.94,103,5,5,0.06097035,0.03681738,-0.05807472,4.557553,-0.02084994,0.07701349,0.02246962,0.03294706,-0.7588116,0.6500881
634795918221490000,0.1094819,0.02737048,-1.016618,-24.84,-9.36,-41.94,104,6,5,0.1599191,0.01232189,-0.09529557,4.555211,-0.01825595,0.07788181,0.02368023,0.03221709,-0.759599,0.6491615
634795918221690000,0.1173021,0.03519062,-1.000978,-24.84,-9.36,-41.94,104,6,5,0.178011,0.03465509,-0.06863502,4.553219,-0.01515841,0.07911468,0.02518533,0.03141541,-0.7602728,0.6483549
634795918221890000,0.1173021,0.03128055,-0.9775171,-25.44,-10.5,-42,105,7,5,0.05343872,0.03990247,0.03885821,4.552761,-0.01382661,0.08005643,0.02598241,0.03120824,-0.7604254,0.6481544
634795918222090000,0.1055719,0.01955034,-0.9657869,-25.44,-10.5,-42,105,7,5,-0.3807651,0.1484301,0.05267898,4.552498,-0.01275182,0.08145988,0.02686865,0.03125064,-0.7605029,0.6480253
634795918222290000,0.09775171,0.01955034,-0.9579667,-25.44,-10.5,-42,104,6,5,-0.2732784,0.04089113,-0.01116697,4.551535,-0.02421808,0.08819807,0.02573488,0.03777874,-0.7604882,0.6477408
634795918222490000,0.1094819,0.03519062,-0.9736071,-25.44,-10.5,-42,104,6,5,-0.1945257,-0.1113037,0.003730798,4.550892,-0.02727747,0.08779692,0.02460373,0.03880439,-0.7606463,0.6475385
634795918222690000,0.1212121,0.04301075,-1.000978,-25.44,-10.5,-42,104,6,5,-0.1529881,-0.09532086,0.05479285,4.550434,-0.0306778,0.08611202,0.02287041,0.03954758,-0.7607636,0.6474193
634795918222890000,0.1290323,0.03519062,-1.024438,-25.44,-10.5,-42,104,6,5,-0.03058068,-0.09530223,0.02814881,4.550511,-0.03257418,0.08504713,0.02184943,0.03992562,-0.7607236,0.6474783
634795918223090000,0.1290323,0.03519062,-1.040078,-25.62,-11.22,-41.7,107,9,5,0.0684078,-0.1665904,-0.01444681,4.54991,-0.03287292,0.0838896,0.02132379,0.03965873,-0.7609373,0.6472612
634795918223290000,0.1251222,0.04692082,-1.059628,-25.62,-11.22,-41.7,106,8,5,0.2184558,-0.2155448,-0.007018836,4.548798,-0.03085375,0.08133006,0.02102346,0.03805171,-0.7613896,0.6468353
634795918223500000,0.1212121,0.04692082,-1.051808,-25.62,-11.22,-41.7,107,9,5,0.3717042,-0.1665904,0.0004097754,4.547456,-0.02115655,0.07702446,0.02254081,0.03295353,-0.7620788,0.6462523
