Timestamp,Acc.X,Acc.Y,Acc.Z,Comp.X,Comp.Y,Comp.Z,Comp.TrueHeading,Comp.MagneticHeading,Comp.HeadingAccuracy,Gyro.X,Gyro.Y,Gyro.Z,Motion.Yaw,Motion.Pitch,Motion.Roll,Motion.X,Motion.Y,Motion.Z,Motion.W
634795921662080000,0.0742913,0.03128055,-0.9657869,0,0,0,0,0,0,0,0,0,0,0,0,0,0,0,0
634795921662280000,0.06647116,0.03128055,-0.9657869,0,0,0,0,0,0,0,0,0,0,0,0,0,0,0,0
634795921662480000,0.06647116,0.04692082,-0.9853373,0,0,0,0,0,0,0,0,0,0,0,0,0,0,0,0
634795921662680000,0.07038123,0.05083089,-0.9970675,0,0,0,0,0,0,0,0,0,0,0,0,0,0,0,0
634795921662880000,0.07038123,0.05865103,-1.000978,0,0,0,0,0,0,0,0,0,0,0,0,0,0,0,0
634795921663080000,0.06256109,0.06256109,-0.9931574,0,0,0,0,0,0,0.0929722,0.01874426,-0.04261629,0,0,0,0,0,0,0
634795921663280000,0.07038123,0.04692082,-0.9814272,-26.64,-10.2,-13.86,145,47,5,-0.003870687,-0.02704924,-0.1054102,0,0,0,0,0,0,0
634795921663480000,0.08211143,0.04692082,-0.9814272,-26.64,-10.2,-13.86,145,47,5,-0.1187741,-0.08664808,-0.1351888,0,0,0,0,0,0,0
634795921663680000,0.08211143,0.0742913,-1.000978,-3.12,21.6,-39.6,10,272,5,-0.1421381,-0.07811523,-0.0383529,0,0,0,0,0,0,0
634795921663880000,0.08602151,0.0742913,-1.012708,-0.6,20.04,-37.98,5,267,5,0.00686958,-0.04618454,0.01693817,0,0,0,0,0,0,0
634795921664080000,0.09775171,0.06256109,-1.020528,-0.6,20.04,-37.98,6,268,5,0.1622183,-0.1281025,-0.007562423,0,0,0,0,0,0,0
634795921664280000,0.1016618,0.06256109,-1.016618,-0.6,20.04,-37.98,6,268,5,0.2941822,-0.08868086,-0.02671379,0,0,0,0,0,0,0
634795921664480000,0.08993158,0.06256109,-1.004888,-0.6,20.04,-37.98,7,269,5,0.203723,-0.05994114,0.003104412,0,0,0,0,0,0,0
634795921664680000,0.0742913,0.05865103,-1.000978,-0.6,20.04,-37.98,7,269,5,0.1015372,-0.04290002,0.02120763,0,0,0,0,0,0,0
634795921664890000,0.07038123,0.05083089,-0.9970675,-1.44,20.04,-38.52,9,271,5,-0.04424601,-0.02895716,-0.07353278,0,0,0,0,0,0,0
634795921665080000,0.07820137,0.05083089,-0.9892473,-1.44,20.04,-38.52,9,271,5,-0.04424601,-0.02895716,-0.07353278,0,0,0,0,0,0,0
634795921665280000,0.08602151,0.06647116,-1.000978,-1.44,20.04,-38.52,6,268,5,0.04303291,-0.1481218,-0.06926386,6.138465,-0.05629396,0.07678711,-0.02527501,0.04030167,-0.07113793,0.9963315
634795921665480000,0.08602151,0.07038123,-1.004888,-1.44,20.04,-38.52,7,269,5,0.3633514,-0.1289616,-0.04475624,6.139339,-0.05131912,0.0743395,-0.02290313,0.03889537,-0.07083673,0.9964661
634795921665680000,0.08211143,0.05865103,-0.9892473,-1.44,20.04,-38.52,7,269,5,0.1313384,-0.06826762,0.04881885,6.137286,-0.04805708,0.07429338,-0.02123981,0.03877864,-0.07192381,0.9964297
634795921665880000,0.07820137,0.03519062,-0.9814272,-1.44,20.04,-39.12,9,271,5,0.02915638,-0.0437633,-0.009741956,6.136015,-0.05099511,0.07444154,-0.02267332,0.0389725,-0.07249776,0.9963489
634795921666080000,0.07820137,0.03128055,-0.9853373,-1.44,20.04,-39.12,9,271,5,-0.0123515,-0.02248508,-0.04695504,6.134362,-0.05277633,0.07484173,-0.02351331,0.03925576,-0.07328061,0.9962611
634795921666280000,0.08211143,0.03910068,-0.9814272,-1.44,20.04,-39.12,7,269,5,-0.1325867,-0.02995211,-0.05335806,6.133635,-0.0523026,0.0753169,-0.02324508,0.03948353,-0.07364563,0.9962314
634795921666480000,0.08602151,0.04692082,-0.9853373,-1.44,20.04,-39.12,7,269,5,-0.1751038,-0.05224688,-0.05018155,6.133445,-0.05231714,0.07546186,-0.02324311,0.03955847,-0.07373741,0.9962217
634795921666680000,0.08211143,0.05083089,-1.008798,-1.44,20.04,-39.12,8,270,5,-0.09630119,-0.04685913,-0.03843091,6.131628,-0.05245972,0.07621169,-0.02324945,0.03995829,-0.07462895,0.9961392
634795921666880000,0.08602151,0.05474096,-1.016618,-1.44,20.04,-39.12,8,270,5,0.07398398,0.0382875,-0.0447904,6.130346,-0.0502739,0.07795012,-0.02206799,0.04075661,-0.07528694,0.9960842
634795921667080000,0.08993158,0.05083089,-1.004888,-1.44,20.04,-39.12,9,271,5,0.1197228,0.02768558,-0.0256004,6.129567,-0.04837155,0.07911944,-0.02105937,0.0412755,-0.07569747,0.9960536
634795921667280000,0.08993158,0.04301075,-0.9931574,-1.14,20.04,-38.94,7,269,5,0.0920259,-0.01914968,-0.004266092,6.129593,-0.04766703,0.07936143,-0.02069961,0.04136905,-0.07569581,0.9960574
634795921667480000,0.08211143,0.03128055,-1.000978,-1.14,20.04,-38.94,8,270,5,-0.01335293,-0.04042536,-0.06280593,6.129673,-0.04732704,0.07925344,-0.02053617,0.04130157,-0.07566434,0.996066
634795921667680000,0.0742913,0.03910068,-1.012708,-1.14,20.04,-38.94,8,270,5,-0.009090391,0.00108528,-0.08942741,6.129304,-0.0471518,0.07933116,-0.0204383,0.04133745,-0.07585083,0.9960523
634795921667880000,0.07820137,0.05474096,-1.008798,-1.14,20.04,-38.94,8,270,5,-0.02930003,0.09900538,-0.01281353,6.13033,-0.04532671,0.08143174,-0.0194694,0.04230421,-0.07535068,0.9960691
634795921668080000,0.08602151,0.04692082,-0.9892473,-1.14,20.04,-38.94,6,268,5,-0.02715966,0.05004496,0.02439807,6.132037,-0.04538178,0.08224285,-0.01950196,0.04269354,-0.074489,0.9961166
634795921668290000,0.08602151,0.03519062,-0.9814272,-1.38,20.28,-39.54,7,269,5,-0.01969731,-0.008501575,-0.004380499,6.13378,-0.04602599,0.08239126,-0.01985445,0.04277419,-0.07360488,0.996172
634795921668480000,0.08211143,0.03910068,-0.9892473,-1.38,20.28,-39.54,7,269,5,-0.04202699,0.009597918,-0.02139746,6.134288,-0.04667425,0.08228313,-0.02019227,0.04273902,-0.07333937,0.9961863
634795921668680000,0.08602151,0.03910068,-0.9931574,-1.38,20.28,-39.54,8,270,5,-0.07818563,-0.0116354,-0.04800096,6.133979,-0.04675817,0.08280384,-0.02020782,0.04300456,-0.07348513,0.9961638
634795921668880000,0.08602151,0.04301075,-1.000978,-1.38,20.28,-39.54,8,270,5,-0.0824104,-0.08396313,-0.06391793,6.133484,-0.04713321,0.08235323,-0.02040102,0.04279897,-0.07372896,0.9961507
634795921669080000,0.08602151,0.05083089,-1.012708,-1.38,20.28,-39.54,8,270,5,-0.01534474,-0.02438141,-0.02663653,6.132729,-0.04620432,0.08166575,-0.01994839,0.04242991,-0.07413485,0.9961455
634795921669280000,0.08993158,0.05474096,-1.008798,-1.38,20.28,-39.54,8,270,5,0.07723295,0.03732822,0.01695626,6.133124,-0.04431247,0.08265567,-0.01897691,0.042849,-0.07396508,0.9961591
634795921669480000,0.09384164,0.04692082,-1.000978,-0.84,20.46,-39.54,6,268,5,0.1304188,0.002216878,0.04031866,6.134082,-0.04246473,0.08308291,-0.01806104,0.0429848,-0.07352236,0.9962031
634795921669680000,0.08993158,0.03910068,-0.9892473,-0.84,20.46,-39.54,7,269,5,0.09950123,-0.03603478,0.02745963,6.135325,-0.04084229,0.083619,-0.01725951,0.04318137,-0.07293141,0.9962522
634795921669880000,0.09384164,0.03519062,-0.9814272,-0.84,20.46,-39.54,7,269,5,-0.02928119,-0.05197155,-0.01725432,6.136137,-0.04032659,0.08371282,-0.01701671,0.04320239,-0.07253721,0.9962842
634795921670080000,0.08993158,0.04301075,-0.9931574,-0.84,20.46,-39.54,7,269,5,-0.02501322,-0.0157431,0.004023689,6.13745,-0.04129553,0.08357668,-0.0175327,0.04315825,-0.07186373,0.996326
634795921670280000,0.08993158,0.05474096,-1.000978,-0.84,20.46,-39.54,7,269,5,0.003723945,0.01513124,0.04126912,6.138822,-0.0411799,0.08473753,-0.01746247,0.04372032,-0.07116897,0.9963527
634795921670480000,0.09775171,0.04692082,-1.000978,-0.9,20.64,-39.36,7,269,5,-0.02606712,0.001303126,0.03488749,6.140288,-0.04178429,0.08547973,-0.01776882,0.04409853,-0.07041655,0.996384
634795921670680000,0.09775171,0.03910068,-0.9970675,-0.9,20.64,-39.36,7,269,5,0.02502218,-0.03274761,0.0178584,6.140996,-0.04250669,0.08552778,-0.01814261,0.04414146,-0.07004727,0.9964014
634795921670880000,0.09384164,0.04301075,-0.9970675,-0.9,20.64,-39.36,8,270,5,0.0665094,-0.07850099,0.02425035,6.141488,-0.04223036,0.08532821,-0.01802293,0.04402797,-0.06981086,0.9964252
634795921671080000,0.09384164,0.03910068,-1.000978,-0.9,20.64,-39.36,8,270,5,-0.001618786,-0.04013024,0.04235995,6.142133,-0.04137778,0.08505845,-0.01762187,0.04385811,-0.06951168,0.9964608
634795921671280000,0.08993158,0.03519062,-0.9970675,-0.9,20.64,-39.36,7,269,5,-0.06971866,-0.005011553,0.008268564,6.143064,-0.04277277,0.08612525,-0.01829962,0.04442953,-0.06900452,0.9964585
634795921671480000,0.08993158,0.04692082,-0.9970675,-0.9,20.64,-39.36,7,269,5,0.004786041,-0.01139244,0.00289891,6.143404,-0.04211521,0.08646429,-0.01796763,0.04457264,-0.06884495,0.9964692
634795921671690000,0.08993158,0.04692082,-0.9970675,-1.14,20.88,-38.82,7,269,5,0.05050015,-0.03473429,0.05613006,6.144607,-0.03986478,0.08647346,-0.01687272,0.04448959,-0.06829578,0.9965298
634795921671880000,0.08993158,0.03519062,-0.9970675,-1.14,20.88,-38.82,7,269,5,-0.03888997,-0.02723097,0.01251269,6.145749,-0.03945065,0.08634603,-0.01669625,0.04440243,-0.06773757,0.9965748
634795921672080000,0.09384164,0.03519062,-0.9931574,-1.14,20.88,-38.82,7,269,5,-0.03887348,-0.0474222,-0.001316381,6.146218,-0.04083681,0.08610904,-0.01740559,0.04432722,-0.06747565,0.9965838
634795921672280000,0.09384164,0.04301075,-1.000978,-1.14,20.88,-38.82,7,269,5,-0.0473728,-0.04636563,0.01254526,6.146779,-0.04148006,0.08542383,-0.01776209,0.04400252,-0.06719039,0.9966111
634795921672480000,0.09384164,0.04301075,-1.004888,-1.14,20.88,-38.82,7,269,5,-0.06863773,-0.01014675,0.003010547,6.146863,-0.04224205,0.08559477,-0.01813786,0.04411253,-0.06712937,0.9966036
634795921672680000,0.08993158,0.04301075,-1.000978,-1.14,20.88,-38.82,7,269,5,-0.017543,0.007953805,-0.00653715,6.146657,-0.0426147,0.08620834,-0.01829783,0.04443262,-0.0672162,0.9965806
634795921672880000,0.08993158,0.04301075,-0.9931574,-1.02,20.58,-38.4,7,269,5,-0.002637143,-0.01861436,0.02431176,6.146977,-0.04248309,0.08660518,-0.01822567,0.04462305,-0.06705505,0.9965843
634795921673080000,0.08993158,0.04301075,-0.9931574,-1.02,20.58,-38.4,7,269,5,0.001623589,-0.03458434,0.03173122,6.14741,-0.04250431,0.08651245,-0.01824902,0.04457359,-0.06684019,0.9966005
634795921673280000,0.08602151,0.04301075,-0.9892473,-1.02,20.58,-38.4,7,269,5,0.01332836,-0.04626645,0.0104333,6.14741,-0.04250431,0.08651245,-0.01824902,0.04457359,-0.06684019,0.9966005
634795921673480000,0.08602151,0.04301075,-0.9892473,-1.02,20.58,-38.4,7,269,5,-0.01752725,-0.04517072,0.002983408,6.148756,-0.04304433,0.08520842,-0.01859252,0.04392937,-0.06617296,0.9966673
634795921673680000,0.08602151,0.03910068,-0.9892473,-1.02,20.58,-38.4,7,269,5,-0.105829,-0.04301173,0.006158098,6.149086,-0.04520559,0.08476733,-0.01969172,0.04377788,-0.06596697,0.9966665
634795921673880000,0.09384164,0.03910068,-1.000978,-1.02,20.58,-38.4,7,269,5,-0.1142611,-0.02173883,-0.0162747,6.149145,-0.04676294,0.08455181,-0.02047645,0.0437212,-0.06590632,0.9966572
634795921674080000,0.1016618,0.04301075,-1.008798,-1.38,20.58,-38.1,7,269,5,-0.01951767,0.008075337,0.01031762,6.149199,-0.04802799,0.08442938,-0.02111219,0.0437013,-0.06585295,0.9966483
634795921674280000,0.1016618,0.04692082,-1.004888,-1.38,20.58,-38.1,7,269,5,0.006035013,0.01018953,0.02736875,6.149092,-0.04748845,0.08509493,-0.02081834,0.04401631,-0.06590953,0.9966369
634795921674480000,0.09384164,0.03910068,-0.9931574,-1.38,20.58,-38.1,9,271,5,-0.00779108,0.02079869,0.0273862,6.148777,-0.04646301,0.08624958,-0.02026119,0.04456101,-0.06631332,0.9965809
634795921674680000,0.08602151,0.03128055,-0.9775171,-1.38,20.58,-38.1,9,271,5,-0.06097371,-0.01747841,0.0252123,6.148283,-0.04624128,0.08712971,-0.02010954,0.04499715,-0.06631332,0.9965809
634795921674880000,0.08602151,0.02737048,-0.9853373,-1.26,20.28,-38.22,7,269,5,-0.1301064,-0.03663063,-0.031221,6.146886,-0.0475018,0.08768427,-0.0206871,0.0453297,-0.06697404,0.9965098
634795921675100000,0.09384164,0.03910068,-1.012708,-1.26,20.28,-38.22,7,269,5,-0.1524018,0.0761452,-0.07056136,6.145259,-0.04878497,0.08857023,-0.02125859,0.04583129,-0.06774282,0.9964229
634795921675280000,0.1016618,0.05083089,-1.004888,-1.26,20.28,-38.22,7,269,5,-0.1310577,0.07929541,-0.0364704,6.144467,-0.04929018,0.08969867,-0.02145238,0.04641899,-0.06811034,0.9963664
634795921675480000,0.1016618,0.05474096,-1.000978,-1.26,20.28,-38.22,8,270,5,-0.01288702,0.02501195,0.02096509,6.143786,-0.04952025,0.09086608,-0.02150999,0.04701566,-0.06842797,0.9963155
634795921675680000,0.08993158,0.04692082,-0.9892473,-1.26,20.28,-38.22,8,270,5,0.1531407,-0.0632899,0.07948554,6.144034,-0.04428768,0.08991729,-0.01894244,0.04636151,-0.06843939,0.9963974
634795921675880000,0.09384164,0.03519062,-0.9853373,-1.26,20.28,-38.22,9,271,5,0.2957469,-0.2026844,0.07626106,6.144495,-0.04100227,0.08763564,-0.01739633,0.0451084,-0.06831262,0.9964918
634795921676080000,0.09775171,0.02737048,-1.000978,-1.26,20.28,-38.22,9,271,5,0.1871959,-0.1686291,0.1101871,6.145845,-0.03651547,0.08395517,-0.01531868,0.04311098,-0.06777976,0.9966508
634795921676290000,0.08993158,0.01564027,-1.020528,-1.32,20.4,-38.88,8,270,5,0.1212022,0.03783363,0.09312104,6.147141,-0.03260279,0.08201026,-0.01346332,0.0420004,-0.06723692,0.9967617
634795921676480000,0.08211143,0.007820137,-1.028348,-1.32,20.4,-38.88,8,270,5,0.04882793,0.1941965,0.09203543,6.148052,-0.02929783,0.08368635,-0.01177827,0.04271918,-0.06683765,0.9967793
634795921676680000,0.08211143,0.007820137,-1.012708,-1.32,20.4,-38.88,8,270,5,0.1158751,0.2526909,0.08243953,6.148817,-0.02784467,0.08615577,-0.01098683,0.04389701,-0.06646642,0.996762
634795921676880000,0.08993158,0,-0.9736071,-1.32,20.4,-38.88,6,268,5,-0.1660981,0.0281462,0.1005031,6.153269,-0.02388668,0.09220432,-0.008913811,0.0467598,-0.06428975,0.9967954
634795921677080000,0.08602151,0.003910068,-0.9579667,-1.32,20.4,-38.88,6,268,5,-0.4662096,-0.1868054,0.1387932,6.155923,-0.02878475,0.08963668,-0.01149964,0.04562224,-0.06287423,0.9969118
634795921677280000,0.06256109,0.003910068,-0.9736071,-1.32,20.4,-38.88,6,268,5,-0.3257319,-0.1303694,0.1025959,6.157494,-0.0319488,0.08770883,-0.0131738,0.0447505,-0.0620367,0.9969831
634795921677480000,0.06647116,0,-0.9931574,-1.32,20.4,-38.88,7,269,5,-0.1628843,-0.04093447,0.0408612,6.158834,-0.03357291,0.08614147,-0.01406263,0.0440102,-0.06134826,0.9970465
634795921677680000,0.0742913,0.003910068,-1.000978,-1.44,20.1,-39.18,5,267,5,-0.01918074,0.06018427,0.01104204,6.160995,-0.03245997,0.08480167,-0.01359671,0.04329348,-0.06030751,0.9971479
634795921677880000,0.07038123,0.01173021,-0.9931574,-1.44,20.1,-39.18,5,267,5,0.04681378,0.07298914,-0.003878823,6.163159,-0.02567124,0.08523786,-0.01024539,0.04329495,-0.05937209,0.997244
634795921678080000,0.06647116,0.01564027,-0.9853373,-1.44,20.1,-39.18,5,267,5,0.09151198,0.02193676,-0.02198779,6.163159,-0.02567124,0.08523786,-0.01024539,0.04329495,-0.05937209,0.997244
634795921678280000,0.08211143,0.003910068,-1.012708,-1.44,20.1,-39.18,6,268,5,0.303288,0.04109889,-0.04963316,6.1628,-0.013937,0.08478916,-0.004400042,0.04272289,-0.05980618,0.9972856
634795921678510000,0.113392,0.01173021,-1.004888,-0.84,19.92,-39.42,4,266,5,0.5853077,0.2432761,-0.1538618,6.161251,-0.006265879,0.08788645,-0.0004475394,0.04403798,-0.06073325,0.997182
634795921678680000,0.09775171,0.03128055,-0.969697,-0.84,19.92,-39.42,5,267,5,0.4693071,0.1634313,-0.08036405,6.160552,0.00297451,0.09097885,0.004269436,0.04529717,-0.06128243,0.9970829
634795921678880000,0.05865103,0.03128055,-0.9384164,-0.84,19.92,-39.42,5,267,5,-0.174499,-0.1334347,0.1442014,6.160601,0.004247189,0.09151304,0.004919126,0.0455246,-0.06128695,0.9970694
634795921679080000,0.03910068,0,-0.9345064,-0.84,19.92,-39.42,8,270,5,-0.3245547,-0.1525793,0.01435848,6.161739,0.0004031658,0.09030163,0.002940092,0.04504004,-0.06063316,0.9972661
634795921679290000,0.05474096,-0.01173021,-0.9657869,-0.84,19.92,-39.42,4,266,5,-0.3149767,-0.1280796,-0.04305774,6.166699,-0.01237368,0.08522236,-0.003691079,0.04288505,-0.05789303,0.9973944
634795921679480000,0.06647116,0.003910068,-0.9892473,-0.84,19.92,-39.42,4,266,5,-0.2138753,0.03373902,-0.05790591,6.168795,-0.01567125,0.0846175,-0.00539802,0.04267317,-0.0567799,0.9974597
634795921679690000,0.05865103,0.01173021,-0.9853373,-0.84,19.92,-39.42,1,263,5,-0.1020771,0.09441666,0.01876587,6.170527,-0.01613593,0.08447731,-0.005670721,0.04261155,-0.05590688,0.9975101
634795921679880000,0.05083089,0.003910068,-0.9657869,-1.08,20.52,-39.48,3,265,5,-0.09781931,0.1103231,0.09540455,6.173096,-0.0167098,0.08547544,-0.005984046,0.04311777,-0.05460816,0.9975585
634795921680080000,0.04692082,-0.01564027,-0.9736071,-1.08,20.52,-39.48,4,266,5,-0.2105983,-0.03228732,0.1209573,6.175395,-0.0178237,0.08508634,-0.0065997,0.04294653,-0.05343996,0.9976253
634795921680280000,0.03910068,-0.02346041,-0.9970675,-1.08,20.52,-39.48,4,266,5,-0.2968006,-0.05138111,0.0517875,6.182179,-0.02335143,0.07986212,-0.00963621,0.04045577,-0.04997211,0.9978844
634795921680480000,0.04301075,-0.02737048,-0.9970675,-1.08,20.52,-39.48,2,264,5,-0.2733876,0.03381405,-0.0418442,6.183794,-0.02411556,0.07854521,-0.01008305,0.03980967,-0.04916086,0.9979463
634795921680680000,0.05474096,-0.02737048,-0.9814272,-0.96,20.7,-38.82,0,262,5,-0.2701949,-0.05774007,-0.09494234,6.184585,-0.02428675,0.07740021,-0.01021266,0.03923855,-0.04877022,0.9979867
634795921680880000,0.06647116,-0.02737048,-0.9814272,-0.96,20.7,-38.82,0,262,5,-0.2701949,-0.05774007,-0.09494234,6.185678,-0.02447843,0.07458115,-0.01039905,0.03783088,-0.04824136,0.9980649
634795921681080000,0.0742913,-0.02737048,-0.9931574,-0.96,20.7,-38.82,0,262,5,-0.2712592,0.09559009,-0.1395527,6.185685,-0.02413559,0.07231034,-0.01028387,0.03668936,-0.04825978,0.9981078
634795921681280000,0.09775171,-0.02737048,-0.9775171,-0.96,20.7,-38.82,0,262,5,-0.3734248,0.1221647,-0.1235761,6.184485,-0.02442479,0.07346927,-0.01037741,0.03728098,-0.04884501,0.9980564
634795921681480000,0.1251222,-0.01955034,-0.9462366,-0.96,20.7,-38.82,4,266,5,-0.3542688,0.03272247,-0.02991945,6.18223,-0.02762365,0.07732916,-0.01183328,0.03929836,-0.04988053,0.9979116
634795921681680000,0.1368524,-0.01173021,-0.914956,-0.96,20.7,-38.82,6,268,5,-0.1147736,-0.03537335,0.1286317,6.181911,-0.02624178,0.08001768,-0.01106881,0.04060704,-0.05004667,0.9978597
634795921681900000,0.1485826,-0.02737048,-0.8797654,-0.36,21.9,-37.86,7,269,5,0.05658071,-0.1928266,0.2190764,6.18272,-0.02240324,0.08003771,-0.009169557,0.04051721,-0.04972069,0.9978989
634795921682080000,0.1485826,-0.03910068,-0.8875855,-0.36,21.9,-37.86,7,269,5,-0.003016966,-0.2715793,0.2254617,6.184152,-0.0206809,0.07722259,-0.008409354,0.03906377,-0.0490584,0.9979963
634795921682280000,0.1329423,-0.05083089,-0.9266862,-0.36,21.9,-37.86,11,273,5,-0.2105191,-0.2896711,0.1765073,6.185277,-0.01952243,0.07243574,-0.007971079,0.03664221,-0.04854766,0.9981167
634795921682480000,0.1094819,-0.04301075,-0.9618768,-0.36,21.9,-37.86,11,273,5,-0.3478041,-0.1843128,0.1605263,6.187648,-0.02540326,0.06487942,-0.01113154,0.0330006,-0.04730986,0.998273
634795921682680000,0.09384164,-0.03519062,-0.9853373,-0.36,21.9,-37.86,8,270,5,-0.4212357,-0.142808,0.1370566,6.188923,-0.0273459,0.06440306,-0.01213358,0.03280104,-0.04664539,0.9982991
634795921682880000,0.09775171,-0.04692082,-0.9853373,-0.36,21.9,-37.86,8,270,5,-0.4265568,-0.07354552,0.111458,6.191364,-0.02886319,0.06561041,-0.01290304,0.0334233,-0.04539217,0.9983266
634795921683090000,0.09775171,-0.07038123,-0.9775171,-0.18,22.62,-37.68,2,264,5,-0.4010154,-0.1139354,0.06350899,6.194024,-0.03021955,0.06550682,-0.01362686,0.03338425,-0.04404232,0.9983788
634795921683280000,0.08993158,-0.07038123,-0.9814272,-0.18,22.62,-37.68,3,265,5,-0.2722441,-0.1596971,0.01662955,6.195594,-0.02784204,0.06472933,-0.01248332,0.03293402,-0.04330431,0.9984409
634795921683480000,0.09384164,-0.07038123,-0.9501466,-0.18,22.62,-37.68,2,264,5,-0.06257899,0.004179644,0.1569732,6.197029,-0.02400088,0.06476772,-0.01058847,0.03286235,-0.04265089,0.9984933
634795921683680000,0.09775171,-0.08602151,-0.914956,-0.18,22.62,-37.68,2,264,5,-0.1221792,-0.03516306,0.227212,6.200653,-0.01728248,0.06646872,-0.00725827,0.033555,-0.04094336,0.9985715
634795921683880000,0.09384164,-0.1173021,-0.9032258,-0.18,22.62,-37.68,2,264,5,-0.1349245,-0.1149301,0.1643915,6.21032,-0.008846045,0.0672003,-0.003193917,0.03373223,-0.03625505,0.998768
634795921684080000,0.08602151,-0.1290323,-0.9188661,-0.18,22.62,-37.68,3,265,5,-0.04124266,-0.2128389,0.05682916,6.212112,-0.007627726,0.06564331,-0.002643525,0.03293025,-0.03538441,0.9988276
634795921684280000,0.08211143,-0.1290323,-0.9618768,0.18,23.4,-37.56,2,264,5,0.02687297,-0.2107104,-0.02090876,6.213614,-0.003768205,0.06194615,-0.0008050485,0.03101485,-0.03470366,0.998916
634795921684480000,0.08211143,-0.1329423,-1.020528,0.18,23.4,-37.56,1,263,5,-0.005051551,-0.1596276,-0.09224516,6.214416,0.001262665,0.05841827,0.001634686,0.02916602,-0.03438148,0.9989818
634795921684680000,0.08211143,-0.1407625,-1.063539,0.18,23.4,-37.56,1,263,5,-0.02098492,-0.07447873,-0.2880672,6.213825,0.01118231,0.05778575,0.006587033,0.02867725,-0.03481948,0.9989604
634795921684880000,0.1173021,-0.1290323,-1.083089,0.18,23.4,-37.56,0,262,5,-0.03799411,-0.04887337,-0.4423798,6.211577,0.01689291,0.05788875,0.009473369,0.02861854,-0.03602436,0.9988961
634795921685080000,0.1524927,-0.08993158,-1.106549,0.18,23.4,-37.56,359,5,5,-0.02623602,-0.1105238,-0.4423798,6.199772,0.02351689,0.05522084,0.01289449,0.02709094,-0.0420003,0.998667
634795921685300000,0.1173021,-0.06256109,-1.184751,0.66,23.88,-37.5,0,262,5,0.1387299,-0.3680663,-0.3359573,6.195082,0.02809715,0.04905832,0.01511028,0.02388204,-0.04436431,0.9986156
634795921685480000,0.09384164,-0.05474096,-1.262952,0.66,23.88,-37.5,0,262,5,0.5261079,-0.3265615,-0.33915,6.191517,0.03461647,0.04509867,0.01831772,0.02172758,-0.04618942,0.9985284
634795921685680000,0.1368524,-0.007820137,-1.325513,0.66,23.88,-37.5,2,264,5,0.876238,-0.1605424,-0.2646542,6.188034,0.04830074,0.04156363,0.02510346,0.01960261,-0.04803472,0.9983377
634795921685880000,0.1016618,0.05865103,-1.442815,0.66,23.88,-37.5,357,3,5,0.4324561,-0.00408928,0.1875827,6.194414,0.07136774,0.03422844,0.03639479,0.01550286,-0.04494651,0.9982058
634795921686080000,0.05083089,0.07820137,-1.513196,0.66,23.88,-37.5,357,3,5,0.3781806,0.5610065,0.1481902,6.198747,0.07444691,0.03767681,0.03796959,0.01723705,-0.04287028,0.9982101
634795921686280000,0.08993158,0.07038123,-1.438905,0.66,23.88,-37.5,357,3,5,0.3079417,0.5578138,0.126877,6.205599,0.07799053,0.0477134,0.03986939,0.02230679,-0.03967237,0.9981678
634795921686490000,0.1407625,0.09384164,-1.274682,0.66,23.46,-38.22,355,1,5,0.276015,0.2598308,0.2002975,6.210871,0.07935309,0.05335807,0.04058963,0.02520407,-0.03716569,0.9981663
634795921686680000,0.1407625,0.113392,-1.208211,0.66,23.46,-38.22,355,1,5,0.3356116,-0.07752316,0.2747932,6.221133,0.08217788,0.0562812,0.0419135,0.02682585,-0.03213814,0.9982439
634795921686880000,0.09775171,0.113392,-1.176931,0.66,23.46,-38.22,357,3,5,0.4281992,-0.1690465,0.2864997,6.226501,0.08476686,0.05321574,0.04309201,0.02536985,-0.02942982,0.9983153
634795921687080000,0.02346041,0.08993158,-1.13392,0.66,23.46,-38.22,357,3,5,0.4824747,-0.05514326,0.2120039,6.229624,0.08711504,0.0509268,0.04419511,0.02426176,-0.02785151,0.9983399
634795921687280000,0,0.05865103,-1.047898,0.66,23.46,-38.22,0,262,5,0.3175198,0.06940866,-0.0380894,6.236912,0.09191846,0.0503397,0.04649779,0.02407135,-0.02425867,0.9983336
634795921687480000,0.003910068,0.03910068,-0.9736071,0.66,23.46,-38.22,0,262,5,-0.04006988,-0.03165666,-0.2381399,6.237669,0.08493996,0.04946637,0.04299551,0.02373608,-0.02377854,0.9985102
634795921687680000,0.01173021,0.04301075,-0.9188661,0.66,22.5,-38.4,352,254,5,-0.2827038,-0.05291158,-0.3924525,6.235463,0.06985569,0.04689991,0.03546024,0.02259392,-0.02465627,0.9988114
634795921687880000,0.03128055,0.06647116,-0.856305,0.66,22.5,-38.4,352,254,5,-0.5508886,0.02159398,-0.5020677,6.232817,0.05829596,0.04597319,0.02970545,0.02223385,-0.02583388,0.9989774
634795921688080000,0.05865103,0.07820137,-0.7781036,0.66,22.5,-38.4,352,254,5,-0.5817511,0.04607754,-0.4403427,6.228312,0.04409289,0.04751026,0.02268166,0.0231336,-0.02794207,0.9990844
634795921688280000,0.07820137,0.07820137,-0.7155425,0.66,22.5,-38.4,356,2,5,-0.363585,-0.02625923,-0.3328559,6.219646,0.01843643,0.04852414,0.009981303,0.02395372,-0.03197716,0.9991516
634795921688480000,0.08993158,0.05474096,-0.6764418,0.66,22.5,-38.4,2,264,5,-0.1911805,-0.1059973,-0.3115714,6.214486,0.01084494,0.04703331,0.006225235,0.02331409,-0.03446031,0.9991147
634795921688680000,0.1016618,0.03128055,-0.6647117,1.08,20.82,-38.22,8,270,5,-0.18796,-0.1996205,-0.375425,6.210042,0.006986618,0.04524576,0.004317209,0.02247802,-0.03663307,0.9990667
634795921688880000,0.09384164,0.03910068,-0.6999022,1.08,20.82,-38.22,8,270,5,-0.2699054,-0.2389968,-0.3637185,6.202347,0.001012325,0.04124856,0.001338912,0.0205855,-0.0404099,0.9989702
634795921689080000,0.06256109,0.05083089,-0.7233627,1.08,20.82,-38.22,12,274,5,-0.3220524,-0.1293592,-0.2541033,6.195041,-0.005402326,0.03729856,-0.001876432,0.01874904,-0.0439999,0.9988538
634795921689280000,0.05865103,0.05083089,-0.7155425,1.08,20.82,-38.22,10,272,5,-0.1166447,-0.08998269,-0.129578,6.190735,-0.01415563,0.03289413,-0.006309298,0.01675534,-0.04608487,0.9987771
634795921689480000,0.06647116,0.03128055,-0.7233627,1.08,20.82,-38.22,3,265,5,0.112173,-0.1804259,-0.02315651,6.191794,-0.0130105,0.03049993,-0.005801058,0.01553028,-0.045574,0.9988234
634795921689680000,0.04692082,0.007820137,-0.8054741,1.08,20.82,-38.22,3,265,5,0.2994766,-0.1846828,-0.09978455,6.191903,-0.008869885,0.02696478,-0.003814799,0.01367012,-0.04556097,0.9988607
634795921689900000,0.01564027,0.003910068,-0.9305963,1.02,19.68,-38.34,3,265,5,0.2696783,-0.1453064,-0.08377042,6.190745,-0.003729343,0.02350271,-0.001319552,0.01182465,-0.04617839,0.9988624
634795921690080000,-0.007820137,0.01173021,-0.9892473,1.02,19.68,-38.34,4,266,5,0.268614,-0.01861862,0.001369942,6.192365,0.001234054,0.02097499,0.001092477,0.01044845,-0.04539895,0.9989137
634795921690280000,-0.05474096,0,-1.032258,1.02,19.68,-38.34,352,254,5,0.4154771,0.1165504,-0.07949627,6.19738,0.005989075,0.02052903,0.003431902,0.0101264,-0.04291771,0.9990214
634795921690480000,-0.04692082,-0.02737048,-1.024438,1.02,19.68,-38.34,352,254,5,0.5868174,0.1462798,-0.2242084,6.200711,0.009873628,0.02088916,0.005362859,0.01023187,-0.04127425,0.9990811
634795921690680000,0.01564027,-0.02346041,-1.059628,1.02,19.68,-38.34,350,252,5,0.6006523,-0.06762789,-0.4242828,6.205549,0.02980447,0.01819205,0.01524281,0.008509731,-0.03893757,0.9990892
634795921690880000,0.06647116,0.003910068,-1.15347,1.02,19.68,-38.34,345,247,5,0.3814219,-0.07182807,-0.382778,6.204555,0.03826714,0.01489401,0.01940968,0.006687819,-0.03943945,0.999011
634795921691080000,0.1251222,0.0742913,-1.212121,0.96,17.28,-38.1,357,3,5,0.2601002,-0.1132978,-0.1177795,6.204272,0.04301095,0.01349807,0.02175271,0.005893927,-0.03958118,0.9989622
634795921691280000,0.1329423,0.1212121,-1.278592,0.96,17.28,-38.1,357,3,5,0.1845403,-0.3091153,0.1865799,6.206441,0.04497957,0.01125729,0.02268686,0.004760373,-0.03847872,0.9989905
634795921691480000,0.08993158,0.1212121,-1.450635,0.96,17.28,-38.1,3,265,5,0.1515252,-0.823136,0.2472408,6.210614,0.04559064,0.001844168,0.02281183,9.436955E-05,-0.03628918,0.999081
634795921691680000,0.05865103,0.1407625,-1.540567,0.96,17.28,-38.1,3,265,5,0.3271224,-0.7156493,0.0514081,6.21476,0.05141592,-0.021855,0.02531485,-0.01179648,-0.03391235,0.9990345
634795921691880000,0.09775171,0.1915933,-1.407625,-0.48,15,-37.74,0,262,5,0.5506096,-0.03774679,0.08011261,6.221274,0.05717206,-0.02057195,0.0282487,-0.01116126,-0.03064237,0.9990688
634795921692080000,0.1407625,0.1955034,-1.180841,-0.48,15,-37.74,6,268,5,0.1366053,-0.1186687,0.4866466,6.225222,0.0590167,-0.01930094,0.02921082,-0.010497,-0.0286789,0.9991066
634795921692280000,0.1290323,0.1485826,-1.036168,-0.48,15,-37.74,6,268,5,-0.01563623,-0.4177159,0.4281142,6.23155,0.05768919,-0.02164161,0.02855008,-0.01155697,-0.02549052,0.9992005
634795921692480000,0.09384164,0.09775171,-1.004888,-0.48,15,-37.74,6,268,5,-0.1082473,-0.59757,0.2216546,6.231627,0.05379819,-0.02974999,0.02650072,-0.01555732,-0.0253637,0.9992059
634795921692680000,0.08602151,0.07820137,-1.012708,-0.48,15,-37.74,20,282,5,-0.1082473,-0.59757,0.2216546,6.224966,0.03593564,-0.04267371,0.01733422,-0.02184558,-0.02871168,0.9991987
634795921692880000,0.08211143,0.08993158,-0.9814272,-0.48,15,-37.74,13,275,5,-0.5467059,-0.2325408,0.06520046,6.223169,0.02626181,-0.04283786,0.01247913,-0.02179966,-0.02971268,0.9992428
634795921693080000,0.07038123,0.1094819,-0.8954057,-0.48,15,-37.74,13,275,5,-0.5222287,-0.2208343,0.1237187,6.222281,0.01041531,-0.04191864,0.004565983,-0.02110631,-0.03033139,0.9993066
634795921693300000,0.0742913,0.1055719,-0.7781036,-2.22,13.02,-37.98,23,285,5,-0.2966129,-0.285752,0.1683896,6.218784,-0.001737118,-0.04312002,-0.00156202,-0.02151917,-0.03220639,0.9992483
634795921693480000,0.07038123,0.08993158,-0.7468231,-2.22,13.02,-37.98,28,290,5,-0.1316417,-0.2208343,0.2141513,6.213738,-0.007541418,-0.04853368,-0.004609651,-0.0241188,-0.03479746,0.9990927
634795921693680000,0.06256109,0.05865103,-0.7311828,-2.22,13.02,-37.98,37,299,5,-0.1315945,-0.06756532,0.2450139,6.207949,-0.01080012,-0.05156457,-0.006363891,-0.02555783,-0.03773515,0.9989406
634795921693880000,0.05083089,0.03128055,-0.7194526,-2.22,13.02,-37.98,37,299,5,-0.1922199,0.09099092,0.2375643,6.20487,-0.01307607,-0.05181885,-0.007544889,-0.02563025,-0.03930271,0.9988701
634795921694080000,0.03910068,0.01564027,-0.7077224,-2.22,13.02,-37.98,36,298,5,-0.1751765,-0.005853561,0.1886099,6.199617,-0.02009892,-0.05003524,-0.01108228,-0.02457227,-0.04200798,0.9987536
634795921694280000,0.05474096,0.01173021,-0.7077224,-3.78,10.92,-37.98,37,299,5,0.163259,-0.183548,0.1587933,6.194795,-0.01661897,-0.05322194,-0.009473844,-0.02621396,-0.04438462,0.9986256
634795921694490000,0.06256109,0.02737048,-0.7546432,-3.78,10.92,-37.98,33,295,5,0.4761412,-0.1367221,0.1395825,6.191637,-0.0109477,-0.05504453,-0.006725201,-0.02723919,-0.04589085,0.9985524
634795921694680000,0.04692082,0.02346041,-0.7937439,-3.78,10.92,-37.98,33,295,5,0.1877361,0.2090485,0.08309659,6.185624,-0.0001661777,-0.05357945,-0.001389107,-0.02675059,-0.04874637,0.9984519
634795921694880000,0.03128055,-0.003910068,-0.8328446,-3.78,10.92,-37.98,36,298,5,0.1877361,0.2090485,0.08309659,6.178493,0.006442785,-0.0498116,0.001912957,-0.02503745,-0.05222528,0.9983196
634795921695080000,0.04301075,0,-0.9266862,-3.78,10.92,-37.98,37,299,5,0.08880831,-0.1463687,-0.1317573,6.165456,0.008712769,-0.04973841,0.0028846,-0.02507957,-0.05870384,0.9979562
634795921695280000,0.03519062,0.01955034,-1.036168,-3.78,10.92,-37.98,23,285,5,0.3133598,-0.005875378,-0.1199777,6.157625,0.01245737,-0.05122304,0.004607717,-0.02594842,-0.06255782,0.9976933
634795921695480000,0.03910068,0.02737048,-1.11828,-5.16,10.5,-37.68,29,291,5,0.5698381,0.1271603,-0.2008121,6.149518,0.01943874,-0.04969597,0.008035305,-0.02543766,-0.06651906,0.9974285
634795921695680000,0.04692082,0.03519062,-1.204301,-5.16,10.5,-37.68,29,291,5,0.5613243,0.1739183,-0.1795103,6.138124,0.02985573,-0.04439175,0.01327625,-0.02321472,-0.07211083,0.997038
634795921695880000,0.03128055,0.05083089,-1.290323,-5.16,10.5,-37.68,26,288,5,0.4878927,0.1632022,-0.06351639,6.128796,0.03913903,-0.04146945,0.01790723,-0.02217628,-0.07668231,0.9966481
634795921696080000,0.01173021,0.04301075,-1.305963,-5.16,10.5,-37.68,25,287,5,0.616664,0.4313592,0.06841367,6.123652,0.04476929,-0.03924978,0.02074406,-0.02133952,-0.07920938,0.9961593
634795921696280000,0.007820137,0.04301075,-1.239492,-5.16,10.5,-37.68,21,283,5,0.7273434,0.505855,0.1630849,6.117043,0.06650233,-0.02382278,0.03214025,-0.01462183,-0.08252937,0.9959629
634795921696480000,-0.003910068,0.05083089,-1.1652,-5.16,10.5,-37.68,21,283,5,0.7390499,0.2578905,0.2088466,6.11571,0.0785296,-0.01976883,0.03828912,-0.01312515,-0.08318462,0.9957118
634795921696690000,0.003910068,0.02737048,-1.1652,-5.34,10.62,-38.16,18,280,5,0.4868285,0.03860168,-0.2051582,6.109764,0.08692765,-0.01883185,0.04247037,-0.01313429,-0.08610893,0.9952934
634795921696880000,0.01173021,0.01173021,-1.255132,-5.34,10.62,-38.16,19,281,5,-0.1836153,0.04922232,-0.6351051,6.101698,0.0877769,-0.01810896,0.0428723,-0.01298414,-0.0901328,0.9949219
634795921697080000,-0.007820137,0.07038123,-1.321603,-5.34,10.62,-38.16,17,279,5,-0.6806085,0.03538921,-0.6595823,6.086175,0.07950353,-0.01663029,0.0387302,-0.01217647,-0.09793581,0.9943643
634795921697280000,-0.03128055,0.1446725,-1.266862,-5.34,10.62,-38.16,17,279,5,-0.6327183,-0.1103495,-0.4637649,6.072124,0.06517005,-0.01657391,0.0315245,-0.01166798,-0.105007,0.9939032
634795921697480000,-0.02737048,0.1524927,-1.15347,-5.34,10.62,-38.16,18,280,5,0.3718963,0.03232159,-0.3222229,6.052646,0.05736566,-0.01868141,0.02741351,-0.01257312,-0.1146966,0.9929426
634795921697680000,-0.003910068,0.09775171,-1.032258,-5.58,9.96,-38.1,27,289,5,0.1600918,0.001467681,-0.4605722,6.040944,0.06026387,-0.01845253,0.02879121,-0.01279435,-0.1204887,0.9922146
634795921697880000,0.03519062,0.03519062,-0.9345064,-5.58,9.96,-38.1,27,289,5,0.1600918,0.001467681,-0.4605722,6.031052,0.05944514,-0.01877451,0.02830134,-0.0130449,-0.1253956,0.9916173
634795921698080000,0.06647116,0.01955034,-0.8641251,-5.58,9.96,-38.1,27,289,5,-0.5284669,-0.3794982,-0.4329024,6.015613,0.04580378,-0.02203572,0.02122462,-0.01397071,-0.1330944,0.9907776
634795921698280000,0.05083089,0.03910068,-0.8172043,-5.58,9.96,-38.1,33,295,5,-0.3273283,-0.3348008,-0.1817299,6.002314,0.03637194,-0.02875686,0.01599182,-0.01677919,-0.139678,0.9899256
634795921698480000,0.03128055,0.02346041,-0.7820137,-5.58,9.96,-38.1,41,303,5,-0.0165388,0.01639791,-0.08589535,5.983081,0.03037333,-0.03466702,0.01242247,-0.01940574,-0.1491901,0.9885401
634795921698680000,0.03910068,-0.02737048,-0.7233627,-5.58,9.96,-38.1,41,303,5,0.06010371,0.1866088,-0.1486192,5.974022,0.03109646,-0.03144121,0.01294027,-0.01792415,-0.1536872,0.9878722
634795921698880000,0.07820137,-0.04692082,-0.6803519,-5.58,9.96,-38.1,41,303,5,-0.1037384,0.08437465,-0.2475921,5.96808,0.0305407,-0.02984154,0.01273819,-0.01712926,-0.1566411,0.9874249
634795921699080000,0.08993158,-0.01564027,-0.7155425,-6.12,9.72,-38.82,42,304,5,-0.2527109,-0.3051287,-0.1677549,5.960275,0.02785063,-0.03217924,0.01115585,-0.01811635,-0.1604971,0.986807
634795921699280000,0.04692082,0.01173021,-0.7820137,-6.12,9.72,-38.82,45,307,5,-0.2229126,-0.3572757,-0.1059978,5.952361,0.02580786,-0.03781736,0.009612095,-0.02077221,-0.1643748,0.9861324
634795921699480000,0.003910068,0.01564027,-0.8054741,-6.12,9.72,-38.82,49,311,5,0.3155767,0.2152813,-0.004934635,5.943871,0.02570629,-0.04203403,0.009117446,-0.02288166,-0.1714533,0.9848674
634795921699680000,0.01173021,0.007820137,-0.7702835,-6.12,9.72,-38.82,49,311,5,0.4837243,0.3781077,-0.002831726,5.934155,0.03703117,-0.03522813,0.01517278,-0.02055682,-0.1732529,0.9845459
634795921699880000,0.01955034,0,-0.7624633,-6.12,9.72,-38.82,43,305,5,0.2879069,0.07691061,0.1365415,5.933016,0.04174399,-0.03212893,0.01775124,-0.01944974,-0.1738009,0.9844287
634795921700080000,-0.01173021,-0.01564027,-0.8484849,-6.48,9.9,-39.48,36,298,5,0.08034241,-0.216813,0.1791105,5.932642,0.04511476,-0.03304231,0.01932687,-0.02019574,-0.1739405,0.9843593
634795921700280000,-0.04301075,-0.03128055,-0.969697,-6.48,9.9,-39.48,38,300,5,0.05902118,-0.1582806,-0.03161965,5.930783,0.04580092,-0.03746581,0.0192573,-0.02245014,-0.1747916,0.9841611
634795921700480000,-0.04692082,-0.007820137,-1.047898,-6.48,9.9,-39.48,38,300,5,0.06966737,0.2301349,-0.1678079,5.928239,0.04698467,-0.03783834,0.0197781,-0.02276201,-0.1760252,0.9839237
634795921700680000,-0.01955034,0.02737048,-1.075269,-6.48,9.9,-39.48,27,289,5,-0.08890334,0.2514194,-0.07840576,5.925994,0.04721856,-0.03311026,0.02028836,-0.0204797,-0.1771894,0.9837545
634795921700880000,0,0.02737048,-1.16129,-6.48,9.9,-39.48,17,279,5,-0.2080966,-0.3583797,0.1897414,5.929535,0.03912091,-0.03903925,0.01581784,-0.02265029,-0.1754618,0.9840986
634795921701080000,-0.01173021,0.007820137,-1.294233,-6.66,9.84,-39.66,26,288,5,0.3357136,-0.5871881,0.1162773,5.928809,0.04345393,-0.04915738,0.01704785,-0.02801394,-0.1756422,0.9839077
634795921701280000,-0.01173021,0,-1.305963,-6.66,9.84,-39.66,20,282,5,0.758211,0.7069069,0.00672704,5.926449,0.0581479,-0.04600059,0.02452243,-0.02778014,-0.1766434,0.9835771
634795921701480000,0.03128055,-0.01173021,-1.180841,-6.66,9.84,-39.66,20,282,5,0.02070014,0.06518593,0.06209271,5.925513,0.07070136,-0.03412449,0.03174151,-0.02306492,-0.1771543,0.9834006
634795921701680000,0.07820137,-0.01173021,-1.14565,-6.66,9.84,-39.66,20,282,5,-0.3060006,-0.7893869,0.01844937,5.925013,0.07148337,-0.03243959,0.03227067,-0.02231401,-0.1774229,0.9833524
634795921701880000,0.08602151,0.01955034,-1.286412,-6.66,9.84,-39.66,26,288,5,-0.1442191,-0.8266348,-0.1997039,5.915965,0.0639286,-0.05684257,0.02622311,-0.03375823,-0.1815205,0.9824576
634795921702080000,0.06256109,0.08993158,-1.376344,-7.38,10.8,-40.14,31,293,5,0.1558712,0.07051175,-0.07518701,5.90771,0.06544113,-0.06205952,0.02633718,-0.03656616,-0.1854502,0.9816198
634795921702280000,0.07038123,0.1564027,-1.219941,-7.38,10.8,-40.14,31,293,5,0.1654492,0.3674305,0.1503907,5.903884,0.06851697,-0.05649006,0.02830341,-0.03417305,-0.1873801,0.9812848
634795921702480000,0.08602151,0.1564027,-1.024438,-7.38,10.8,-40.14,33,295,5,0.05902363,-0.1327588,0.3398228,5.901815,0.0695591,-0.05569994,0.02885442,-0.03391305,-0.1883927,0.9810839
634795921702680000,0.04692082,0.07820137,-1.008798,-7.38,10.8,-40.14,48,310,5,-0.1282331,-0.6180454,0.3291806,5.898157,0.06802558,-0.06457197,0.02718804,-0.03816865,-0.1900397,0.9806574
634795921702880000,0.01955034,0.04301075,-1.040078,-7.38,10.8,-40.14,59,321,5,-0.2559242,-0.4765035,0.1056775,5.889695,0.05767751,-0.07152759,0.01768706,-0.04003368,-0.1967035,0.9794857
634795921703080000,0.03128055,0.06647116,-0.9736071,-7.38,10.8,-40.14,59,321,5,-0.5070814,-0.3104844,-0.1539403,5.877602,0.03883457,-0.07316172,0.01164095,-0.03972437,-0.2005363,0.9788113
634795921703280000,0.05083089,0.1055719,-0.8836755,-7.32,10.98,-39.3,33,295,5,-0.3751175,-0.4775677,0.03762437,5.87208,0.02780581,-0.07705688,0.005738466,-0.04053986,-0.2034126,0.9782367
634795921703480000,0.04301075,0.1055719,-0.8523949,-7.32,10.98,-39.3,40,302,5,-0.2729518,-0.431806,0.1855389,5.867938,0.01986503,-0.08350778,0.001106571,-0.04288891,-0.2055397,0.9777079
634795921703680000,0.02346041,0.06647116,-0.856305,-7.32,10.98,-39.3,53,315,5,-0.3378696,-0.2391813,0.1525293,5.862921,0.01479363,-0.09021699,-0.002179033,-0.0456414,-0.208045,0.9770514
634795921703880000,0.02346041,0.03910068,-0.8367546,-7.32,10.98,-39.3,54,316,5,-0.4336498,0.02472441,0.1428812,5.857512,0.00807786,-0.09195828,-0.005765203,-0.0457777,-0.2108272,0.9764339
634795921704080000,0.03128055,0.03519062,-0.7898338,-7.32,10.98,-39.3,54,316,5,-0.382567,-0.09766659,0.1992414,5.855377,-0.003869772,-0.09283817,-0.0117389,-0.04493448,-0.2121354,0.9761361
634795921704280000,0.03128055,0.02737048,-0.7702835,-7.32,10.98,-39.3,41,303,5,-0.1633334,-0.2062176,0.291829,5.856549,-0.005987167,-0.09594106,-0.01307393,-0.04623203,-0.2115999,0.9761748
634795921704480000,0.01173021,0.01173021,-0.7898338,-8.04,11.46,-38.94,45,307,5,0.1591012,-0.1402356,0.2705445,5.857137,-0.002809286,-0.09794748,-0.01172096,-0.04755095,-0.2112302,0.9762087
634795921704680000,0.003910068,-0.003910068,-0.8132942,-8.04,11.46,-38.94,45,307,5,0.2282759,0.1172986,0.1683789,5.856746,0.001727342,-0.09601474,-0.009311671,-0.04708475,-0.2113233,0.9762371
634795921704880000,0.007820137,-0.007820137,-0.801564,-8.04,11.46,-38.94,45,307,5,0.1164578,0.1256976,0.1480669,5.857192,0.004588127,-0.09204853,-0.007485781,-0.0454526,-0.2110625,0.9763865
634795921705080000,0.007820137,-0.01955034,-0.797654,-8.04,11.46,-38.94,39,301,5,0.2483965,0.1182338,0.1395166,5.857885,0.006207466,-0.09017562,-0.006481857,-0.04471143,-0.2106986,0.9765065
634795921705280000,0.003910068,-0.03519062,-0.8211144,-8.04,11.46,-38.94,35,297,5,0.3037362,0.1863136,0.105437,5.859552,0.0159905,-0.08460247,-0.001080858,-0.04302156,-0.2097109,0.9768159
634795921705480000,0.01173021,-0.05083089,-0.8523949,-8.64,12.36,-38.28,34,296,5,0.2707453,0.05325469,0.04902435,5.859661,0.02193737,-0.08222007,0.002076712,-0.04248143,-0.2095521,0.976872
634795921705680000,0.003910068,-0.04301075,-0.9423265,-8.64,12.36,-38.28,34,296,5,0.2260478,-0.2308775,0.06071252,5.859811,0.02706599,-0.08418155,0.004378485,-0.04397608,-0.2093475,0.9768422
634795921705880000,-0.02346041,-0.02346041,-1.098729,-8.64,12.36,-38.28,31,293,5,0.260103,-0.3543276,-0.001035205,5.85927,0.03225422,-0.09050786,0.006233601,-0.04760946,-0.2094184,0.9766465
634795921706080000,-0.01173021,-0.003910068,-1.200391,-8.64,12.36,-38.28,30,292,5,0.335663,0.246952,-0.07552533,5.8582,0.03665733,-0.09135734,0.008268219,-0.04848947,-0.209824,0.976501
634795921706280000,0.05474096,0.007820137,-1.196481,-8.64,12.36,-38.28,22,284,5,0.1515281,0.48321,0.004304332,5.857151,0.04209471,-0.07904041,0.01263061,-0.04312608,-0.2094676,0.9767824
634795921706480000,0.07820137,0.007820137,-1.184751,-8.64,12.36,-38.28,22,284,5,0.01210791,0.005362966,0.3139841,5.863564,0.04510474,-0.08198965,0.01350374,-0.04476713,-0.2071426,0.9771926
634795921706680000,0,0,-1.266862,-8.64,12.36,-38.28,22,284,5,0.9092478,-0.6384932,0.1692494,5.86611,0.0568037,-0.09366524,0.01806401,-0.05165554,-0.2054182,0.9771432
634795921706880000,-0.05474096,0.02737048,-1.360704,-8.22,12.36,-37.86,30,292,5,0.7804765,-0.03719657,-0.1255017,5.864214,0.06945872,-0.1001083,0.02352232,-0.05612161,-0.2058713,0.9766853
634795921707080000,-0.04301075,0.0742913,-1.368524,-8.22,12.36,-37.86,16,278,5,-0.1954174,0.3650749,-0.1882696,5.860965,0.08304953,-0.1008978,0.02998176,-0.05795319,-0.2070516,0.9761517
634795921707280000,0.007820137,0.1016618,-1.294233,-8.22,12.36,-37.86,16,278,5,-0.72753,0.3118637,-0.05519681,5.858483,0.07900167,-0.09479069,0.02858273,-0.05459091,-0.2085288,0.976073
634795921707490000,0.02346041,0.1251222,-1.184751,-8.22,12.36,-37.86,20,282,5,-0.4593452,0.1990402,0.1129205,5.857025,0.05654907,-0.08669292,0.01844545,-0.04830879,-0.2099911,0.9763349
634795921707680000,-0.007820137,0.1290323,-1.059628,-7.62,12.6,-37.5,26,288,5,0.1962233,0.1138751,0.3076738,5.857025,0.05654907,-0.08669292,0.01844545,-0.04830879,-0.2088987,0.9765675
634795921707880000,-0.04301075,0.07820137,-0.9775171,-7.62,12.6,-37.5,26,288,5,0.4090684,-0.01810979,0.2161504,5.860028,0.06227446,-0.08589327,0.02139808,-0.04848755,-0.2084016,0.9766063
634795921708080000,-0.05083089,0.03910068,-1.000978,-7.62,12.6,-37.5,33,295,5,-0.03682506,-0.179874,-0.1318424,5.857144,0.0621767,-0.08884429,0.02096698,-0.04994772,-0.2097531,0.9762527
634795921708280000,-0.02737048,0.05474096,-1.028348,-7.62,12.6,-37.5,26,288,5,-0.9094898,-0.2639478,-0.3074396,5.852151,0.04456925,-0.09226501,0.01188449,-0.04979828,-0.2125684,0.9758041
634795921708480000,0.01173021,0.08993158,-0.9814272,-7.62,12.6,-37.5,21,283,5,-1.072316,-0.1734887,-0.2223016,5.848571,0.02278233,-0.09530628,0.0008409481,-0.0489649,-0.2148122,0.9754268
634795921708690000,0.02737048,0.08993158,-0.8758553,-7.62,12.6,-37.5,21,283,5,-0.7062227,0.05212045,-0.1243576,5.845722,0.005456924,-0.09416389,-0.007552067,-0.0465344,-0.216625,0.975116
634795921708880000,0.03910068,0.04301075,-0.742913,-7.62,12.6,-37.5,21,283,5,-0.2220002,0.2415259,0.02997802,5.841343,-0.006323576,-0.08502245,-0.01239476,-0.04077311,-0.2190607,0.9747802
634795921709080000,0.04692082,-0.01173021,-0.6803519,-6.42,12.6,-37.08,31,293,5,0.003671689,-0.1182255,0.01613905,5.839198,-0.006469011,-0.08712804,-0.01274076,-0.04176981,-0.2201022,0.9744989
634795921709280000,0.03519062,-0.03128055,-0.7116324,-6.42,12.6,-37.08,31,293,5,-0.3006348,-0.1075763,-0.1093882,5.836066,-0.007702112,-0.0908575,-0.01381946,-0.04342978,-0.2216426,0.9740623
634795921709480000,0.02346041,-0.03128055,-0.7624633,-6.42,12.6,-37.08,31,293,5,-0.481553,0.1286703,-0.1572199,5.833033,-0.01157856,-0.09213781,-0.01591518,-0.04359958,-0.2232002,0.973667
634795921709680000,0.03519062,-0.02346041,-0.7741935,-6.42,12.6,-37.08,38,300,5,-0.2836072,0.07331236,-0.0709681,5.831139,-0.0160954,-0.09040868,-0.01796163,-0.0422365,-0.2242221,0.9734567
634795921709880000,0.04692082,-0.007820137,-0.7507331,-6.42,12.6,-37.08,33,295,5,0.2347219,-0.1139452,0.06952931,5.829911,-0.02051973,-0.08765352,-0.01983202,-0.04038691,-0.2249123,0.9733396
634795921710080000,0.02737048,0.003910068,-0.7741935,-5.52,12.66,-36.42,27,289,5,0.5369618,-0.017051,0.1184807,5.831591,-0.01125669,-0.08806396,-0.01533486,-0.04164087,-0.2239043,0.9736004
634795921710280000,0.003910068,-0.01173021,-0.8093842,-5.52,12.66,-36.42,29,291,5,0.4837506,0.1734545,0.1429361,5.833128,-0.004024744,-0.08661794,-0.01162052,-0.04175514,-0.2230094,0.9738523
634795921710480000,-0.003910068,-0.03128055,-0.8445748,-5.52,12.66,-36.42,29,291,5,0.1527759,0.2032009,0.1014169,5.836379,0.004216432,-0.08230782,-0.007060979,-0.04058643,-0.2212764,0.9743406
634795921710680000,-0.003910068,-0.03519062,-0.9188661,-5.52,12.66,-36.42,22,284,5,-0.02387067,-0.1991129,0.08226447,5.839945,0.006048441,-0.08013964,-0.00585744,-0.03974343,-0.2195146,0.9747818
634795921710900000,0.007820137,-0.01955034,-1.024438,-5.52,12.66,-36.42,18,280,5,0.1548826,-0.4002515,0.1046208,5.846426,0.009555578,-0.08954715,-0.005037071,-0.04472917,-0.2162195,0.9753067
634795921711080000,0.007820137,-0.003910068,-1.1261,-4.2,12.72,-34.62,12,274,5,0.5667377,-0.09268315,0.1376092,5.851481,0.02088046,-0.09049678,0.0004999376,-0.04641465,-0.2134876,0.9758425
634795921711280000,-0.01564027,0.003910068,-1.196481,-4.2,12.72,-34.62,12,274,5,0.5582239,0.2702037,0.2897892,5.859772,0.03041935,-0.08423722,0.00600964,-0.04435434,-0.2092917,0.9768283
634795921711480000,-0.03910068,-0.01955034,-1.219941,-4.2,12.72,-34.62,11,273,5,0.3698561,-0.01074196,0.4760286,5.870911,0.03682518,-0.08419656,0.009393112,-0.04495301,-0.2037059,0.9779544
634795921711680000,-0.04301075,-0.05865103,-1.247312,-4.2,12.72,-34.62,7,269,5,0.6082424,-0.3598078,0.4015329,5.878027,0.04273653,-0.08848679,0.01201261,-0.0476093,-0.2000277,0.9785591
634795921711880000,-0.03519062,-0.06256109,-1.227762,-4.2,12.72,-34.62,4,266,5,1.088208,0.01480626,0.1184482,5.886314,0.06177282,-0.09196054,0.02118659,-0.051122,-0.195442,0.9791527
634795921712090000,0,-0.03519062,-1.16129,-4.2,12.72,-34.62,4,266,5,0.05482942,-0.2959962,-0.003906908,5.894695,0.0847485,-0.08765996,0.03307493,-0.05112234,-0.1908462,0.9797297
634795921712280000,0.02346041,-0.003910068,-1.196481,-3.48,12.3,-33.3,2,264,5,-0.1931413,-0.8653567,-0.02837717,5.89665,0.08300805,-0.0948354,0.03157778,-0.05443768,-0.1897556,0.9798123
634795921712480000,0.01173021,0.05083089,-1.321603,-3.48,12.3,-33.3,6,268,5,0.01329261,-0.4183821,-0.03474443,5.898088,0.07985067,-0.1106077,0.02854803,-0.06183742,-0.188751,0.9796603
634795921712680000,0.007820137,0.1173021,-1.294233,-3.48,12.3,-33.3,9,271,5,0.1973876,0.4649248,0.1897955,5.900771,0.08081889,-0.1126889,0.02890571,-0.06290849,-0.1873541,0.9798497
634795921712880000,0.02737048,0.1251222,-1.094819,-3.48,12.3,-33.3,9,271,5,0.03454923,0.3308324,0.4622371,5.908882,0.08219575,-0.104319,0.03062168,-0.05881637,-0.1835468,0.9807719
634795921713080000,0.02737048,0.05474096,-0.9736071,-3.48,12.3,-33.3,8,270,5,-0.1782334,-0.2012999,0.43776,5.916073,0.0803659,-0.1023177,0.0301194,-0.05755983,-0.1801213,0.9814969
634795921713280000,0.01173021,0.01173021,-1.000978,-3.48,12.3,-33.3,18,280,5,-0.431519,-0.4673562,0.09612983,5.926764,0.06265616,-0.1140454,0.02067889,-0.06160522,-0.1751371,0.9823971
634795921713480000,0.01173021,0.03519062,-1.051808,-2.58,11.04,-32.52,15,277,5,-0.7039607,-0.1725658,-0.1252291,5.926883,0.04776573,-0.1143197,0.01334334,-0.06043345,-0.1755276,0.9825273
634795921713680000,0.01564027,0.07820137,-1.020528,-2.58,11.04,-32.52,15,277,5,-0.9306406,0.1211682,-0.1486057,5.927316,0.02972746,-0.1104596,0.00483672,-0.05695089,-0.1759005,0.9827473
634795921713880000,0.01173021,0.08211143,-0.9188661,-2.58,11.04,-32.52,15,277,5,-0.9529894,0.01260065,0.00891094,5.928782,0.01767897,-0.1099709,-0.0009995463,-0.05565089,-0.1755242,0.9829004
634795921714080000,0.01564027,0.05865103,-0.8211144,-2.58,11.04,-32.52,9,271,5,-0.4102345,-0.2694215,0.1163688,5.932951,0.001372814,-0.1101549,-0.008916094,-0.05432707,-0.1739221,0.9832193
634795921714300000,0.01564027,0.03910068,-0.8132942,-2.58,11.04,-32.52,15,277,5,-0.2548156,-0.2087606,0.09503666,5.936063,-0.002482176,-0.1150798,-0.01115152,-0.05643011,-0.1724755,0.9833329
634795921714480000,0.007820137,0.01564027,-0.8250244,-2.58,11.04,-32.52,15,277,5,-0.4442477,-0.07254258,0.18016,5.938839,-0.00628376,-0.119236,-0.01329775,-0.05816412,-0.1712029,0.9834275
634795921714680000,0.003910068,0,-0.801564,-1.98,10.14,-31.44,15,277,5,-0.2824855,0.2307158,0.1460734,5.947992,-0.02014351,-0.1197164,-0.01989138,-0.05730419,-0.1671001,0.9840722
634795921714880000,0,-0.01173021,-0.7468231,-1.98,10.14,-31.44,14,276,5,0.01446176,0.203015,0.1683918,5.953183,-0.02403259,-0.1149048,-0.02126408,-0.05466641,-0.1646512,0.9846062
634795921715080000,0.01173021,-0.02346041,-0.6999022,-1.98,10.14,-31.44,10,272,5,0.2719869,0.01780428,0.1524128,5.959056,-0.0219922,-0.1121674,-0.01987884,-0.05354496,-0.1617009,0.9851856
634795921715280000,0.01955034,-0.03128055,-0.7350929,-1.98,10.14,-31.44,7,269,5,0.4326849,0.01994795,0.06937915,5.962613,-0.01773882,-0.1121658,-0.01768765,-0.05391949,-0.1598342,0.9855115
634795921715490000,0.01564027,-0.03519062,-0.7937439,-1.98,10.14,-31.44,7,269,5,0.1974911,0.272152,0.03212254,5.966863,-0.008980989,-0.1110203,-0.01316601,-0.05408245,-0.1575045,0.9859483
634795921715680000,0.01173021,-0.03519062,-0.801564,-1.98,10.14,-31.44,11,273,5,0.03566059,0.2306472,0.04807326,5.972535,-0.002895832,-0.1017395,-0.009294921,-0.05001193,-0.154574,0.9866708
634795921715880000,0.007820137,-0.04301075,-0.8328446,-2.16,9.48,-31.2,14,276,5,0.128234,0.04115221,0.0533648,5.975105,0.0006661415,-0.1007465,-0.00739689,-0.0498068,-0.1532205,0.9869083
634795921716080000,0.007820137,-0.04692082,-0.9227762,-2.16,9.48,-31.2,8,270,5,0.3676847,0.01453381,-0.1147703,5.975066,0.005716085,-0.1004144,-0.004880423,-0.05002951,-0.1531149,0.9869291
634795921716280000,0.02346041,-0.02346041,-1.032258,-2.16,9.48,-31.2,8,270,5,0.2921247,0.09644616,-0.1721836,5.974237,0.01327872,-0.09866989,-0.0010352,-0.04974696,-0.1533461,0.986919
634795921716480000,0.03519062,0.003910068,-1.11437,-2.16,9.48,-31.2,7,269,5,0.1441057,0.1665503,-0.02951652,5.974216,0.01740265,-0.09673225,0.001148617,-0.04910699,-0.1532694,0.9869629
634795921716680000,-0.003910068,-0.003910068,-1.204301,-2.22,9.42,-31.62,9,271,5,0.1441057,0.1665503,-0.02951652,5.975031,0.0200417,-0.09097122,0.002913909,-0.04646527,-0.1528516,0.9871519
634795921716880000,-0.03910068,-0.02737048,-1.251222,-2.22,9.42,-31.62,11,273,5,0.5250983,0.2878219,-0.103993,5.974048,0.03657532,-0.07937455,0.01194695,-0.04201035,-0.1530903,0.9872466
634795921717080000,-0.01173021,-0.01564027,-1.223851,-2.22,9.42,-31.62,359,5,5,0.9976142,0.6975486,-0.2156982,5.973718,0.05522227,-0.06637657,0.0221508,-0.03702573,-0.1530682,0.9872733
634795921717280000,0.003910068,0.01564027,-1.247312,-2.22,9.42,-31.62,359,5,5,0.3473727,0.07174794,-0.256067,5.975137,0.07050347,-0.05943477,0.0302562,-0.03474769,-0.1522181,0.9872724
634795921717480000,-0.01173021,0.007820137,-1.388074,-2.22,9.42,-31.62,3,265,5,-0.3688654,0.1249197,-0.615775,5.973482,0.07624698,-0.05791902,0.03317976,-0.03446423,-0.1529667,0.9870727
634795921717680000,0,0.02737048,-1.466276,-2.22,9.42,-31.62,5,267,5,-0.4859302,0.4292881,-0.6349311,5.959717,0.06348991,-0.05022514,0.02727411,-0.02987916,-0.1601113,0.9862697
634795921717880000,0.02737048,0.1368524,-1.290323,-2.22,9.42,-31.62,5,267,5,-0.1858025,0.5197473,-0.1783632,5.956895,0.05740666,-0.03986382,0.02507683,-0.02431835,-0.1617588,0.9862119
634795921718080000,0.01955034,0.1564027,-1.14565,-2.22,9.42,-31.62,5,267,5,0.2175176,0.3962972,0.2749946,5.96206,0.05791831,-0.03251588,0.02598093,-0.02066993,-0.1593208,0.9866685
634795921718280000,0.003910068,0.06647116,-1.020528,-2.28,9.48,-31.5,14,276,5,0.210068,0.1217037,0.1398197,5.96698,0.06053662,-0.02863455,0.02763009,-0.01889609,-0.1569286,0.9870425
634795921718480000,0.003910068,0.01173021,-1.012708,-2.28,9.48,-31.5,19,281,5,-0.06773782,-0.3337924,-0.1421901,5.966335,0.05919575,-0.03260696,0.02664816,-0.02075972,-0.157197,0.9869894
634795921718680000,0.003910068,0.03519062,-1.020528,-2.28,9.48,-31.5,19,281,5,-0.4114543,-0.5242887,-0.415696,5.966335,0.05919575,-0.03260696,0.02664816,-0.02075972,-0.157197,0.9869894
634795921718890000,0.003910068,0.06647116,-0.9853373,-2.28,9.48,-31.5,11,273,5,-0.5604457,-0.3188933,-0.3475856,5.953418,0.0323143,-0.05067801,0.01177412,-0.02764041,-0.1636594,0.9860593
634795921719080000,0.01955034,0.04692082,-0.8914956,-2.64,9.3,-32.34,12,274,5,-0.5806661,-0.2018285,-0.2092363,5.952087,0.02012229,-0.05229151,0.005612097,-0.02744149,-0.1644701,0.9859843
634795921719280000,0.03910068,0.003910068,-0.7937439,-2.64,9.3,-32.34,12,274,5,-0.2486278,-0.1911686,-0.1442487,5.950736,0.01194453,-0.05442071,0.001386164,-0.02781932,-0.1652359,0.9858607
634795921719480000,0.04301075,-0.02346041,-0.7468231,-2.64,9.3,-32.34,20,282,5,-0.1932881,-0.2199026,-0.2517181,5.949059,0.008934498,-0.05684888,-0.0003226197,-0.02876722,-0.166093,0.9856904
634795921719680000,0.02737048,-0.03910068,-0.742913,-2.64,9.3,-32.34,20,282,5,-0.1570261,-0.1890401,-0.3177001,5.944152,0.005874634,-0.06081057,-0.002234895,-0.03046,-0.1685393,0.9852216
634795921719880000,0.03128055,-0.03519062,-0.7507331,-2.64,9.3,-32.34,20,282,5,-0.1154809,-0.0836648,-0.3336634,5.9386,0.004111767,-0.06384122,-0.003447213,-0.03179491,-0.1712893,0.9847016
634795921720080000,0.05083089,-0.01955034,-0.7507331,-2.64,9.3,-32.34,24,286,5,-0.06648256,-0.04215458,-0.2942871,5.929739,0.003412247,-0.06534576,-0.004064309,-0.03245804,-0.1756559,0.9839081
634795921720280000,0.06647116,-0.003910068,-0.7311828,-2.64,9.42,-32.76,19,281,5,0.09104309,0.05146775,-0.1740114,5.927807,0.004882336,-0.06471252,-0.003316651,-0.0322724,-0.1765844,0.9837507
634795921720480000,0.05474096,-0.007820137,-0.7116324,-2.64,9.42,-32.76,19,281,5,0.2368419,0.1439905,-0.07287923,5.925654,0.00970149,-0.06204986,-0.0007446489,-0.0313874,-0.1775797,0.9836055
634795921720680000,0.03519062,-0.03910068,-0.7194526,-2.64,9.42,-32.76,32,294,5,0.255998,0.1290251,-0.07605807,5.923742,0.01501203,-0.05908036,0.002102233,-0.03040046,-0.1784547,0.9834762
634795921720880000,0.02346041,-0.06256109,-0.7781036,-2.64,9.42,-32.76,30,292,5,0.1676673,0.002336096,-0.1771246,5.920777,0.01940584,-0.05793726,0.004320342,-0.03023685,-0.1798534,0.9832191
634795921721080000,0.003910068,-0.06647116,-0.911046,-2.64,9.42,-33.18,15,277,5,-0.1164677,-0.3073522,-0.2271432,5.917266,0.02065944,-0.06078339,0.004624089,-0.03175672,-0.1815378,0.9828602
634795921721280000,-0.01173021,-0.04301075,-1.043988,-2.64,9.42,-33.18,15,277,5,-0.1164677,-0.3073522,-0.2271432,5.914026,0.01989985,-0.06868923,0.003473179,-0.03557795,-0.1830802,0.9824479
634795921721480000,-0.01564027,-0.01564027,-1.12219,-2.64,9.42,-33.18,8,270,5,0.2740541,0.1566411,0.002755044,5.916537,0.02509808,-0.06579673,0.006335971,-0.03462506,-0.1817801,0.982709
634795921721680000,-0.007820137,-0.02737048,-1.13783,-2.64,9.42,-33.18,5,267,5,0.4187887,0.4386608,0.05382795,5.920584,0.03313398,-0.05728996,0.01112447,-0.0311536,-0.1797433,0.9831572
634795921721880000,-0.007820137,-0.05474096,-1.13783,-2.64,9.42,-33.18,5,267,5,0.3453571,-0.2552192,-0.01323143,5.924853,0.03977203,-0.05501532,0.01465851,-0.0306009,-0.1775684,0.9835234
634795921722080000,-0.01173021,-0.05474096,-1.243402,-2.64,9.42,-33.18,5,267,5,0.3251369,-0.2179713,-0.1345144,5.926785,0.04388714,-0.05745363,0.01649526,-0.03214896,-0.1765222,0.9836332
634795921722300000,-0.01173021,-0.02346041,-1.313783,-2.64,9.42,-33.18,4,266,5,0.3347149,0.3418072,-0.06104568,5.928945,0.05642628,-0.05873298,0.02258459,-0.03385964,-0.1752342,0.9836851
634795921722480000,0.02737048,0.01564027,-1.243402,-3,9.9,-33.96,4,266,5,0.1665673,0.3056236,0.07517695,5.93244,0.06055569,-0.05197334,0.02526733,-0.03085362,-0.1735617,0.9840152
634795921722680000,0.08211143,0.01564027,-1.200391,-3,9.9,-33.96,5,267,5,0.0132511,-0.067935,0.0921822,5.935774,0.06107926,-0.05127084,0.02563737,-0.03051081,-0.1719252,0.9843036
634795921722880000,0.1016618,0.01955034,-1.274682,-3,9.9,-33.96,5,267,5,-0.156981,-0.4095513,-0.002549158,5.936416,0.05860471,-0.05761969,0.02387951,-0.03341411,-0.1715407,0.9843206
634795921723080000,0.1055719,0.06647116,-1.321603,-3,9.9,-33.96,11,273,5,-0.002633416,-0.1403023,0.1006561,5.935891,0.05689025,-0.06206667,0.02264128,-0.03546098,-0.1717536,0.9842411
634795921723280000,0.1094819,0.1212121,-1.227762,-3,9.9,-33.96,19,281,5,0.1569674,0.1757331,0.2932636,5.936485,0.05669379,-0.06466854,0.02232984,-0.03671744,-0.1714209,0.9842602
634795921723490000,0.113392,0.1329423,-1.079179,-3.24,10.5,-34.86,21,283,5,0.07074641,0.02774661,0.3869154,5.940086,0.05870103,-0.06258714,0.02356246,-0.03582318,-0.1696476,0.9845716
634795921723680000,0.09384164,0.1016618,-0.9931574,-3.24,10.5,-34.86,29,291,5,-0.07185701,-0.3862365,0.4050073,5.94649,0.05788541,-0.06719791,0.02288723,-0.03794991,-0.1664303,0.9850568
634795921723880000,0.05083089,0.07038123,-0.969697,-3.24,10.5,-34.86,29,291,5,-0.05270947,-0.535228,0.2964563,5.948039,0.05474209,-0.07607376,0.02062444,-0.04204235,-0.1655806,0.9850838
634795921724080000,0.04301075,0.06256109,-0.9618768,-3.24,10.5,-34.86,29,291,5,-0.05694264,-0.4330623,0.1517042,5.948567,0.05014443,-0.08135462,0.01792912,-0.04425704,-0.1653341,0.985081
634795921724280000,0.04301075,0.08211143,-0.9305963,-3.24,10.5,-34.86,27,289,5,-0.291048,-0.3873007,0.03461678,5.948018,0.0430181,-0.08576631,0.01403754,-0.04584379,-0.1656991,0.9850102
634795921724480000,0.03519062,0.09775171,-0.8836755,-3.24,10.5,-34.86,27,289,5,-0.5464621,-0.3904934,0.1048173,5.948417,0.03203821,-0.09008133,0.008278125,-0.0470565,-0.1657023,0.9850178
634795921724680000,0.01955034,0.08211143,-0.8445748,-3.24,10.5,-34.86,27,289,5,-0.4102412,-0.08824947,0.1121705,5.949036,0.0248518,-0.09474003,0.004364819,-0.04875339,-0.1655186,0.9849912
634795921724880000,0.01564027,0.05083089,-0.8211144,-3.54,10.32,-36,31,293,5,-0.4474891,0.1724329,0.02276259,5.949375,0.006619691,-0.09897554,-0.004958178,-0.04932911,-0.1657658,0.9849182
634795921725080000,0.03128055,0.03519062,-0.801564,-3.54,10.32,-36,26,288,5,-0.4687736,0.1393851,0.02807669,5.948593,-0.002129078,-0.09605907,-0.009043185,-0.0471637,-0.1663754,0.9848924
634795921725280000,0.05474096,0.03910068,-0.7859238,-3.54,10.32,-36,26,288,5,-0.2793415,0.03718416,0.06318452,5.948607,-0.007692575,-0.09455562,-0.01165754,-0.04596034,-0.1665015,0.9849005
634795921725480000,0.05474096,0.04692082,-0.7859238,-3.54,10.32,-36,29,291,5,-0.05794258,0.09460751,0.1674555,5.948662,-0.01364231,-0.0933051,-0.01448244,-0.04484937,-0.1666113,0.9848956
634795921725690000,0.03519062,0.007820137,-0.7859238,-3.96,11.4,-36.42,34,296,5,0.2102363,0.2499612,0.2185383,5.949473,-0.01396155,-0.09106027,-0.01443557,-0.04372305,-0.1662199,0.9850131
634795921725880000,0.02737048,-0.01564027,-0.7741935,-3.96,11.4,-36.42,35,297,5,0.2730256,0.3883105,0.1333853,5.951906,-0.006680965,-0.08212531,-0.01006056,-0.03993869,-0.1648785,0.9854536
634795921726080000,0.05083089,-0.03128055,-0.7585533,-3.96,11.4,-36.42,23,285,5,0.1038104,0.2414474,0.08864824,5.953653,-0.002839327,-0.07553339,-0.007592584,-0.03701361,-0.1639578,0.9857435
634795921726280000,0.06256109,-0.04692082,-0.797654,-3.96,11.4,-36.42,23,285,5,0.09421555,-0.1193372,0.05775963,5.954878,-0.000846386,-0.07521152,-0.006561216,-0.03702236,-0.1633175,0.9858568
634795921726480000,0.04692082,-0.05083089,-0.9188661,-3.96,11.4,-36.42,27,289,5,0.2793751,-0.1895761,-0.06248919,5.954165,0.004024029,-0.07867718,-0.004457483,-0.03912662,-0.1635644,0.9857464
634795921726680000,0.04301075,-0.03128055,-1.047898,-3.96,11.4,-36.42,26,288,5,0.2591548,-0.003327711,-0.1412002,5.951341,0.0103457,-0.07954227,-0.001469107,-0.04006774,-0.1648265,0.9855073
634795921726890000,0.05865103,0.007820137,-1.12219,-4.38,11.94,-36.9,19,281,5,0.1994953,0.08175518,0.08020127,5.948837,0.01646113,-0.0732913,0.00201419,-0.03749409,-0.1659822,0.9854137
634795921727080000,0.05865103,0.03128055,-1.17302,-4.38,11.94,-36.9,19,281,5,0.1994953,0.08175518,0.08020127,5.950298,0.02230597,-0.07145631,0.005073946,-0.0370713,-0.1651672,0.9855556
634795921727280000,0.04692082,0.007820137,-1.212121,-4.38,11.94,-36.9,19,281,5,0.746507,0.2029766,0.1439775,5.952136,0.03365111,-0.0695138,0.01085989,-0.03704065,-0.1640701,0.9856932
634795921727480000,0.03910068,-0.01564027,-1.235582,-4.38,11.94,-36.9,19,281,5,0.6124147,0.2317107,0.09393445,5.953131,0.04237247,-0.0666877,0.01540982,-0.0363556,-0.1634544,0.9857604
634795921727680000,0.03519062,-0.007820137,-1.239492,-4.38,11.94,-36.9,19,281,5,0.5634603,0.07521403,0.07688726,5.954907,0.0548408,-0.06199336,0.02197318,-0.03504154,-0.1624248,0.9858537
634795921727880000,0.03128055,0.02346041,-1.235582,-4.38,11.94,-36.9,16,278,5,0.4612947,-0.076984,-0.09550476,5.956444,0.06477547,-0.06067121,0.0270056,-0.03517573,-0.1615153,0.9858733
634795921728080000,0.03910068,0.03128055,-1.298143,-3.6,12.3,-37.08,10,272,5,0.1611654,-0.1099644,-0.290242,5.95242,0.07517623,-0.06325304,0.03184588,-0.03735135,-0.1632592,0.9853615
634795921728280000,0.04301075,0.04692082,-1.364614,-3.6,12.3,-37.08,11,273,5,-0.1612681,0.2199433,-0.3487744,5.945898,0.07256388,-0.06151258,0.0305844,-0.03638076,-0.1665557,0.9848859
634795921728480000,0.03910068,0.07820137,-1.278592,-3.6,12.3,-37.08,11,273,5,0.08669328,0.3848982,-0.2029755,5.942438,0.07179022,-0.0552386,0.03067509,-0.03328082,-0.1683998,0.9846791
634795921728680000,0.01955034,0.08211143,-1.086999,-3.6,12.3,-37.08,11,273,5,0.5272825,0.308274,-0.05395464,5.941753,0.07801127,-0.04907691,0.03425215,-0.03078384,-0.1687648,0.9845799
634795921728880000,0.01564027,0.04692082,-0.969697,-3.6,12.3,-37.08,14,276,5,0.5773011,0.04539658,-0.1199072,5.94135,0.08447074,-0.04686773,0.03761433,-0.03024926,-0.1689132,0.9844483
634795921729080000,0.03519062,0.02737048,-1.000978,-3.6,12.84,-37.92,15,277,5,-0.1665769,-0.6303864,-0.4359821,5.937023,0.09102678,-0.05053234,0.04045727,-0.03269327,-0.1708528,0.9839226
634795921729280000,0.05474096,0.06647116,-1.083089,-3.6,12.84,-37.92,15,277,5,-0.6071661,-0.7208455,-0.5083494,5.92042,0.068537,-0.0710876,0.02727179,-0.04110938,-0.1789721,0.9826165
634795921729480000,0.03128055,0.113392,-1.079179,-3.6,12.84,-37.92,16,278,5,-0.5401199,-0.4601104,-0.3540368,5.91663,0.06199813,-0.07523823,0.02360209,-0.04260732,-0.1808905,0.9822964
634795921729680000,0.003910068,0.1016618,-0.9775171,-3.6,12.84,-37.92,19,281,5,0.07394589,0.04539391,-0.0677337,5.914477,0.06069994,-0.07642794,0.02280915,-0.04309857,-0.1819536,0.9820973
634795921729880000,0.01173021,0.01955034,-0.8172043,-3.6,12.84,-37.92,20,282,5,0.1462735,0.09113856,-0.02940478,5.914285,0.06225085,-0.07453834,0.02374083,-0.04231448,-0.18205,0.9820915
634795921730080000,0.03128055,-0.02737048,-0.7546432,-3.12,13.08,-38.76,14,276,5,0.08132661,-0.1599879,-0.1411064,5.913974,0.05955767,-0.07491552,0.02237693,-0.04225793,-0.1822529,0.9820883
634795921730290000,0.05083089,-0.01955034,-0.7820137,-3.12,13.08,-38.76,14,276,5,-0.08787625,-0.240869,-0.3731075,5.910096,0.05862045,-0.07902586,0.02145189,-0.04423163,-0.1841027,0.9816769
634795921730480000,0.04692082,0.03128055,-0.8054741,-3.12,13.08,-38.76,17,279,5,-0.2677136,-0.306851,-0.4688877,5.900415,0.05247378,-0.08633577,0.01752496,-0.04733749,-0.1888649,0.9807049
634795921730680000,0.02737048,0.06647116,-0.7781036,-3.12,13.08,-38.76,21,283,5,-0.155954,-0.1216574,-0.1081002,5.898652,0.04943967,-0.08871686,0.0157672,-0.04823196,-0.1897622,0.9805179
634795921730880000,0.03910068,0.04301075,-0.7194526,-3.12,13.08,-38.76,23,285,5,0.3122874,0.102822,0.06109384,5.900492,0.05029058,-0.08732247,0.01636198,-0.04761435,-0.1888627,0.980712
634795921731080000,0.06256109,0.01173021,-0.684262,-3.12,13.08,-38.76,23,285,5,0.2697184,-0.1887785,-0.01446646,5.902363,0.05505204,-0.08592176,0.01887487,-0.04735963,-0.1878556,0.9808726
634795921731280000,0.05474096,0.003910068,-0.742913,-3.12,13.08,-38.76,27,289,5,-0.02615002,-0.5431655,0.03023972,5.902485,0.05872369,-0.0902512,0.0202667,-0.04982531,-0.1876285,0.9807662
634795921731480000,0.01564027,0.003910068,-0.8523949,-2.7,13.5,-39,29,291,5,-0.09317418,-0.3920455,0.1174937,5.902284,0.05885243,-0.0964545,0.01973435,-0.05287956,-0.1876068,0.9806212
634795921731680000,-0.02346041,0.01173021,-0.9032258,-2.7,13.5,-39,23,285,5,0.1718149,0.1709149,0.1919795,5.90899,0.05682874,-0.107537,0.01788185,-0.05806036,-0.184164,0.9810163
634795921731880000,-0.02737048,0.01955034,-0.9032258,-2.7,13.5,-39,23,285,5,0.2973935,0.4018518,0.2281631,5.916072,0.06079435,-0.1011749,0.02061827,-0.05523381,-0.1806988,0.9817699
634795921732080000,-0.007820137,0.007820137,-0.9188661,-2.7,13.5,-39,10,272,5,0.1888425,-0.100442,0.3292646,5.925111,0.06371355,-0.1002208,0.02238737,-0.05492878,-0.1761985,0.9825659
634795921732280000,0,-0.01564027,-1.043988,-2.7,13.5,-39,1,263,5,0.1728466,-0.473985,0.331393,5.931676,0.06452775,-0.1047199,0.02257152,-0.05713563,-0.172858,0.9830291
634795921732480000,-0.04301075,-0.02346041,-1.196481,-3.24,13.62,-39.18,7,269,5,0.3143885,-0.2004791,0.1824015,5.944607,0.07312845,-0.1094842,0.02676728,-0.06004637,-0.1661451,0.9839074
634795921732680000,-0.05083089,-0.003910068,-1.216031,-3.24,13.62,-39.18,7,269,5,0.4921142,0.6285399,0.06851,5.949438,0.08068585,-0.09586465,0.03177398,-0.0539014,-0.1638692,0.9844958
634795921732880000,0.003910068,0.02737048,-1.110459,-3.24,13.62,-39.18,6,268,5,0.3569575,0.6604667,0.03019013,5.954689,0.0854113,-0.08668303,0.03500038,-0.04968003,-0.1613836,0.9850189
634795921733080000,0.04692082,0.05865103,-1.067449,-3.24,13.62,-39.18,0,262,5,0.2154156,-0.351606,0.1237876,5.958762,0.08748531,-0.08597863,0.03618075,-0.04942705,-0.1593432,0.9853211
634795921733280000,0.04301075,0.06647116,-1.184751,-3.24,13.62,-39.18,7,269,5,0.1898742,-0.4856983,0.06098423,5.962586,0.09042048,-0.09290874,0.03716281,-0.05300143,-0.157207,0.9854419
634795921733480000,0.02737048,0.06647116,-1.345064,-3.24,13.62,-39.18,16,278,5,0.08981051,-0.167495,0.03117763,5.963253,0.09279013,-0.1018642,0.03762648,-0.05758382,-0.1565763,0.9852676
634795921733690000,0.03910068,0.09775171,-1.302053,-3.24,13.62,-39.18,16,278,5,-0.04534918,0.3017946,0.2131396,5.970078,0.09087896,-0.0999633,0.03703076,-0.05637232,-0.1533178,0.9858725
634795921733880000,0.05865103,0.08993158,-1.098729,-3.06,13.68,-39.42,12,274,5,0.04083827,0.4720706,0.4142782,5.976085,0.08989357,-0.09492229,0.03710405,-0.05370226,-0.1505144,0.9864506
634795921734080000,0.08602151,0.05083089,-0.9618768,-3.06,13.68,-39.42,7,269,5,0.03655284,0.0634008,0.3280759,5.984164,0.08909725,-0.09083057,0.03723592,-0.05147531,-0.1466534,0.9871457
634795921734280000,0.1016618,0.03128055,-0.9814272,-3.06,13.68,-39.42,18,280,5,-0.1411357,-0.3026858,0.1822771,5.987618,0.08561063,-0.09365642,0.035393,-0.05255256,-0.1449688,0.9874055
634795921734480000,0.1016618,0.06256109,-1.059628,-3.06,13.68,-39.42,18,280,5,-0.4263481,-0.4303929,-0.0114249,5.986669,0.07647443,-0.09810185,0.03052568,-0.05409801,-0.1455762,0.9873952
634795921734680000,0.08211143,0.1329423,-1.083089,-3.06,13.68,-39.42,24,286,5,-0.4848805,-0.2473461,0.03752977,5.985068,0.06564403,-0.1001281,0.02498379,-0.05432888,-0.1466173,0.9873842
634795921734880000,0.05865103,0.1524927,-1.032258,-3,13.5,-39.6,23,285,5,-0.3507881,-0.08026491,0.2641986,5.9891,0.05274916,-0.1044948,0.01840258,-0.0555006,-0.1449002,0.987717
634795921735080000,0.05865103,0.1094819,-0.9814272,-3,13.5,-39.6,27,289,5,-0.2752281,-0.1856123,0.322731,5.992864,0.04522156,-0.1073055,0.01458368,-0.05631516,-0.1432065,0.9879817
634795921735280000,0.05865103,0.06647116,-0.9540567,-3,13.5,-39.6,27,289,5,-0.2390444,-0.3026771,0.2524921,5.995938,0.03628111,-0.1100465,0.01005536,-0.05701271,-0.1419032,0.9881862
634795921735480000,0.04692082,0.05865103,-0.9618768,-3,13.5,-39.6,27,289,5,-0.2518151,-0.2930991,0.1066816,5.997212,0.02864075,-0.112383,0.006149079,-0.05762047,-0.1414644,0.9882459
634795921735680000,0.03519062,0.06647116,-0.9501466,-3,13.5,-39.6,24,286,5,-0.05169579,0.08359895,0.1268254,5.997907,0.0245595,-0.1126496,0.004133444,-0.05746189,-0.1412355,0.9882984
634795921735880000,0.03910068,0.06647116,-0.8914956,-3.18,13.68,-39.72,19,281,5,-0.01869193,0.2048703,0.1608222,6.002872,0.01819777,-0.1035074,0.001771101,-0.05249057,-0.1390391,0.9888932
634795921736080000,0.04692082,0.05865103,-0.8406647,-3.18,13.68,-39.72,19,281,5,-0.1229625,0.1611501,0.1544175,6.005651,0.01550436,-0.099321,0.0008020401,-0.05023243,-0.1377661,0.9891899
634795921736280000,0.05474096,0.05865103,-0.8367546,-3.18,13.68,-39.72,21,283,5,-0.2038436,-0.08257993,0.04264561,6.006405,0.01153231,-0.09993958,-0.001186379,-0.0502651,-0.1374888,0.9892264
634795921736480000,0.05865103,0.07820137,-0.8836755,-3.18,13.68,-39.72,24,286,5,-0.1144222,-0.1517528,-0.04887413,6.005762,0.009078741,-0.1014968,-0.002523839,-0.0508657,-0.1378598,0.9891416
634795921736680000,0.04692082,0.09775171,-0.9384164,-3.18,13.68,-39.72,26,288,5,0.1601365,-0.05809274,0.01816779,6.003848,0.007776498,-0.1043547,-0.003415441,-0.05218598,-0.1388239,0.9889352
634795921736880000,0.03128055,0.08993158,-0.9423265,-2.88,14.16,-39.48,24,286,5,0.3729816,0.1345019,0.0713565,6.003386,0.01186275,-0.1042815,-0.001401825,-0.05243304,-0.1389454,0.98891
634795921737100000,0.03128055,0.0742913,-0.9305963,-2.88,14.16,-39.48,24,286,5,0.388945,0.1780517,0.1181508,6.004291,0.01852965,-0.1012192,0.002131809,-0.05138085,-0.1383474,0.9890478
634795921737280000,0.03519062,0.06256109,-0.9814272,-2.88,14.16,-39.48,17,279,5,0.1186238,-0.08484714,0.05746005,6.00714,0.02407598,-0.1023697,0.004868879,-0.05232631,-0.1367846,0.9892058
634795921737480000,0.02737048,0.09384164,-1.067449,-2.88,14.16,-39.48,16,278,5,0.1686397,-0.2327716,-0.06386023,6.006479,0.0258758,-0.1045571,0.005590449,-0.05353289,-0.1370426,0.9891018
634795921737680000,0.01173021,0.1642229,-1.075269,-2.88,14.16,-39.48,14,276,5,0.4602374,-0.1870099,-0.1021569,6.005076,0.03248596,-0.1062941,0.008700712,-0.05485049,-0.1375384,0.9889383
634795921737880000,0.01955034,0.1759531,-1.12219,-2.88,14.16,-39.48,14,276,5,0.01114074,-0.06035401,-0.1850824,6.002898,0.03942895,-0.1075971,0.01198192,-0.05598472,-0.1384064,0.9887193
634795921738080000,0.03519062,0.1251222,-1.176931,-2.88,14.16,-39.48,12,274,5,-0.4294485,0.1652283,-0.2180734,5.999784,0.03748894,-0.1084928,0.01087228,-0.05631015,-0.1399882,0.9884909
634795921738290000,0.03519062,0.1016618,-1.14174,-3.18,14.64,-38.7,15,277,5,-0.2772643,0.3525319,-0.1552517,5.9971,0.03162813,-0.1070372,0.008004711,-0.05519113,-0.1414959,0.9883668
634795921738480000,0.02346041,0.1016618,-1.012708,-3.18,14.64,-38.7,13,275,5,0.1016047,0.4387342,-0.01795095,5.99349,0.02351308,-0.09427845,0.004819131,-0.0483201,-0.1436232,0.9884404
634795921738680000,0.01955034,0.06647116,-0.8914956,-3.18,14.64,-38.7,13,275,5,0.2857156,0.3919083,-0.03924258,5.994128,0.02559996,-0.08522844,0.006519466,-0.04399553,-0.143344,0.988673
634795921738880000,0.02737048,0.03128055,-0.8523949,-3.18,14.64,-38.7,12,274,5,0.02817792,0.2248249,-0.2659029,5.993188,0.02739358,-0.08020317,0.007749519,-0.04164381,-0.1438179,0.9886972
634795921739080000,0.03519062,0.03519062,-0.8836755,-3.18,14.64,-38.7,14,276,5,-0.2910748,0.130051,-0.3244353,5.988781,0.02555632,-0.07698596,0.006986247,-0.03993692,-0.1460642,0.988444
634795921739280000,0.03519062,0.07038123,-0.914956,-3,15.54,-38.76,13,275,5,-0.3996258,-0.1072792,-0.2541965,5.98405,0.01913857,-0.07559358,0.003824971,-0.03878908,-0.1485398,0.988138
634795921739480000,0.01564027,0.08211143,-0.9462366,-3,15.54,-38.76,13,275,5,-0.1175913,-0.2349862,-0.1530684,5.980922,0.01326203,-0.07910823,0.0005967476,-0.04008976,-0.1501767,0.9876743
634795921739680000,-0.007820137,0.06647116,-0.9970675,-3,15.54,-38.76,14,276,5,0.03140625,-0.1338848,-0.1711181,5.977083,0.01183176,-0.08449066,-0.0005969866,-0.04263948,-0.1520686,0.9874496
634795921739880000,-0.003910068,0.05083089,-1.028348,-3,15.54,-38.76,15,277,5,-0.08138672,-0.02106515,-0.3339445,5.972646,0.009696483,-0.08458328,-0.001752681,-0.04251902,-0.1543042,0.9871066
634795921740080000,0.01173021,0.0742913,-1.047898,-3,15.54,-38.76,11,273,5,-0.3080518,-0.007241921,-0.4701653,5.965672,0.002435922,-0.08329761,-0.00538072,-0.04130552,-0.1579032,0.9865757
634795921740280000,0.02346041,0.1212121,-1.075269,-2.76,16.02,-38.52,6,268,5,-0.4208596,-0.004071599,-0.416954,5.961838,-0.002949715,-0.08249557,-0.008051679,-0.04046915,-0.1599071,0.9862693
634795921740490000,0.02737048,0.1368524,-1.063539,-2.76,16.02,-38.52,6,268,5,-0.1356341,0.0587179,-0.06786374,5.958004,-0.01031279,-0.08330273,-0.01182431,-0.04025566,-0.1619447,0.9859075
634795921740680000,0.02737048,0.1094819,-1.024438,-2.76,16.02,-38.52,9,271,5,0.080387,0.0788921,0.01195112,5.957537,-0.01456737,-0.08312666,-0.01391657,-0.039821,-0.16226,0.985846
634795921740880000,0.02346041,0.07038123,-0.9736071,-2.76,16.02,-38.52,9,271,5,0.1058813,0.0107538,0.0140651,5.96025,-0.01358414,-0.08123803,-0.0132264,-0.0389877,-0.1609027,0.9861112
634795921741080000,0.03128055,0.04301075,-0.9345064,-2.76,16.02,-38.52,11,273,5,0.001594856,-0.07649969,0.001283862,5.961164,-0.01370597,-0.08114207,-0.01326099,-0.03893663,-0.1604543,0.9861858
634795921741280000,0.03128055,0.05083089,-0.9384164,-2.76,16.02,-38.52,11,273,5,-0.1441527,-0.1594981,0.04064168,5.962882,-0.01656914,-0.08167338,-0.01468169,-0.0389815,-0.1596633,0.9862923
634795921741480000,0.03910068,0.06647116,-0.9736071,-3.06,16.62,-39.12,11,273,5,-0.1877441,-0.04029474,0.08956783,5.965253,-0.02079535,-0.08227479,-0.01676749,-0.03896055,-0.1585772,0.9864351
634795921741680000,0.04692082,0.07038123,-0.9775171,-3.06,16.62,-39.12,11,273,5,-0.1653375,0.0480152,0.1033683,5.968179,-0.0243485,-0.08239078,-0.01847242,-0.03876304,-0.1572034,0.9866323
634795921741880000,0.05865103,0.08211143,-0.9540567,-3.06,16.62,-39.12,11,273,5,-0.06419958,0.05116765,0.1182323,5.970972,-0.02776456,-0.07932556,-0.01986659,-0.03700988,-0.1558799,0.9868825
634795921742080000,0.04301075,0.09775171,-0.9540567,-3.06,16.62,-39.12,12,274,5,-0.02799667,-0.0648445,0.1639584,5.976524,-0.03075433,-0.07640659,-0.02101774,-0.03539466,-0.1531815,0.9873403
634795921742280000,0.02737048,0.09384164,-0.9853373,-3.06,16.62,-39.12,17,279,5,-0.1226798,-0.1095308,0.1980136,5.980631,-0.03434753,-0.07617771,-0.02270228,-0.03505313,-0.1512155,0.9876183
634795921742480000,0.04692082,0.08602151,-1.040078,-3.06,16.62,-39.12,15,277,5,-0.3099629,-0.174443,0.09369649,5.984284,-0.04091763,-0.07766199,-0.02599316,-0.03533679,-0.1495367,0.9877826
634795921742680000,0.05083089,0.1251222,-1.094819,-3.06,16.62,-39.12,15,277,5,-0.1982193,-0.1148408,0.2064847,5.987252,-0.04758906,-0.07899082,-0.02933347,-0.03553771,-0.1481995,0.9878834
634795921742880000,0.02737048,0.1564027,-1.106549,-3.42,18.18,-39.66,11,273,5,0.01252732,0.1288384,0.429972,5.999441,-0.0526526,-0.07614124,-0.03141985,-0.0339466,-0.1422371,0.9887513
634795921743080000,0.01564027,0.113392,-1.063539,-3.42,18.18,-39.66,12,274,5,0.07423503,0.2171224,0.4640272,6.00515,-0.05247498,-0.07340156,-0.03104665,-0.03269315,-0.1393827,0.9892117
634795921743280000,0.02346041,0.05474096,-1.012708,-3.42,18.18,-39.66,11,273,5,0.02419964,0.1829999,0.3448339,6.012423,-0.05262494,-0.06968868,-0.03075315,-0.03095781,-0.1357474,0.989782
634795921743480000,0.04301075,0.04301075,-0.9853373,-3.42,18.18,-39.66,11,273,5,-0.1279702,0.14569,0.2149985,6.017852,-0.05420279,-0.06604135,-0.03121083,-0.02913004,-0.1330438,0.9901902
634795921743680000,0.06256109,0.04692082,-0.9736071,-3.42,18.18,-39.66,9,271,5,-0.1928478,0.1658453,0.1426189,6.021535,-0.0574758,-0.06158483,-0.03248952,-0.02676523,-0.1312139,0.99046
634795921743880000,0.06647116,0.05083089,-0.9540567,-3.66,18.84,-39.9,9,271,5,-0.08210837,0.1349234,0.09895611,6.023786,-0.0592196,-0.05683875,-0.03301853,-0.02433701,-0.1300617,0.9906571
634795921744080000,0.07038123,0.05474096,-0.9540567,-3.66,18.84,-39.9,11,273,5,0.0562607,-0.01731545,0.0393329,6.024973,-0.05785441,-0.05192304,-0.03201345,-0.02200928,-0.1293949,0.9908319
634795921744280000,0.07038123,0.05474096,-0.9736071,-3.66,18.84,-39.9,16,278,5,0.02006427,-0.0002939131,0.04889921,6.02573,-0.05667067,-0.049968,-0.03129396,-0.02112891,-0.1289826,0.9909278
634795921744480000,0.07038123,0.05083089,-0.9892473,-3.66,18.84,-39.9,16,278,5,-0.05231347,-0.01838712,0.03080217,6.026305,-0.05618572,-0.04775274,-0.03090659,-0.02007128,-0.1286652,0.9910032
634795921744680000,0.07038123,0.05083089,-0.9970675,-3.66,18.84,-39.9,15,277,5,-0.1150897,-0.1258634,0.01377137,6.026618,-0.0572958,-0.04659056,-0.03137965,-0.01942877,-0.128507,0.9910216
634795921744880000,0.07038123,0.05474096,-1.008798,-3.6,19.5,-40.14,14,276,5,-0.05653312,-0.175882,-0.05965122,6.026453,-0.0587542,-0.0472933,-0.03214856,-0.01968072,-0.1286115,0.9909784
634795921745080000,0.06256109,0.06647116,-1.032258,-3.6,19.5,-40.14,14,276,5,0.004138888,-0.1375699,-0.1011309,6.025059,-0.05886579,-0.04830646,-0.03228237,-0.02015316,-0.1293165,0.9908728
634795921745280000,0.06256109,0.08602151,-1.047898,-3.6,19.5,-40.14,14,276,5,-0.01501589,-0.0226319,-0.09365471,6.022346,-0.05842828,-0.04693163,-0.03200405,-0.01945676,-0.1306383,0.9907224
634795921745480000,0.07038123,0.08602151,-1.032258,-3.6,19.5,-40.14,12,274,5,-0.04480695,-0.0002959313,-0.02552748,6.021894,-0.05903006,-0.0450766,-0.03218644,-0.01849108,-0.1308438,0.9907079
634795921745680000,0.07038123,0.0742913,-1.008798,-3.6,19.5,-40.14,13,275,5,0.1116017,-0.06629173,0.01491637,6.022081,-0.05879211,-0.04387569,-0.03198913,-0.0179147,-0.1307329,0.9907395
634795921745880000,0.06256109,0.05865103,-1.000978,-3.54,20.1,-39.9,13,275,5,0.1073195,-0.0130843,0.02768707,6.022402,-0.05705642,-0.04316962,-0.03108073,-0.01768328,-0.1305496,0.9907967
634795921746080000,0.05474096,0.04692082,-0.9892473,-3.54,20.1,-39.9,13,275,5,0.02323949,0.0007428597,-0.001044665,6.022877,-0.0554409,-0.04158473,-0.03017392,-0.01701059,-0.1302805,0.9908719
634795921746280000,0.06256109,0.04301075,-0.9814272,-3.54,20.1,-39.9,12,274,5,-0.01613247,-0.1067451,-0.04466832,6.022678,-0.05529761,-0.04007947,-0.03000729,-0.01627108,-0.1303592,0.9908791
634795921746480000,0.07038123,0.05865103,-1.000978,-3.54,20.1,-39.9,11,273,5,0.1285911,-0.1163213,-0.01166457,6.022446,-0.05400943,-0.04076135,-0.02941514,-0.01668946,-0.1304722,0.990875
634795921746680000,0.0742913,0.07038123,-1.032258,-3.54,20.1,-39.9,11,273,5,0.2531054,0.04116308,0.03622865,6.023059,-0.04993343,-0.0392791,-0.02729473,-0.01622922,-0.1301175,0.9909899
634795921746880000,0.0742913,0.05865103,-0.9970675,-3.54,20.1,-39.9,13,275,5,0.2786468,0.1667009,0.08836185,6.024486,-0.04485821,-0.03529811,-0.02451226,-0.01460386,-0.1293292,0.9911911
634795921747080000,0.0742913,0.02737048,-0.9618768,-3.54,20.1,-39.9,13,275,5,-0.3715809,-0.2164418,0.004264541,6.025643,-0.04694914,-0.03157532,-0.0253019,-0.01263815,-0.1287317,0.9912761
634795921747280000,0.0742913,0.03128055,-0.9970675,-3,19.98,-39.48,12,274,5,-0.5759121,-0.3750113,-0.06702205,6.025462,-0.05342006,-0.03446221,-0.02869485,-0.01364985,-0.1288969,0.9911488
634795921747480000,0.07038123,0.06647116,-1.047898,-3,19.98,-39.48,12,274,5,-0.1342339,-0.02913346,-0.1733928,6.021148,-0.05958771,-0.03546321,-0.0318449,-0.01367968,-0.1310894,0.9907646
634795921747680000,0.0742913,0.08211143,-1.063539,-3,19.98,-39.48,12,274,5,0.2456616,0.0825626,-0.09353233,6.020086,-0.05315614,-0.0329107,-0.0284993,-0.01282133,-0.1315398,0.9908182
634795921747880000,0.0742913,0.06647116,-1.047898,-3,19.98,-39.48,11,273,5,0.6404891,0.3740811,-0.02008036,6.019681,-0.04273295,-0.02785945,-0.02300713,-0.01099895,-0.1316235,0.9909717
634795921748080000,0.08602151,0.04301075,-0.9657869,-2.4,20.04,-39.12,9,271,5,0.2339551,0.2814935,-0.01687172,6.019405,-0.03228331,-0.02124452,-0.0173966,-0.008405867,-0.1316531,0.9911076
634795921748290000,0.08211143,0.01564027,-0.914956,-2.4,20.04,-39.12,9,271,5,-0.5163369,-0.3123634,-0.1264483,6.019639,-0.03520298,-0.02002084,-0.01876217,-0.007609503,-0.1315396,0.9911042
634795921748480000,0.06647116,-0.007820137,-0.9384164,-2.4,20.04,-39.12,9,271,5,-0.5163369,-0.3123634,-0.1264483,6.019639,-0.03520298,-0.02002084,-0.01876217,-0.007609503,-0.1315396,0.9911042
634795921748680000,0.07038123,0.007820137,-0.9814272,-2.4,20.04,-39.12,12,274,5,-0.3056203,-0.2293538,-0.2339171,6.018061,-0.04824209,-0.02881134,-0.02582578,-0.01104575,-0.1340523,0.9905761
634795921748880000,0.08211143,0.05083089,-1.028348,-2.4,20.04,-39.12,12,274,5,0.01366083,-0.05694912,-0.219018,6.011907,-0.04713297,-0.02885377,-0.02529573,-0.01110379,-0.1355089,0.9903909
634795921749080000,0.08602151,0.05865103,-1.036168,-2.4,20.04,-39.12,8,270,5,0.005139473,-0.006949053,-0.04870588,6.011771,-0.0461204,-0.02737522,-0.02469533,-0.01043846,-0.1355553,0.990407
634795921749280000,0.08211143,0.04301075,-1.016618,-2.4,20.04,-39.12,8,270,5,-0.03314507,-0.07505543,0.03217449,6.012558,-0.04612946,-0.02698839,-0.02466966,-0.01025596,-0.1351612,0.9904634
634795921749480000,0.0742913,0.03128055,-1.008798,-2.46,19.92,-39.78,11,273,5,-0.02034489,0.01220519,-0.006157205,6.014002,-0.04615545,-0.02668679,-0.02465494,-0.01012263,-0.1344431,0.9905629
634795921749680000,0.0742913,0.02737048,-1.008798,-2.46,19.92,-39.78,10,272,5,-0.02568975,0.02600659,0.001295989,6.014779,-0.04625845,-0.02316606,-0.02446486,-0.008387837,-0.1337584,0.9906765
634795921749880000,0.07038123,0.02737048,-0.9931574,-2.46,19.92,-39.78,9,271,5,0.01152812,0.0004489049,-0.02955611,6.015666,-0.04584145,-0.02138948,-0.02413853,-0.007539937,-0.1335614,0.9907178
634795921750080000,0.06256109,0.02737048,-0.9931574,-2.46,19.92,-39.78,9,271,5,0.04980617,-0.07191735,-0.05720989,6.015455,-0.04465055,-0.02069259,-0.02350302,-0.007271717,-0.1336541,0.9907226
634795921750280000,0.06647116,0.03519062,-1.000978,-2.46,19.92,-39.78,9,271,5,0.0444578,-0.08361776,-0.06144796,6.015262,-0.04376125,-0.02073383,-0.02306596,-0.007349389,-0.1337469,0.9907198
634795921750480000,0.0742913,0.05083089,-1.012708,-2.28,20.22,-39.78,8,270,5,0.0657438,0.02917244,-0.03163401,6.015106,-0.04230284,-0.02022552,-0.02231022,-0.007193323,-0.1338139,0.9907292
634795921750690000,0.0742913,0.05474096,-1.008798,-2.28,20.22,-39.78,8,270,5,0.02107252,0.07915367,0.03966844,6.01562,-0.04096293,-0.01778841,-0.02148235,-0.00608116,-0.1335311,0.9907931
634795921750880000,0.08602151,0.04692082,-0.9814272,-2.28,20.22,-39.78,8,270,5,0.03277261,0.04401083,0.06306554,6.017265,-0.04049492,-0.0151149,-0.02106843,-0.004805243,-0.1326892,0.9909221
634795921751080000,0.08211143,0.03910068,-0.9618768,-2.28,20.22,-39.78,9,271,5,0.09443807,-0.0432599,0.01835956,6.01945,-0.0382266,-0.01324594,-0.01981649,-0.004051324,-0.1315843,0.9910986
634795921751290000,0.0742913,0.03519062,-0.9657869,-2.28,20.22,-39.78,11,273,5,0.03372019,-0.06348123,-0.02420029,6.019616,-0.03769851,-0.01297176,-0.01953637,-0.00395182,-0.1314986,0.991116
634795921751480000,0.07820137,0.03519062,-0.9853373,-2.04,20.34,-39.78,10,272,5,-0.07591798,-0.103897,-0.08376147,6.019153,-0.03869772,-0.01325178,-0.02005085,-0.004020264,-0.1317322,0.9910744
634795921751680000,0.07820137,0.03910068,-1.000978,-2.04,20.34,-39.78,9,271,5,-0.04825718,-0.03469789,-0.1379912,6.01769,-0.03965091,-0.01308525,-0.02051511,-0.003859911,-0.1324579,0.9909688
634795921751880000,0.07820137,0.05474096,-1.004888,-2.04,20.34,-39.78,9,271,5,-0.05146262,-0.04108845,-0.1007011,6.016232,-0.04029584,-0.01216555,-0.02097192,-0.003320102,-0.13317,0.9908658
634795921752080000,0.08211143,0.06256109,-1.008798,-2.04,20.34,-39.78,9,271,5,0.009163626,-0.1400577,0.008924142,6.016239,-0.04069066,-0.01216555,-0.02097192,-0.003320102,-0.13317,0.9908658
634795921752290000,0.08211143,0.04301075,-1.008798,-2.04,20.34,-39.78,9,271,5,0.155871,-0.03575296,0.03551232,6.019374,-0.03710604,-0.01296079,-0.01924254,-0.003983002,-0.1316172,0.9911059
634795921752490000,0.07820137,0.03128055,-1.000978,-2.04,20.34,-39.78,10,272,5,0.06962289,-0.04000102,0.01210575,6.02049,-0.03512096,-0.01212799,-0.01820213,-0.003711048,-0.1310533,0.9912013
634795921752680000,0.0742913,0.02737048,-1.000978,-2.04,20.34,-39.78,10,272,5,-0.03257241,-0.05808764,-0.02406535,6.021037,-0.03455639,-0.01165199,-0.01789015,-0.003517056,-0.130777,0.9912441
634795921752880000,0.06647116,0.02737048,-1.004888,-2.04,20.34,-39.78,10,272,5,-0.06027281,-0.07404122,-0.001705767,6.021403,-0.03517842,-0.0112505,-0.01817169,-0.0032807,-0.1305933,0.991264
634795921753080000,0.07038123,0.03128055,-1.000978,-2.1,20.28,-39.24,9,271,5,-0.02198955,-0.05593918,0.02596579,6.023442,-0.03621531,-0.01088881,-0.01865886,-0.003052731,-0.1295815,0.9913885
634795921753280000,0.07038123,0.03128055,-0.9931574,-2.1,20.28,-39.24,7,269,5,0.02692916,-0.05699063,0.01001284,6.024184,-0.03581214,-0.01072049,-0.01844698,-0.003002289,-0.1292115,0.9914409
634795921753480000,0.06647116,0.02346041,-0.9853373,-2.1,20.28,-39.24,7,269,5,0.08753306,-0.06017224,-0.02721471,6.024836,-0.03425741,-0.01051021,-0.01766183,-0.003004211,-0.1288845,0.9914978
634795921753680000,0.07038123,0.02737048,-0.9853373,-2.1,20.28,-39.24,8,270,5,0.1310769,-0.09952877,-0.02931954,6.025209,-0.03187728,-0.01081705,-0.01650098,-0.003312829,-0.1286979,0.991541
634795921753880000,0.07038123,0.03128055,-1.004888,-1.56,20.58,-38.22,5,267,5,0.08311408,-0.1080191,-0.01652202,6.025851,-0.02982903,-0.01149642,-0.01552793,-0.003786436,-0.1283813,0.9915961
634795921754080000,0.07038123,0.03128055,-1.012708,-1.56,20.58,-38.22,5,267,5,0.01070345,-0.1218318,0.00159535,6.026587,-0.02944613,-0.01208723,-0.01537449,-0.004109581,-0.1280197,0.991644
634795921754280000,0.07038123,0.03128055,-1.008798,-1.56,20.58,-38.22,5,267,5,0.06173709,-0.08882458,-0.01008282,6.028447,-0.02745819,-0.01299536,-0.01444251,-0.004700528,-0.1270995,0.9917737
634795921754480000,0.07038123,0.02737048,-1.004888,-1.56,20.58,-38.22,6,268,5,0.1021261,-0.02604615,-0.04623114,6.028462,-0.02587175,-0.01206362,-0.01359661,-0.00433941,-0.1270819,0.9917896
634795921754700000,0.07038123,0.02346041,-1.004888,-1.56,20.58,-38.22,6,268,5,-0.01823784,-0.03884441,-0.02909148,6.028553,-0.02545786,-0.01137543,-0.01334747,-0.004025054,-0.1270318,0.9918007
634795921754880000,0.07820137,0.02737048,-1.004888,-1.2,20.64,-38.34,5,267,5,-0.007628256,-0.03565099,-0.02378036,6.02897,-0.02567863,-0.01097679,-0.01343084,-0.003816113,-0.1268235,0.991827
634795921755080000,0.07820137,0.03128055,-1.004888,-1.2,20.64,-38.34,5,267,5,0.0253325,-0.0271324,-0.04721534,6.029784,-0.02570152,-0.01033068,-0.01339991,-0.00349968,-0.1264155,0.9918807
634795921755280000,0.07820137,0.03128055,-1.008798,-1.2,20.64,-38.34,5,267,5,0.005088701,0.006918863,-0.08232976,6.030072,-0.02522659,-0.009521246,-0.01311277,-0.003130201,-0.1262672,0.9919047
634795921755480000,0.0742913,0.03910068,-1.000978,-1.2,20.64,-38.34,6,268,5,-0.01408864,-0.03032997,-0.01740607,6.030155,-0.02534103,-0.007667064,-0.01305251,-0.002203921,-0.1262149,0.9919146
634795921755680000,0.07038123,0.03910068,-0.9892473,-1.2,20.64,-38.34,5,267,5,0.06993631,-0.0313843,0.02515197,6.031664,-0.02484774,-0.007031679,-0.01276631,-0.00192955,-0.1254621,0.9920144
634795921755890000,0.06256109,0.01955034,-0.9814272,-1.2,20.64,-38.34,5,267,5,0.1039261,-0.02605595,-0.005731629,6.033043,-0.02322292,-0.006286144,-0.01191254,-0.001669884,-0.1247726,0.9921125
634795921756080000,0.06256109,0.01564027,-0.9853373,-1.2,20.64,-38.34,5,267,5,0.04216908,-0.03989545,-0.05470248,6.033473,-0.02222061,-0.005794882,-0.01138434,-0.001491145,-0.124556,0.9921461
634795921756280000,0.06256109,0.02346041,-0.9892473,-1.08,20.64,-38.16,4,266,5,-0.03974423,-0.03457838,-0.05683742,6.033641,-0.02234674,-0.005520701,-0.01142977,-0.001348232,-0.1244708,0.9921566
634795921756480000,0.06647116,0.02737048,-1.000978,-1.08,20.64,-38.16,4,266,5,-0.05990417,-0.02711826,-0.04508593,6.034604,-0.02429509,-0.004407763,-0.01232671,-0.0006808342,-0.1239878,0.9922069
634795921756680000,0.08211143,0.03519062,-1.004888,-1.08,20.64,-38.16,4,266,5,-0.05667669,-0.03668395,-0.01844731,6.0358,-0.0250802,-0.004078031,-0.01269543,-0.0004761414,-0.1233927,0.9922766
634795921756880000,0.08602151,0.03519062,-1.012708,-1.08,20.64,-38.16,4,266,5,-0.01091799,-0.06542377,0.01773315,6.036901,-0.02505231,-0.004209995,-0.01268954,-0.0005503168,-0.1228479,0.9923443
634795921757080000,0.07820137,0.03128055,-1.024438,-1.08,20.64,-38.16,4,266,5,0.111411,-0.07180773,0.01560757,6.037941,-0.02393079,-0.004362106,-0.01214205,-0.0007010298,-0.1223317,0.9924148
634795921757280000,0.06647116,0.01955034,-1.020528,-1.44,20.22,-38.34,7,269,5,0.1155649,0.04524373,0.01457974,6.039468,-0.02060461,-0.00245285,-0.01037474,3.503751E-05,-0.1215633,0.9925295
634795921757480000,0.05083089,0.01173021,-1.000978,-1.44,20.22,-38.34,6,268,5,0.007026335,-0.02182694,0.02943452,6.040907,-0.01989317,-0.001059413,-0.009937553,0.0006761713,-0.1208421,0.9926218
634795921757680000,0.04692082,0.007820137,-0.9892473,-1.44,20.22,-38.34,6,268,5,0.04851483,-0.008017875,-0.05994529,6.042083,-0.01988125,-0.0005148649,-0.009899279,0.0009398676,-0.1202558,0.9926932
634795921757880000,0.06647116,0.01564027,-0.9931574,-1.44,20.22,-38.34,6,268,5,0.03889615,-0.009080505,-0.06415696,6.042513,-0.01872611,0.0003868341,-0.009271969,0.001315975,-0.1200385,0.9927251
634795921758080000,0.07820137,0.02346041,-0.9931574,-1.44,20.22,-38.34,3,265,5,0.01866385,-0.03357418,-0.03751014,6.042848,-0.01775431,0.001077771,-0.008748374,0.001599141,-0.11987,0.9927498
634795921758280000,0.07820137,0.03128055,-0.9892473,-2.16,20.52,-38.34,7,269,5,0.02077346,-0.05912782,-0.005572531,6.043429,-0.01737046,0.00121665,-0.00855008,0.001642599,-0.1195814,0.9927862
634795921758480000,0.0742913,0.03519062,-0.9931574,-2.16,20.52,-38.34,7,269,5,0.02606734,-0.03357673,0.02103118,6.044329,-0.0170052,0.001274467,-0.008365978,0.0016457,-0.1191353,0.9928414
634795921758680000,0.0742913,0.03128055,-1.000978,-2.16,20.52,-38.34,8,270,5,0.03773296,-0.01653647,0.001872149,6.045069,-0.01673865,0.001595974,-0.008215238,0.001786379,-0.1187664,0.9928866
634795921758880000,0.0742913,0.02737048,-1.004888,-2.16,20.52,-38.34,9,271,5,0.02279591,0.03133164,-0.02049914,6.046096,-0.01604724,0.003943324,-0.007734064,0.002906694,-0.1182474,0.9929498
634795921759080000,0.07820137,0.03128055,-0.9970675,-2.16,20.52,-38.34,8,270,5,-0.0006216151,-0.008068534,0.0007606727,6.046779,-0.01624322,0.004782676,-0.007782822,0.003332338,-0.1179047,0.9929888
634795921759290000,0.07038123,0.03519062,-0.9931574,-2.4,20.1,-37.86,9,271,5,0.0312945,-0.06126128,0.01356543,6.047748,-0.01560092,0.004707813,-0.007469879,0.003253681,-0.117425,0.9930484
634795921759480000,0.07038123,0.03519062,-0.9970675,-2.4,20.1,-37.86,9,271,5,0.1908811,-0.01866609,0.05504892,6.048776,-0.01376987,0.004975438,-0.006546721,0.003275713,-0.1169167,0.9931148
634795921759680000,0.07038123,0.02346041,-0.9970675,-2.4,20.1,-37.86,9,271,5,0.2973036,0.04942368,0.03691399,6.05017,-0.009266852,0.006617903,-0.00421736,0.003825095,-0.116227,0.9932064
634795921759880000,0.07038123,0.01173021,-0.9853373,-2.4,20.1,-37.86,9,271,5,0.006716217,-0.0442358,0.03465741,6.051846,-0.005574941,0.008021712,-0.002305898,0.00430575,-0.1146209,0.9933974
634795921760080000,0.06647116,0.007820137,-0.9814272,-2.4,20.1,-37.86,8,270,5,-0.03368017,-0.06125946,-0.005816665,6.054081,-0.005796432,0.008238315,-0.002408359,0.00442338,-0.1142881,0.9934349
634795921760280000,0.05865103,0.01564027,-0.9931574,-2.4,20.1,-37.86,8,270,5,0.06637157,-0.1080924,0.0005609168,6.054346,-0.006157398,0.007798671,-0.002613392,0.004225331,-0.1141567,0.9934503
634795921760490000,0.05865103,0.01955034,-0.9970675,-2.7,19.8,-38.16,9,271,5,0.1962027,-0.04318179,0.00692956,6.055026,-0.004157066,0.007146477,-0.001658218,0.003786625,-0.1138242,0.9934923
634795921760680000,0.07038123,0.01173021,-0.9970675,-2.7,19.8,-38.16,8,270,5,0.226001,-0.08892092,0.01540484,6.055894,-0.0001235008,0.00646174,0.0003049996,0.003217051,-0.1134004,0.9935441
634795921760880000,0.0742913,0.01173021,-0.9970675,-2.7,19.8,-38.16,8,270,5,0.1632117,-0.06441904,0.02921049,6.056753,0.003281116,0.005530238,0.001942427,0.002562062,-0.1129783,0.9935923
634795921761080000,0.06647116,0.01564027,-0.9892473,-2.7,19.8,-38.16,8,270,5,0.09616647,-0.04100429,0.08347438,6.05794,0.005554199,0.005453944,0.003065971,0.002397592,-0.1123919,0.9936563
634795921761280000,0.04301075,0.01564027,-0.9775171,-2.7,19.8,-38.16,9,271,5,0.1088944,-0.1080463,0.170727,6.062863,0.008214712,0.004823089,0.004347535,0.001945354,-0.1099469,0.993926
634795921761480000,0.04692082,-0.007820137,-0.9618768,-2.7,19.8,-38.16,9,271,5,0.3355743,0.068614,0.2271309,6.067538,0.01355576,0.006226063,0.007073392,0.002365499,-0.107633,0.9941627
634795921761680000,0.05083089,-0.01564027,-0.9462366,-2.46,20.22,-38.46,6,268,5,0.2068031,0.001544721,0.1675343,6.071124,0.0166626,0.006494045,0.008628031,0.002346956,-0.1058545,0.9943414
634795921761880000,0.03519062,0.01564027,-0.9540567,-2.46,20.22,-38.46,6,268,5,0.2493553,-0.1889481,0.22498,6.07395,0.0183146,0.00410533,0.009321393,0.00108513,-0.104441,0.9944868
634795921762080000,0.03128055,0.01173021,-0.9657869,-2.46,20.22,-38.46,6,268,5,0.2482911,-0.05272917,0.2079524,6.076945,0.02095628,0.002020001,0.01052625,-7.399722E-05,-0.1029423,0.9946316
634795921762280000,0.04301075,-0.03128055,-0.9775171,-2.46,20.22,-38.46,5,267,5,-0.111444,-0.05167494,0.05148622,6.081661,0.02537846,0.0005370378,0.01265155,-0.001009259,-0.1005871,0.9949933
634795921762480000,0.05083089,-0.02737048,-0.9892473,-2.46,20.22,-38.46,4,266,5,-0.01355536,0.2015616,-0.05708975,6.084628,0.0224185,0.002727747,0.01128894,0.0002460963,-0.09912474,0.995011
634795921762690000,0.06647116,-0.007820137,-0.9814272,-2.46,20.22,-38.46,4,266,5,-0.1306314,0.2430664,0.04081087,6.085336,0.02112341,0.007631183,0.01088664,0.002753604,-0.09879727,0.9950442
634795921762880000,0.07038123,-0.007820137,-0.9736071,-2.04,19.98,-39.18,4,266,5,-0.1678401,0.1153215,0.07272358,6.086487,0.01909661,0.01075363,0.01002987,0.004413042,-0.09823603,0.9951028
634795921763080000,0.05865103,-0.007820137,-0.9970675,-2.04,19.98,-39.18,4,266,5,-0.1475823,0.1897631,0.03332777,6.088177,0.01619506,0.01358557,0.008720077,0.005971952,-0.09739903,0.9951893
634795921763280000,0.06647116,-0.01173021,-1.004888,-2.04,19.98,-39.18,7,269,5,-0.1485834,0.514325,-0.1220397,6.089303,0.0134666,0.0184561,0.007594534,0.008532685,-0.09684514,0.9951223
634795921763480000,0.07038123,-0.02346041,-0.969697,-2.04,19.98,-39.18,7,269,5,-0.1804777,0.3312783,-0.08688433,6.085847,0.006729602,0.03176785,0.004912678,0.01547451,-0.09854921,0.9949998
634795921763680000,0.08211143,0,-0.9657869,-2.04,19.98,-39.18,7,269,5,-0.1921587,0.01302356,-0.2433077,6.083358,0.004822493,0.0316292,0.003976294,0.01549457,-0.09977274,0.9948817
634795921763890000,0.1173021,0.02346041,-1.016618,-2.04,19.98,-39.18,6,268,5,-0.06123871,-0.09658194,-0.05065555,6.082363,0.003741026,0.03035331,0.003382121,0.01491215,-0.1002588,0.9948439
634795921764080000,0.1329423,0.02346041,-1.032258,-1.32,19.68,-39.3,5,267,5,-0.09625778,-0.02634766,0.0440641,6.083247,0.00159049,0.03048062,0.002312159,0.01508424,-0.09980315,0.9948902
634795921764280000,0.1251222,0.02737048,-1.032258,-1.32,19.68,-39.3,10,272,5,0.06552956,0.006632361,0.05790127,6.084258,0.0001664162,0.03107929,0.001625768,0.01545397,-0.09928918,0.9949373
634795921764480000,0.1329423,0.02737048,-1.024438,-1.32,19.68,-39.3,11,273,5,-0.1504883,0.2705416,0.08236057,6.086655,-0.0006258488,0.03535962,0.001423115,0.0176243,-0.09808636,0.9950208
634795921764680000,0.1094819,0.003910068,-1.004888,-1.32,19.68,-39.3,11,273,5,-0.2324336,-0.1019327,0.07489184,6.087072,-0.005728722,0.04014027,-0.0008853158,0.02025265,-0.09782214,0.9949974
634795921764880000,0.08993158,0.003910068,-1.020528,-1.32,19.68,-39.3,11,273,5,-0.1036354,-0.1508832,0.07269613,6.089282,-0.00788188,0.03912461,-0.00202822,0.01985042,-0.09670368,0.9951132
634795921765080000,0.1251222,0.003910068,-1.047898,-1.32,19.68,-39.3,11,273,5,-0.01424083,-0.07213488,0.1099023,6.090456,-0.007951498,0.0386163,-0.002098989,0.01959966,-0.09612047,0.9951745
634795921765280000,0.1212121,0.007820137,-1.036168,-0.42,19.62,-39.54,5,267,5,0.007016326,-0.06255835,0.1237182,6.092819,-0.008012533,0.03830146,-0.002167379,0.01944342,-0.09494498,0.9952903
634795921765480000,0.1055719,-0.003910068,-1.032258,-0.42,19.62,-39.54,5,267,5,0.0613248,-0.1093659,0.07156954,6.09506,-0.007460832,0.03785205,-0.001935777,0.0191914,-0.09383608,0.9954008
634795921765680000,0.1094819,-0.003910068,-1.032258,-0.42,19.62,-39.54,5,267,5,0.1602545,-0.04018513,-0.01355252,6.095819,-0.005427122,0.03709912,-0.0009660854,0.01872087,-0.09347951,0.9954447
