Timestamp,Acc.X,Acc.Y,Acc.Z,Comp.X,Comp.Y,Comp.Z,Comp.TrueHeading,Comp.MagneticHeading,Comp.HeadingAccuracy,Gyro.X,Gyro.Y,Gyro.Z,Motion.Yaw,Motion.Pitch,Motion.Roll,Motion.X,Motion.Y,Motion.Z,Motion.W
634795922834890000,0.1016618,0.06647116,-0.9970675,0,0,0,0,0,0,0,0,0,0,0,0,0,0,0,0
634795922835090000,0.09775171,0.06647116,-1.004888,0,0,0,0,0,0,0,0,0,0,0,0,0,0,0,0
634795922835290000,0.09775171,0.0742913,-1.000978,0,0,0,0,0,0,0,0,0,0,0,0,0,0,0,0
634795922835490000,0.1055719,0.08211143,-0.9931574,0,0,0,0,0,0,0,0,0,0,0,0,0,0,0,0
634795922835690000,0.1055719,0.06647116,-0.9775171,0,0,0,0,0,0,0,0,0,0,0,0,0,0,0,0
634795922835890000,0.09775171,0.03910068,-0.9736071,0,0,0,0,0,0,0,0,0,0,0,0,0,0,0,0
634795922836090000,0.09384164,0.05474096,-0.9970675,0,0,0,0,0,0,-0.1977708,-0.2386185,-0.1221125,0,0,0,0,0,0,0
634795922836290000,0.09384164,0.08993158,-1.028348,-34.92,-4.68,-4.02,74,336,5,0.07362822,-0.1151464,-0.07846259,0,0,0,0,0,0,0
634795922836490000,0.08993158,0.1055719,-1.016618,-34.92,-4.68,-4.02,74,336,5,0.1608797,-0.04590773,0.02479397,0,0,0,0,0,0,0
634795922836690000,0.08211143,0.08211143,-0.9931574,-3.78,21.96,-38.52,14,276,5,-0.05621204,0.05730496,0.09499398,0,0,0,0,0,0,0
634795922836890000,0.08211143,0.04692082,-0.9775171,-1.14,21.72,-37.38,7,269,5,-0.3605634,0.1572974,0.01723829,0,0,0,0,0,0,0
634795922837090000,0.08993158,0.05474096,-0.9892473,-1.14,21.72,-37.38,6,268,5,-0.5340321,0.1774658,-0.07110655,0,0,0,0,0,0,0
634795922837290000,0.1016618,0.08993158,-1.008798,-1.14,21.72,-37.38,6,268,5,-0.4574079,0.06993434,-0.1349421,0,0,0,0,0,0,0
634795922837500000,0.113392,0.1055719,-1.008798,-1.14,21.72,-37.38,7,269,5,0.2056122,-0.07377694,-0.0338476,0,0,0,0,0,0,0
634795922837690000,0.1173021,0.09384164,-0.9970675,-1.14,21.72,-37.38,8,270,5,0.07150105,-0.1088715,0.0300224,0,0,0,0,0,0,0
634795922837890000,0.1094819,0.07820137,-1.000978,-1.38,20.88,-37.38,11,273,5,0.02042335,-0.05564541,-0.03273879,0,0,0,0,0,0,0
634795922838090000,0.1094819,0.08211143,-1.016618,-1.38,20.88,-37.38,11,273,5,-0.04447076,0.001799972,-0.0657004,0,0,0,0,0,0,0
634795922838290000,0.1055719,0.09384164,-1.020528,-1.38,20.88,-37.38,10,272,5,-0.1093517,0.08262319,-0.0529332,6.077285,-0.08921837,0.1007277,-0.0391336,0.05460326,-0.1003027,0.9926865
634795922838490000,0.1016618,0.09384164,-1.008798,-1.38,20.88,-37.38,10,272,5,-0.00290383,0.06129538,-0.004004286,6.077808,-0.08901286,0.1032099,-0.03891614,0.05581419,-0.09998745,0.9926594
634795922838700000,0.1055719,0.08602151,-0.9970675,-1.38,20.88,-37.38,10,272,5,0.07266212,-0.01212829,0.0002229222,6.07897,-0.0880947,0.1035846,-0.03847326,0.05593185,-0.09942741,0.9927264
634795922838890000,0.1094819,0.08602151,-1.000978,-1.38,20.88,-37.38,10,272,5,0.05138187,-0.05677382,-0.0008601397,6.080228,-0.08757186,0.1025057,-0.03830469,0.0553465,-0.09884392,0.992824
634795922839090000,0.1055719,0.08211143,-1.012708,-1.14,20.04,-37.98,10,272,5,0.01202267,-0.03121251,-0.01469698,6.080839,-0.08728575,0.1019307,-0.03820921,0.0550354,-0.09856197,0.992873
634795922839290000,0.1055719,0.07820137,-1.012708,-1.14,20.04,-37.98,11,273,5,-0.05073192,0.04218359,-0.05086638,6.079752,-0.08775496,0.1034896,-0.0383315,0.05585284,-0.09905047,0.992774
634795922839490000,0.1055719,0.08993158,-1.008798,-1.14,20.04,-37.98,10,272,5,0.01211292,0.04639578,-0.05609109,6.079054,-0.08717918,0.1045295,-0.0379721,0.05635354,-0.09938778,0.9927258
634795922839690000,0.1094819,0.09384164,-1.000978,-1.14,20.04,-37.98,10,272,5,0.07807094,0.002766384,-0.0273055,6.078913,-0.08557319,0.1051236,-0.03714006,0.05657108,-0.09948935,0.9927347
634795922839890000,0.1055719,0.08211143,-0.9931574,-1.14,20.04,-37.98,10,272,5,0.09931692,-0.0472554,-0.04857968,6.07868,-0.08428764,0.1047155,-0.03651661,0.05630888,-0.09965075,0.9927565
634795922840090000,0.09775171,0.07820137,-0.9970675,-1.14,20.04,-37.98,10,272,5,0.08864731,-0.1025986,-0.09327086,6.077928,-0.08386254,0.1040962,-0.03631672,0.05599407,-0.1000509,0.9927415
634795922840290000,0.09775171,0.08602151,-1.016618,-0.96,20.7,-37.38,9,271,5,0.1045921,-0.01740685,-0.1006669,6.076659,-0.08287168,0.1024247,-0.03519392,0.05477309,-0.1005982,0.9927947
634795922840490000,0.1016618,0.09384164,-1.024438,-0.96,20.7,-37.38,9,271,5,0.06945305,0.1358482,-0.08782383,6.078553,-0.0806663,0.103613,-0.03477284,0.05558349,-0.09984028,0.992841
634795922840690000,0.1016618,0.08993158,-0.9892473,-0.96,20.7,-37.38,8,270,5,0.01092333,0.1921537,-0.05904527,6.080278,-0.08205581,0.1061165,-0.03538134,0.05686458,-0.09888814,0.9928423
634795922840900000,0.1016618,0.08602151,-0.9618768,-0.96,20.7,-37.38,8,270,5,-0.07844668,0.09103227,-0.07390739,6.081399,-0.08374476,0.1070871,-0.03620188,0.05740938,-0.09826069,0.9928436
634795922841090000,0.1094819,0.0742913,-0.9579667,-0.96,20.7,-37.38,8,270,5,-0.1518266,-0.055804,-0.1068299,6.082268,-0.08699989,0.1072484,-0.03783452,0.05763283,-0.0977321,0.992822
634795922841290000,0.1094819,0.08211143,-0.9814272,-0.6,20.58,-37.68,9,271,5,-0.1602748,-0.1164213,-0.1429484,6.082747,-0.09048509,0.1052037,-0.03968288,0.05677906,-0.09744484,0.9928272
634795922841490000,0.113392,0.1055719,-1.004888,-0.6,20.58,-37.68,9,271,5,-0.03359981,-0.13877,-0.1237449,6.083209,-0.08867645,0.1020427,-0.03895913,0.05511332,-0.09734432,0.9929596
634795922841690000,0.1094819,0.1173021,-1.012708,-0.6,20.58,-37.68,9,271,5,0.07175221,-0.1100245,-0.05135443,6.083766,-0.08862423,0.101509,-0.03897561,0.05483508,-0.09708267,0.993
634795922841890000,0.1055719,0.09775171,-1.004888,-0.6,20.58,-37.68,9,271,5,-0.01444099,0.008096446,-0.01940214,6.084227,-0.09211445,0.1025145,-0.04067008,0.05549402,-0.09673245,0.9929296
634795922842100000,0.113392,0.08211143,-0.9853373,-0.6,20.58,-37.68,8,270,5,-0.1197514,0.06552235,-0.02042401,6.084913,-0.09673595,0.1039985,-0.0429085,0.05643899,-0.09622364,0.9928316
634795922842290000,0.1173021,0.08993158,-0.9736071,-0.6,20.58,-37.68,8,270,5,-0.09416401,-0.05368193,-0.02358497,6.086153,-0.09965587,0.1032802,-0.04442914,0.0561955,-0.09554563,0.992844
634795922842490000,0.1055719,0.1055719,-0.9775171,-0.18,20.88,-37.98,8,270,5,0.01974352,-0.3495311,-0.002328666,6.087675,-0.09883952,0.0997386,-0.04424338,0.05436544,-0.09490837,0.9930153
634795922842690000,0.08602151,0.1094819,-0.9931574,-0.18,20.88,-37.98,9,271,5,0.2283131,-0.34421,-0.02573971,6.092017,-0.09403587,0.09011602,-0.04244454,0.04926874,-0.09312934,0.9935281
634795922842890000,0.08602151,0.1055719,-1.020528,-0.18,20.88,-37.98,8,270,5,0.03460798,-0.08133477,-0.02149919,6.095631,-0.09298396,0.08581828,-0.04221596,0.04700926,-0.09146772,0.9938016
634795922843090000,0.1016618,0.09775171,-1.032258,-0.18,20.88,-37.98,4,266,5,-0.1154307,0.111302,-0.01831663,6.101328,-0.09616566,0.08545613,-0.04394786,0.04684984,-0.08857068,0.9939964
634795922843290000,0.1094819,0.08993158,-1.024438,-0.18,20.88,-37.98,4,266,5,-0.07389978,0.06973743,-0.03959155,6.104493,-0.09865212,0.08666276,-0.04520282,0.04748789,-0.08690786,0.9940567
634795922843490000,0.1055719,0.09384164,-1.012708,-0.24,20.94,-37.62,6,268,5,0.1101874,-0.1207527,0.0423607,6.108083,-0.09986138,0.08784938,-0.04583613,0.04804775,-0.08506287,0.9941604
634795922843690000,0.09384164,0.09775171,-1.024438,-0.24,20.94,-37.62,7,269,5,0.2538379,-0.06115471,0.05937554,6.111913,-0.0968988,0.08703279,-0.04449079,0.0474308,-0.08325101,0.9946567
634795922843890000,0.09775171,0.08602151,-1.036168,-0.24,20.94,-37.62,7,269,5,0.1016395,0.1750717,0.009340027,6.118577,-0.08929466,0.08977901,-0.04075109,0.04834358,-0.08005083,0.9947835
634795922844090000,0.1094819,0.07820137,-1.016618,-0.24,20.94,-37.62,7,269,5,0.03031117,0.2079967,0.01891422,6.120618,-0.0885787,0.09236753,-0.04033684,0.0495608,-0.07899068,0.9948252
634795922844310000,0.1055719,0.08211143,-0.9775171,-0.24,20.94,-37.62,5,267,5,0.05370582,0.07493841,0.08277529,6.123703,-0.08679604,0.09594476,-0.03938046,0.05120847,-0.07741653,0.9949038
634795922844490000,0.09384164,0.0742913,-0.9736071,-0.24,20.94,-37.62,6,268,5,0.1334795,-0.110184,0.0647039,6.126559,-0.08379387,0.09746598,-0.03789903,0.05179469,-0.07603743,0.9950373
634795922844690000,0.1016618,0.05865103,-0.9970675,-0.3,20.46,-38.4,8,270,5,0.1004365,-0.06866548,-0.02571651,6.128774,-0.08047055,0.09630668,-0.03634855,0.05105135,-0.07504682,0.9952088
634795922844890000,0.1251222,0.07038123,-1.024438,-0.3,20.46,-38.4,8,270,5,0.07592961,0.006882902,-0.04589017,6.129519,-0.07900143,0.09561204,-0.03566368,0.05063741,-0.07472852,0.9952787
634795922845090000,0.1212121,0.08602151,-1.012708,-0.3,20.46,-38.4,7,269,5,0.1429292,0.120742,0.00416587,6.130665,-0.07267928,0.09925938,-0.03240443,0.05219703,-0.07424508,0.9953457
634795922845290000,0.113392,0.08211143,-0.9814272,-0.3,20.46,-38.4,7,269,5,0.1854789,0.1228568,0.08507125,6.131497,-0.0690515,0.1029253,-0.03047874,0.05387356,-0.07385523,0.9953462
634795922845500000,0.1094819,0.06647116,-0.9618768,-0.3,20.46,-38.4,9,271,5,0.1641944,-0.04101468,0.09572691,6.131582,-0.06826495,0.1038076,-0.03005547,0.05428223,-0.07381805,0.9953397
634795922845690000,0.1055719,0.06256109,-0.969697,-0.78,20.4,-38.46,10,272,5,0.1364655,-0.1495495,0.05210496,6.131878,-0.06754208,0.1026653,-0.02974788,0.05368278,-0.07371106,0.9953893
634795922845890000,0.1016618,0.06647116,-0.9970675,-0.78,20.4,-38.46,10,272,5,0.06614374,-0.09738882,-0.01063292,6.130875,-0.06593609,0.1005776,-0.02900268,0.05163164,-0.07495118,0.9954476
634795922846090000,0.1016618,0.08211143,-1.004888,-0.78,20.4,-38.46,10,272,5,0.06186088,0.07399634,-0.00530424,6.129168,-0.0636816,0.098629,-0.02791212,0.05156969,-0.07523493,0.9954402
634795922846290000,0.1016618,0.08211143,-0.9970675,-0.78,20.4,-38.46,8,270,5,0.01608525,0.107995,0.01490646,6.128515,-0.06342316,0.1008441,-0.02767946,0.05267126,-0.07552781,0.9953669
634795922846490000,0.1055719,0.06647116,-0.9892473,-0.78,20.4,-38.46,8,270,5,0.02246368,-0.0229203,-0.007446845,6.128047,-0.06465292,0.1018195,-0.02824065,0.05320958,-0.07571042,0.9953086
634795922846690000,0.1094819,0.06647116,-0.9931574,-0.78,20.4,-38.46,9,271,5,0.01606301,-0.06974227,-0.04468696,6.126939,-0.0657115,0.1005784,-0.0287873,0.05264811,-0.07625635,0.9952811
634795922846890000,0.113392,0.07038123,-1.012708,-0.96,19.98,-38.16,10,272,5,-0.07012677,-0.01760524,-0.02020499,6.126085,-0.06626797,0.09992789,-0.02906772,0.05235809,-0.07667875,0.9952558
634795922847090000,0.1094819,0.07820137,-1.016618,-0.96,19.98,-38.16,10,272,5,-0.05733277,0.02177737,-0.01172195,6.124868,-0.06769919,0.1000206,-0.02974425,0.05247723,-0.07724538,0.9950897
634795922847290000,0.09775171,0.08211143,-1.000978,-0.96,19.98,-38.16,10,272,5,0.04482827,0.08137099,0.005307149,6.121998,-0.06820154,0.1032262,-0.02978736,0.05413395,-0.07859921,0.9949896
634795922847490000,0.1016618,0.07038123,-0.9775171,-0.96,19.98,-38.16,10,272,5,0.05758397,0.02177023,0.003184765,6.121316,-0.06806612,0.1036735,-0.02968301,0.05436121,-0.07893373,0.9949539
634795922847710000,0.1055719,0.05865103,-0.9775171,-0.96,19.98,-38.16,9,271,5,0.007559531,-0.07928742,-0.01601056,6.120362,-0.06862736,0.1028446,-0.02997071,0.05398547,-0.07940863,0.9949279
634795922847890000,0.1055719,0.06256109,-0.9931574,-0.96,19.98,-38.16,9,271,5,-0.003075484,-0.109011,-0.01387881,6.11938,-0.06936931,0.1009773,-0.03039113,0.05310118,-0.07991301,0.9949224
634795922848090000,0.1055719,0.06647116,-1.008798,-0.84,20.16,-38.1,9,271,5,-0.02009372,-0.005727215,-0.02769767,6.118309,-0.06936908,0.1005323,-0.03038128,0.05289616,-0.08045502,0.9948899
634795922848290000,0.1055719,0.06647116,-0.9970675,-0.84,20.16,-38.1,9,271,5,-0.06157818,0.08683621,-0.03088726,6.117498,-0.06960654,0.1016276,-0.03043167,0.05346269,-0.08083098,0.9948276
634795922848490000,0.113392,0.06647116,-0.9775171,-0.84,20.16,-38.1,8,270,5,-0.008339568,-0.1004764,-0.02562636,6.116102,-0.07040452,0.1025532,-0.03075195,0.05397673,-0.08148573,0.9947366
634795922848690000,0.1094819,0.0742913,-0.9970675,-0.84,20.16,-38.1,8,270,5,0.0353042,-0.1004523,-0.02032737,6.115442,-0.0696938,0.1004646,-0.03046978,0.05291929,-0.08187371,0.9947702
634795922848900000,0.113392,0.0742913,-1.020528,-0.84,20.16,-38.1,9,271,5,0.04064012,-0.02697766,-0.008638669,6.114892,-0.06897378,0.1000366,-0.03011542,0.05268526,-0.08217438,0.9947687
634795922849090000,0.1212121,0.06647116,-1.016618,-0.84,20.16,-38.1,10,272,5,0.02895546,0.04755492,0.01581509,6.114143,-0.06839633,0.1002848,-0.02979787,0.05279611,-0.08255741,0.9947407
634795922849290000,0.1173021,0.06256109,-1.008798,-1.2,20.52,-37.74,10,272,5,0.1268706,0.05178128,0.02004475,6.113605,-0.06806349,0.1016728,-0.02955823,0.05348042,-0.08280737,0.9946905
634795922849490000,0.1016618,0.05865103,-0.9775171,-1.2,20.52,-37.74,10,272,5,0.2875685,0.007124896,-0.002329835,6.112643,-0.06559538,0.1035641,-0.02822298,0.0543322,-0.08331706,0.9946405
634795922849690000,0.1173021,0.03519062,-0.9305963,-1.2,20.52,-37.74,10,272,5,-0.3456314,0.1965514,0.01998973,6.110922,-0.0637989,0.1102714,-0.02698932,0.05761512,-0.08409984,0.9944241
634795922849890000,0.1212121,0.04301075,-0.9462366,-1.2,20.52,-37.74,10,272,5,-1.170406,-0.2206119,-0.1140978,6.109818,-0.07900929,0.107463,-0.03464331,0.05687656,-0.08426939,0.9942151
634795922850090000,0.1055719,0.08211143,-1.000978,-1.2,20.52,-37.74,10,272,5,-1.173599,-0.04608008,-0.1885599,6.10531,-0.1009693,0.1047492,-0.04555099,0.05655332,-0.08595409,0.9936492
634795922850290000,0.113392,0.113392,-1.008798,-1.2,20.52,-37.74,12,274,5,-0.7234313,0.09754615,-0.1747034,6.102038,-0.1086056,0.1064371,-0.04917294,0.05779959,-0.08731323,0.9932863
634795922850510000,0.1251222,0.1212121,-0.9853373,-1.5,20.52,-37.44,11,273,5,-0.134893,0.05287135,-0.04802479,6.099228,-0.1138399,0.1080735,-0.05161331,0.05891263,-0.0885068,0.9929914
634795922850690000,0.1290323,0.1173021,-0.9853373,-1.5,20.52,-37.44,12,274,5,0.1716239,-0.2514697,-0.01926602,6.094459,-0.1086342,0.1031719,-0.04912572,0.05636662,-0.09117202,0.9930242
634795922850890000,0.1407625,0.1055719,-1.024438,-1.5,20.52,-37.44,12,274,5,0.5536807,-0.2780753,-0.03837897,6.090784,-0.0952034,0.100141,-0.04250237,0.05432656,-0.09345299,0.9932315
634795922851100000,0.1407625,0.1016618,-1.036168,-1.5,20.52,-37.44,15,277,5,0.8516637,-0.163139,0.1361489,6.089101,-0.0846169,0.09839761,-0.03728518,0.05299681,-0.09461554,0.9934028
634795922851290000,0.1329423,0.08211143,-0.9970675,-1.5,20.52,-37.44,15,277,5,0.2290921,-0.0173045,0.1999699,6.088163,-0.07136083,0.09823143,-0.0306838,0.05230042,-0.09543419,0.9935872
634795922851490000,0.1290323,0.04692082,-0.9540567,-2.04,21.36,-37.44,14,276,5,-0.4349844,-0.08535095,0.1967772,6.088811,-0.06867766,0.09777354,-0.02939025,0.05193545,-0.09519108,0.9936687
634795922851690000,0.113392,0.02346041,-0.9501466,-2.04,21.36,-37.44,14,276,5,-0.4030577,-0.2343389,0.04346026,6.089532,-0.07710218,0.09868312,-0.03354971,0.05277553,-0.09459394,0.9935498
634795922851890000,0.1055719,0.03519062,-0.9853373,-2.04,21.36,-37.44,14,276,5,-0.1486829,-0.2620087,-0.04062534,6.088338,-0.08187556,0.09589195,-0.03602747,0.05163672,-0.09512436,0.9934722
634795922852090000,0.1212121,0.04692082,-1.032258,-2.04,21.36,-37.44,14,276,5,-0.03475864,-0.1534577,-0.0108364,6.087708,-0.07841039,0.09352827,-0.03440725,0.05030885,-0.09557762,0.9935543
634795922852290000,0.1251222,0.06256109,-1.047898,-2.04,21.36,-37.44,10,272,5,-0.004932772,-0.05870797,0.06893717,6.088311,-0.07474637,0.09274792,-0.03264059,0.04973627,-0.09538682,0.993661
634795922852490000,0.1251222,0.05865103,-1.036168,-2.04,21.36,-37.44,10,272,5,0.002508183,-0.01502833,0.05080426,6.089377,-0.07079148,0.09370064,-0.03065529,0.05000442,-0.09493652,0.9937539
634795922852690000,0.1251222,0.04692082,-1.012708,-2.16,21.36,-37.56,11,273,5,-0.06451182,-0.00651953,0.03270276,6.089269,-0.06939911,0.09458696,-0.02991715,0.0503802,-0.09500743,0.9937507
634795922852890000,0.1290323,0.05083089,-0.9931574,-2.16,21.36,-37.56,12,274,5,-0.07834952,-0.01395474,0.04654503,6.088485,-0.06806159,0.0972656,-0.0291007,0.05165854,-0.09537929,0.9936737
634795922853090000,0.1251222,0.05083089,-0.9892473,-2.16,21.36,-37.56,12,274,5,-0.02410862,-0.06821394,0.09229384,6.088791,-0.06639624,0.09794676,-0.02824767,0.05191312,-0.09525701,0.9936967
634795922853290000,0.1173021,0.04692082,-0.9892473,-2.16,21.36,-37.56,13,275,5,0.03652295,-0.04690731,0.1241655,6.089439,-0.0640974,0.09877777,-0.02708155,0.05220759,-0.0949797,0.9937403
634795922853490000,0.113392,0.03128055,-0.9853373,-2.16,21.36,-37.56,13,275,5,0.06627666,-0.06605548,0.1134641,6.089859,-0.062361,0.09927595,-0.02620534,0.05236711,-0.09480731,0.9937719
634795922853690000,0.1055719,0.02346041,-0.9736071,-1.74,21.9,-37.32,10,272,5,-0.01888019,-0.07452852,0.08255,6.090374,-0.06002211,0.09969032,-0.02503638,0.05245556,-0.09460557,0.9938166
634795922853890000,0.1016618,0.01173021,-0.9618768,-1.74,21.9,-37.32,10,272,5,-0.1412321,-0.06704765,0.05166097,6.091779,-0.0596199,0.09899557,-0.02490693,0.05207389,-0.09392985,0.993904
634795922854090000,0.1173021,0.003910068,-0.9579667,-1.74,21.9,-37.32,9,271,5,-0.1326562,-0.1308702,0.002720979,6.09228,-0.05893421,0.09788227,-0.02463301,0.05148243,-0.09371767,0.9939617
634795922854290000,0.1290323,0.007820137,-0.9736071,-1.74,21.9,-37.32,9,271,5,-0.1421875,-0.2085586,0.03041989,6.093902,-0.05689263,0.09534347,-0.02378159,0.05010599,-0.09300592,0.9941196
634795922854510000,0.1212121,0.01173021,-0.9853373,-1.74,21.9,-37.32,10,272,5,-0.09848763,-0.2000448,0.06872901,6.095623,-0.05380177,0.09422004,-0.02234137,0.04938469,-0.09224468,0.99426
634795922854690000,0.1094819,0,-0.9814272,-1.56,21.84,-37.08,10,272,5,-0.09210281,-0.07760614,0.1357307,6.097977,-0.05090714,0.0953766,-0.02090626,0.04980141,-0.09112881,0.9943733
634795922854890000,0.1055719,-0.02737048,-0.969697,-1.56,21.84,-37.08,9,271,5,-0.1676041,-0.06057204,0.1324665,6.100915,-0.04992532,0.09631943,-0.02044773,0.05019532,-0.08967878,0.9944949
634795922855090000,0.1016618,-0.03128055,-0.9814272,-1.56,21.84,-37.08,9,271,5,-0.2133326,-0.1254659,0.08559687,6.105775,-0.04683685,0.09497344,-0.0190939,0.0493414,-0.08735753,0.9947711
634795922855290000,0.1094819,-0.02346041,-1.000978,-1.56,21.84,-37.08,8,270,5,-0.2186538,-0.06265814,0.06001642,6.108349,-0.04360843,0.09458613,-0.01756842,0.0489851,-0.08616178,0.9949211
634795922855490000,0.113392,-0.01173021,-0.9970675,-1.56,21.84,-37.08,7,269,5,-0.262287,-0.09876857,0.09725035,6.111533,-0.04149365,0.09421325,-0.01661036,0.04868212,-0.08463413,0.9950836
634795922855700000,0.1094819,-0.01564027,-0.9892473,-1.56,21.84,-37.08,7,269,5,-0.2473878,-0.1455329,0.04082216,6.11427,-0.04070401,0.09361184,-0.01630974,0.04832725,-0.08329866,0.9952185
634795922855890000,0.1173021,-0.01955034,-0.9931574,-1.08,21.48,-36.72,7,269,5,-0.2814431,-0.226414,-0.01559901,6.115175,-0.04062915,0.09261787,-0.01633646,0.04782222,-0.08286208,0.9952789
634795922856090000,0.1368524,-0.01173021,-1.020528,-1.08,21.48,-36.72,7,269,5,-0.3218836,-0.2466342,-0.02837972,6.11611,-0.04087567,0.08988106,-0.01659674,0.04646291,-0.08242369,0.9953753
634795922856290000,0.1485826,0.007820137,-1.036168,-1.08,21.48,-36.72,7,269,5,-0.2420667,-0.1082545,0.06312491,6.118653,-0.04108357,0.08766662,-0.01685116,0.04534815,-0.08118019,0.9955247
634795922856490000,0.1368524,0.007820137,-0.9892473,-1.08,21.48,-36.72,7,269,5,-0.1132448,-0.01135015,0.1982525,6.12046,-0.04014134,0.08932149,-0.01635517,0.0461187,-0.08028264,0.9955704
634795922856690000,0.1290323,-0.01173021,-0.9345064,-1.08,21.48,-36.72,9,271,5,-0.05152529,-0.02086805,0.2365646,6.123965,-0.03805995,0.09211385,-0.01528769,0.04739821,-0.07855429,0.9956651
634795922856890000,0.1368524,-0.03910068,-0.914956,-1.08,22.32,-36.18,9,271,5,-0.1143073,-0.1134015,0.2067663,6.127392,-0.03654861,0.09342457,-0.01456493,0.04796637,-0.07686923,0.9957802
634795922857090000,0.1407625,-0.03910068,-0.9266862,-1.08,22.32,-36.18,10,272,5,-0.1780856,-0.2091817,0.1535386,6.130635,-0.03766083,0.09008753,-0.01532486,0.046323,-0.07526524,0.9959691
634795922857290000,0.1407625,-0.02346041,-0.9423265,-1.08,22.32,-36.18,10,272,5,-0.1344056,-0.1996037,0.1620087,6.132263,-0.03775978,0.08787464,-0.01527693,0.04374006,-0.0731343,0.9962454
634795922857490000,0.1407625,-0.01955034,-0.9540567,-1.08,22.32,-36.18,10,272,5,-0.1056513,-0.1463925,0.286523,6.138944,-0.03389549,0.08489728,-0.01383024,0.04353957,-0.07126596,0.9964107
634795922857690000,0.1368524,-0.02346041,-0.969697,-1.08,22.32,-36.18,10,272,5,-0.1034756,-0.1634201,0.3035506,6.144322,-0.03034663,0.08583438,-0.01214603,0.04384736,-0.06865449,0.9966025
634795922857910000,0.1407625,-0.02737048,-1.000978,-1.08,22.32,-36.18,9,271,5,-0.05132841,-0.1815119,0.2322475,6.147455,-0.02838349,0.08611595,-0.01122679,0.04390274,-0.06713413,0.9967144
634795922858090000,0.1485826,-0.01955034,-1.040078,-1.08,22.32,-36.18,9,271,5,-0.02683229,-0.1783192,0.2141557,6.151393,-0.02477789,0.08588243,-0.009523817,0.0436466,-0.0652521,0.9968683
634795922858290000,0.1603128,-0.01564027,-1.067449,-1.5,22.56,-35.88,9,271,5,-0.05021939,-0.1368144,0.2024492,6.154658,-0.02074957,0.08573413,-0.007591782,0.04342882,-0.06371331,0.996994
634795922858490000,0.1642229,-0.01955034,-1.090909,-1.5,22.56,-35.88,9,271,5,-0.04171463,-0.06229035,0.2024492,6.1573,-0.01984334,0.08329391,-0.007274528,0.04217393,-0.062431,0.9971313
634795922858690000,0.1564027,-0.02346041,-1.098729,-1.5,22.56,-35.88,9,271,5,0.1147462,0.02817495,0.1492249,6.160073,-0.01710224,0.08266985,-0.005985485,0.04176895,-0.06110973,0.9972388
634795922858890000,0.1642229,-0.01173021,-1.090909,-1.5,22.56,-35.88,9,271,5,0.2584166,-0.005913886,0.1130096,6.160661,-0.01180601,0.08307171,-0.003344611,0.0418064,-0.06092536,0.9972608
634795922859100000,0.1642229,0.02737048,-1.090909,-1.5,22.56,-35.88,8,270,5,0.3467472,-0.03460646,0.1768364,6.161991,-0.00387001,0.0826124,0.0005709828,0.04133566,-0.06042859,0.9973161
634795922859290000,0.1368524,0.05474096,-1.086999,-1.32,23.82,-35.28,7,269,5,0.2988571,-0.06115068,0.259846,6.163748,0.0007705688,0.0821855,0.002836147,0.04098496,-0.05964826,0.9973737
634795922859490000,0.09384164,0.06256109,-1.094819,-1.32,23.82,-35.28,8,270,5,0.2115906,-0.09516492,0.2385615,6.166902,0.005682707,0.08080875,0.005181447,0.04015997,-0.05817589,0.9974848
634795922859690000,0.05865103,0.08211143,-1.1261,-1.32,23.82,-35.28,7,269,5,0.2488385,-0.1430565,0.03207571,6.173576,0.01269507,0.0732801,0.008340304,0.03622866,-0.05497127,0.9977956
634795922859890000,0.03910068,0.1212121,-1.184751,-1.32,23.82,-35.28,7,269,5,0.2488385,-0.1430565,0.03207571,6.173576,0.01269507,0.0732801,0.008340304,0.03622866,-0.05497127,0.9977956
634795922860090000,0.03128055,0.1564027,-1.231672,-1.32,23.82,-35.28,4,266,5,-0.01297736,0.02717649,0.08739498,6.175653,0.01045012,0.07233655,0.00715731,0.03582702,-0.0538931,0.9978781
634795922860290000,0.01564027,0.1524927,-1.223851,-1.32,23.82,-35.28,359,5,5,-0.01297736,0.02717649,0.08739498,6.179434,0.007768393,0.07243419,0.005753947,0.03595892,-0.05195808,0.9979851
634795922860490000,0,0.1329423,-1.180841,-1.74,24.24,-34.98,0,262,5,0.3446135,0.06645523,0.05650372,6.184741,0.008373976,0.07320392,0.005979633,0.0363433,-0.04932179,0.9981036
634795922860690000,-0.003910068,0.1173021,-1.13392,-1.74,24.24,-34.98,0,262,5,0.1551779,0.04300705,-0.1297111,6.187615,0.01017284,0.07381285,0.006839674,0.03661266,-0.04792117,0.9981564
634795922860890000,-0.003910068,0.1212121,-1.1261,-1.74,24.24,-34.98,359,5,5,-0.367325,0.128134,-0.3297854,6.188784,0.005503177,0.07563102,0.004530422,0.03763451,-0.04725302,0.9981635
634795922861090000,0.003910068,0.1564027,-1.12219,-1.74,24.24,-34.98,358,4,5,-0.5759131,0.3707662,-0.3755471,6.185481,-0.008476019,0.08076977,-0.00225789,0.04053219,-0.04862174,0.997992
634795922861300000,0.007820137,0.2033236,-1.071359,-1.74,24.24,-34.98,358,4,5,-0.495032,0.421849,-0.3053083,6.183603,-0.01705313,0.0855813,-0.006379121,0.04314701,-0.04935887,0.9978284
634795922861490000,0.01564027,0.2072336,-0.9814272,-1.74,24.24,-34.98,358,4,5,-0.2013058,0.4527115,-0.1807777,6.182095,-0.02761436,0.09287166,-0.01142921,0.04705229,-0.04982428,0.9975836
634795922861690000,0.02346041,0.1759531,-0.8797654,-2.16,23.94,-35.4,0,262,5,-0.0852356,0.4335554,-0.1307345,6.181369,-0.03451419,0.1005901,-0.01465421,0.05107824,-0.04994769,0.9973372
634795922861890000,0.01955034,0.1407625,-0.8132942,-2.16,23.94,-35.4,1,263,5,-0.2384384,0.1281161,-0.1573191,6.178652,-0.05600047,0.1034372,-0.02522129,0.05306534,-0.05070688,0.9969838
634795922862090000,0.01564027,0.1173021,-0.8054741,-2.16,23.94,-35.4,5,267,5,-0.2703651,0.03230978,-0.2381851,6.175716,-0.06452203,0.1035906,-0.02938648,0.05340058,-0.05194113,0.9967883
634795922862290000,0.02737048,0.113392,-0.8054741,-2.16,23.94,-35.4,5,267,5,-0.2373741,0.1823537,-0.3243874,6.17132,-0.07192659,0.1061637,-0.03288456,0.05494691,-0.0538839,0.9964918
634795922862500000,0.05865103,0.1173021,-0.7781036,-2.16,23.94,-35.4,4,266,5,-0.3086772,0.2366044,-0.3137451,6.166546,-0.08061171,0.109882,-0.03696758,0.05712059,-0.05594264,0.996113
634795922862690000,0.07820137,0.113392,-0.7663734,-2.04,24.24,-35.58,5,267,5,-0.1138857,-0.06033059,-0.1881665,6.164111,-0.08539224,0.110723,-0.03925281,0.05772073,-0.05699928,0.995931
634795922862890000,0.07038123,0.09775171,-0.7859238,-2.04,24.24,-35.58,11,273,5,0.1531956,-0.1401315,-0.1668332,6.159841,-0.09055233,0.1096389,-0.04173327,0.05741716,-0.05900237,0.9957311
634795922863090000,0.05865103,0.08211143,-0.801564,-2.04,24.24,-35.58,12,274,5,0.1531956,-0.1401315,-0.1668332,6.153398,-0.0894103,0.1047341,-0.04114409,0.05507486,-0.06236028,0.9956833
634795922863290000,0.05083089,0.0742913,-0.8328446,-2.04,24.24,-35.58,12,274,5,0.2255629,-0.1646087,-0.1358931,6.150033,-0.0855639,0.1008693,-0.03926914,0.05309723,-0.06423034,0.9957475
634795922863490000,0.03519062,0.07038123,-0.8680352,-2.04,24.24,-35.58,9,271,5,0.1126379,0.1345184,-0.1602261,6.148554,-0.08474898,0.1011744,-0.03881357,0.05325162,-0.06498136,0.9957084
634795922863690000,0.01173021,0.06256109,-0.8797654,-1.98,23.88,-36.24,7,269,5,0.2658676,0.1355557,-0.1601597,6.146369,-0.08318734,0.1032541,-0.03790483,0.05427739,-0.066064,0.9956168
634795922863890000,0.01564027,0.06256109,-0.8680352,-1.98,23.88,-36.24,4,266,5,0.3829324,-0.01984141,-0.1100959,6.14508,-0.07881403,0.1053425,-0.03561874,0.0551952,-0.06677959,0.995603
634795922864090000,0.03128055,0.06647116,-0.8954057,-1.98,23.88,-36.24,4,266,5,0.4116665,-0.1219899,-0.05581428,6.147779,-0.06354403,0.1017458,-0.02821453,0.05285518,-0.06591833,0.9960246
634795922864290000,0.02346041,0.06256109,-0.9618768,-1.98,23.88,-36.24,2,264,5,0.291409,-0.01341061,-0.0611271,6.148817,-0.05958271,0.1008834,-0.02629853,0.05228141,-0.06552019,0.9961336
634795922864490000,0.02737048,0.06647116,-1.024438,-1.98,23.88,-36.24,3,265,5,0.1860507,0.05154639,-0.1547268,6.149254,-0.05568981,0.1000129,-0.02440062,0.05171495,-0.06541718,0.9962183
634795922864710000,0.04301075,0.08602151,-1.083089,-1.98,23.88,-36.24,1,263,5,0.1146874,-0.05062625,-0.1046421,6.148823,-0.05372476,0.0972513,-0.02350508,0.0502803,-0.06572448,0.9962929
634795922864890000,0.03910068,0.1016618,-1.16129,-1.98,23.88,-36.24,1,263,5,0.125245,-0.2017462,-0.04394307,6.149314,-0.05298638,0.09413826,-0.02325554,0.04869976,-0.06554434,0.9963892
634795922865090000,0.02737048,0.1016618,-1.243402,-1.56,24.3,-36.36,0,262,5,0.2433739,-0.2411225,-0.06946275,6.15154,-0.05012059,0.08643961,-0.02213903,0.04474587,-0.06461235,0.9966609
634795922865290000,0.01955034,0.1173021,-1.282502,-1.56,24.3,-36.36,0,262,5,0.3338331,0.01323045,-0.09923521,6.152401,-0.04761576,0.08370245,-0.02100077,0.04329197,-0.0642759,0.9967715
634795922865490000,0.01955034,0.1407625,-1.247312,-1.56,24.3,-36.36,359,5,5,0.2880714,0.1621848,-0.04492981,6.155576,-0.03888798,0.08554267,-0.0166596,0.0439018,-0.06286147,0.996917
634795922865690000,0.03519062,0.1368524,-1.212121,-1.56,24.3,-36.36,359,5,5,0.1443701,-0.03258029,-0.08000848,6.15713,-0.03777814,0.08466184,-0.01616855,0.04341533,-0.06212045,0.9969928
634795922865900000,0.05865103,0.1407625,-1.266862,-1.56,24.3,-36.36,358,4,5,-0.1430172,-0.3794987,-0.3204964,6.154722,-0.04215693,0.0777254,-0.01852428,0.04011603,-0.06330743,0.9970154
634795922866090000,0.09384164,0.1837732,-1.360704,-1.5,23.94,-36.18,0,262,5,-0.3718255,-0.409297,-0.4737448,6.15118,-0.04760289,0.07223737,-0.02135095,0.03759062,-0.06503523,0.9969461
634795922866290000,0.113392,0.2463343,-1.356794,-1.5,23.94,-36.18,1,263,5,-0.1834576,0.3122854,0.003068445,6.144989,-0.05820298,0.068887,-0.02663408,0.03634774,-0.067973,0.996669
634795922866490000,0.1094819,0.2737048,-1.216031,-1.5,23.94,-36.18,2,264,5,0.1336469,0.2846155,0.271257,6.146713,-0.06659174,0.0778178,-0.03053628,0.04105515,-0.06680187,0.9964535
634795922866690000,0.08993158,0.2346041,-1.059628,-1.5,23.94,-36.18,2,264,5,0.2911522,-0.09107447,0.3776796,6.153072,-0.063766,0.0780636,-0.02925042,0.04099035,-0.06368694,0.9966986
634795922866890000,0.04301075,0.1798632,-0.9775171,-1.5,23.94,-36.18,4,266,5,0.1527859,-0.3805437,0.2925415,6.156853,-0.06282115,0.07497846,-0.02895602,0.0393683,-0.06187369,0.9968868
634795922867090000,0.01564027,0.1603128,-0.9618768,-1.5,23.94,-36.18,7,269,5,-0.02390706,-0.476324,0.1169461,6.1611,-0.06364584,0.06739818,-0.02968583,0.03555285,-0.0598691,0.9971311
634795922867290000,0.01955034,0.1564027,-0.9814272,-1.62,23.28,-36.18,5,267,5,-0.1750081,-0.443333,0.04140673,6.16422,-0.07179236,0.05797934,-0.03408791,0.03104831,-0.05834579,0.9972311
634795922867490000,0.03128055,0.1485826,-0.9970675,-1.62,23.28,-36.18,5,267,5,-0.2569534,-0.2507082,0.02653376,6.170581,-0.09007716,0.04429042,-0.04369619,0.02461886,-0.05520636,0.9972146
634795922867690000,0.02737048,0.1368524,-0.9657869,-1.62,23.28,-36.18,1,263,5,-0.1270952,-0.08681246,0.06166574,6.172507,-0.09367443,0.04286337,-0.04555364,0.02396284,-0.05423591,0.9972006
634795922867890000,0.02346041,0.1094819,-0.8680352,-1.62,23.28,-36.18,2,264,5,0.0283051,-0.05164833,0.06485055,6.175001,-0.09591793,0.04160368,-0.04673678,0.0233374,-0.05208245,0.9973038
634795922868110000,0.03910068,0.08211143,-0.7937439,-2.58,22.98,-35.4,6,268,5,0.1889464,0.02180396,0.02972601,6.176861,-0.09473109,0.04160869,-0.04616655,0.02326554,-0.05208245,0.9973038
634795922868290000,0.05865103,0.06647116,-0.7350929,-2.58,22.98,-35.4,6,268,5,0.07607669,0.2026532,-0.06174713,6.177002,-0.09233879,0.04323065,-0.04493152,0.02400877,-0.05200133,0.9973468
634795922868490000,0.0742913,0.06256109,-0.7077224,-2.58,22.98,-35.4,9,271,5,0.1026473,0.2037036,-0.05852944,6.175242,-0.0909605,0.04675043,-0.04412646,0.02576683,-0.05281358,0.9972962
634795922868690000,0.08602151,0.05865103,-0.7155425,-2.58,22.98,-35.4,14,276,5,0.2015972,0.195113,-0.09363419,6.170002,-0.08658767,0.05248558,-0.04171334,0.02862036,-0.05535506,0.9971844
634795922868890000,0.08993158,0.05083089,-0.742913,-2.58,22.98,-35.4,17,279,5,0.1611309,0.2738657,-0.1170368,6.165411,-0.08315801,0.05678701,-0.03980888,0.03076136,-0.05760052,0.9970713
634795922869090000,0.09775171,0.03910068,-0.7585533,-2.58,22.98,-35.4,17,279,5,0.1206497,0.3707102,-0.1393695,6.160272,-0.08082055,0.0631721,-0.03836492,0.03397543,-0.06006375,0.9968782
634795922869300000,0.113392,0.03128055,-0.7663734,-2.58,22.98,-35.4,17,279,5,0.244089,0.1546459,-0.1893603,6.154405,-0.07669067,0.06774879,-0.03605691,0.03623823,-0.06296559,0.9967056
634795922869490000,0.1290323,0.03910068,-0.8211144,-3.3,22.32,-35.7,20,282,5,0.3898878,-0.1507992,-0.1222825,6.150963,-0.07265925,0.06805515,-0.03397524,0.03632242,-0.06474802,0.9966614
634795922869690000,0.1329423,0.04692082,-0.9423265,-3.3,22.32,-35.7,21,283,5,0.3909521,-0.2657355,-0.04560858,6.146223,-0.06458306,0.06438184,-0.02999231,0.03430127,-0.06731966,0.9966905
634795922869890000,0.09775171,0.03910068,-1.071359,-3.3,22.32,-35.7,21,283,5,0.3505115,-0.2008178,0.03316537,6.140643,-0.04994535,0.05952036,-0.02277745,0.03144832,-0.07041597,0.9967617
634795922870090000,0.05865103,0.02737048,-1.13392,-3.3,22.32,-35.7,21,283,5,0.4548056,-0.1879507,-0.06899588,6.138229,-0.0427289,0.06001449,-0.01912499,0.0314634,-0.07172632,0.9967445
634795922870290000,0.07038123,0.03910068,-1.14565,-3.3,22.32,-35.7,10,272,5,0.7048985,-0.558301,0.02465295,6.137023,-0.03286123,0.05397737,-0.01440998,0.02810898,-0.07253712,0.9968654
634795922870490000,0.08211143,0.06256109,-1.192571,-3.54,22.02,-36,6,268,5,0.7570455,-0.4667777,0.1714994,6.137925,-0.02403569,0.0472616,-0.01026797,0.02443644,-0.07225765,0.9970337
634795922870690000,0.0742913,0.05083089,-1.231672,-3.54,22.02,-36,7,269,5,0.5356867,-0.151767,0.3364543,6.141006,-0.01088762,0.03966331,-0.004020434,0.02016654,-0.07090698,0.9972709
634795922870890000,0.04692082,0.05083089,-1.235582,-3.54,22.02,-36,7,269,5,0.3281628,-0.112365,0.2757935,6.150441,0.003610611,0.03470564,0.002951949,0.01719401,-0.06634455,0.9976442
634795922871090000,0.01564027,0.08602151,-1.235582,-3.54,22.02,-36,7,269,5,0.2483459,0.08665965,0.02781945,6.150192,0.006802082,0.03627288,0.004598026,0.0178693,-0.066498,0.9976159
634795922871290000,0.06647116,0.09775171,-1.235582,-3.54,22.02,-36,4,266,5,-0.00176628,0.234558,-0.4159625,6.14352,0.005130053,0.04037344,0.003966697,0.01995713,-0.06981308,0.9973526
634795922871490000,0.1251222,0.1212121,-1.231672,-3.54,22.02,-36,3,265,5,-0.3540094,0.3122464,-0.7033032,6.136361,0.0006027222,0.04390728,0.001910592,0.02187062,-0.07333516,0.9970657
634795922871690000,0.1485826,0.2111437,-1.204301,-3.54,22.02,-36,3,265,5,-0.4072206,0.3165033,-0.6022018,6.124298,-0.008669852,0.0492928,-0.00236417,0.02490987,-0.07922892,0.9965424
634795922871890000,0.08602151,0.2424242,-1.13392,-4.26,20.22,-36.72,10,272,5,-0.2145959,0.352687,-0.2424937,6.115355,-0.0151546,0.05537855,-0.005227204,0.02822237,-0.08357324,0.9960882
634795922872090000,0.01955034,0.2228739,-1.040078,-4.26,20.22,-36.72,15,277,5,-0.06240189,-0.007006527,-0.08810095,6.10271,-0.022825,0.06064248,-0.008628772,0.0312192,-0.08972328,0.9954399
634795922872290000,-0.01564027,0.1798632,-0.9853373,-4.26,20.22,-36.72,20,282,5,-0.3061051,-0.2347498,-0.2253691,6.096607,-0.03019595,0.0569055,-0.01237582,0.0297278,-0.09267759,0.9951754
634795922872490000,-0.003910068,0.1485826,-0.9814272,-4.26,20.22,-36.72,15,277,5,-0.3955,-0.3071171,-0.3190209,6.093013,-0.03839803,0.05235076,-0.01662015,0.02787142,-0.09439255,0.995006
634795922872690000,0.02346041,0.1407625,-0.9775171,-4.26,20.22,-36.72,15,277,5,-0.3390961,-0.2634838,-0.2764519,6.088685,-0.05268955,0.04411554,-0.02407009,0.02450125,-0.09646157,0.9947439
634795922872890000,0.03519062,0.1368524,-0.9266862,-4.44,18.54,-38.28,12,274,5,-0.2784353,-0.0208257,-0.09444342,6.084872,-0.06348777,0.0385462,-0.02966997,0.02230896,-0.09831722,0.9944625
634795922873090000,0.04301075,0.1016618,-0.8406647,-4.44,18.54,-38.28,12,274,5,-0.1783922,0.1164668,0.07370044,6.082717,-0.07216048,0.0382812,-0.03397088,0.02263996,-0.09929559,0.9942202
634795922873290000,0.05474096,0.03910068,-0.7507331,-4.44,18.54,-38.28,12,274,5,-0.04963832,0.07384989,0.09070973,6.081115,-0.07678913,0.03976965,-0.0361778,0.02363842,-0.1000095,0.9940475
634795922873490000,0.05474096,-0.003910068,-0.7311828,-4.44,18.54,-38.28,20,282,5,0.06946072,-0.314585,-0.08910218,6.079654,-0.0761423,0.03655863,-0.03600314,0.0220366,-0.1008073,0.9940101
634795922873690000,0.04301075,-0.007820137,-0.7702835,-4.44,18.54,-38.28,24,286,5,0.06946072,-0.314585,-0.08910218,6.076661,-0.07396054,0.03150868,-0.03514755,0.01946959,-0.1024161,0.9939299
634795922873890000,0.03910068,0.007820137,-0.7781036,-4.44,18.54,-38.28,24,286,5,0.2045537,0.3016236,-0.01141555,6.073788,-0.07037163,0.03101802,-0.03336196,0.01908989,-0.1038873,0.9938461
634795922874090000,0.04301075,0.007820137,-0.7272727,-4.44,18.54,-38.28,24,286,5,0.2481869,0.2888528,0.02371474,6.072242,-0.06530094,0.03656494,-0.03053422,0.02160629,-0.1046093,0.9938097
634795922874290000,0.03910068,-0.003910068,-0.7038123,-5.58,16.98,-39,24,286,5,0.3035266,0.0376822,-0.01350101,6.068449,-0.05356526,0.04229748,-0.02435387,0.02388696,-0.1065363,0.9937235
634795922874490000,0.02346041,-0.003910068,-0.7702835,-5.58,16.98,-39,27,289,5,0.2279666,-0.0879086,-0.07947849,6.066365,-0.04984521,0.04145133,-0.02252679,0.02329185,-0.1076278,0.9936631
634795922874690000,0.007820137,0,-0.8875855,-5.58,16.98,-39,27,289,5,0.07790598,0.01425371,-0.1209639,6.062728,-0.04677773,0.04104435,-0.02098306,0.02296276,-0.1094754,0.9935027
634795922874890000,0.003910068,0.01173021,-0.9814272,-6.36,16.2,-39.72,19,281,5,0.05664286,0.1494001,-0.1528524,6.059184,-0.0454576,0.04352582,-0.02014761,0.02415874,-0.1112196,0.9932979
634795922875090000,0.01564027,0.04301075,-1.016618,-6.36,16.2,-39.72,19,281,5,0.3833508,0.1547226,-0.06661286,6.056249,-0.04088521,0.04627716,-0.01768525,0.02529675,-0.1127008,0.9931495
634795922875290000,0.01955034,0.06256109,-1.059628,-6.36,16.2,-39.72,16,278,5,0.5387276,0.1057762,-0.009128211,6.054637,-0.0307498,0.04723061,-0.01257761,0.02520887,-0.1136192,0.9931248
634795922875490000,0.01955034,0.07820137,-1.192571,-6.36,16.2,-39.72,19,281,5,0.08535704,-0.02092362,-0.1602168,6.044546,-0.02154445,0.04647946,-0.007926559,0.02435298,-0.1187493,0.9925939
634795922875690000,0.03128055,0.1055719,-1.302053,-6.36,16.2,-39.72,19,281,5,0.1438621,0.008866167,-0.1346406,6.044546,-0.02154445,0.04647946,-0.007926559,0.02435298,-0.1187493,0.9925939
634795922875890000,0.0742913,0.1368524,-1.321603,-6.36,16.2,-39.72,19,281,5,0.3811843,0.2919048,0.06010581,6.040919,-0.01850009,0.04782843,-0.006290193,0.02485314,-0.1205777,0.9923728
634795922876090000,0.1290323,0.1407625,-1.259042,-6.36,16.2,-39.72,19,281,5,0.3247804,0.4557955,0.217597,6.03949,-0.01253819,0.05409836,-0.002933086,0.02760651,-0.1213311,0.9922238
634795922876290000,0.1603128,0.09775171,-1.223851,-7.2,16.02,-40.02,20,282,5,-0.02428912,0.3887493,0.3197626,6.039161,-0.01050329,0.06185555,-0.001446498,0.03133138,-0.1214888,0.9920971
634795922876490000,0.1759531,0.05083089,-1.235582,-7.2,16.02,-40.02,20,282,5,-0.009415826,-0.02846025,0.2016336,6.037311,-0.01187396,0.06668854,-0.001800713,0.03381352,-0.1223613,0.9919078
634795922876690000,0.1759531,0.06647116,-1.282502,-7.2,16.02,-40.02,31,293,5,0.04698981,-0.3988106,0.1696872,6.031978,-0.0105021,0.05865848,-0.001533852,0.02975116,-0.1250654,0.9917012
634795922876890000,0.1642229,0.1055719,-1.278592,-7.2,16.02,-40.02,29,291,5,0.1108448,-0.3732692,0.2803666,6.030801,-0.007810116,0.0521934,-0.0005885645,0.02637734,-0.1257125,0.9917158
634795922877090000,0.1603128,0.113392,-1.16911,-7.2,16.02,-40.02,29,291,5,0.07139856,-0.1273653,0.3410274,6.030468,-0.003872871,0.04957175,0.001202854,0.02482967,-0.125936,0.9917269
634795922877290000,0.1407625,0.1055719,-1.040078,-7.2,16.02,-40.02,29,291,5,0.07139856,-0.1273653,0.3410274,6.029606,-0.002927542,0.04698885,0.001519008,0.02348868,-0.1263812,0.9917025
634795922877490000,0.1173021,0.08602151,-0.9657869,-7.44,16.5,-40.08,30,292,5,-0.2520783,-0.5083579,0.1611538,6.027489,-0.005487919,0.04214418,-3.444495E-05,0.02124824,-0.1274144,0.991622
634795922877690000,0.1055719,0.0742913,-0.9501466,-7.44,16.5,-40.08,37,299,5,-0.3787211,-0.6498998,0.09725599,6.025058,-0.00820756,0.0368346,-0.006023844,0.01468432,-0.1307621,0.9912868
634795922877890000,0.09775171,0.07038123,-0.9540567,-7.44,16.5,-40.08,37,299,5,-0.4659876,-0.5487985,0.0259396,6.015586,-0.02586102,0.01953721,-0.01151099,0.01140514,-0.1332575,0.990949
634795922878090000,0.0742913,0.0742913,-0.8993157,-7.44,16.5,-40.08,37,299,5,-0.3521155,-0.3072194,0.07915256,6.010932,-0.03436852,0.01495588,-0.01600936,0.009739461,-0.135555,0.9905926
634795922878290000,0.05083089,0.06256109,-0.7702835,-7.44,16.5,-40.08,35,297,5,-0.2201516,-0.1805766,0.2281366,6.009026,-0.03964305,0.01306343,-0.01874148,0.009177499,-0.136493,0.9904212
634795922878490000,0.01564027,0.01955034,-0.6256109,-6.9,16.38,-40.08,34,296,5,-0.05940429,-0.2274025,0.3728713,6.01051,-0.0415833,0.009668589,-0.01994012,0.007614077,-0.1357849,0.9905084
634795922878690000,-0.007820137,-0.01955034,-0.5278592,-6.9,16.38,-40.08,37,299,5,-0.03704471,-0.352981,0.2387789,6.012253,-0.04183697,0.006621242,-0.02027816,0.006104416,-0.1349533,0.9906256
634795922878890000,0.003910068,-0.02737048,-0.5630499,-6.9,16.38,-40.08,33,295,5,-0.3169271,-0.4136419,-0.0485701,6.012717,-0.04361343,5.483627E-06,-0.02160552,0.002942518,-0.1347905,0.9906342
634795922879090000,0.05474096,0.03128055,-0.7194526,-6.9,16.38,-40.08,33,295,5,-0.7245253,-0.1688701,-0.4721155,6.0018,-0.0641892,-0.01244915,-0.0326438,-0.001660115,-0.140352,0.989562
634795922879290000,0.1016618,0.08993158,-0.7741935,-6.9,16.38,-40.08,28,290,5,-0.3094775,0.0003925916,-0.1932885,5.993752,-0.07271885,-0.01392901,-0.0369743,-0.001644909,-0.1443643,0.9888322
634795922879490000,0.1329423,0.1329423,-0.7781036,-6.72,17.04,-39.9,35,297,5,0.03852103,0.01639556,0.1706767,5.988451,-0.07493781,-0.01357424,-0.03804917,-0.001208491,-0.1469795,0.9884067
634795922879690000,0.1016618,0.08602151,-0.7781036,-6.72,17.04,-39.9,35,297,5,0.1502245,-0.03144402,0.2015392,5.986699,-0.07361459,-0.01300013,-0.03735404,-0.0009892351,-0.1478342,0.988306
634795922879890000,0.05865103,0.03519062,-0.8250244,-6.72,17.04,-39.9,44,306,5,0.1352786,-0.2527859,0.07912521,5.98172,-0.06996536,-0.01337421,-0.03558169,-0.001355309,-0.1502984,0.9879993
634795922880090000,0.04692082,0.02346041,-0.9227762,-6.72,17.04,-39.9,43,305,5,0.1320504,-0.3059972,-0.02197543,5.973418,-0.06324029,-0.0226239,-0.03297855,-0.006293972,-0.1545318,0.9874172
634795922880290000,0.02737048,0.03519062,-1.040078,-6.72,17.04,-39.9,43,305,5,0.1447821,-0.2761989,-0.04749555,5.971238,-0.05959892,-0.02738118,-0.03155636,-0.008889968,-0.1556616,0.9872662
634795922880490000,0.003910068,0.03910068,-1.15738,-6.72,17.04,-39.9,43,305,5,0.2405624,-0.2666208,0.0131905,5.9704,-0.05420374,-0.03136611,-0.02920625,-0.0112651,-0.1560995,0.9872452
634795922880690000,-0.01955034,0.04301075,-1.243402,-6.72,17.04,-39.9,24,286,5,0.4321229,-0.2304372,-0.04956516,5.969709,-0.04885364,-0.03312767,-0.02670637,-0.01254311,-0.1564285,0.9872485
634795922880890000,-0.01564027,0.05865103,-1.278592,-6.72,17.04,-39.9,24,286,5,0.5385454,-0.08889186,-0.2134158,5.967312,-0.0387187,-0.03586125,-0.02193365,-0.01465903,-0.1575685,0.9871556
634795922881090000,0.01955034,0.0742913,-1.266862,-6.18,18.6,-38.88,8,270,5,0.01493418,0.1813276,-0.2868474,5.958024,-0.0284245,-0.03135848,-0.01656021,-0.01317017,-0.162049,0.9865559
634795922881290000,0.06256109,0.09384164,-1.259042,-6.18,18.6,-38.88,8,270,5,0.05748254,0.01208865,-0.125036,5.955716,-0.02804088,-0.03003907,-0.01627879,-0.0125316,-0.1631776,0.9863828
634795922881490000,0.05474096,0.1212121,-1.294233,-6.18,18.6,-38.88,12,274,5,0.2011355,-0.116602,0.05058238,5.955784,-0.02627802,-0.03143835,-0.01552283,-0.01336608,-0.1631401,0.9863902
634795922881690000,0.01173021,0.1329423,-1.333333,-6.18,18.6,-38.88,12,274,5,0.1968786,0.07923743,-0.04943372,5.956336,-0.02235675,-0.03241038,-0.01366407,-0.01416914,-0.1628453,0.9864553
634795922881890000,0.007820137,0.1407625,-1.325513,-6.3,18.6,-38.34,16,278,5,-0.07983018,0.1653977,-0.2473607,5.953608,-0.02095198,-0.03055155,-0.0128384,-0.01334914,-0.1641736,0.9862576
634795922882090000,0.03128055,0.1681329,-1.286412,-6.3,18.6,-38.34,12,274,5,-0.1957992,0.1291815,-0.2431038,5.949399,-0.02414083,-0.02808213,-0.01423352,-0.01183961,-0.1662579,0.9859085
634795922882310000,0.03519062,0.1994135,-1.239492,-6.3,18.6,-38.34,12,274,5,-0.07338151,-0.04742654,-0.2079843,5.946878,-0.02676368,-0.02726245,-0.01547253,-0.01119803,-0.1675115,0.9856851
634795922882490000,0.02346041,0.2072336,-1.219941,-6.3,18.6,-38.34,16,278,5,-0.03081165,-0.1229409,-0.2133055,5.937866,-0.0309,-0.03149557,-0.01792284,-0.01285725,-0.1720009,0.9848498
634795922882690000,0.007820137,0.2072336,-1.17302,-6.3,18.6,-38.34,16,278,5,-0.1584963,-0.006946926,-0.319728,5.931201,-0.03494429,-0.03237629,-0.02003287,-0.01287638,-0.1753139,0.9842245
634795922882890000,0.01173021,0.1876833,-1.102639,-6.84,19.68,-38.04,19,281,5,-0.2329921,-0.009022802,-0.4218936,5.922579,-0.04060864,-0.03369069,-0.02299101,-0.0129277,-0.1796021,0.9833857
634795922883090000,0.03128055,0.1837732,-1.032258,-6.84,19.68,-38.04,19,281,5,-0.2287352,-0.1515752,-0.404866,5.917468,-0.04424334,-0.03579414,-0.02500105,-0.01357175,-0.1821571,0.9828579
634795922883290000,0.04692082,0.1603128,-0.9462366,-6.84,19.68,-38.04,20,282,5,0.05331194,0.00489268,-0.06532346,5.909674,-0.05174661,-0.04064822,-0.02918742,-0.01516021,-0.1860881,0.9819824
634795922883500000,0.05865103,0.1016618,-0.8641251,-6.84,19.68,-38.04,24,286,5,0.04371434,0.1538312,-0.05997658,5.909674,-0.05174661,-0.04064822,-0.02918742,-0.01516021,-0.1860881,0.9819824
634795922883690000,0.07820137,0.05083089,-0.7702835,-6.84,19.68,-38.04,28,290,5,-0.04993461,0.2144518,-0.1269948,5.905631,-0.05654144,-0.03419483,-0.03096772,-0.0114824,-0.1880304,0.9816077
634795922883890000,0.09384164,0.01955034,-0.7038123,-6.84,19.68,-38.04,28,290,5,-0.08928816,0.03247366,-0.2036043,5.901083,-0.05809331,-0.03112566,-0.0314646,-0.009758327,-0.1902319,0.9811863
634795922884090000,0.09775171,0.01955034,-0.7077224,-7.2,20.16,-37.26,32,294,5,-0.05946336,-0.2686605,-0.1642117,5.896236,-0.05849504,-0.03150928,-0.03172185,-0.009831559,-0.1926156,0.9807122
634795922884290000,0.07038123,0.03128055,-0.7781036,-7.2,20.16,-37.26,35,297,5,0.06187811,-0.37934,-0.09180575,5.892778,-0.05764103,-0.03700447,-0.03185155,-0.01255376,-0.1943756,0.9803296
634795922884490000,0.04301075,0.03519062,-0.8406647,-7.2,20.16,-37.26,35,297,5,0.4449961,-0.02389067,-0.1066683,5.891118,-0.05541158,-0.04100013,-0.03115711,-0.01470358,-0.1952224,0.9801537
634795922884690000,0.04692082,0.03519062,-0.8172043,-7.2,20.16,-37.26,35,297,5,0.5162991,0.4209369,-0.1374839,5.88563,-0.03580618,-0.03378844,-0.0208826,-0.01302343,-0.197708,0.979952
634795922884890000,0.06647116,0.03128055,-0.7624633,-7.2,20.16,-37.26,29,291,5,0.236408,0.5773779,-0.1438333,5.883206,-0.03071832,-0.02371359,-0.01740655,-0.00856794,-0.1988003,0.979848
634795922885090000,0.08211143,0.03519062,-0.742913,-7.2,20.16,-37.26,24,286,5,0.06720306,0.4422213,-0.1437927,5.881538,-0.0295124,-0.01795566,-0.01624918,-0.005853033,-0.1995767,0.97973
634795922885290000,0.07038123,0.03910068,-0.797654,-8.1,19.8,-38.34,33,295,5,0.0874292,0.147418,-0.02139107,5.879843,-0.02757239,-0.01321173,-0.01482919,-0.003709987,-0.2003728,0.9796005
634795922885490000,0.04692082,0.03910068,-0.9071358,-8.1,19.8,-38.34,33,295,5,0.2098108,-0.08027821,0.0999141,5.87953,-0.02419281,-0.01339316,-0.0131926,-0.004135371,-0.2005201,0.979592
634795922885710000,0.03910068,0.03519062,-1.016618,-8.1,19.8,-38.34,36,298,5,0.4343623,0.2495921,0.2818391,5.883035,-0.01199794,-0.01239157,-0.007110539,-0.004879782,-0.1987722,0.9800078
634795922885890000,0.04301075,0.02346041,-1.040078,-8.1,19.8,-38.34,36,298,5,0.4343623,0.2495921,0.2818391,5.888771,-0.004822731,-0.006386399,-0.002990223,-0.002658832,-0.1959373,0.9806083
634795922886090000,0.03910068,0,-1.071359,-8.1,19.8,-38.34,25,287,5,0.0225072,0.2038042,0.1562452,5.893284,-0.002492428,-6.127357E-05,-0.001228483,0.0002113718,-0.193718,0.9810565
634795922886290000,0.03128055,-0.01564027,-1.16129,-8.1,20.22,-38.76,19,281,5,-0.04982329,0.06858294,-0.005531987,5.895754,-0.003259659,0.003510356,-0.00126149,0.002036084,-0.1925028,0.9812935
634795922886490000,0.05474096,0.01173021,-1.278592,-8.1,20.22,-38.76,19,281,5,0.2332732,0.2462631,-0.08001444,5.895958,-0.003421307,0.004514694,-0.001244341,0.002544276,-0.1924018,0.9813122
634795922886690000,0.1016618,0.09384164,-1.305963,-8.1,20.22,-38.76,14,276,5,0.2918055,0.3814197,0.02427036,5.895576,0.0005881786,0.008984326,0.001153778,0.004351412,-0.1925929,0.9812684
634795922886900000,0.1368524,0.1094819,-1.247312,-8.1,20.22,-38.76,14,276,5,0.105562,0.2994744,0.1136259,5.896463,0.005695581,0.01570678,0.004303736,0.00715969,-0.1921736,0.9813254
634795922887090000,0.1603128,0.1016618,-1.235582,-8.1,20.22,-38.76,24,286,5,-0.1040588,-0.1624533,0.06357741,5.897993,0.006239176,0.0200547,0.004980973,0.009244679,-0.191428,0.9814505
634795922887290000,0.1642229,0.1329423,-1.270772,-8.1,20.22,-38.76,24,286,5,-0.1295461,-0.3188944,0.06250052,5.896686,0.002996683,0.01417124,0.002831174,0.006665936,-0.1920545,0.9813575
634795922887490000,0.1564027,0.1955034,-1.227762,-7.56,19.44,-39.18,25,287,5,0.03328663,-0.2635547,0.1901864,5.896794,0.002326488,0.008927344,0.001998554,0.004157299,-0.191999,0.9813843
634795922887690000,0.1329423,0.2033236,-1.098729,-7.56,19.44,-39.18,26,288,5,0.215259,-0.165646,0.5083897,5.901396,0.00514102,0.005349278,0.003031337,0.002138331,-0.1897428,0.9818268
634795922887890000,0.08602151,0.1485826,-0.9814272,-7.56,19.44,-39.18,30,292,5,0.1364933,-0.2443987,0.6414178,5.906128,0.007227421,0.003020048,0.003832723,0.0008059977,-0.1874175,0.9822726
634795922888090000,0.05865103,0.08602151,-0.9384164,-7.56,19.44,-39.18,30,292,5,-0.1795573,-0.4806566,0.4030314,5.916473,-0.0007390975,-0.011801,-0.001439175,-0.005734199,-0.1823293,0.9832197
634795922888290000,0.05865103,0.08602151,-0.9501466,-7.56,19.44,-39.18,33,295,5,-0.4583843,-0.6551896,0.1891221,5.917195,-0.01200318,-0.02344894,-0.00803444,-0.01043615,-0.1820289,0.983205
634795922888490000,0.06256109,0.1212121,-0.9579667,-7.02,17.88,-39.48,29,291,5,-0.6765505,-0.2827108,-0.02161115,5.916464,-0.01958561,-0.0308696,-0.01244144,-0.01338938,-0.182453,0.9830447
634795922888690000,0.05474096,0.1368524,-0.9032258,-7.02,17.88,-39.48,28,290,5,-0.5988621,0.03335379,0.04649266,5.914643,-0.03490543,-0.03487039,-0.02034781,-0.0139393,-0.1834733,0.9827152
634795922888890000,0.03910068,0.1173021,-0.7898338,-7.02,17.88,-39.48,28,290,5,-0.4509348,0.0205666,0.02838944,5.913216,-0.04826331,-0.03256392,-0.02670824,-0.01156125,-0.1842398,0.9824504
634795922889110000,0.04692082,0.08211143,-0.7155425,-7.02,17.88,-39.48,31,293,5,-0.3264204,-0.1219858,-0.04396871,5.911113,-0.05686092,-0.03238928,-0.03092655,-0.01065083,-0.185318,0.9821341
634795922889290000,0.05474096,0.07038123,-0.742913,-7.02,17.88,-39.48,37,299,5,-0.3498334,-0.1123823,-0.1163079,5.905409,-0.06801558,-0.03681349,-0.03684482,-0.01168467,-0.188241,0.9813619
634795922889490000,0.06256109,0.08211143,-0.7937439,-7.02,17.88,-39.48,38,300,5,-0.2827872,0.1005014,-0.09073386,5.90149,-0.07361054,-0.03677249,-0.03960793,-0.01106031,-0.1901951,0.9808847
634795922889690000,0.06647116,0.09384164,-0.8093842,-6.6,17.88,-38.88,35,297,5,-0.01776616,0.1621984,-0.04921045,5.898238,-0.07540225,-0.03405428,-0.04024545,-0.009491052,-0.1917538,0.9805716
634795922889890000,0.0742913,0.08993158,-0.7859238,-6.6,17.88,-38.88,35,297,5,0.5579715,0.27286,0.08380269,5.897023,-0.0718305,-0.03130865,-0.03823771,-0.008463696,-0.1922883,0.9805567
634795922890090000,0.07820137,0.05865103,-0.7468231,-6.6,17.88,-38.88,34,296,5,0.7516605,0.2068602,0.1880821,5.896956,-0.05887508,-0.02585351,-0.03136342,-0.007032367,-0.1921904,0.9808311
634795922890300000,0.0742913,0,-0.7585533,-6.6,17.88,-38.88,37,299,5,0.5292375,0.179158,0.1050594,5.897762,-0.04566002,-0.02195549,-0.02450599,-0.006399737,-0.1917055,0.9811257
634795922890490000,0.07038123,-0.01955034,-0.8172043,-6.6,17.88,-38.88,37,299,5,0.1876212,0.1291169,0.00500118,5.895971,-0.03584909,-0.01716459,-0.01923907,-0.004972117,-0.1925127,0.9810933
634795922890690000,0.07038123,-0.02346041,-0.9188661,-6.6,17.88,-38.88,37,299,5,0.01307721,0.2482789,-0.06842738,5.893902,-0.03437471,-0.01181555,-0.01800413,-0.002471297,-0.1934822,0.9809355
634795922890890000,0.08211143,0,-1.012708,-6.6,17.88,-38.88,37,299,5,0.06626123,0.3696006,-0.1056558,5.891881,-0.03217125,-0.00494051,-0.01625815,0.0007041969,-0.1944191,0.9807836
634795922891090000,0.07820137,0.01564027,-1.094819,-6.66,17.16,-38.7,23,285,5,0.1556234,0.06094009,0.1028947,5.892418,-0.03012824,0.0003341436,-0.01474445,0.003088326,-0.1941179,0.9808625
634795922891290000,0.08211143,-0.003910068,-1.176931,-6.66,17.16,-38.7,23,285,5,0.375918,0.1066583,-0.1173849,5.893424,-0.02768445,0.002823472,-0.01330641,0.004065335,-0.1936119,0.9809796
634795922891490000,0.1329423,-0.01173021,-1.223851,-6.66,17.16,-38.7,23,285,5,0.1375201,0.06730256,-0.2184712,5.89215,-0.02049088,0.005323529,-0.009533005,0.004601283,-0.1942367,0.9808976
634795922891690000,0.1642229,0.01955034,-1.247312,-6.66,17.16,-38.7,18,280,5,-0.07318611,-0.03698649,0.05185486,5.886325,-0.01533151,0.007393956,-0.006786434,0.005135419,-0.1970954,0.9803474
634795922891890000,0.1055719,0.07038123,-1.270772,-7.02,16.5,-38.34,22,284,5,0.07687112,-0.2381214,0.2359469,5.887744,-0.0151236,0.006165624,-0.006808791,0.004508039,-0.1964056,0.9804888
634795922892090000,0.03128055,0.09384164,-1.298143,-7.02,16.5,-38.34,22,284,5,0.37379,-0.3892414,0.1752861,5.890828,-0.009894133,0.0003852844,-0.004814595,0.001153224,-0.1949191,0.9808068
634795922892290000,0.01173021,0.07820137,-1.341154,-7.02,16.5,-38.34,22,284,5,0.05238873,-0.2860116,-0.1439923,5.892555,-0.003029346,-0.006955385,-0.002160809,-0.003117601,-0.1940796,0.9809785
634795922892490000,0.04301075,0.08602151,-1.364614,-7.02,16.5,-38.34,17,279,5,-0.2913337,0.06091817,-0.3504519,5.884302,-0.007651567,-0.01196587,-0.004935216,-0.005106318,-0.1981393,0.9801481
634795922892690000,0.0742913,0.1407625,-1.305963,-7.02,16.5,-38.34,15,277,5,-0.2796273,0.2747703,-0.3057545,5.880498,-0.01144004,-0.00921154,-0.006525513,-0.003368745,-0.2000067,0.979767
634795922892890000,0.08602151,0.1837732,-1.176931,-7.08,15.9,-39.12,25,287,5,-0.08164159,0.3013759,-0.1780359,5.875569,-0.01443338,-0.002960205,-0.007366861,1.122124E-05,-0.2024049,0.9792742
634795922893090000,0.08602151,0.1876833,-1.051808,-7.08,15.9,-39.12,25,287,5,-0.07416838,0.06189268,-0.1865286,5.870118,-0.01609778,-0.0003865957,-0.007917374,0.001461342,-0.2050633,0.9787156
634795922893290000,0.08211143,0.1759531,-1.004888,-7.08,15.9,-39.12,34,296,5,-0.3050748,-0.2658671,-0.2801804,5.86221,-0.02028441,-0.003353953,-0.01026857,0.0004791424,-0.2089426,0.9778739
634795922893490000,0.07820137,0.1642229,-1.016618,-7.08,15.9,-39.12,40,302,5,-0.4157542,-0.36484,-0.2716666,5.85341,-0.02789688,-0.009896397,-0.01468204,-0.001859735,-0.2132818,0.9768786
634795922893700000,0.06256109,0.1485826,-1.000978,-7.08,15.9,-39.12,41,303,5,-0.1667081,-0.1573161,-0.1545913,5.842075,-0.04093742,-0.0137285,-0.0214724,-0.002218951,-0.2188577,0.975518
634795922893890000,0.05083089,0.113392,-0.9266862,-7.08,15.9,-39.12,41,303,5,-0.02833785,0.1257829,-0.04284021,5.838216,-0.04445386,-0.01001382,-0.02278155,2.169983E-05,-0.2207053,0.9750745
634795922894090000,0.05865103,0.05474096,-0.8328446,-7.08,15.9,-39.12,39,301,5,-0.009173181,0.03958673,-0.07582662,5.834277,-0.04737353,-0.007714391,-0.02394857,0.00151216,-0.2225993,0.9746147
634795922894290000,0.07038123,0.01955034,-0.7781036,-6.42,14.94,-39.66,36,298,5,0.01635949,-0.1455704,-0.1141212,5.830332,-0.04868984,-0.009492278,-0.02478612,0.0008411586,-0.2245405,0.9741491
634795922894490000,0.07820137,0.003910068,-0.7741935,-6.42,14.94,-39.66,35,297,5,0.08337482,-0.342452,-0.1417638,5.827723,-0.04769683,-0.01369274,-0.0247751,-0.001284066,-0.2258577,0.9738443
634795922894690000,0.08602151,0.003910068,-0.7859238,-6.42,14.94,-39.66,35,297,5,0.09712014,0.03640981,-0.05763326,5.824586,-0.04469419,-0.01877058,-0.02389211,-0.004058437,-0.2274328,0.9734922
634795922894890000,0.08211143,0.003910068,-0.7390029,-6.42,14.94,-39.66,36,298,5,0.1769054,0.2417753,0.01368047,5.822329,-0.04191017,-0.0192157,-0.02259265,-0.00456627,-0.2285299,0.973264
634795922895090000,0.0742913,-0.01173021,-0.6803519,-6.42,14.94,-39.66,36,298,5,0.2737499,0.08635156,0.04667996,5.820864,-0.03306222,-0.01121509,-0.0173749,-0.001670434,-0.2291631,0.9732316
634795922895290000,0.06256109,-0.02346041,-0.6647117,-6.24,14.52,-39.84,38,300,5,0.3610164,-0.1147791,0.01477183,5.820813,-0.02862406,-0.010764,-0.01516367,-0.001959089,-0.2291805,0.9732639
634795922895490000,0.05865103,-0.02346041,-0.7194526,-6.24,14.52,-39.84,38,300,5,0.3205758,-0.1977887,-0.04159443,5.82006,-0.02077293,-0.01312327,-0.01161468,-0.004002501,-0.2295476,0.9732199
634795922895690000,0.04692082,-0.007820137,-0.8093842,-6.24,14.52,-39.84,39,301,5,0.226924,-0.08709947,-0.02985443,5.819124,-0.01474571,-0.0158726,-0.008999936,-0.006027963,-0.2299977,0.9731309
634795922895910000,0.02346041,0.01173021,-0.8758553,-6.24,14.52,-39.84,37,299,5,0.2811995,0.1044596,0.02868593,5.819035,-0.009522199,-0.01577687,-0.006447574,-0.006581794,-0.2300242,0.9731413
634795922896090000,0.007820137,0,-0.911046,-6.24,14.52,-39.84,24,286,5,0.3195116,0.0406002,0.1361391,5.823015,0.0004417896,-0.01338828,-0.00131162,-0.006568074,-0.2280542,0.9736254
634795922896290000,0.007820137,-0.02737048,-0.9657869,-6.24,14.52,-39.84,24,286,5,0.4046496,-0.1807482,0.159522,5.827124,0.008059262,-0.01671684,0.002035662,-0.009052764,-0.2260171,0.9740791
634795922896490000,0.007820137,-0.04301075,-1.040078,-6.24,14.52,-39.84,24,286,5,0.4482828,-0.1743629,0.01051322,5.829202,0.01620293,-0.01973331,0.005672863,-0.01143619,-0.2249513,0.9742864
634795922896690000,0.01564027,-0.02737048,-1.110459,-5.94,14.28,-40.26,19,281,5,0.2343736,-0.2935561,-0.04373363,5.829714,0.02311778,-0.02163982,0.008830018,-0.01314027,-0.224648,0.9743114
634795922896890000,0.003910068,-0.007820137,-1.204301,-5.94,14.28,-40.26,14,276,5,0.3173831,-0.5138507,0.004142029,5.830806,0.02804899,-0.02613199,0.01073583,-0.01587639,-0.224046,0.9743901
634795922897100000,-0.02737048,-0.01564027,-1.305963,-5.94,14.28,-40.26,13,275,5,0.5876963,-0.6681633,-0.005448661,5.831739,0.03148341,-0.03181493,0.01178015,-0.01902397,-0.2235113,0.9744444
634795922897290000,-0.03128055,-0.02346041,-1.325513,-5.94,14.28,-40.26,13,275,5,0.8729087,-0.7437233,-0.06930099,5.834071,0.05538249,-0.05713534,0.02062354,-0.03399877,-0.2217274,0.9742976
634795922897490000,-0.007820137,-0.01173021,-1.302053,-6,14.04,-40.5,9,271,5,0.6398433,-0.7830997,-0.08311847,5.834189,0.06893968,-0.0711211,0.02566695,-0.04230752,-0.2211497,0.9739836
634795922897690000,0.01564027,0.01564027,-1.345064,-6,14.04,-40.5,8,270,5,0.2205386,-0.7437233,-0.1309747,5.833672,0.07547975,-0.08485007,0.02730312,-0.04971762,-0.2209504,0.9736342
634795922897890000,0.03910068,0.05474096,-1.419355,-6,14.04,-40.5,11,273,5,-0.2998584,-0.4414833,-0.1884238,5.832324,0.07360124,-0.09182166,0.02557189,-0.05291857,-0.2214935,0.9733891
634795922898090000,0.06256109,0.1251222,-1.395894,-6,14.04,-40.5,11,273,5,-0.2626105,-0.07856843,-0.01492261,5.830337,0.06728363,-0.097947,0.02175397,-0.0552193,-0.2224938,0.9731259
634795922898300000,0.08602151,0.1837732,-1.188661,-6,14.04,-40.5,15,277,5,0.3014517,-0.003012921,0.4810002,5.838481,0.06592679,-0.09861171,0.0212442,-0.05530552,-0.218552,0.9740252
634795922898490000,0.08211143,0.1564027,-1.032258,-6,14.04,-40.5,22,284,5,0.3014517,-0.003012921,0.4810002,5.844897,0.06892228,-0.100605,0.02266338,-0.05653033,-0.2152991,0.9746471
634795922898690000,0.05865103,0.07038123,-0.9540567,-6,14.04,-40.5,22,284,5,0.06731023,-0.1828602,0.5225049,5.848619,0.06675315,-0.1022733,0.02153014,-0.05706925,-0.2135106,0.9750348
634795922898890000,0.06256109,0.05083089,-0.9188661,-6,14.04,-40.5,22,284,5,-0.383897,-0.3126957,0.2607055,5.85237,0.05698371,-0.1040611,0.01668025,-0.05686548,-0.211922,0.9754882
634795922899090000,0.07038123,0.07038123,-0.9032258,-6.72,12.84,-41.1,49,311,5,-0.4562643,-0.224365,0.262834,5.854973,0.04687643,-0.1064,0.01157335,-0.05691897,-0.2108977,0.975781
634795922899310000,0.06256109,0.08993158,-0.8641251,-6.72,12.84,-41.1,38,300,5,-0.3849612,-0.1126025,0.3926695,5.860773,0.0311172,-0.1128312,0.003368868,-0.05838244,-0.208423,0.9762889
634795922899490000,0.03910068,0.06647116,-0.8054741,-6.72,12.84,-41.1,42,304,5,-0.2583184,-0.002942252,0.4522661,5.860773,0.0311172,-0.1128312,0.003368868,-0.05838244,-0.208423,0.9762889
634795922899690000,0.01955034,0.01564027,-0.7507331,-7.08,12.06,-41.46,46,308,5,-0.2955663,0.1535097,0.3735134,5.867775,0.02183962,-0.1110247,-0.0007725327,-0.05653638,-0.2052923,0.9770661
634795922899890000,0.01564027,-0.02737048,-0.7155425,-7.08,12.06,-41.46,46,308,5,-0.4317871,0.1737133,0.1840813,5.869925,0.01482105,-0.1077324,-0.003803362,-0.05421159,-0.2044689,0.9773633
634795922900090000,0.03128055,-0.02737048,-0.7233627,-7.08,12.06,-41.46,46,308,5,-0.4009246,0.1002742,0.0595456,5.870616,0.007506609,-0.1054111,-0.007121736,-0.05233154,-0.2043452,0.9774731
634795922900290000,0.05474096,0.007820137,-0.7311828,-7.08,12.06,-41.46,33,295,5,-0.2274559,0.3077926,0.0382629,5.870741,0.003448248,-0.1006794,-0.00861786,-0.04960479,-0.2044186,0.9775879
634795922900500000,0.06256109,0.02346041,-0.7077224,-7.08,12.06,-41.46,35,297,5,0.07055953,0.2056117,0.2659808,5.873901,0.001466513,-0.08289576,-0.007703193,-0.04072028,-0.2030123,0.9782988
634795922900690000,0.05083089,0.007820137,-0.684262,-7.08,12.06,-41.46,35,297,5,0.07055953,0.2056117,0.2659808,5.873901,0.001466513,-0.08289576,-0.007703193,-0.04072028,-0.2030123,0.9782988
634795922900890000,0.02346041,-0.01955034,-0.7116324,-7.08,12.06,-41.46,43,305,5,0.2812544,-0.02958801,0.2117053,5.874368,0.007228136,-0.0830028,-0.004886037,-0.04135846,-0.2026651,0.9783621
634795922901090000,0.01564027,-0.03519062,-0.8093842,-7.08,12.06,-41.46,43,305,5,0.3812916,-0.07214244,0.01054888,5.872655,0.01469016,-0.08394109,-0.001367474,-0.04257206,-0.2033401,0.9781812
634795922901290000,0.02737048,-0.01955034,-0.9032258,-7.38,12,-41.82,37,299,5,0.1982448,0.1151502,-0.1192469,5.870803,0.01822925,-0.08312845,0.0004069179,-0.0425348,-0.2041769,0.9780094
634795922901490000,0.03519062,0.003910068,-0.9501466,-7.38,12,-41.82,37,299,5,0.1939455,0.1650871,0.1777128,5.868969,0.02121186,-0.0782317,0.002330214,-0.04044721,-0.2050561,0.9779114
634795922901690000,0.01564027,-0.007820137,-1.012708,-7.38,12,-41.82,30,292,5,0.4078548,-0.01480847,0.1532266,5.870392,0.02407193,-0.07431471,0.004159534,-0.03882254,-0.2043404,0.9781209
634795922901890000,-0.02346041,-0.04692082,-1.13392,-7.38,12,-41.82,30,292,5,0.4600018,0.004329172,-0.04683936,5.871948,0.03761363,-0.07030952,0.01122334,-0.0382383,-0.2033633,0.978292
634795922902090000,-0.02737048,-0.0742913,-1.247312,-7.86,12.18,-41.46,27,289,5,0.5089561,0.3192855,-0.3788776,5.868698,0.04350424,-0.06750643,0.01433059,-0.03748975,-0.2048792,0.977964
634795922902290000,0.01564027,-0.05083089,-1.243402,-7.86,12.18,-41.46,27,289,5,0.3780565,0.4672129,-0.3671711,5.868698,0.04350424,-0.06750643,0.01433059,-0.03748975,-0.2048792,0.977964
634795922902490000,0.05865103,-0.01173021,-1.219941,-7.86,12.18,-41.46,17,279,5,0.2737623,0.07340451,-0.07873525,5.856354,0.0608313,-0.05068004,0.0243476,-0.03119,-0.2108802,0.9767107
634795922902690000,0.01955034,0.007820137,-1.255132,-7.86,12.18,-41.46,19,281,5,0.4621302,-0.1905171,-0.02231823,5.85239,0.07437873,-0.05272161,0.03067928,-0.03367497,-0.2125563,0.9760864
634795922902890000,-0.01955034,0.02346041,-1.305963,-7.86,12.18,-41.46,26,288,5,0.3918914,-0.2884258,-0.2064077,5.85239,0.07437873,-0.05272161,0.03067928,-0.03367497,-0.2125563,0.9760864
634795922903090000,0.007820137,0.02737048,-1.352884,-7.8,12.66,-40.8,18,280,5,-0.2094042,0.07874182,-0.534189,5.839633,0.07907748,-0.0561533,0.0323749,-0.03605534,-0.2186217,0.9746058
634795922903290000,0.05865103,0.07038123,-1.333333,-7.8,12.66,-40.8,18,280,5,-0.5797545,0.3979971,-0.5224825,5.830061,0.0698545,-0.05027556,0.02837435,-0.03231943,-0.2235657,0.9737396
634795922903490000,0.08602151,0.1407625,-1.219941,-7.8,12.66,-40.8,20,282,5,-0.3860655,0.4065108,-0.2489767,5.823483,0.06120658,-0.04259133,0.02493783,-0.02769409,-0.2270399,0.9731721
634795922903690000,0.06647116,0.1524927,-1.083089,-7.8,12.66,-40.8,28,290,5,-0.03699192,0.07551679,0.1490236,5.822766,0.05912017,-0.03983545,0.02422775,-0.02612524,-0.2274639,0.9731345
634795922903910000,0.02346041,0.1212121,-1.024438,-7.8,12.66,-40.8,41,303,5,-0.04870382,-0.4459535,0.1756293,5.823011,0.05845999,-0.04288709,0.0235611,-0.0275317,-0.2273026,0.9731498
634795922904090000,0.003910068,0.09775171,-1.032258,-7.8,12.66,-40.8,41,303,5,-0.3849931,-0.6002662,0.008528873,5.81676,0.04438305,-0.06248808,0.01436076,-0.03551141,-0.2302601,0.9723749
634795922904290000,0.003910068,0.1173021,-1.024438,-7.5,13.14,-41.28,38,300,5,-0.5180213,-0.5694036,-0.03083352,5.81544,0.03597403,-0.06780886,0.00963186,-0.03713559,-0.2309827,0.9722012
634795922904490000,0.01564027,0.1251222,-0.9462366,-7.5,13.14,-41.28,32,294,5,-0.2881486,0.04464575,0.2756389,5.815916,0.02477932,-0.07140266,0.003782103,-0.03758785,-0.2309196,0.9722392
634795922904690000,0.01955034,0.06647116,-0.8289345,-7.5,13.14,-41.28,35,297,5,-0.2498365,0.02225381,0.2373268,5.819446,0.01593733,-0.06969833,-0.0002557866,-0.03573863,-0.2293808,0.9726804
634795922904890000,0.01173021,-0.003910068,-0.7468231,-7.5,13.14,-41.28,35,297,5,-0.1913041,-0.1746386,0.03191543,5.821507,0.00775075,-0.06795454,-0.004001896,-0.03395553,-0.2285327,0.9729357
634795922905100000,0.007820137,-0.03128055,-0.7350929,-7.5,13.14,-41.28,42,304,5,-0.1944858,-0.422603,-0.2426501,5.820556,0.004034519,-0.07111061,-0.006187267,-0.03506315,-0.2290423,0.9727651
634795922905290000,0.02737048,-0.01955034,-0.7781036,-7.5,13.14,-41.28,33,295,5,-0.2157702,-0.2299783,-0.2873475,5.812589,-0.001121521,-0.08224702,-0.01012938,-0.03984845,-0.2329582,0.9716172
634795922905490000,0.05474096,0,-0.7937439,-7.62,13.86,-40.86,29,291,5,-0.1380491,0.2127131,-0.2192371,5.808419,-0.003181696,-0.08155584,-0.01113165,-0.03924953,-0.2350274,0.9711322
634795922905690000,0.06647116,0.007820137,-0.7507331,-7.62,13.86,-40.86,32,294,5,-0.1007495,0.4415215,-0.1564158,5.805004,-0.004214764,-0.07426333,-0.0108375,-0.03556831,-0.2367318,0.9708633
634795922905890000,0.06256109,-0.003910068,-0.6999022,-7.62,13.86,-40.86,32,294,5,0.004577138,0.3170072,-0.1244516,5.802812,-0.004400491,-0.06890142,-0.0103295,-0.03293197,-0.237816,0.9706968
634795922906090000,0.05865103,-0.007820137,-0.7038123,-7.62,13.86,-40.86,37,299,5,0.2386841,-0.1086821,-0.1403737,5.798708,-0.002032518,-0.06489444,-0.008768044,-0.03125067,-0.2397822,0.970284
634795922906290000,0.05474096,-0.01564027,-0.7937439,-7.62,13.86,-40.86,42,304,5,0.3440424,-0.1203714,-0.06052689,5.793778,0.01092863,-0.06744014,-0.002869198,-0.03403188,-0.2419486,0.9696878
634795922906490000,0.02737048,-0.02346041,-0.856305,-7.62,13.86,-40.86,42,304,5,0.299345,0.1339756,0.009714953,5.793748,0.01477003,-0.06511855,-0.0007258145,-0.03337105,-0.2419152,0.9697231
634795922906690000,-0.003910068,-0.04301075,-0.8993157,-7.74,14.64,-41.16,40,302,5,0.1695095,0.3393499,0.1193023,5.796134,0.0187645,-0.05823445,0.002081792,-0.03051415,-0.2407477,0.9701057
634795922906890000,-0.01955034,-0.06647116,-0.9814272,-7.74,14.64,-41.16,34,296,5,0.1502633,-0.02571996,-0.07123353,5.798646,0.02157736,-0.05502832,0.00386987,-0.02929298,-0.2395136,0.9704433
634795922907090000,-0.007820137,-0.06256109,-1.094819,-7.74,14.64,-41.16,27,289,5,0.1374244,-0.01189494,-0.1276084,5.799134,0.02465749,-0.05487453,0.005390036,-0.02958584,-0.239233,0.9704964
634795922907300000,0.007820137,-0.03519062,-1.196481,-7.74,14.64,-41.16,27,289,5,0.2949297,-0.005522676,0.006489287,5.798767,0.02668023,-0.05495787,0.006356081,-0.02986938,-0.2393803,0.9704455
634795922907490000,0.007820137,-0.007820137,-1.270772,-7.74,14.64,-41.16,16,278,5,0.5237381,0.135972,0.2384803,5.803885,0.0399785,-0.05343044,0.0130706,-0.03068617,-0.2367116,0.9710073
634795922907690000,-0.007820137,-0.01173021,-1.302053,-7.74,14.64,-41.16,15,277,5,0.4801049,0.4211573,0.3161687,5.810641,0.0490284,-0.04833579,0.01816882,-0.02922314,-0.2333651,0.9717801
634795922907890000,-0.01564027,-0.03128055,-1.247312,-7.74,15.9,-41.58,15,277,5,0.3811319,0.6031398,0.2320949,5.815372,0.05392838,-0.04235839,0.02131406,-0.02684103,-0.2310879,0.972329
634795922908090000,0.007820137,-0.03519062,-1.16129,-7.74,15.9,-41.58,15,277,5,0.1448541,0.3881663,0.1096756,5.821418,0.05930352,-0.03126824,0.02528119,-0.02199557,-0.2282579,0.9730238
634795922908290000,0.05083089,-0.02737048,-1.16129,-7.74,15.9,-41.58,12,274,5,0.1150248,-0.3908465,-0.01592383,5.824605,0.06120896,-0.02880549,0.02652386,-0.02097293,-0.2267269,0.9733712
634795922908500000,0.07820137,0.003910068,-1.290323,-7.74,15.9,-41.58,15,277,5,0.03730802,-0.7505546,-0.1670129,5.821715,0.063452,-0.04732263,0.02546341,-0.03027277,-0.2277834,0.972908
634795922908690000,0.08211143,0.06256109,-1.380254,-8.1,16.38,-41.64,20,282,5,-0.02762174,-0.3152865,-0.1616754,5.818342,0.06321645,-0.05476689,0.02443831,-0.03390703,-0.2292913,0.9724601
634795922908890000,0.09384164,0.1329423,-1.274682,-8.1,16.38,-41.64,20,282,5,0.07875981,0.07526702,-0.0009577367,5.818262,0.06456494,-0.05360746,0.02522645,-0.03349909,-0.2293289,0.9724452
634795922909090000,0.1055719,0.1368524,-1.094819,-8.1,16.38,-41.64,20,282,5,0.2043151,0.2167564,0.1895132,5.82111,0.06766582,-0.0503763,0.02715336,-0.03224562,-0.2279546,0.9727588
634795922909290000,0.113392,0.1016618,-0.9970675,-8.1,16.38,-41.64,29,291,5,0.152143,-0.07486865,0.2246327,5.822666,0.06916761,-0.05102503,0.02783473,-0.03271057,-0.2271609,0.9729096
634795922909490000,0.113392,0.08602151,-0.9931574,-8.1,16.38,-41.64,38,300,5,-0.2437318,-0.4931091,0.105387,5.82315,0.06787323,-0.0586642,0.02633951,-0.03627156,-0.2267966,0.97291
634795922909690000,0.113392,0.113392,-1.000978,-8.1,16.38,-41.64,38,300,5,-0.2692732,-0.4388337,0.1596238,5.822218,0.05302453,-0.06972515,0.01783253,-0.03997413,-0.22733,0.9728336
634795922909890000,0.08993158,0.1446725,-1.008798,-8.1,16.38,-41.64,38,300,5,-0.2884293,-0.2834568,0.2777528,5.823087,0.04775285,-0.0719794,0.01502774,-0.04046438,-0.2269762,0.9729432
634795922910090000,0.0742913,0.1173021,-1.000978,-8.16,16.32,-42.3,39,301,5,-0.3352552,-0.04187543,0.2979731,5.825757,0.03796386,-0.07266128,0.01024049,-0.03967096,-0.2258635,0.973297
634795922910290000,0.07038123,0.07820137,-0.9579667,-8.16,16.32,-42.3,42,304,5,-0.2969431,-0.0376313,0.2809455,5.828404,0.0281136,-0.07102679,0.005682306,-0.03775534,-0.2247855,0.97366
634795922910490000,0.06647116,0.05474096,-0.8993157,-8.16,16.32,-42.3,38,300,5,-0.1692179,0.02618645,0.3096796,5.831511,0.01967597,-0.06923627,0.001832381,-0.03593228,-0.2234454,0.9740522
634795922910710000,0.05474096,0.02737048,-0.8367546,-8.16,16.32,-42.3,38,300,5,0.002138252,0.1048879,0.2724317,5.83558,0.01446939,-0.06624519,-0.0002993536,-0.03389458,-0.2215781,0.9745533
634795922910890000,0.04692082,0,-0.7585533,-8.16,16.32,-42.3,36,298,5,0.08296902,0.1878439,0.2224131,5.841465,0.01488209,-0.06205642,0.0004606986,-0.03189814,-0.2187326,0.9752632
634795922911090000,0.05083089,-0.01173021,-0.6764418,-8.88,16.74,-42.6,36,298,5,0.0956613,0.1686301,0.1628006,5.843778,0.0167284,-0.05852735,0.001782973,-0.03037728,-0.2176006,0.9755635
634795922911290000,0.05474096,-0.01564027,-0.6334311,-8.88,16.74,-42.6,36,298,5,0.124338,-0.0208325,0.1052944,5.84549,0.01894259,-0.05728245,0.003024427,-0.03000839,-0.216741,0.9757631
634795922911490000,0.05083089,-0.01564027,-0.6529814,-8.88,16.74,-42.6,36,298,5,0.1476836,-0.06978197,0.05100285,5.845991,0.02199483,-0.05809677,0.004432814,-0.03073528,-0.216444,0.9758011
634795922911690000,0.05083089,-0.01564027,-0.7116324,-8.88,16.74,-42.6,39,301,5,0.08379242,-0.009123898,-0.01709586,5.845522,0.02378487,-0.05853462,0.005251332,-0.03114378,-0.2166413,0.9757403
634795922911900000,0.05474096,-0.01955034,-0.7507331,-8.88,16.74,-42.6,41,303,5,0.06997633,0.05044451,-0.05964028,5.843988,0.02576923,-0.05783928,0.006271167,-0.03102436,-0.2173653,0.975577
634795922912090000,0.05083089,-0.01564027,-0.7741935,-8.88,16.74,-42.6,40,302,5,0.1785311,0.04401904,-0.06174617,5.840706,0.03210258,-0.05562675,0.00955151,-0.03064925,-0.2188906,0.9752212
634795922912290000,0.03519062,-0.01955034,-0.8093842,-9.54,16.74,-43.02,37,299,5,0.2030083,0.04187292,-0.04363561,5.839682,0.03490186,-0.05501604,0.01096787,-0.03066344,-0.219354,0.9751017
634795922912490000,0.02737048,-0.03128055,-0.8914956,-9.54,16.74,-43.02,37,299,5,0.1306345,-0.2454562,-0.2383421,5.837006,0.03920698,-0.05639529,0.0128723,-0.03182507,-0.2205746,0.9747658
634795922912690000,0.03910068,-0.02346041,-1.012708,-9.54,16.74,-43.02,32,294,5,0.1923533,-0.2411993,-0.2979387,5.832332,0.04216599,-0.06048858,0.01378097,-0.03417805,-0.2227488,0.9741791
634795922912900000,0.06256109,0.01955034,-1.086999,-9.54,16.74,-43.02,27,289,5,0.3934918,-0.02621461,-0.2149291,5.827081,0.04668212,-0.06399357,0.01549234,-0.03642831,-0.225176,0.9735136
634795922913090000,0.0742913,0.04692082,-1.1261,-10.44,17.04,-42.48,29,291,5,0.3434733,0.1951041,-0.03929368,5.822185,0.05973672,-0.0586425,0.02236665,-0.03534888,-0.227412,0.9728998
634795922913290000,0.05083089,0.03519062,-1.15347,-10.44,17.04,-42.48,29,291,5,0.3072896,0.1301291,0.1181967,5.823054,0.06331896,-0.05718029,0.02429204,-0.03503461,-0.2269529,0.9729722
634795922913490000,0.01173021,0.04301075,-1.17302,-10.44,17.04,-42.48,31,293,5,0.569089,-0.228518,0.1394339,5.824596,0.07221317,-0.05944311,0.02838833,-0.0371218,-0.2259974,0.9730063
634795922913690000,-0.02737048,0.05474096,-1.262952,-10.44,17.04,-42.48,28,290,5,0.5329053,-0.5424644,-0.1872878,5.822356,0.08270383,-0.06790935,0.03247787,-0.04245859,-0.2266883,0.9724993
634795922913890000,-0.02346041,0.05865103,-1.470186,-10.44,17.04,-42.48,28,290,5,-0.3195383,-0.2487382,-0.7279142,5.812152,0.08402109,-0.07499719,0.03206975,-0.0462159,-0.2314443,0.9712204
634795922914090000,0.007820137,0.1329423,-1.478006,-10.44,17.04,-42.48,28,290,5,-0.6451912,0.3056968,-0.8556212,5.797594,0.07395244,-0.07212019,0.02719857,-0.04385288,-0.238803,0.969696
634795922914290000,0.02737048,0.1994135,-1.294233,-10.44,17.04,-42.48,17,279,5,0.3073157,0.5887807,-0.1478967,5.783449,0.06641078,-0.05267668,0.02564857,-0.03370991,-0.2462071,0.9682912
634795922914490000,0.02346041,0.1681329,-1.106549,-12.42,17.76,-42.06,25,287,5,0.5382525,0.1236892,-0.06487041,5.781388,0.07410073,-0.04578518,0.03019345,-0.03135283,-0.2472179,0.9679818
634795922914690000,0.01173021,0.09775171,-1.047898,-12.42,17.76,-42.06,36,298,5,-0.1162156,-0.2636998,-0.2670639,5.776951,0.07968616,-0.04652762,0.03273226,-0.0324749,-0.2492595,0.9673384
634795922914890000,0.01955034,0.07038123,-1.083089,-12.42,17.76,-42.06,36,298,5,-0.5578691,-0.3211679,-0.427762,5.768851,0.07381868,-0.05197692,0.02907067,-0.03449616,-0.2531556,0.9663732
634795922915090000,0.02346041,0.1094819,-1.13001,-12.42,17.76,-42.06,40,302,5,-0.5472268,-0.2615713,-0.4447896,5.759222,0.06295133,-0.05739843,0.02295583,-0.03584978,-0.2578878,0.9652366
634795922915290000,0.01173021,0.1564027,-1.12219,-12.42,17.76,-42.06,32,294,5,-0.2758494,0.04811236,-0.2287518,5.751022,0.05113149,-0.05980003,0.01673951,-0.03557856,-0.2634848,0.9638619
634795922915490000,0.007820137,0.1290323,-1.043988,-13.8,17.46,-41.76,37,299,5,-0.1534207,0.2045021,-0.07121064,5.744913,0.04794049,-0.05688572,0.01553607,-0.03377786,-0.2650577,0.9635155
634795922915690000,0.01564027,0.07038123,-0.9579667,-13.8,17.46,-41.76,37,299,5,-0.04379414,0.01078808,-0.09992312,5.741069,0.04653382,-0.05698061,0.01478108,-0.03366558,-0.2669313,0.9630139
634795922915890000,0.02737048,0.05474096,-0.9266862,-13.8,17.46,-41.76,41,303,5,-0.03741591,-0.1530961,-0.2244108,5.735557,0.04481077,-0.05909765,0.01357251,-0.03449212,-0.2695824,0.9622637
634795922916090000,0.03519062,0.06256109,-0.914956,-13.8,17.46,-41.76,41,303,5,-0.2502004,0.08630581,-0.1871629,5.730327,0.04076767,-0.05949283,0.01148438,-0.03416732,-0.2721614,0.9615762
634795922916290000,0.03128055,0.08211143,-0.8719453,-13.8,17.46,-41.76,41,303,5,-0.2129525,0.1766832,-0.06581098,5.725928,0.03633952,-0.05790401,0.00950022,-0.03282195,-0.274371,0.9610167
634795922916490000,0.03519062,0.09384164,-0.8172043,-13.8,17.46,-41.76,41,303,5,-0.1320004,0.01593903,-0.0008882381,5.723956,0.03353834,-0.05590593,0.008398348,-0.03148611,-0.2753884,0.9607806
634795922916690000,0.04692082,0.08211143,-0.7937439,-13.8,17.46,-41.76,42,304,5,0.009585377,-0.2522389,0.06295335,5.720776,0.02938652,-0.05816352,0.006041142,-0.03200823,-0.2769555,0.9603305
634795922916890000,0.03519062,0.06647116,-0.801564,-15,16.92,-40.92,49,311,5,0.1681611,-0.2203121,0.0501454,5.720015,0.03124332,-0.06253076,0.006312978,-0.03436411,-0.2772399,0.9601652
634795922917090000,0.02737048,0.05474096,-0.8093842,-15,16.92,-40.92,52,314,5,0.1394257,-0.1202648,-0.02436685,5.717575,0.03413653,-0.06517112,0.007290633,-0.03604122,-0.2783278,0.959782
634795922917290000,0.02737048,0.05865103,-0.8289345,-15,16.92,-40.92,50,312,5,-0.06487963,-0.1191817,-0.02012166,5.715087,0.03435183,-0.0671277,0.007074617,-0.03701859,-0.2794925,0.9594079
634795922917490000,0.03128055,0.07038123,-0.8602151,-15,16.92,-40.92,50,312,5,-0.1616702,-0.1958059,0.04795928,5.713947,0.03279924,-0.06914115,0.006025858,-0.03777059,-0.2800423,0.9592254
634795922917690000,0.04301075,0.08993158,-0.8914956,-16.2,16.98,-40.98,50,312,5,-0.0413744,-0.09256405,0.1564471,5.715593,0.03075552,-0.07357717,0.004454695,-0.03960759,-0.2792366,0.9593948
634795922917890000,0.03910068,0.08602151,-0.9032258,-16.2,16.98,-40.98,50,312,5,0.1916918,0.04903526,0.3522646,5.71895,0.03368688,-0.07401395,0.005867139,-0.04021649,-0.2775618,0.9598477
634795922918090000,0.03128055,0.05865103,-0.914956,-16.2,16.98,-40.98,50,312,5,0.143799,0.08307535,0.2351998,5.722213,0.03635693,-0.07301891,0.007352725,-0.04009772,-0.2759551,0.9603056
634795922918290000,0.03910068,0.06256109,-0.9579667,-16.2,16.98,-40.98,50,312,5,0.1650825,0.01599618,0.1659988,5.723703,0.03864979,-0.07185245,0.008645021,-0.03984773,-0.2752097,0.9605191
634795922918490000,0.05083089,0.1094819,-1.016618,-16.2,16.98,-40.98,47,309,5,0.228936,-0.07765362,0.2075036,5.724452,0.04059601,-0.07187497,0.009591603,-0.04012274,-0.2748118,0.9606127
634795922918690000,0.05865103,0.1524927,-1.102639,-16.2,16.98,-40.98,47,309,5,0.2959822,-0.2032322,0.2458157,5.726283,0.04282593,-0.07360422,0.01180778,-0.0416104,-0.2728691,0.9610783
634795922918890000,0.06647116,0.172043,-1.15738,-16.2,16.98,-40.98,46,308,5,0.2885326,0.1937279,0.2894489,5.730548,0.04937863,-0.07064545,0.01410383,-0.0406961,-0.2717237,0.961411
634795922919090000,0.08211143,0.1798632,-1.13392,-16.2,16.98,-40.98,46,308,5,0.1810459,0.4140225,0.3735227,5.734391,0.05203056,-0.06384706,0.01638059,-0.03775852,-0.2699377,0.9619977
634795922919290000,0.08993158,0.1564027,-1.086999,-15.84,16.68,-41.1,49,311,5,0.09483705,0.2171319,0.5012297,5.740047,0.05319118,-0.06051576,0.01749378,-0.03626417,-0.2672508,0.9627855
634795922919490000,0.1055719,0.1329423,-1.071359,-15.84,16.68,-41.1,51,313,5,0.2629553,-0.03293594,0.4724956,5.743457,0.05533123,-0.06059551,0.01857564,-0.03655689,-0.2655684,0.9632196
634795922919690000,0.1173021,0.1290323,-1.086999,-15.84,16.68,-41.1,51,313,5,0.3310657,-0.220219,0.3948072,5.747583,0.06116342,-0.0643326,0.02096567,-0.03908673,-0.2634026,0.9636658
634795922919890000,0.09775171,0.1407625,-1.11828,-15.84,16.68,-41.1,51,313,5,0.3012673,0.1288507,0.3905503,5.751085,0.06738353,-0.06912183,0.02340098,-0.04217075,-0.2614934,0.9639996
634795922920090000,0.08211143,0.1212121,-1.083089,-15.84,16.68,-41.1,51,313,5,-0.1563475,0.3672371,0.4831379,5.759699,0.07267118,-0.06349838,0.02686387,-0.04003799,-0.2573494,0.9651148
634795922920290000,0.0742913,0.08993158,-1.024438,-15.84,16.68,-41.1,51,313,5,-0.7278365,0.03517257,0.4395046,5.764724,0.06200862,-0.06179428,0.02203423,-0.03778816,-0.2551657,0.9659073
634795922920490000,0.05474096,0.07038123,-1.004888,-15.18,16.56,-40.62,48,310,5,-0.7789193,0.1255827,0.2905131,5.767457,0.05180144,-0.06166386,0.01717093,-0.03639904,-0.2540371,0.9663568
634795922920690000,0.05865103,0.07820137,-0.9814272,-15.18,16.56,-40.62,48,310,5,-0.4809362,0.09893082,0.1468187,5.769264,0.03620982,-0.05725872,0.01022863,-0.03228015,-0.2534955,0.9667437
634795922920890000,0.07038123,0.09775171,-0.9814272,-15.18,16.56,-40.62,48,310,5,-0.1754927,-0.0937051,0.07120578,5.768887,0.02861237,-0.05494856,0.006844318,-0.03020174,-0.2538224,0.966755
634795922921090000,0.07038123,0.113392,-1.032258,-15.18,16.56,-40.62,47,309,5,0.02883274,-0.1820358,0.03709779,5.765887,0.02423382,-0.05599403,0.004549453,-0.03015814,-0.2553279,0.9663733
634795922921290000,0.08602151,0.1212121,-1.051808,-15.18,16.56,-40.62,47,309,5,0.1596752,0.004200105,0.130677,5.765735,0.02470183,-0.05397367,0.005031963,-0.02924222,-0.2554137,0.9663765
634795922921500000,0.1016618,0.08602151,-1.000978,-13.92,17.1,-40.8,46,308,5,-0.1989882,-0.04269402,0.2040786,5.76746,0.02223635,-0.05099785,0.004245386,-0.027486,-0.2546414,0.9666355
634795922921690000,0.08211143,0.06256109,-0.9775171,-13.92,17.1,-40.8,46,308,5,-0.1532152,-0.1150419,0.09973031,5.768501,0.0187614,-0.05176651,0.002482046,-0.02741367,-0.2541798,0.9667652
634795922921890000,0.06647116,0.06647116,-0.9814272,-13.92,17.1,-40.8,46,308,5,-0.1383131,-0.2384921,0.03049299,5.767834,0.01452708,-0.0513035,0.0004852751,-0.02665187,-0.2545632,0.9666887
634795922922090000,0.06647116,0.0742913,-1.008798,-13.92,17.1,-40.8,43,305,5,-0.1670487,-0.2172076,-0.09298075,5.762716,0.007066727,-0.05445683,-0.003592019,-0.02721702,-0.2571172,0.9659902
634795922922290000,0.07038123,0.08211143,-1.032258,-13.92,17.1,-40.8,43,305,5,-0.1925863,0.04461374,-0.1578975,5.759566,0.004246711,-0.05293703,-0.004799689,-0.02611289,-0.2586833,0.9655973
634795922922490000,0.07820137,0.08993158,-1.012708,-12.48,16.98,-40.14,40,302,5,-0.2170635,0.2223207,-0.1653425,5.754734,-0.0004973412,-0.04786551,-0.006489696,-0.02303506,-0.2610932,0.9650169
634795922922700000,0.09384164,0.08993158,-0.9775171,-12.48,16.98,-40.14,40,302,5,-0.2106782,0.2382841,-0.1259463,5.750472,-0.005353212,-0.0415951,-0.008055487,-0.01935825,-0.2632142,0.9645095
634795922922890000,0.08993158,0.08993158,-0.9657869,-12.48,16.98,-40.14,42,304,5,-0.1798095,0.1615681,-0.06946989,5.747113,-0.009982824,-0.0362215,-0.00960849,-0.01614122,-0.2648787,0.9640988
634795922923090000,0.08211143,0.08993158,-0.9736071,-12.48,16.98,-40.14,42,304,5,-0.04889124,0.03275688,-0.0619554,5.743923,-0.01342058,-0.0320282,-0.01073242,-0.01364725,-0.2664395,0.9636953
634795922923300000,0.07820137,0.08993158,-0.9931574,-12.48,16.98,-40.14,45,307,5,0.07988469,-0.02685569,-0.1023344,5.740647,-0.01443028,-0.02984631,-0.01094892,-0.01244344,-0.2680216,0.9632704
634795922923490000,0.08602151,0.1016618,-1.012708,-10.68,17.7,-39.66,39,301,5,0.04476526,-0.02261486,-0.09909473,5.734753,-0.01438641,-0.02733779,-0.01062497,-0.01120977,-0.2708546,0.9624963
634795922923690000,0.09384164,0.1094819,-1.024438,-10.68,17.7,-39.66,38,300,5,-0.02332674,0.07526885,-0.06500877,5.732111,-0.01592112,-0.02417898,-0.01094852,-0.009467251,-0.2721278,0.9621522
634795922923890000,0.09384164,0.1016618,-1.032258,-10.68,17.7,-39.66,38,300,5,-0.1125989,0.2177863,-0.0628966,5.73019,-0.01910591,-0.01958382,-0.01186246,-0.006811711,-0.2730526,0.9619018
634795922924090000,0.08993158,0.09384164,-1.024438,-10.68,17.7,-39.66,38,300,5,-0.07954209,0.2070914,-0.1246226,5.7277,-0.02232313,-0.01407528,-0.0126628,-0.003707258,-0.2742369,0.9615716
634795922924290000,0.08602151,0.1016618,-1.016618,-10.68,17.7,-39.66,38,300,5,-0.06138619,0.1272064,-0.129888,5.724248,-0.02488351,-0.008830427,-0.01317641,-0.0008117364,-0.2758736,0.9611033
634795922924490000,0.09384164,0.1094819,-1.008798,-10.68,17.7,-39.66,38,300,5,0.08762448,0.1026858,-0.07556716,5.719078,-0.02644753,-0.002755165,-0.01308427,0.002357444,-0.2783217,0.9603959
634795922924690000,0.1016618,0.1055719,-1.008798,-8.64,18.18,-39.3,33,295,5,0.139761,0.06010278,0.05744726,5.718318,-0.025316,2.861023E-06,-0.01215576,0.003528956,-0.2786713,0.9603031
634795922924900000,0.09775171,0.08602151,-1.004888,-8.64,18.18,-39.3,33,295,5,0.175937,0.1462977,0.1159561,5.71916,-0.02363491,0.003396511,-0.01087775,0.00491963,-0.27825,0.9604345
634795922925090000,0.08993158,0.0742913,-0.9814272,-8.64,18.18,-39.3,34,296,5,0.1674232,0.2495212,0.1425659,5.720967,-0.02169728,0.008821845,-0.009198842,0.007247074,-0.2773564,0.9606957
634795922925290000,0.08993158,0.05474096,-0.9423265,-8.64,18.18,-39.3,33,295,5,0.1216376,0.1569327,0.1521317,5.722381,-0.02073479,0.01244807,-0.008239808,0.008849573,-0.2766602,0.9608917
634795922925490000,0.08602151,0.04692082,-0.9305963,-8.64,18.18,-39.3,33,295,5,0.2195325,-0.1654986,0.0893406,5.724927,-0.01894593,0.01559842,-0.006957187,0.0101068,-0.2746398,0.9614957
634795922925690000,0.08993158,0.04692082,-0.969697,-8.64,18.18,-39.3,33,295,5,0.2056976,-0.2229667,0.02229154,5.727492,-0.0111146,0.009138941,-0.004090723,0.005918394,-0.274254,0.9616304
634795922925890000,0.08993158,0.05865103,-1.020528,-8.1,19.14,-38.88,30,292,5,0.1354265,-0.1218603,0.01057229,5.728118,-0.009056568,0.007802844,-0.003286093,0.004992765,-0.2739624,0.9617218
634795922926090000,0.09775171,0.06256109,-1.040078,-8.1,19.14,-38.88,29,291,5,0.03217111,-0.02290604,-0.204416,5.726532,-0.009055853,0.00819242,-0.003228219,0.005182554,-0.2747241,0.9615037
634795922926290000,0.1016618,0.03910068,-1.028348,-8.1,19.14,-38.88,27,289,5,0.1790195,0.105821,-0.1522672,5.722802,-0.007859945,0.01119006,-0.002229381,0.006463519,-0.2765124,0.960986
634795922926490000,0.113392,0.02346041,-1.008798,-8.1,19.14,-38.88,27,289,5,0.2205243,0.1057911,0.002040931,5.722553,-0.004620314,0.01481306,-0.0001708467,0.007756445,-0.2766348,0.9609438
634795922926690000,0.1173021,0.02346041,-0.9970675,-8.1,19.14,-38.88,27,289,5,0.170491,-0.1314834,-0.06285488,5.722042,0.001184225,0.01497781,0.002642639,0.007032061,-0.2769017,0.960869
634795922926890000,0.1212121,0.02737048,-1.000978,-7.2,19.2,-39.24,25,287,5,0.1268369,-0.06868475,-0.04794157,5.721869,0.002933025,0.01478648,0.003456933,0.006697713,-0.2769905,0.9608431
634795922927090000,0.113392,0.02346041,-1.004888,-7.2,19.2,-39.24,25,287,5,0.01616751,0.1303025,-0.01493782,5.721139,0.003819466,0.01603019,0.004057681,0.007170959,-0.2773441,0.9607353
634795922927290000,0.1016618,0.01173021,-0.9853373,-7.2,19.2,-39.24,26,288,5,-0.0902184,0.268629,-7.453626E-05,5.722135,0.003209114,0.02160299,0.004532236,0.009934837,-0.2768604,0.9608481
634795922927490000,0.1016618,0.003910068,-0.9618768,-7.2,19.2,-39.24,26,288,5,-0.1029423,0.1557793,-0.03412782,5.722613,0.001124859,0.02746105,0.004338653,0.01303873,-0.2766116,0.9608836
634795922927690000,0.1094819,0.003910068,-0.9579667,-7.2,19.2,-39.24,25,287,5,-0.09225756,0.048267,-0.09268171,5.722449,-0.000692606,0.0303005,0.003859264,0.01465399,-0.2766726,0.9608448
634795922927890000,0.113392,0.01173021,-0.969697,-7.2,19.2,-39.24,25,287,5,-0.15498,0.03865864,-0.1118096,5.720864,-0.004561663,0.03363836,0.002475631,0.01679074,-0.2773939,0.9606063
634795922928090000,0.1055719,0.02346041,-0.9814272,-7.14,19.26,-39.48,26,288,5,-0.2081603,0.09501405,-0.09795558,5.719888,-0.00828433,0.03660369,0.001108153,0.01873068,-0.2778183,0.9604504
634795922928300000,0.1094819,0.02346041,-0.9931574,-7.14,19.26,-39.48,26,288,5,-0.1612768,0.03856424,-0.07449634,5.719176,-0.01147962,0.03882802,-0.0001098501,0.02024262,-0.2781177,0.9603337
634795922928490000,0.113392,0.02737048,-0.9931574,-7.14,19.26,-39.48,26,288,5,-0.1207794,-0.06253874,-0.04784558,5.718975,-0.01375937,0.03933179,-0.001132388,0.02080167,-0.2781879,0.9603007
634795922928690000,0.1173021,0.02346041,-1.004888,-7.14,19.26,-39.48,25,287,5,-0.1207484,-0.1891738,-0.04460895,5.719072,-0.01533628,0.0385778,-0.001995494,0.02065885,-0.2781298,0.9603193
634795922928890000,0.113392,0.02346041,-1.016618,-7.14,19.26,-39.48,26,288,5,-0.03774454,-0.2093941,-0.06479187,5.718966,-0.01705837,0.03603744,-0.003174962,0.01967887,-0.2784911,0.9602445
634795922929090000,0.09775171,0.02346041,-1.012708,-7.14,19.26,-39.48,26,288,5,-0.06224003,-0.05294177,-0.09988417,5.716815,-0.01989055,0.03580475,-0.004545831,0.01996595,-0.2791857,0.9600188
634795922929290000,0.07038123,0.003910068,-0.9931574,-7.5,19.5,-40.14,26,288,5,-0.1963004,0.04067843,-0.1679595,5.713963,-0.02364087,0.03782749,-0.006032603,0.02146885,-0.2805001,0.9595949
634795922929490000,0.09384164,0.007820137,-0.9892473,-7.5,19.5,-40.14,24,286,5,-0.1355862,-0.05833644,-0.3084372,5.710851,-0.02613187,0.03861165,-0.007083124,0.02220543,-0.2819585,0.9591435
634795922929690000,0.1368524,0.03128055,-1.004888,-7.5,19.5,-40.14,22,284,5,-0.0185025,-0.1807159,-0.1498561,5.706794,-0.02822137,0.03800952,-0.008125147,0.02222779,-0.283886,0.958566
634795922929890000,0.1524927,0.03519062,-1.020528,-7.5,19.5,-40.14,24,286,5,-0.0185025,-0.1807159,-0.1498561,5.70521,-0.02813124,0.03556466,-0.008412889,0.02105005,-0.2846692,0.9583578
634795922930090000,0.1407625,0.02737048,-1.024438,-7.5,19.5,-40.14,24,286,5,-0.1057467,-0.07640614,0.008725649,5.706336,-0.02907133,0.03361046,-0.009153385,0.02024243,-0.2841376,0.9585261
634795922930290000,0.1251222,0.01955034,-1.008798,-7.2,18.78,-40.14,29,291,5,-0.1546208,-0.03810636,0.006600499,5.706613,-0.0305202,0.03428388,-0.009754773,0.02076959,-0.2839843,0.9585543
634795922930490000,0.1173021,0.02346041,-1.000978,-7.2,18.78,-40.14,29,291,5,-0.07475638,-0.1253396,0.03426227,5.707258,-0.03266072,0.03481793,-0.01071167,0.02132598,-0.2836469,0.9586318
634795922930690000,0.1251222,0.02737048,-1.016618,-7.2,18.78,-40.14,29,291,5,0.02848506,-0.1253066,0.05340799,5.708638,-0.03273702,0.03416121,-0.01085603,0.02101461,-0.2829912,0.9588308
634795922930890000,0.1290323,0.01955034,-1.024438,-7.2,18.78,-40.14,27,289,5,0.04979138,-0.09124622,0.03957072,5.710166,-0.03160977,0.03362441,-0.0104074,0.02058982,-0.2822759,0.9590558
634795922931090000,0.1212121,0.01955034,-1.008798,-7.2,18.78,-40.14,27,289,5,0.01469334,-0.06571802,0.0002034395,5.711073,-0.03051424,0.03383469,-0.009861685,0.02053155,-0.2818502,0.959188
634795922931290000,0.1173021,0.02737048,-0.9970675,-7.2,18.78,-40.14,27,289,5,-0.02043641,-0.08700103,0.02574889,5.712464,-0.02991676,0.03407943,-0.009554826,0.02055808,-0.2811866,0.9593853
634795922931490000,0.113392,0.02737048,-0.9970675,-7.2,18.78,-40.14,27,289,5,0.03487712,-0.07527167,0.0448894,5.71401,-0.02886462,0.03417087,-0.009053063,0.02044702,-0.2804548,0.9596067
634795922931700000,0.1055719,0.02346041,-0.9892473,-7.08,19.2,-40.26,26,288,5,0.02420464,-0.06142546,0.031035,5.715163,-0.02801752,0.03441525,-0.008624122,0.02044049,-0.2799081,0.9597704
634795922931890000,0.1016618,0.02346041,-0.9892473,-7.08,19.2,-40.26,26,288,5,0.03479592,-0.1071557,-0.03707978,5.71562,-0.02735591,0.03445446,-0.008305807,0.02036484,-0.2796952,0.9598369
634795922932090000,0.1094819,0.03128055,-0.9892473,-7.08,19.2,-40.26,26,288,5,0.03479592,-0.1071557,-0.03707978,5.715853,-0.02625513,0.03391385,-0.007855567,0.01995053,-0.279599,0.9598774
634795922932290000,0.1212121,0.03910068,-1.008798,-7.08,19.2,-40.26,25,287,5,-0.04822481,-0.1145694,-0.02536468,5.716663,-0.02714682,0.03224361,-0.008525115,0.01927024,-0.279216,0.9599971
634795922932490000,0.1212121,0.05083089,-1.028348,-7.08,19.2,-40.26,25,287,5,0.0304807,-0.03043745,0.01194578,5.717188,-0.02713466,0.03254008,-0.008482979,0.01940862,-0.2789614,0.9600687
634795922932690000,0.1212121,0.05083089,-1.020528,-7.02,19.44,-40.2,26,288,5,0.07195824,-0.05702905,0.01619183,5.718026,-0.02621078,0.03327978,-0.007944399,0.01963147,-0.2785619,0.9601848
634795922932900000,0.113392,0.03910068,-1.000978,-7.02,19.44,-40.2,26,288,5,0.041099,-0.104892,0.01834858,5.719054,-0.02503109,0.03330338,-0.007384766,0.01947468,-0.2780799,0.9603321
634795922933090000,0.1016618,0.03128055,-1.004888,-7.02,19.44,-40.2,26,288,5,0.03152832,-0.1133697,0.008794182,5.719952,-0.02453566,0.03266001,-0.007244996,0.01909362,-0.2776585,0.9604627
634795922933290000,0.1055719,0.03128055,-1.008798,-7.02,19.44,-40.2,26,288,5,0.0006714308,-0.1122773,-0.007168451,5.720406,-0.02428388,0.03201604,-0.007217814,0.01874785,-0.2774482,0.9605306
634795922933490000,0.09775171,0.03128055,-1.008798,-7.02,19.44,-40.2,24,286,5,-0.01634649,-0.08777279,-0.003974711,5.721039,-0.02437425,0.03117823,-0.007383501,0.01835573,-0.2771499,0.960623
634795922933690000,0.08602151,0.02737048,-1.000978,-7.14,19.44,-39.36,25,287,5,0.08047321,-0.1175631,-0.05292226,5.721735,-0.02336287,0.02980566,-0.007094286,0.01755388,-0.2768351,0.9607309
634795922933890000,0.08211143,0.03128055,-0.9970675,-7.14,19.44,-39.36,24,286,5,0.1102302,-0.1175547,-0.06994433,5.721477,-0.02209091,0.02906108,-0.006584191,0.01702105,-0.2769759,0.9607036
634795922934090000,0.08993158,0.03910068,-1.000978,-7.14,19.44,-39.36,24,286,5,0.1314901,-0.1782155,-0.03482405,5.721661,-0.01991725,0.0271678,-0.005804003,0.01581009,-0.2769187,0.9607458
634795922934290000,0.08993158,0.03519062,-1.008798,-7.14,19.44,-39.36,23,285,5,0.1506475,-0.1877936,-0.03056225,5.722361,-0.01711512,0.02424192,-0.004868283,0.01401492,-0.2766216,0.9608644
634795922934490000,0.09775171,0.03519062,-1.012708,-7.14,19.44,-39.36,24,286,5,0.09209444,-0.06539034,-0.04439835,5.722588,-0.01514888,0.02306807,-0.004087628,0.0131786,-0.2765326,0.9609055
634795922934690000,0.1016618,0.04301075,-1.004888,-7.14,19.44,-39.36,24,286,5,0.04625336,-0.006835714,0.03004654,5.723628,-0.01417184,0.02473485,-0.003394855,0.01384254,-0.2760306,0.9610432
634795922934890000,0.09384164,0.03910068,-1.004888,-7.14,19.44,-39.36,24,286,5,0.04625336,-0.006835714,0.03004654,5.725388,-0.01304889,0.02511334,-0.002815142,0.01386694,-0.2751911,0.9612854
634795922935100000,0.09384164,0.03519062,-1.004888,-6.96,19.62,-39.12,23,285,5,0.26331,-0.209023,0.02465709,5.726903,-0.01062918,0.02378774,-0.001844355,0.01289544,-0.2744846,0.9615033
634795922935290000,0.09384164,0.03910068,-1.004888,-6.96,19.62,-39.12,23,285,5,0.2079702,-0.1696466,0.01612808,5.72775,-0.007718325,0.02199161,-0.0006964841,0.01163216,-0.2741021,0.96163
634795922935490000,0.09775171,0.03519062,-1.012708,-6.96,19.62,-39.12,23,285,5,0.03450294,0.01339766,0.02462496,5.729021,-0.004703522,0.02031732,0.0005169327,0.01041429,-0.2735125,0.961812
634795922935690000,0.08993158,0.03128055,-1.004888,-6.96,19.62,-39.12,23,285,5,0.0291833,0.04315744,0.01714952,5.730391,-0.004463434,0.02163946,0.0008056231,0.0110178,-0.2728518,0.9621335
634795922935890000,0.0742913,0.02346041,-0.9931574,-6.96,19.62,-39.12,23,285,5,0.06746305,-0.05156861,-0.009474628,5.732492,-0.003997326,0.02446151,0.001401972,0.01231307,-0.2718361,0.9622638
634795922936090000,0.0742913,0.02346041,-0.9931574,-7.5,19.74,-39.12,24,286,5,0.01849316,-0.03985958,-0.0435309,5.732768,-0.003677606,0.02438545,0.001543749,0.01223323,-0.2717055,0.9623015
634795922936300000,0.08211143,0.03128055,-0.9931574,-7.5,19.74,-39.12,22,284,5,-0.01872918,0.01440261,-0.05202884,5.732854,-0.00415206,0.02500844,0.001399576,0.01259753,-0.2716598,0.9623099
634795922936490000,0.08211143,0.03128055,-0.9853373,-7.5,19.74,-39.12,22,284,5,0.02066407,-0.02390895,-0.03392116,5.733126,-0.004616498,0.02610254,0.001323037,0.01318719,-0.2715225,0.9623408
634795922936690000,0.08211143,0.02737048,-0.9853373,-7.5,19.74,-39.12,22,284,5,0.03662287,-0.09625392,-0.03284086,5.733482,-0.004375458,0.0259968,0.001422331,0.01310385,-0.2713532,0.9623895
634795922936890000,0.08993158,0.03128055,-1.000978,-7.5,19.74,-39.12,24,286,5,-0.0197685,-0.05900018,-0.02218584,5.73427,-0.005108356,0.02520442,0.0009570404,0.01282237,-0.2709717,0.9625014
634795922937090000,0.08993158,0.03519062,-1.000978,-7.92,19.74,-39,25,287,5,-0.07831036,0.01227215,-0.01792809,5.73474,-0.007034063,0.02637148,0.0001852698,0.01364493,-0.2707286,0.962559
634795922937290000,0.08993158,0.03519062,-0.9931574,-7.92,19.74,-39,25,287,5,-0.0761635,0.01332403,-0.0360097,5.734832,-0.008763074,0.02741587,-0.0005061358,0.0143816,-0.2706684,0.9625651
634795922937490000,0.08993158,0.03910068,-0.9931574,-7.92,19.74,-39,25,287,5,-0.03675928,-0.08349035,-0.009388636,5.735076,-0.009651183,0.027372,-0.000941282,0.01448058,-0.2705449,0.962598
634795922937690000,0.09384164,0.04301075,-1.000978,-7.92,19.74,-39,25,287,5,0.08668392,-0.1590347,0.009769014,5.735832,-0.009134292,0.02577078,-0.0009144,0.01363967,-0.2701912,0.9627097
634795922937890000,0.08993158,0.03910068,-0.9970675,-7.92,19.74,-39,25,287,5,0.07388299,-0.01853408,0.03316462,5.736887,-0.006666899,0.02449679,9.45059E-05,0.01269308,-0.2697038,0.9628597
634795922938090000,0.08211143,0.03128055,-0.9814272,-7.92,19.74,-39,26,288,5,0.04298981,-0.05154273,0.02566534,5.739131,-0.004986525,0.0250448,0.0009631447,0.01273144,-0.2686322,0.9631582
634795922938290000,0.0742913,0.01955034,-0.9736071,-7.8,19.74,-39.54,25,287,5,0.05890157,-0.1473179,0.000119151,5.739649,-0.004636526,0.02431512,0.001030378,0.01233329,-0.2683877,0.9632315
634795922938510000,0.07038123,0.01955034,-0.9892473,-7.8,19.74,-39.54,25,287,5,0.00563955,-0.1568959,-0.01476574,5.740187,-0.004240274,0.02232981,0.0009516891,0.01132424,-0.2681362,0.963314
634795922938690000,0.07038123,0.02737048,-1.004888,-7.8,19.74,-39.54,24,286,5,0.03007437,-0.1100551,0.01823375,5.741055,-0.004503727,0.02057505,0.0005849742,0.01051463,-0.2677208,0.963439
634795922938900000,0.07038123,0.02346041,-0.9892473,-7.8,19.74,-39.54,23,285,5,-0.001888564,0.002764686,0.0342132,5.742311,-0.003866911,0.0196141,0.0007568597,0.009966952,-0.2671209,0.9636112
634795922939090000,0.05865103,0.01173021,-0.969697,-8.04,20.04,-39.96,23,285,5,-0.2104767,-0.1217307,0.04378122,5.743524,-0.005292415,0.02006137,0.0001235084,0.01037292,-0.2657278,0.963992
634795922939290000,0.05865103,0.01173021,-0.9853373,-8.04,20.04,-39.96,23,285,5,-0.1668168,-0.250502,-0.02428821,5.745748,-0.01243591,0.01455939,-0.004061926,0.008669057,-0.2654409,0.9640796
634795922939490000,0.07038123,0.01955034,-1.020528,-8.04,20.04,-39.96,22,284,5,-0.1061174,-0.1536575,-0.06149991,5.745685,-0.01427579,0.01247358,-0.005225475,0.00790798,-0.2654718,0.964072
634795922939690000,0.08602151,0.02737048,-1.043988,-8.04,20.04,-39.96,22,284,5,-0.09971076,-0.02806411,-0.06788845,5.745559,-0.0154047,0.0124042,-0.005778423,0.008024743,-0.2655283,0.9640524
634795922939890000,0.09775171,0.02737048,-1.051808,-8.04,20.04,-39.96,22,284,5,0.07584786,-0.01424951,-0.03280351,5.745678,-0.01502585,0.01314211,-0.005498304,0.00832978,-0.2654688,0.9640678
634795922940090000,0.1016618,0.03519062,-1.043988,-8.04,20.04,-39.96,22,284,5,0.2046191,0.06656818,0.09590165,5.745916,-0.009914637,0.01432645,-0.002878224,0.008221904,-0.2653711,0.964107
