Timestamp,Acc.X,Acc.Y,Acc.Z,Comp.X,Comp.Y,Comp.Z,Comp.TrueHeading,Comp.MagneticHeading,Comp.HeadingAccuracy,Gyro.X,Gyro.Y,Gyro.Z,Motion.Yaw,Motion.Pitch,Motion.Roll,Motion.X,Motion.Y,Motion.Z,Motion.W
634796819195320000,0.06647116,0.0742913,-1.012708,0,0,0,0,0,0,0,0,0,0,0,0,0,0,0,0
634796819195520000,0.06256109,0.08211143,-1.012708,0,0,0,0,0,0,0,0,0,0,0,0,0,0,0,0
634796819195720000,0.0742913,0.07038123,-1.004888,0,0,0,0,0,0,0,0,0,0,0,0,0,0,0,0
634796819195920000,0.08993158,0.05865103,-0.9892473,0,0,0,0,0,0,0,0,0,0,0,0,0,0,0,0
634796819196120000,0.0742913,0.06256109,-0.9892473,0,0,0,0,0,0,0,0,0,0,0,0,0,0,0,0
634796819196320000,0.05474096,0.08602151,-1.020528,0,0,0,0,0,0,0,0,0,0,0,0,0,0,0,0
634796819196520000,0.04692082,0.08993158,-1.051808,0,0,0,0,0,0,-0.1841865,-0.4929292,0.2373998,0,0,0,0,0,0,0
634796819196720000,0.05083089,0.07820137,-1.047898,-18.12,-1.44,-40.26,106,8,5,-0.1703018,0.2062652,0.08095615,0,0,0,0,0,0,0
634796819196920000,0.05083089,0.0742913,-1.024438,-19.08,-5.22,-39.72,107,9,5,-0.02877155,0.1476609,-0.1009948,0,0,0,0,0,0,0
634796819197120000,0.04692082,0.07820137,-0.9970675,-19.08,-5.22,-39.72,107,9,5,0.1074468,0.1572113,-0.09668814,0,0,0,0,0,0,0
634796819197320000,0.04301075,0.08211143,-0.9931574,-21.54,-2.46,-38.16,97,359,5,0.2287481,0.0454603,-0.07643072,0,0,0,0,0,0,0
634796819197520000,0.04692082,0.08211143,-1.004888,-21.54,-2.46,-38.16,96,358,5,0.2723813,0.001838992,-0.07958923,0,0,0,0,0,0,0
634796819197720000,0.04301075,0.08211143,-1.008798,-21.54,-2.46,-38.16,97,359,5,0.29473,0.05822015,-0.09656469,0,0,0,0,0,0,0
634796819197920000,0.04692082,0.08211143,-1.008798,-21.54,-2.46,-38.16,97,359,5,0.2553537,0.1986881,-0.0656481,0,0,0,0,0,0,0
634796819198130000,0.05865103,0.06647116,-1.000978,-21.54,-2.46,-38.16,97,359,5,0.1457302,0.1933622,-0.04751999,0,0,0,0,0,0,0
634796819198320000,0.06647116,0.06256109,-0.9970675,-19.62,-2.76,-37.86,99,1,5,0.09464026,0.1188792,-0.01664096,0,0,0,0,0,0,0
634796819198520000,0.06256109,0.07038123,-0.9970675,-19.62,-2.76,-37.86,97,359,5,0.1010097,0.04012151,0.02060096,4.535115,-0.06476164,0.05658233,0.0009149433,0.0429629,-0.7656284,0.6418462
634796819198720000,0.06256109,0.0742913,-0.9970675,-19.62,-2.76,-37.86,96,358,5,0.189311,0.09972367,0.03016281,4.540897,-0.06188488,0.05971813,0.002916503,0.04287439,-0.7637644,0.644063
634796819198920000,0.07038123,0.05474096,-0.9970675,-19.62,-2.76,-37.86,96,358,5,0.0562296,0.08797207,-0.05391321,4.544699,-0.06036663,0.06237018,0.004337723,0.04315511,-0.7625142,0.645516
634796819199120000,0.08602151,0.04692082,-1.000978,-19.62,-2.76,-37.86,97,359,5,-0.01397573,0.0921915,-0.04537632,4.545882,-0.06088161,0.06353319,0.004589705,0.04372872,-0.7620957,0.6459697
634796819199320000,0.08993158,0.06256109,-0.9931574,-19.08,-3.84,-38.1,99,1,5,-0.002254887,0.1336473,-0.02194857,4.552417,-0.06178951,0.06923854,0.006323976,0.04593388,-0.759832,0.6484638
634796819199520000,0.08602151,0.06647116,-0.9814272,-19.08,-3.84,-38.1,99,1,5,-0.02144425,0.1388938,0.001475453,4.554467,-0.06169653,0.07412683,0.008165979,0.04748776,-0.7590536,0.6492426
634796819199720000,0.09384164,0.05865103,-0.969697,-19.08,-3.84,-38.1,99,1,5,-0.04062127,0.07078473,0.02064789,4.556344,-0.0623126,0.07792591,0.009364638,0.04896024,-0.7583358,0.6499555
634796819199920000,0.09775171,0.05083089,-0.9736071,-19.08,-3.84,-38.1,99,1,5,0.001921558,-0.08772001,0.004703567,4.556385,-0.06277037,0.07893801,0.009599437,0.04946194,-0.758286,0.6499721
634796819200120000,0.09775171,0.05474096,-0.9970675,-19.08,-3.84,-38.1,98,0,5,0.1381396,-0.2196839,-0.01337889,4.556385,-0.06277037,0.07893801,0.009599437,0.04946194,-0.758286,0.6499721
634796819200340000,0.1016618,0.06256109,-1.016618,-19.8,-3.78,-38.46,97,359,5,0.1945436,-0.144124,-0.01762303,4.557865,-0.05782628,0.07976818,0.01148615,0.04786487,-0.7579044,0.6505059
634796819200520000,0.1055719,0.06256109,-1.016618,-19.8,-3.78,-38.46,97,359,5,0.1445018,-0.07276925,0.02495864,4.55949,-0.05341458,0.0830605,0.01413274,0.04727253,-0.7574001,0.6510842
634796819200720000,0.113392,0.05865103,-1.008798,-19.8,-3.78,-38.46,97,359,5,0.1199532,-0.05461048,0.02709699,4.55949,-0.05341458,0.0830605,0.01413274,0.04727253,-0.7574001,0.6510842
634796819200920000,0.1094819,0.05083089,-1.008798,-19.8,-3.78,-38.46,98,0,5,0.1113583,-0.04604379,0.01432565,4.560466,-0.0516715,0.08859312,0.01677569,0.04841694,-0.7569867,0.6514181
634796819201120000,0.1094819,0.05083089,-1.004888,-19.8,-3.78,-38.46,97,359,5,0.1091039,-0.1481908,0.1270638,4.562091,-0.05108118,0.09057999,0.01768176,0.04885329,-0.7564211,0.6520183
634796819201320000,0.1094819,0.05865103,-1.008798,-19.8,-3.78,-38.46,97,359,5,0.1325112,-0.1833102,0.1695826,4.564125,-0.05016708,0.09121454,0.01817071,0.04873238,-0.7557638,0.6527757
634796819201530000,0.1016618,0.05865103,-1.020528,-19.8,-3.78,-38.46,97,359,5,0.1346216,-0.1364843,0.1716791,4.571498,-0.04642033,0.09226381,0.019615,0.04773066,-0.7534161,0.655516
634796819201720000,0.08211143,0.05474096,-1.028348,-18.9,-3.72,-38.4,97,359,5,0.06647192,0.0306379,0.1694961,4.573491,-0.04592847,0.09379529,0.02030628,0.04806641,-0.752736,0.6562513
634796819201920000,0.0742913,0.04301075,-1.012708,-18.9,-3.72,-38.4,97,359,5,-0.06230219,0.1795973,0.1311208,4.574678,-0.0462451,0.09477817,0.02054423,0.04851947,-0.7523134,0.656695
634796819202120000,0.07038123,0.03128055,-0.9853373,-18.9,-3.72,-38.4,98,0,5,-0.08143984,0.1316624,0.07359831,4.574678,-0.0462451,0.09477817,0.02054423,0.04851947,-0.7523134,0.656695
634796819202320000,0.07038123,0.02346041,-0.9657869,-18.9,-3.72,-38.4,98,0,5,-0.06759757,0.01249169,0.03950565,4.577259,-0.04819035,0.09265983,0.01904447,0.048582,-0.7514724,0.6576979
634796819202520000,0.07038123,0.02737048,-0.9814272,-18.9,-3.72,-38.4,97,359,5,-0.03884156,-0.1428303,-0.01797135,4.578356,-0.04782581,0.08808362,0.01741572,0.04695337,-0.7512336,0.6584349
634796819202720000,0.06647116,0.03519062,-1.000978,-18.9,-3.72,-38.4,96,358,5,0.03886688,-0.06194107,-0.06903564,4.579128,-0.04689908,0.08445787,0.01633875,0.04542123,-0.7510882,0.6584349
634796819202920000,0.06256109,0.03910068,-1.004888,-19.38,-3.66,-38.94,95,357,5,0.05056367,0.04659223,-0.05625089,4.57988,-0.04226088,0.07939589,0.01594556,0.04202215,-0.7510571,0.6587056
634796819203120000,0.07820137,0.03910068,-1.008798,-19.38,-3.66,-38.94,95,357,5,0.006925759,0.02426872,-0.01048665,4.580723,-0.04120207,0.07765924,0.01562383,0.04106021,-0.7508391,0.6590225
634796819203320000,0.09384164,0.03910068,-1.016618,-19.38,-3.66,-38.94,96,358,5,-0.00476252,-0.04915983,-0.01899513,4.581047,-0.04082513,0.07576406,0.01502904,0.04029775,-0.75078,0.6591507
634796819203520000,0.08602151,0.04692082,-1.020528,-19.38,-3.66,-38.94,97,359,5,0.01121799,-0.04058814,-0.03706535,4.581047,-0.04082513,0.07576406,0.01502904,0.04029775,-0.75078,0.6591507
634796819203740000,0.0742913,0.05083089,-1.000978,-19.08,-3.36,-38.64,96,358,5,0.02073993,0.02542777,-0.0625213,4.580985,-0.03995061,0.07518268,0.01509998,0.03977767,-0.7508301,0.6591237
634796819203920000,0.08211143,0.05083089,-0.9931574,-19.08,-3.36,-38.64,97,359,5,-0.01439748,-0.0671711,-0.05717187,4.579752,-0.04029799,0.07695353,0.01567611,0.04048104,-0.7511923,0.6586545
634796819204120000,0.08993158,0.05865103,-1.000978,-19.08,-3.36,-38.64,97,359,5,-0.01015452,-0.02353371,-0.03163557,4.579752,-0.04029799,0.07695353,0.01567611,0.04048104,-0.7511923,0.6586545
634796819204320000,0.09384164,0.05865103,-1.004888,-19.08,-3.36,-38.64,97,359,5,-0.00164732,0.04670483,-0.02525661,4.578532,-0.04239559,0.07711529,0.01507135,0.04131288,-0.7515476,0.6582115
634796819204520000,0.09775171,0.05474096,-0.9931574,-19.08,-3.36,-38.64,97,359,5,0.0004950712,-0.007525852,-0.008227619,4.577832,-0.04365039,0.07916522,0.01544463,0.04245235,-0.7517071,0.6579481
634796819204720000,0.1016618,0.05474096,-0.9931574,-19.08,-3.24,-38.22,96,358,5,0.04944687,-0.1298659,0.01518938,4.577639,-0.04434109,0.0797348,0.01543596,0.04289743,-0.7517434,0.657878
634796819204930000,0.09775171,0.05474096,-1.008798,-19.08,-3.24,-38.22,96,358,5,0.06963182,-0.1096386,0.04074026,4.577639,-0.04434109,0.0797348,0.01543596,0.04289743,-0.7517434,0.657878
634796819205120000,0.09384164,0.05474096,-1.016618,-19.08,-3.24,-38.22,96,358,5,0.03024431,-0.03402475,0.0439572,4.579705,-0.04485559,0.08186841,0.01602465,0.04380776,-0.7510039,0.6586481
634796819205320000,0.08993158,0.04692082,-1.000978,-19.08,-3.24,-38.22,97,359,5,0.02169231,-0.03503587,0.04818877,4.580353,-0.04520512,0.08292723,0.01629348,0.04429219,-0.7507586,0.6588886
634796819205520000,0.08602151,0.03910068,-0.9931574,-19.08,-3.24,-38.22,97,359,5,0.06639647,-0.07011539,0.05986949,4.580353,-0.04520512,0.08292723,0.01629348,0.04429219,-0.7507586,0.6588886
634796819205720000,0.08211143,0.03519062,-1.000978,-19.08,-3.24,-38.22,97,359,5,0.09826075,-0.07857491,0.0119884,4.5827,-0.04379129,0.0833081,0.01685094,0.04390651,-0.750007,0.6597559
634796819205920000,0.08211143,0.03519062,-1.008798,-19.08,-3.24,-38.22,96,358,5,0.03546136,-0.01679121,0.0002854368,4.583659,-0.04258918,0.08349525,0.01728044,0.04353221,-0.7494633,0.6603872
634796819206120000,0.08602151,0.03519062,-1.004888,-19.44,-3.42,-38.58,95,357,5,-0.02836586,0.002366764,-0.01568837,4.584415,-0.04258918,0.08349525,0.01728044,0.04353221,-0.7494633,0.6603872
634796819206320000,0.08211143,0.03910068,-0.9970675,-19.44,-3.42,-38.58,95,357,5,0.02588642,-0.02524668,-0.05298989,4.58607,-0.04294395,0.0829978,0.01694055,0.04351526,-0.7489201,0.661013
634796819206520000,0.08211143,0.04301075,-0.9970675,-19.44,-3.42,-38.58,95,357,5,0.06203698,-0.02845053,-0.05408146,4.586152,-0.04179859,0.08254933,0.01714921,0.04293911,-0.7489278,0.6610366
634796819206720000,0.08602151,0.04692082,-0.9970675,-19.44,-3.42,-38.58,95,357,5,0.004559987,-0.02099915,-0.02645003,4.586249,-0.04096031,0.08228195,0.01732385,0.04253783,-0.7489195,0.6610673
634796819206920000,0.08602151,0.04301075,-0.9970675,-19.44,-3.42,-38.58,96,358,5,-0.01990261,-0.04648692,-0.03285773,4.586249,-0.04096031,0.08228195,0.01732385,0.04253783,-0.7489195,0.6610673
634796819207140000,0.08211143,0.03519062,-0.9970675,-19.44,-3.42,-38.58,96,358,5,-0.02201734,-0.04326881,-0.04883632,4.586321,-0.04134321,0.08143293,0.01687737,0.04240172,-0.7489064,0.6611024
634796819207320000,0.08211143,0.03910068,-1.000978,-19.08,-3.78,-38.46,97,359,5,-0.04542273,-0.05392011,-0.02012491,4.585245,-0.04245663,0.08074117,0.01627289,0.04258163,-0.7492538,0.6607123
634796819207520000,0.08602151,0.04301075,-1.008798,-19.08,-3.78,-38.46,97,359,5,-0.02520511,-0.06559955,-0.02229263,4.585245,-0.04245663,0.08074117,0.01627289,0.04258163,-0.7492538,0.6607123
634796819207720000,0.08602151,0.04301075,-1.016618,-19.08,-3.78,-38.46,97,359,5,0.003515025,-0.0612888,-0.03616938,4.584612,-0.04287529,0.0791465,0.01554958,0.04220781,-0.7494892,0.6604867
634796819207920000,0.08211143,0.05083089,-1.020528,-19.08,-3.78,-38.46,97,359,5,0.000315751,-0.01444799,-0.01811629,4.584036,-0.04279351,0.07927763,0.015638,0.04221587,-0.7496783,0.6602695
634796819208120000,0.08993158,0.05083089,-1.016618,-19.08,-3.78,-38.46,97,359,5,0.02052677,-0.01337504,0.03504761,4.583962,-0.04271555,0.07944392,0.01572772,0.04224085,-0.7497006,0.6602404
634796819208330000,0.08993158,0.04692082,-1.008798,-19.2,-3.72,-39.12,98,0,5,0.0300817,0.01430738,0.03714551,4.584288,-0.04220628,0.08069109,0.01635709,0.04246356,-0.7495762,0.6603521
634796819208520000,0.08993158,0.03910068,-1.000978,-19.2,-3.72,-39.12,98,0,5,0.005585155,0.01860195,0.02435331,4.58412,-0.04273009,0.08150434,0.01649297,0.04292645,-0.7496021,0.6602893
634796819208720000,0.08602151,0.04301075,-0.9970675,-19.2,-3.72,-39.12,97,359,5,-0.02315393,-0.01859655,0.01261768,4.583999,-0.04312372,0.08172643,0.01644906,0.04314615,-0.7496291,0.6602455
634796819208920000,0.08602151,0.05083089,-1.000978,-19.2,-3.72,-39.12,97,359,5,0.03218269,-0.04623777,0.02111445,4.583999,-0.04312372,0.08172643,0.01644906,0.04314615,-0.7496291,0.6602455
634796819209120000,0.09384164,0.05083089,-1.000978,-19.2,-3.72,-39.12,97,359,5,0.03538474,-0.07282339,0.03493469,4.584161,-0.04245877,0.08139408,0.0165403,0.04278877,-0.749597,0.6603029
634796819209320000,0.09384164,0.05083089,-1.000978,-18.72,-3.54,-39.06,97,359,5,0.03006457,-0.06211698,0.04235745,4.584378,-0.04211759,0.08077788,0.01641702,0.04245966,-0.7495463,0.6603847
634796819209520000,0.08993158,0.04301075,-1.004888,-18.72,-3.54,-39.06,97,359,5,0.0002601986,-0.01419523,0.02848889,4.584568,-0.04204154,0.08073127,0.01642063,0.04241734,-0.7494865,0.6604552
634796819209720000,0.08993158,0.03910068,-0.9970675,-18.72,-3.54,-39.06,97,359,5,-0.006121108,-0.0152851,0.02419911,4.584733,-0.04284501,0.08229923,0.0167402,0.04323654,-0.7493797,0.6605153
634796819209920000,0.08602151,0.03910068,-0.9853373,-18.72,-3.54,-39.06,97,359,5,0.002393012,-0.02486323,0.006111644,4.584775,-0.04304743,0.08280826,0.01686345,0.04348052,-0.7493501,0.6605297
634796819210120000,0.08211143,0.04301075,-0.9814272,-18.72,-3.54,-39.06,96,358,5,0.02153768,-0.05572629,0.007196621,4.584889,-0.04288769,0.0828644,0.01693473,0.04344019,-0.7493144,0.6605712
634796819210320000,0.08602151,0.04301075,-0.9853373,-18.72,-3.54,-39.06,96,358,5,0.03216865,-0.09297886,0.006155808,4.584889,-0.04288769,0.0828644,0.01693473,0.04344019,-0.7493144,0.6605712
634796819210540000,0.08602151,0.04692082,-0.9970675,-18.72,-3.54,-39.06,96,358,5,0.03003424,-0.09191591,-0.0002121957,4.585274,-0.04173183,0.08098447,0.01660292,0.04239062,-0.7492542,0.6607159
634796819210720000,0.09384164,0.05083089,-1.012708,-18.42,-3.54,-38.94,97,359,5,0.02258828,0.002831631,0.0413293,4.585391,-0.04141426,0.08025419,0.01643139,0.04203182,-0.7492383,0.6607612
634796819210920000,0.1016618,0.04692082,-1.020528,-18.42,-3.54,-38.94,97,359,5,0.02258828,0.002831631,0.0413293,4.585391,-0.04141426,0.08025419,0.01643139,0.04203182,-0.7492383,0.6607612
634796819211120000,0.1016618,0.04301075,-1.016618,-18.42,-3.54,-38.94,98,0,5,0.02683284,-0.0514048,0.01675581,4.586029,-0.04120874,0.08197296,0.01713056,0.04252705,-0.7489941,0.6609886
634796819211320000,0.09384164,0.03910068,-1.012708,-18.42,-3.54,-38.94,98,0,5,0.03531131,-0.02055098,0.0007785978,4.586041,-0.04107141,0.08255112,0.01739257,0.04266644,-0.74898,0.6609887
634796819211520000,0.08993158,0.03910068,-1.008798,-18.42,-3.54,-38.94,97,359,5,0.03955469,-0.01735065,0.003960737,4.585911,-0.04087234,0.08324825,0.01772261,0.04282065,-0.7490118,0.6609339
634796819211730000,0.08993158,0.04301075,-1.000978,-18.72,-4.08,-38.46,98,0,5,0.0310294,-0.01305107,0.01244602,4.585911,-0.04087234,0.08324825,0.01772261,0.04282065,-0.7490118,0.6609339
634796819211920000,0.08602151,0.03519062,-0.9931574,-18.72,-4.08,-38.46,98,0,5,0.04378935,-0.02475084,-0.0003662954,4.585017,-0.03920126,0.08520817,0.01902906,0.04283281,-0.7492987,0.6605715
634796819212120000,0.08602151,0.03519062,-0.9970675,-18.72,-4.08,-38.46,98,0,5,0.07464518,-0.09710038,-0.01635756,4.584525,-0.038481,0.08458435,0.01904331,0.0423526,-0.7494907,0.6603842
634796819212320000,0.08211143,0.04301075,-1.008798,-18.72,-4.08,-38.46,98,0,5,0.05548891,-0.06191294,0.01023999,4.584525,-0.038481,0.08458435,0.01904331,0.0423526,-0.7494907,0.6603842
634796819212520000,0.08211143,0.03910068,-1.016618,-18.72,-4.08,-38.46,97,359,5,0.02674855,-0.02355454,0.003890073,4.583804,-0.03631425,0.08281219,0.01910846,0.04094953,-0.7498127,0.6601052
634796819212720000,0.08602151,0.03910068,-1.008798,-18.72,-4.08,-38.46,97,359,5,0.007581749,-0.02355338,-0.008839124,4.583127,-0.0361607,0.08257425,0.0190836,0.04080715,-0.7500443,0.6598516
634796819212920000,0.08211143,0.03910068,-0.9970675,-18.72,-4.08,-38.46,97,359,5,0.01076517,-0.03632897,0.003921042,4.582658,-0.03624224,0.08226978,0.0189519,0.04073301,-0.7502039,0.6596786
634796819213120000,0.08602151,0.03910068,-0.9892473,-18.48,-3.84,-37.68,97,359,5,0.07141727,-0.07669674,0.001792592,4.581762,-0.03503131,0.08043253,0.01867903,0.03966548,-0.7505624,0.6593435
634796819213320000,0.08211143,0.04301075,-1.000978,-18.48,-3.84,-37.68,97,359,5,0.1171678,-0.09794676,-0.01093309,4.581265,-0.03329944,0.07906032,0.01874403,0.03855909,-0.7507886,0.6591498
634796819213520000,0.08211143,0.03910068,-1.004888,-18.48,-3.84,-37.68,97,359,5,0.07777751,-0.07238598,-0.009835239,4.58094,-0.03252292,0.07850301,0.01879665,0.03808113,-0.7509219,0.6590242
634796819213720000,0.08602151,0.04301075,-1.004888,-18.48,-3.84,-37.68,97,359,5,0.0128536,-0.0531631,-0.009825448,4.58094,-0.03252292,0.07850301,0.01879665,0.03808113,-0.7509219,0.6590242
634796819213940000,0.08993158,0.05083089,-1.008798,-18.84,-3.66,-37.92,97,359,5,0.03306866,-0.04141267,-0.02046897,4.579117,-0.032758,0.07636106,0.01794817,0.03744826,-0.7515603,0.658356
634796819214120000,0.09384164,0.05083089,-1.016618,-18.84,-3.66,-37.92,97,359,5,0.01390686,0.01928488,0.0103728,4.578982,-0.03290772,0.07683218,0.01807864,0.03765821,-0.7515926,0.6583036
634796819214320000,0.08993158,0.04692082,-1.004888,-18.84,-3.66,-37.92,98,0,5,6.650828E-05,0.007570418,0.01885457,4.578893,-0.03359985,0.07825148,0.01838651,0.03838396,-0.7515804,0.658267
634796819214520000,0.08211143,0.03910068,-0.9970675,-18.84,-3.66,-37.92,98,0,5,-0.000998249,-0.02649873,0.02522183,4.5791,-0.03443289,0.07924771,0.01848308,0.03902627,-0.7514758,0.6583461
634796819214720000,0.07820137,0.03128055,-1.000978,-18.84,-3.66,-37.92,98,0,5,0.02880325,-0.05413709,-0.008816669,4.579297,-0.035043,0.07938205,0.01832896,0.03930141,-0.7513964,0.6584246
634796819214920000,0.07820137,0.03519062,-1.004888,-18.84,-3.66,-37.92,97,359,5,0.06285717,-0.02326009,-0.02370007,4.579149,-0.03496527,0.07917523,0.01827961,0.03920294,-0.7514505,0.65837
634796819215130000,0.08602151,0.03910068,-1.004888,-19.2,-3.6,-37.98,96,358,5,0.05114804,-0.02006273,-0.009875147,4.579261,-0.03343987,0.0787034,0.01860212,0.03847575,-0.7514531,0.658401
634796819215320000,0.08993158,0.03910068,-1.004888,-19.2,-3.6,-37.98,96,358,5,0.03411894,-0.03599472,0.004993569,4.579795,-0.03309989,0.07833957,0.01856698,0.03823334,-0.7512911,0.6586009
634796819215520000,0.08993158,0.03519062,-1.012708,-19.2,-3.6,-37.98,96,358,5,0.014963,-0.02111483,-0.001414025,4.580085,-0.03308153,0.07837772,0.01858181,0.0382417,-0.751195,0.6587096
634796819215720000,0.08602151,0.03910068,-1.004888,-19.2,-3.6,-37.98,96,358,5,0.01496566,0.004409125,0.01241941,4.580613,-0.03310537,0.07902478,0.01880708,0.03846845,-0.7510079,0.6589034
634796819215920000,0.07820137,0.03519062,-0.9931574,-19.2,-3.6,-37.98,96,358,5,0.02560451,-0.01052493,0.0007146379,4.581229,-0.03289413,0.07972467,0.01912792,0.03862526,-0.7507945,0.6591281
634796819216120000,0.07820137,0.03128055,-0.9970675,-19.2,-3.6,-37.98,96,358,5,0.04155745,-0.05630056,-0.003573444,4.581792,-0.03249454,0.07940316,0.01912794,0.03806033,-0.7504471,0.6595584
634796819216320000,0.07820137,0.03519062,-1.004888,-18.9,-2.76,-38.28,94,356,5,0.04472874,-0.03182743,-0.01849484,4.583177,-0.0313108,0.07821536,0.01904594,0.03755273,-0.7502129,0.6598542
634796819216520000,0.07820137,0.03519062,-1.004888,-18.9,-2.76,-38.28,94,356,5,0.03513305,-0.02329703,-0.00359409,4.584161,-0.03077412,0.07786989,0.01907492,0.03724699,-0.7499048,0.6602209
634796819216720000,0.07820137,0.03519062,-1.000978,-18.9,-2.76,-38.28,94,356,5,0.04362493,-0.01370145,-0.01423581,4.585274,-0.03029871,0.07758533,0.01910448,0.03698556,-0.7495519,0.6606354
634796819216920000,0.07820137,0.03519062,-0.9931574,-18.9,-2.76,-38.28,94,356,5,0.02338922,-0.02325861,-0.03336238,4.585916,-0.02997971,0.07746971,0.01915468,0.03683394,-0.7493481,0.6608736
634796819217120000,0.08211143,0.03519062,-0.9931574,-18.9,-2.76,-38.28,94,356,5,-0.03512848,-0.02217193,-0.01842683,4.586679,-0.02985024,0.07708847,0.01904048,0.03666694,-0.7491055,0.6611611
634796819217340000,0.08993158,0.03910068,-0.9970675,-18.84,-3.24,-38.46,95,357,5,-0.03723948,-0.0412934,-0.01628051,4.587516,-0.03064227,0.07676113,0.01864047,0.03686337,-0.7488203,0.6614845
634796819217520000,0.09384164,0.03910068,-1.004888,-18.84,-3.24,-38.46,95,357,5,0.02234926,-0.08063471,-0.01308251,4.58864,-0.03154516,0.07572305,0.01793199,0.03686862,-0.748452,0.6619205
634796819217720000,0.08993158,0.03910068,-1.016618,-18.84,-3.24,-38.46,95,357,5,0.06170196,-0.06035835,-0.01095736,4.589067,-0.03095126,0.07526636,0.01794973,0.03649921,-0.7483303,0.6620781
634796819217920000,0.09384164,0.03910068,-1.020528,-18.84,-3.24,-38.46,95,357,5,0.04146274,-0.02199208,0.01243655,4.589715,-0.03038931,0.07579982,0.01832377,0.03647125,-0.7481158,0.6623117
634796819218120000,0.08993158,0.03519062,-1.008798,-18.84,-3.24,-38.46,96,358,5,0.02229955,-0.001766271,0.02837438,4.590605,-0.03031874,0.07665288,0.01865015,0.0367353,-0.7478058,0.662638
634796819218320000,0.08211143,0.02737048,-0.9970675,-18.54,-3.12,-38.16,95,357,5,0.0265572,-0.01669522,0.01557271,4.591216,-0.03030228,0.07736337,0.01891029,0.03697003,-0.74759,0.662861
634796819218530000,0.08211143,0.02737048,-1.004888,-18.54,-3.12,-38.16,95,357,5,0.04784267,-0.05925902,-0.01638789,4.591897,-0.03008508,0.07782972,0.01914417,0.03704967,-0.7473591,0.6631103
634796819218720000,0.08602151,0.03128055,-1.008798,-18.54,-3.12,-38.16,95,357,5,0.0159109,-0.03581105,-0.01959535,4.592744,-0.02946114,0.07758558,0.01924411,0.03674386,-0.7470945,0.6634225
634796819218920000,0.08602151,0.03519062,-1.004888,-18.54,-3.12,-38.16,94,356,5,0.00418804,-0.004933939,-0.01000562,4.593149,-0.02942705,0.07784438,0.01934477,0.03682079,-0.7469556,0.6635715
634796819219120000,0.08602151,0.03519062,-1.000978,-18.54,-3.12,-38.16,95,357,5,0.09990892,-0.03898488,-0.0249284,4.593632,-0.02887797,0.07769489,0.01946221,0.03657087,-0.7468086,0.6637475
634796819219320000,0.08993158,0.03519062,-1.000978,-18.54,-3.12,-38.16,95,357,5,0.08073616,-0.02194877,-0.02064234,4.593826,-0.0273726,0.07755518,0.01990608,0.03596435,-0.7467741,0.6638063
634796819219520000,0.08602151,0.03519062,-0.9970675,-18.54,-3.12,-38.16,95,357,5,0.03286039,-0.009163383,-0.007835984,4.594064,-0.02624059,0.07799459,0.02049867,0.03562363,-0.7466372,0.6639606
634796819219720000,0.08602151,0.03519062,-0.9892473,-18.36,-3.18,-38.28,95,357,5,-0.02673877,-0.007037811,-0.00779118,4.59464,-0.02683735,0.07870876,0.02050018,0.03615529,-0.7464915,0.6640957
634796819219920000,0.08602151,0.03128055,-0.9892473,-18.36,-3.18,-38.28,95,357,5,0.001962639,-0.06875063,-0.01946477,4.594806,-0.02751088,0.07847548,0.02018633,0.03633098,-0.7464285,0.6641664
634796819220120000,0.08993158,0.03519062,-0.9970675,-18.36,-3.18,-38.28,95,357,5,0.04027794,-0.08042613,-0.02796304,4.594779,-0.02737164,0.07771194,0.01994785,0.03602549,-0.7464547,0.6641609
634796819220320000,0.08602151,0.03519062,-1.012708,-18.36,-3.18,-38.28,95,357,5,0.01364538,-0.01227784,0.01037919,4.595058,-0.02698445,0.07752419,0.02000128,0.03582144,-0.7463725,0.6642627
634796819220520000,0.08602151,0.03519062,-1.016618,-18.36,-3.18,-38.28,95,357,5,0.01364538,-0.01227784,0.01037919,4.595058,-0.02698445,0.07752419,0.02000128,0.03582144,-0.7463725,0.6642627
634796819220740000,0.08211143,0.03128055,-1.004888,-18.48,-3.3,-38.4,96,358,5,0.0274834,0.005795367,0.02416739,4.596468,-0.02681541,0.07884204,0.0205242,0.03621006,-0.745882,0.6647763
634796819220920000,0.0742913,0.02346041,-0.9970675,-18.48,-3.3,-38.4,96,358,5,0.03282847,0.01427819,0.01881158,4.59676,-0.02667951,0.07924592,0.02071481,0.03629645,-0.7457796,0.6648807
634796819221120000,0.0742913,0.01564027,-0.9931574,-18.48,-3.3,-38.4,95,357,5,0.01583407,-0.007017375,-0.01525438,4.596895,-0.02666545,0.07924545,0.02071685,0.03629247,-0.7457352,0.6649306
634796819221320000,0.08211143,0.02346041,-0.9970675,-18.48,-3.3,-38.4,95,357,5,0.006288822,-0.05274937,-0.02906493,4.596991,-0.02654648,0.07822334,0.02037319,0.0359097,-0.7457249,0.6649736
634796819221520000,0.08993158,0.03128055,-1.012708,-18.48,-3.3,-38.4,94,356,5,-0.0001151531,-0.01863233,-0.03122606,4.597103,-0.02617812,0.07721435,0.02011716,0.03543836,-0.7457132,0.6650198
634796819221720000,0.09384164,0.03128055,-1.012708,-18.66,-3.24,-38.76,94,356,5,-0.01610247,0.003685216,-0.02062446,4.597199,-0.0260787,0.07702756,0.02007876,0.03534024,-0.7456864,0.6650562
634796819221930000,0.09384164,0.03128055,-1.008798,-18.66,-3.24,-38.76,94,356,5,0.001982755,-0.02081793,-0.02278185,4.597379,-0.02637744,0.07745063,0.02013416,0.03559395,-0.7456136,0.6651226
634796819222120000,0.08993158,0.03128055,-1.004888,-18.66,-3.24,-38.76,95,357,5,0.02430966,-0.009108793,-0.03557384,4.59757,-0.02647734,0.07841039,0.02045557,0.03595193,-0.7455298,0.6651875
634796819222320000,0.09384164,0.03519062,-1.000978,-18.66,-3.24,-38.76,95,357,5,-0.004455701,-0.02608648,-0.01749606,4.597495,-0.02647185,0.0787053,0.02056882,0.03604709,-0.7455494,0.6651568
634796819222520000,0.09384164,0.03519062,-0.9970675,-18.66,-3.24,-38.76,95,357,5,-0.01617878,-0.03455697,-0.001533431,4.59773,-0.02697277,0.07903301,0.02052021,0.03634508,-0.7454557,0.6652472
634796819222720000,0.09384164,0.03128055,-0.9970675,-18.66,-3.24,-38.76,95,357,5,0.01785355,-0.03350977,0.01120258,4.59826,-0.02730131,0.07923841,0.02047785,0.03654123,-0.7452697,0.6654462
634796819222920000,0.09775171,0.02737048,-1.004888,-19.02,-3.6,-39.42,96,358,5,0.01355418,-0.02286859,-0.01327034,4.598448,-0.02737975,0.07995546,0.02071578,0.03681066,-0.7451917,0.6655112
634796819223120000,0.09775171,0.03128055,-1.012708,-19.02,-3.6,-39.42,95,357,5,-0.02267513,-0.04625877,-0.01009331,4.598509,-0.02796078,0.08022964,0.02062356,0.03711894,-0.745155,0.6655381
634796819223320000,0.1016618,0.03128055,-1.016618,-19.02,-3.6,-39.42,95,357,5,-0.003552067,-0.04519518,0.007996493,4.59892,-0.02809596,0.08047366,0.02066193,0.03725465,-0.7450112,0.6656902
634796819223520000,0.09775171,0.03128055,-1.012708,-19.02,-3.6,-39.42,95,357,5,0.03152916,-0.01537484,0.01867546,4.599442,-0.02766514,0.08124471,0.02108313,0.03735595,-0.7448301,0.6658741
634796819223720000,0.09384164,0.02737048,-1.000978,-19.02,-3.6,-39.42,96,358,5,0.02722139,0.003795891,0.01445985,4.599749,-0.02739263,0.08200287,0.02145069,0.03750993,-0.7447183,0.6659787
634796819223920000,0.08993158,0.02737048,-0.9970675,-19.02,-3.6,-39.42,95,357,5,0.0155015,-0.04088699,-0.002544232,4.600039,-0.02718496,0.08256816,0.02172503,0.03762372,-0.7446141,0.6660798
634796819224130000,0.09384164,0.03128055,-0.9970675,-19.14,-3.84,-38.88,96,358,5,0.01010961,-0.03981329,-0.00142488,4.600204,-0.02702999,0.08277965,0.02185243,0.03763817,-0.7445582,0.6661373
634796819224320000,0.09775171,0.03128055,-1.000978,-19.14,-3.84,-38.88,96,358,5,0.001552489,-0.07280683,-0.001416259,4.600413,-0.02693367,0.08235383,0.02172186,0.03746291,-0.7444987,0.666218
634796819224520000,0.1016618,0.03128055,-1.008798,-19.14,-3.84,-38.88,96,358,5,0.001552489,-0.07280683,-0.001416259,4.600368,-0.0269711,0.08193505,0.02155422,0.03733701,-0.7445214,0.666205
634796819224720000,0.1016618,0.03910068,-1.020528,-19.14,-3.84,-38.88,96,358,5,0.01855732,-0.03129864,0.03364879,4.600188,-0.0267961,0.08132695,0.02138929,0.03706761,-0.7445965,0.6661415
634796819224920000,0.09775171,0.03910068,-1.016618,-19.14,-3.84,-38.88,96,358,5,0.01749522,-0.01427146,0.06128523,4.600806,-0.02662349,0.08186375,0.02163531,0.03718862,-0.7443834,0.666365
634796819225120000,0.08993158,0.02737048,-1.004888,-19.26,-3.54,-38.76,96,358,5,0.02175223,-0.05152657,0.04847611,4.601763,-0.02657294,0.08264053,0.02192364,0.03743879,-0.7440498,0.666714
634796819225320000,0.08211143,0.01955034,-0.9970675,-19.26,-3.54,-38.76,96,358,5,0.01110646,-0.07706542,0.0271468,4.602569,-0.02657247,0.08274328,0.02194698,0.03748168,-0.7437792,0.6670128
634796819225520000,0.08211143,0.02346041,-0.9970675,-19.26,-3.54,-38.76,95,357,5,0.01428318,-0.0706787,0.002670365,4.603333,-0.0263865,0.08143687,0.02150852,0.03698561,-0.7435535,0.6673062
634796819225720000,0.08993158,0.03128055,-1.008798,-19.26,-3.54,-38.76,95,357,5,0.003630601,-0.03237936,-0.01543349,4.603369,-0.02626443,0.0809071,0.02135145,0.03676405,-0.7435541,0.6673229
634796819225920000,0.09384164,0.03519062,-1.004888,-19.26,-3.54,-38.76,95,357,5,-0.002741022,-0.008971403,-0.004774954,4.603475,-0.02627826,0.08096229,0.02136539,0.03678877,-0.7435173,0.667362
634796819226120000,0.09384164,0.03910068,-0.9931574,-19.26,-3.54,-38.76,95,357,5,0.002609796,0.002728795,0.01009089,4.603764,-0.02639484,0.08142138,0.02149199,0.0369882,-0.7434098,0.6674668
634796819226320000,0.08993158,0.03910068,-0.9892473,-19.26,-3.66,-38.76,96,358,5,0.01330089,-0.003661767,0.01009302,4.603951,-0.02642202,0.08182549,0.02162977,0.03713498,-0.7433388,0.6675332
634796819226520000,0.09384164,0.03910068,-0.9853373,-19.26,-3.66,-38.76,96,358,5,0.02185599,-0.02493127,0.02178704,4.604089,-0.02647328,0.08236229,0.02180986,0.03733449,-0.7432814,0.6675802
634796819226720000,0.09775171,0.03128055,-0.9853373,-19.26,-3.66,-38.76,96,358,5,0.009119662,-0.06215116,0.02279848,4.604515,-0.02684474,0.08202207,0.02155135,0.03736368,-0.743139,0.6677454
634796819226920000,0.09775171,0.03519062,-1.004888,-19.26,-3.66,-38.76,95,357,5,-0.01211887,-0.06745429,0.03339827,4.604978,-0.0274322,0.08160532,0.02119148,0.03744793,-0.7429818,0.6679271
634796819227120000,0.1016618,0.03910068,-1.016618,-19.26,-3.66,-38.76,95,357,5,-0.01100941,-0.04298063,0.04402083,4.605394,-0.02774978,0.08164573,0.02109263,0.03758378,-0.7428359,0.6680849
634796819227320000,0.1016618,0.03519062,-1.012708,-19.32,-4.14,-38.7,97,359,5,-0.01952226,-0.03234976,0.06317933,4.606243,-0.02828622,0.08198035,0.02102176,0.0379036,-0.7425352,0.6684032
634796819227530000,0.08993158,0.02737048,-0.9970675,-19.32,-4.14,-38.7,97,359,5,0.009200224,-0.02493818,0.04936463,4.60696,-0.02868485,0.08274006,0.02115713,0.03831274,-0.7422729,0.668667
634796819227720000,0.08993158,0.02346041,-0.9970675,-19.32,-4.14,-38.7,97,359,5,-0.02485455,-0.05791543,0.04085498,4.607818,-0.02908969,0.0834229,0.02125893,0.03870005,-0.7419644,0.6689837
634796819227920000,0.08602151,0.02346041,-1.000978,-19.32,-4.14,-38.7,97,359,5,-0.02485455,-0.05791543,0.04085498,4.608154,-0.02942252,0.08321916,0.02106543,0.03875903,-0.7418495,0.6691138
634796819228120000,0.08602151,0.02346041,-1.004888,-19.32,-4.14,-38.7,96,358,5,-0.02588749,-0.03661645,0.02917724,4.608478,-0.02977109,0.08296835,0.02084943,0.0388079,-0.7417396,0.6692395
634796819228320000,0.08993158,0.02346041,-1.012708,-19.32,-4.14,-38.7,96,358,5,-0.02381704,-0.01001401,-0.01231776,4.608366,-0.02981305,0.08254552,0.0206805,0.03868106,-0.7417849,0.669202
634796819228520000,0.08602151,0.02737048,-1.008798,-19.62,-3.96,-39.12,96,358,5,-0.04191983,0.006983795,-0.005960288,4.607934,-0.03006124,0.08259749,0.02062514,0.03878598,-0.7419235,0.669044
634796819228720000,0.08211143,0.02737048,-0.9970675,-19.62,-3.96,-39.12,96,358,5,-0.02168551,-0.01644906,0.006839254,4.607645,-0.03075552,0.08293951,0.02052557,0.03915484,-0.7419998,0.668941
634796819228920000,0.08211143,0.03128055,-0.9931574,-19.62,-3.96,-39.12,96,358,5,0.01879411,-0.03985148,-0.00165039,4.607554,-0.03036308,0.08247304,0.02048534,0.03885247,-0.7420473,0.6689072
634796819229120000,0.08602151,0.03128055,-0.9931574,-19.62,-3.96,-39.12,96,358,5,-0.008847225,-0.05258461,-0.01763313,4.607122,-0.03015018,0.08160794,0.02024347,0.03848024,-0.7422133,0.6687517
634796819229320000,0.08993158,0.03128055,-1.000978,-19.62,-3.96,-39.12,96,358,5,-0.04924574,-0.02171847,0.0004208057,4.606759,-0.03078246,0.08116519,0.01987462,0.03856337,-0.7423315,0.6686268
634796819229520000,0.08993158,0.03128055,-1.000978,-19.26,-4.62,-39.06,98,0,5,-0.06835125,-0.03768983,0.01527569,4.606566,-0.03264642,0.08065689,0.01906632,0.0390837,-0.7423704,0.668577
634796819229720000,0.08602151,0.02737048,-0.9970675,-19.26,-4.62,-39.06,98,0,5,-0.016209,-0.03982042,0.006759331,4.606566,-0.03264642,0.08065689,0.01906632,0.0390837,-0.7423704,0.668577
634796819229920000,0.08602151,0.03128055,-0.9970675,-19.26,-4.62,-39.06,98,0,5,-0.02263043,-0.05364097,0.02168785,4.605936,-0.03316736,0.07981873,0.018593,0.0389914,-0.742588,0.668354
634796819230120000,0.08993158,0.03128055,-1.004888,-19.26,-4.62,-39.06,98,0,5,-0.04392728,-0.07596076,0.0334087,4.605926,-0.03379154,0.07888459,0.01803738,0.03891134,-0.7425981,0.6683626
634796819230320000,0.08602151,0.03128055,-1.012708,-19.26,-4.62,-39.06,98,0,5,-0.03325661,-0.07911874,0.03662415,4.605968,-0.03424144,0.07794546,0.01753701,0.03876546,-0.7425942,0.6683889
634796819230520000,0.08993158,0.02737048,-1.024438,-19.26,-4.62,-39.06,98,0,5,-0.04174679,-0.05143261,0.03023678,4.605792,-0.03482389,0.07749748,0.01717925,0.03883073,-0.7426507,0.6683316
634796819230720000,0.08602151,0.03128055,-1.028348,-18.96,-4.2,-38.64,97,359,5,-0.1013625,-0.002513787,0.03027296,4.605486,-0.03562832,0.07722878,0.01681655,0.03903715,-0.7427427,0.6682265
634796819230920000,0.07820137,0.03128055,-1.016618,-18.96,-4.2,-38.64,97,359,5,-0.04813522,-0.001483297,0.04943295,4.605237,-0.0371573,0.0774883,0.01640713,0.03968948,-0.7427905,0.6681451
634796819231120000,0.0742913,0.03128055,-0.9970675,-18.96,-4.2,-38.64,97,359,5,0.06250684,-0.01960833,0.03450432,4.605564,-0.03705239,0.07782352,0.01656035,0.03976506,-0.7426766,0.6682635
634796819231320000,0.0742913,0.03128055,-0.9892473,-18.96,-4.2,-38.64,97,359,5,0.06566492,-0.02495851,0.02171159,4.605493,-0.03545666,0.07768393,0.01704295,0.03912531,-0.7427347,0.6682245
634796819231520000,0.07820137,0.02737048,-0.9892473,-18.96,-4.2,-38.64,97,359,5,0.001835361,-0.0611296,0.01746607,4.605299,-0.03487873,0.07674778,0.01689176,0.03859671,-0.7428292,0.668154
634796819231720000,0.08602151,0.03910068,-0.9892473,-18.96,-4.2,-38.64,97,359,5,-0.05880238,-0.06004335,-0.003792463,4.604973,-0.03530574,0.07600105,0.01647772,0.03850352,-0.7429451,0.6680409
634796819231920000,0.08993158,0.04692082,-1.000978,-18.84,-3.78,-38.76,96,358,5,-0.0683274,-0.03448896,-0.02615407,4.604362,-0.03618932,0.07502639,0.0158318,0.03850187,-0.7431514,0.667827
634796819232120000,0.09384164,0.05083089,-1.000978,-18.84,-3.78,-38.76,97,359,5,-0.09277915,-0.01212629,-0.004899257,4.603269,-0.03936744,0.07515132,0.01483874,0.03971627,-0.7434519,0.6674442
634796819232320000,0.08602151,0.05083089,-0.9931574,-18.84,-3.78,-38.76,97,359,5,-0.1130112,-0.008929995,0.0536061,4.603783,-0.04126811,0.07577503,0.01442612,0.0406343,-0.7432292,0.667646
634796819232520000,0.08211143,0.03910068,-0.9814272,-18.84,-3.78,-38.76,97,359,5,-0.02785801,-0.03981818,0.02485041,4.603858,-0.04226208,0.07597089,0.01416571,0.04106946,-0.7431798,0.6676799
634796819232720000,0.0742913,0.03519062,-0.9853373,-18.84,-3.78,-38.76,98,0,5,-0.02673696,-0.0728016,0.002463159,4.603641,-0.0427227,0.07589936,0.01398981,0.04121523,-0.7432445,0.6676027
634796819232920000,0.07820137,0.04301075,-1.012708,-18.84,-3.78,-38.76,98,0,5,0.03289147,-0.1366419,0.001364134,4.603155,-0.04323196,0.07514285,0.01354827,0.04114912,-0.7434121,0.6674292
634796819233130000,0.07038123,0.05474096,-1.008798,-18.36,-3.42,-39,96,358,5,0.1222812,0.4678367,0.05561269,4.602945,-0.04193139,0.07294189,0.01316713,0.03993114,-0.7435545,0.6673521
634796819233320000,0.08602151,0.02346041,-0.969697,-18.36,-3.42,-39,96,358,5,-0.4800698,0.2177438,0.07471085,4.603778,-0.04861593,0.08363903,0.01489985,0.04598414,-0.7428961,0.6676592
634796819233520000,0.1173021,0.01173021,-0.9736071,-18.36,-3.42,-39,97,359,5,-1.086678,-0.2781889,0.07254632,4.604909,-0.06621861,0.07950413,0.00745524,0.05114855,-0.7421931,0.6681899
634796819233730000,0.09775171,0.03910068,-1.020528,-18.36,-3.42,-39,97,359,5,-0.6726945,-0.06853586,-0.05411084,4.604752,-0.07439232,0.0787195,0.00443684,0.05391971,-0.7420522,0.6681554
634796819233920000,0.1016618,0.03519062,-1.047898,-18.36,-3.42,-39,93,355,5,-0.01497472,0.02720726,-0.1594568,4.60343,-0.07640743,0.08106422,0.004672477,0.05544497,-0.7423739,0.6676714
634796819234120000,0.1016618,0.05474096,-1.075269,-18.36,-3.42,-39,93,355,5,0.3947491,0.1516778,-0.3307971,4.598236,-0.07090521,0.0826522,0.007240395,0.05391216,-0.744212,0.6657248
634796819234320000,0.09384164,0.08211143,-1.047898,-18.36,-3.42,-39,93,355,5,0.4979789,0.2016717,-0.0785496,4.592348,-0.06079793,0.08940326,0.01327742,0.05235203,-0.746255,0.6634654
634796819234520000,0.1055719,0.07820137,-0.9814272,-18.48,-2.46,-39.12,93,355,5,0.6086584,0.001579438,0.02575841,4.58939,-0.05167532,0.09480858,0.01840011,0.05070861,-0.7473272,0.6622629
634796819234720000,0.08993158,0.01955034,-0.9305963,-18.48,-2.46,-39.12,97,359,5,0.4298685,0.1462898,0.03852709,4.589436,-0.03488231,0.09671938,0.02467444,0.04506383,-0.7476659,0.6620847
634796819234920000,0.08211143,-0.04692082,-0.9188661,-18.48,-2.46,-39.12,97,359,5,-0.2054727,-0.1730062,0.02469791,4.59025,-0.03077388,0.09906912,0.02689611,0.04431528,-0.7474326,0.662312
634796819235130000,0.08211143,-0.05865103,-0.9462366,-18.48,-2.46,-39.12,91,353,5,-0.5715662,-0.2890067,-0.06358691,4.591749,-0.0369668,0.09469282,0.02317339,0.04520034,-0.7469012,0.6629921
634796819235320000,0.07038123,-0.02737048,-0.969697,-18.48,-2.46,-39.12,91,353,5,-0.6247774,-0.1134052,-0.1359304,4.593582,-0.04826975,0.09047771,0.01780529,0.048043,-0.7461322,0.6638235
634796819235520000,0.07038123,-0.003910068,-0.969697,-18.9,-2.76,-39.6,85,347,5,-0.3810699,0.007898803,-0.06782892,4.595318,-0.05562544,0.08854759,0.01376597,0.05107177,-0.7450137,0.6649488
634796819235720000,0.08211143,-0.003910068,-0.9579667,-18.9,-2.76,-39.6,88,350,5,-0.2097296,-0.007027699,-0.04227176,4.597726,-0.05952406,0.0874282,0.01282349,0.05125814,-0.7445534,0.6654685
634796819235920000,0.1016618,-0.01955034,-0.9579667,-18.9,-2.76,-39.6,88,350,5,-0.1245225,-0.1176809,-0.05499446,4.598721,-0.05984259,0.08467602,0.01166544,0.05046941,-0.7442861,0.6658491
634796819236120000,0.1055719,-0.02346041,-0.9736071,-18.9,-2.76,-39.6,90,352,5,-0.1298055,-0.2028189,-0.0730583,4.599647,-0.06008553,0.08131969,0.0103097,0.04945031,-0.7440566,0.6662043
634796819236320000,0.09775171,-0.02346041,-0.9853373,-18.84,-2.28,-39.78,87,349,5,-0.1573901,-0.1336443,-0.01868523,4.601206,-0.0601151,0.07919227,0.009468723,0.04876196,-0.7435898,0.6667885
634796819236520000,0.08602151,-0.02737048,-0.9931574,-18.84,-2.28,-39.78,87,349,5,-0.2318677,-0.09635206,0.01434619,4.603673,-0.0604229,0.07823837,0.008950729,0.04857036,-0.7427824,0.6677088
634796819236720000,0.08602151,-0.03910068,-1.000978,-18.84,-2.28,-39.78,87,349,5,-0.2542165,-0.1463513,0.01225946,4.605545,-0.0612607,0.07773721,0.008438947,0.0487225,-0.7421491,0.6684083
634796819236920000,0.09775171,-0.05083089,-1.000978,-18.84,-2.28,-39.78,87,349,5,-0.1978125,-0.1793422,0.008027673,4.611808,-0.06394339,0.07376253,0.005912673,0.04841192,-0.7400848,0.6707428
634796819237120000,0.09775171,-0.05474096,-1.016618,-18.84,-2.28,-39.78,86,348,5,-0.1285964,-0.1740211,-0.01322469,4.614904,-0.06344461,0.07136106,0.005115983,0.047432,-0.7391153,0.6718874
634796819237320000,0.08993158,-0.05865103,-1.020528,-18.84,-2.28,-39.78,84,346,5,-0.06365217,-0.0441881,-0.01317733,4.617795,-0.06125903,0.0714463,0.005814343,0.04666129,-0.7381928,0.672949
634796819237520000,0.08211143,-0.06256109,-1.004888,-18.84,-2.28,-39.78,84,346,5,-0.1359754,-0.03355351,0.0230175,4.621119,-0.05958056,0.07210027,0.006544088,0.04627224,-0.7370971,0.6741691
634796819237720000,0.07820137,-0.07820137,-0.9892473,-19.14,-2.16,-39.78,84,346,5,-0.2221586,-0.02715879,0.03788291,4.623623,-0.05945587,0.07253146,0.006687258,0.04637966,-0.7362453,0.6750905
634796819237920000,0.08211143,-0.08602151,-0.969697,-19.14,-2.16,-39.78,83,345,5,-0.2200301,0.000526174,0.0335728,4.631892,-0.05949831,0.07371068,0.006914365,0.04682142,-0.7334192,0.6781271
634796819238120000,0.08211143,-0.07820137,-0.9579667,-19.14,-2.16,-39.78,81,343,5,-0.009229605,-0.0387781,0.03773839,4.636485,-0.05640101,0.0738709,0.007918326,0.04575807,-0.7319278,0.6797979
634796819238320000,0.07820137,-0.0742913,-0.9540567,-19.14,-2.16,-39.78,81,343,5,0.007818644,0.004881728,0.07174273,4.641244,-0.05189752,0.074314,0.009506203,0.04428283,-0.7303994,0.681517
634796819238520000,0.07038123,-0.08602151,-0.9501466,-19.14,-2.16,-39.78,81,343,5,-0.08687866,0.08042809,0.109985,4.646411,-0.04805541,0.07558917,0.01117002,0.04334223,-0.7286924,0.683377
634796819238720000,0.0742913,-0.1016618,-0.9345064,-19.14,-1.98,-40.2,81,343,5,-0.1261819,0.06444363,0.07803559,4.650064,-0.04657292,0.07707273,0.01213881,0.04333035,-0.7274424,0.6846917
634796819238920000,0.08993158,-0.1016618,-0.9188661,-19.14,-1.98,-40.2,81,343,5,-0.08994364,-0.03770601,0.02486084,4.655032,-0.04480648,0.07835924,0.0138693,0.04228616,-0.7243274,0.6880184
634796819239120000,0.08993158,-0.08993158,-0.9188661,-19.14,-1.98,-40.2,78,340,5,0.006935018,-0.07488184,0.03862734,4.663437,-0.0415473,0.07720554,0.01362953,0.04163975,-0.7229518,0.6895078
634796819239320000,0.08602151,-0.08993158,-0.9345064,-19.14,-1.98,-40.2,78,340,5,0.006935018,-0.07488184,0.03862734,4.667687,-0.04145336,0.07647049,0.01330792,0.04138116,-0.7215027,0.6910459
634796819239520000,0.08993158,-0.08993158,-0.9501466,-19.14,-1.98,-40.2,78,340,5,-0.04630433,-0.04400495,0.03750543,4.671799,-0.04229068,0.07632101,0.01287901,0.04165818,-0.720066,0.6925343
634796819239720000,0.1016618,-0.08993158,-0.9892473,-19.14,-1.98,-40.2,78,340,5,-0.1324996,-0.09932115,0.02896524,4.674411,-0.04370594,0.07576763,0.01213457,0.04199233,-0.7191429,0.693486
634796819239920000,0.1212121,-0.07038123,-1.079179,-18.84,-0.78,-40.8,77,339,5,-0.06321178,-0.3047166,-0.05186925,4.677673,-0.04661798,0.07226431,0.009794857,0.04184276,-0.7180238,0.6946907
634796819240120000,0.1251222,-0.03910068,-1.16911,-18.84,-0.78,-40.8,77,339,5,-0.01852859,-0.1450828,0.04706133,4.680853,-0.04455233,0.06845533,0.009079343,0.03979477,-0.7170389,0.6958371
634796819240320000,0.113392,-0.01955034,-1.192571,-18.84,-0.78,-40.8,79,341,5,0.03039107,-0.04396292,0.2024152,4.690223,-0.04342222,0.066118,0.008452537,0.03861761,-0.7138396,0.6991926
634796819240530000,0.09384164,-0.01955034,-1.184751,-18.84,-0.78,-40.8,79,341,5,0.1867942,-0.05459049,0.2428558,4.69644,-0.04107141,0.06611311,0.009155101,0.03780548,-0.7117073,0.7013984
634796819240720000,0.07038123,-0.02346041,-1.184751,-18.84,-0.78,-40.8,82,344,5,0.323015,-0.09286151,0.2034794,4.700205,-0.03782082,0.06561946,0.01005051,0.03649483,-0.7104553,0.7027236
634796819240920000,0.05083089,-0.003910068,-1.204301,-18.54,0.06,-40.08,81,343,5,0.3496206,-0.09387689,0.1129417,4.705607,-0.03080678,0.06442463,0.0119992,0.03361618,-0.7086986,0.7046078
634796819241120000,0.03910068,0.04692082,-1.255132,-18.54,0.06,-40.08,81,343,5,-0.133574,-0.03954661,-0.2052492,4.708992,-0.02571177,0.0596714,0.01205718,0.03015791,-0.7076622,0.705804
634796819241320000,0.05083089,0.1055719,-1.325513,-18.54,0.06,-40.08,81,343,5,-0.133574,-0.03954661,-0.2052492,4.705866,-0.0294292,0.06017661,0.01097362,0.03163422,-0.7086994,0.7047155
634796819241520000,0.08211143,0.1485826,-1.360704,-18.54,0.06,-40.08,83,345,5,-0.242125,0.1477229,-0.2254695,4.703303,-0.03247309,0.06178403,0.0105138,0.03326518,-0.7095264,0.7038148
634796819241720000,0.1055719,0.1681329,-1.309873,-18.54,0.06,-40.08,83,345,5,-0.02389644,0.3903255,-0.004034467,4.700528,-0.03555155,0.06668293,0.01122029,0.03606369,-0.7103636,0.7028208
634796819241920000,0.113392,0.1524927,-1.196481,-18.54,0.06,-40.08,95,357,5,0.1026837,0.4690782,-0.07529157,4.698676,-0.03577805,0.07392192,0.01375054,0.03867203,-0.7108743,0.7021205
634796819242120000,0.1094819,0.1212121,-1.094819,-18.42,0.78,-39.66,98,0,5,0.003672103,0.2785819,-0.2274619,4.695546,-0.03418303,0.0823406,0.01737078,0.04102916,-0.711835,0.700932
634796819242320000,0.08993158,0.1173021,-1.047898,-18.42,0.78,-39.66,98,0,5,-0.1729622,0.07845148,-0.3019577,4.686596,-0.03658271,0.08883952,0.01904343,0.04407249,-0.7147741,0.6977056
634796819242520000,0.06647116,0.1407625,-1.047898,-18.42,0.78,-39.66,96,358,5,-0.31344,-0.1109693,-0.3445267,4.679293,-0.04297685,0.08703756,0.01633454,0.04567061,-0.7172143,0.6951626
634796819242720000,0.04301075,0.172043,-1.043988,-18.42,0.78,-39.66,93,355,5,-0.3027977,0.03377298,-0.256196,4.673469,-0.04910206,0.08615875,0.01402816,0.0475215,-0.7191136,0.6931237
634796819242920000,0.04301075,0.1603128,-0.9540567,-17.82,1.5,-38.88,98,0,5,-0.2112744,0.3040793,-0.2093701,4.668141,-0.05382681,0.08965445,0.01378439,0.0503922,-0.7207553,0.6912181
634796819243120000,0.07038123,0.1173021,-0.8406647,-17.82,1.5,-38.88,98,0,5,-0.1910541,0.3924099,-0.2742878,4.664102,-0.05637598,0.09351145,0.01440292,0.05261121,-0.7219838,0.6897565
634796819243320000,0.1016618,0.07820137,-0.7663734,-17.82,1.5,-38.88,97,359,5,-0.2985408,0.2774736,-0.3530405,4.656322,-0.06444979,0.097924,0.01343709,0.05699052,-0.7243183,0.6869749
634796819243520000,0.1173021,0.07038123,-0.7350929,-17.82,1.5,-38.88,92,354,5,-0.3389814,0.002902151,-0.4254078,4.642325,-0.07731032,0.09928299,0.009947523,0.0620437,-0.7286847,0.6819606
634796819243720000,0.113392,0.08602151,-0.7272727,-17.82,1.5,-38.88,87,349,5,-0.179326,-0.17906,-0.2955724,4.639146,-0.07989049,0.0961815,0.00803208,0.06191795,-0.7297848,0.6808199
634796819243940000,0.09775171,0.08993158,-0.7194526,-17.82,1.5,-38.88,87,349,5,0.01333697,-0.2280144,-0.1657228,4.638122,-0.07956123,0.09378517,0.007297835,0.06098158,-0.7302175,0.6804487
634796819244120000,0.09384164,0.06647116,-0.7194526,-17.82,1.5,-38.88,87,349,5,0.2698205,-0.2705834,0.0002925662,4.638432,-0.07511257,0.08955085,0.007251014,0.0579231,-0.7303711,0.6805515
634796819244320000,0.09384164,0.03519062,-0.7390029,-17.04,1.74,-37.32,88,350,5,0.1644601,-0.3780701,-0.0358499,4.639222,-0.07035374,0.08531749,0.00729785,0.05475231,-0.730356,0.6808297
634796819244520000,0.08211143,0.02346041,-0.7898338,-17.04,1.74,-37.32,86,348,5,0.1122981,-0.5057772,-0.0783757,4.640294,-0.0675218,0.07906866,0.005945952,0.0516004,-0.7302336,0.6812202
634796819244720000,0.05865103,0.03128055,-0.856305,-17.04,1.74,-37.32,86,348,5,0.1675854,-0.2588769,-0.03368665,4.643326,-0.06375933,0.06710397,0.002777996,0.04616583,-0.7295855,0.6823239
634796819244920000,0.04692082,0.05083089,-0.8797654,-17.04,1.74,-37.32,83,345,5,0.1952553,-0.04708313,0.03650602,4.646555,-0.06024575,0.06549525,0.003317034,0.04434176,-0.7285988,0.6834959
634796819245120000,0.04692082,0.03910068,-0.8914956,-17.04,1.74,-37.32,82,344,5,0.2463381,0.02206767,0.05667234,4.650044,-0.05601,0.06612122,0.004918032,0.0430207,-0.7274841,0.6847568
634796819245320000,0.04692082,0.01173021,-0.9227762,-17.46,1.44,-36.6,85,347,5,0.3208339,-0.1301163,0.01617293,4.652778,-0.05073977,0.06475866,0.006170394,0.04064637,-0.7266866,0.6857379
634796819245520000,0.05865103,0.003910068,-0.9814272,-17.46,1.44,-36.6,85,347,5,0.3612745,-0.2205755,0.02676857,4.655485,-0.04444074,0.06118595,0.006979714,0.03714383,-0.7259502,0.686708
634796819245720000,0.06647116,0.01564027,-1.051808,-17.46,1.44,-36.6,84,346,5,0.4517336,-0.3025208,0.1097272,4.658434,-0.03947973,0.05785739,0.007422969,0.02875414,-0.7233354,0.6898403
634796819245920000,0.05474096,0.01564027,-1.13392,-17.46,1.44,-36.6,81,343,5,0.5272936,-0.2152543,0.1277608,4.668928,-0.02002978,0.0500257,0.01114038,0.02452698,-0.7218692,0.691505
634796819246120000,0.06647116,0.02737048,-1.208211,-17.46,1.44,-36.6,81,343,5,0.1484279,-0.084349,-0.07232399,4.671303,-0.01477647,0.04932523,0.01267714,0.02240379,-0.7211172,0.6923347
634796819246320000,0.1212121,0.07820137,-1.251222,-17.46,1.44,-36.6,81,343,5,0.2016122,-0.1801228,-0.05311877,4.672647,-0.01224351,0.04697084,0.01269083,0.0206843,-0.7207053,0.6928167
634796819246520000,0.1642229,0.1681329,-1.286412,-17.46,1.44,-36.6,80,342,5,0.3495395,-0.1290334,0.0990881,4.673769,-0.009549617,0.04492974,0.01287764,0.01901391,-0.720364,0.6932159
634796819246720000,0.1603128,0.230694,-1.348974,-17.46,1.44,-36.6,80,342,5,0.2356675,-0.1918162,0.2704186,4.676842,-0.003240824,0.04301524,0.01434984,0.01610003,-0.7193707,0.6942915
634796819246920000,0.1407625,0.1994135,-1.419355,-17.16,0.9,-35.88,88,350,5,0.02065203,-0.3844409,0.3970614,4.687373,0.001808643,0.03536284,0.01328871,0.01169731,-0.7157948,0.6980863
634796819247120000,0.113392,0.1759531,-1.450635,-17.16,0.9,-35.88,88,350,5,0.03663073,-0.1513756,0.3353363,4.692474,0.002604961,0.03338683,0.0128321,0.01075535,-0.7140278,0.6999171
634796819247340000,0.1094819,0.1876833,-1.364614,-17.16,0.9,-35.88,101,3,5,0.08658855,0.1880751,0.3630062,4.69618,0.003716946,0.03553307,0.01396678,0.01113539,-0.7127237,0.7012175
634796819247520000,0.1290323,0.1759531,-1.188661,-18.6,0.12,-34.8,98,0,5,0.09396768,0.5020215,0.4300523,4.70333,0.005872011,0.0443126,0.01780249,0.01350947,-0.7101707,0.7036747
634796819247720000,0.1368524,0.1407625,-1.028348,-18.6,0.12,-34.8,99,1,5,0.06843287,0.2806627,0.433245,4.70991,0.007740974,0.05223763,0.02122191,0.01570438,-0.7078072,0.7059121
634796819247920000,0.1446725,0.1055719,-0.9618768,-18.6,0.12,-34.8,99,1,5,0.05669723,-0.03757492,0.3566208,4.715424,0.009189128,0.05435872,0.02243957,0.01600256,-0.7058533,0.7078216
634796819248120000,0.1603128,0.09384164,-0.9931574,-18.6,0.12,-34.8,99,1,5,-0.235923,-0.3664205,-0.01804967,4.717567,0.006188631,0.05180681,0.0204598,0.01618011,-0.7050904,0.7086375
634796819248320000,0.1485826,0.1212121,-1.028348,-18.6,0.12,-34.8,94,356,5,-0.4540891,-0.1780526,-0.02976637,4.716376,-0.005243778,0.04781675,0.01501326,0.01878753,-0.7054472,0.7083544
634796819248520000,0.1212121,0.1485826,-0.9618768,-18.6,0.12,-34.8,90,352,5,-0.5083646,0.02413471,0.1351615,4.716224,-0.01658511,0.05043483,0.01192165,0.02371359,-0.7053525,0.7083596
634796819248720000,0.1094819,0.1368524,-0.7937439,-18.6,0.12,-34.8,90,352,5,-0.2433725,0.01026797,0.3203367,4.718511,-0.0268414,0.05456758,0.009714245,0.02880437,-0.7043537,0.709198
634796819248920000,0.113392,0.06647116,-0.6334311,-19.5,-0.6,-34.62,94,356,5,0.04294201,-0.1929973,0.3884471,4.722856,-0.03222561,0.05660593,0.008455073,0.03144107,-0.7026994,0.7107416
634796819249120000,0.1094819,-0.01173021,-0.5865102,-19.5,-0.6,-34.62,95,357,5,0.2664293,-0.2887776,0.2586116,4.725932,-0.03049063,0.05486941,0.008414526,0.03022785,-0.7005177,0.7130638
634796819249320000,0.1055719,-0.02737048,-0.6373411,-19.5,-0.6,-34.62,89,351,5,0.08976611,-0.3004841,0.07659953,4.731291,-0.02361679,0.04755878,0.008226467,0.0252379,-0.6999452,0.7137032
634796819249520000,0.1173021,0.007820137,-0.6999022,-19.5,-0.6,-34.62,84,346,5,-0.1262792,-0.3366677,0.09143835,4.734077,-0.0256989,0.0433265,0.005967269,0.02446545,-0.6989767,0.7147009
634796819249720000,0.1290323,0.04692082,-0.7468231,-19.5,-0.6,-34.62,84,346,5,-0.1166677,-0.3058052,0.1371119,4.73758,-0.02750182,0.03956079,0.003964518,0.02375762,-0.6977471,0.7159392
634796819249920000,0.1212121,0.06647116,-0.7702835,-20.34,-1.2,-34.14,86,348,5,0.237722,-0.1355292,0.2062536,4.740014,-0.02510095,0.038679,0.004488662,0.02260999,-0.6969137,0.7167845
634796819250120000,0.1094819,0.05865103,-0.7820137,-20.34,-1.2,-34.14,89,351,5,0.3611722,0.09638102,0.2254096,4.743184,-0.01738334,0.04118561,0.008095367,0.02083142,-0.6958335,0.7178553
634796819250320000,0.08993158,0.03910068,-0.8054741,-20.34,-1.2,-34.14,90,352,5,0.2600708,-0.06964672,0.1348852,4.745934,-0.0100441,0.04500711,0.01203256,0.01966566,-0.6948818,0.7187544
634796819250520000,0.06256109,0.03519062,-0.8602151,-20.34,-1.2,-34.14,90,352,5,0.3505299,-0.03557077,0.03480741,4.748455,0.0007960796,0.04563212,0.01612485,0.016144,-0.6940671,0.7195487
634796819250740000,0.04301075,0.07038123,-0.9501466,-20.34,-1.2,-34.14,90,352,5,0.3718144,0.07828983,-0.01730674,4.74814,0.005391836,0.04634249,0.01802707,0.01480184,-0.6942107,0.7193938
634796819250920000,0.04692082,0.09775171,-1.008798,-20.34,-1.2,-34.14,89,351,5,0.1706758,0.008027238,-0.001293448,4.747143,0.01097035,0.04790235,0.02058159,0.01341638,-0.6945981,0.7189783
634796819251120000,0.05865103,0.1290323,-1.102639,-21.54,-1.08,-33.96,92,354,5,0.02059669,-0.02072004,0.05404456,4.746119,0.01106143,0.04760349,0.02051736,0.01326677,-0.6949683,0.7186252
634796819251320000,0.07820137,0.1368524,-1.204301,-21.54,-1.08,-33.96,92,354,5,0.06099265,0.1590839,0.06676811,4.745831,0.009254216,0.04822099,0.02008459,0.01411374,-0.6950555,0.7185369
634796819251520000,0.09384164,0.1055719,-1.251222,-21.54,-1.08,-33.96,94,356,5,0.2025246,0.2931763,0.07417363,4.745341,0.0115087,0.05623602,0.02368305,0.01620454,-0.695191,0.7182521
634796819251720000,0.0742913,0.1055719,-1.278592,-21.54,-1.08,-33.96,97,359,5,0.1865612,0.08350729,0.1986614,4.747386,0.01523066,0.05845999,0.02577629,0.01573613,-0.6944689,0.7188886
634796819251920000,0.01173021,0.1407625,-1.305963,-21.54,-1.08,-33.96,97,359,5,-0.01990442,-0.1059393,0.3540382,4.752021,0.01659131,0.05700492,0.02572612,0.01480005,-0.692822,0.7204976
634796819252120000,-0.01564027,0.1368524,-1.325513,-21.54,-1.08,-33.96,97,359,5,-0.1752723,0.1015579,0.2731571,4.756042,0.01463842,0.05712736,0.02503374,0.01557101,-0.691356,0.7219126
634796819252320000,0.01564027,0.1094819,-1.321603,-22.38,-1.8,-33.96,97,359,5,-0.3923742,0.4144401,-0.009963903,4.755297,0.008807659,0.062999,0.02496525,0.01969726,-0.6915254,0.7216519
634796819252520000,0.04301075,0.1407625,-1.282502,-22.38,-1.8,-33.96,101,3,5,-0.5573291,0.2462926,-0.1621506,4.752738,0.002808332,0.0673635,0.02433896,0.02331549,-0.6923391,0.7192175
634796819252720000,0.03128055,0.1994135,-1.227762,-22.38,-1.8,-33.96,98,0,5,-0.4136587,-0.009152448,-0.1344427,4.743866,-0.01236987,0.06686889,0.01882277,0.02830755,-0.6953402,0.7178764
634796819252920000,0.01173021,0.2189638,-1.200391,-22.38,-1.8,-33.96,104,6,5,0.006689606,-0.4316498,-0.2982608,4.737898,-0.01297331,0.05991089,0.01626348,0.02597231,-0.6975638,0.7158671
634796819253120000,0.01564027,0.2111437,-1.188661,-22.38,-1.8,-33.96,104,6,5,-0.2327767,-0.2368966,-0.4110687,4.729135,-0.01433372,0.05304587,0.01348604,0.02393156,-0.7007616,0.7128665
634796819253320000,0.04301075,0.2228739,-1.11828,-23.28,-1.74,-33.6,105,7,5,-0.5552369,0.08023725,-0.3397656,4.722273,-0.01853943,0.05100131,0.01135487,0.02463782,-0.7031764,0.7104977
634796819253520000,0.07038123,0.2228739,-0.9853373,-23.28,-1.74,-33.6,104,6,5,-0.5392736,0.2015132,-0.1683945,4.713144,-0.02929473,0.05221998,0.008094267,0.02881485,-0.7062526,0.707327
634796819253720000,0.08993158,0.1876833,-0.8523949,-23.28,-1.74,-33.6,104,6,5,-0.3445203,-0.06990492,-0.1374419,4.706912,-0.03971481,0.05630028,0.005956749,0.03391721,-0.708226,0.7051454
634796819253920000,0.1016618,0.1290323,-0.7859238,-23.28,-1.74,-33.6,104,6,5,-0.1604096,-0.2572016,-0.1288568,4.696703,-0.05582857,0.05528569,0.0001159845,0.03926497,-0.7115396,0.7015481
634796819254140000,0.1212121,0.07038123,-0.7624633,-23.28,-1.74,-33.6,99,1,5,0.1035079,-0.3859729,-0.1107309,4.6953,-0.05603599,0.05336856,-0.0006126877,0.0386677,-0.7120652,0.7010475
634796819254320000,0.1251222,0.05474096,-0.7585533,-23.46,-1.38,-33.24,94,356,5,0.2514352,-0.1709994,-0.06494944,4.691097,-0.05202866,0.04652989,-0.001573206,0.03485036,-0.7137361,0.6995454
634796819254520000,0.1173021,0.03910068,-0.7350929,-23.46,-1.38,-33.24,94,356,5,0.2046093,-0.01350204,-0.01385439,4.689918,-0.0476818,0.04595542,-0.0002385687,0.03309846,-0.7142318,0.6991261
634796819254720000,0.1212121,0.01955034,-0.7038123,-23.46,-1.38,-33.24,94,356,5,0.1205242,-0.01883157,0.03826785,4.689862,-0.0447216,0.04718995,0.001238505,0.03247231,-0.7142797,0.6991056
634796819254920000,0.1212121,0.01564027,-0.6920821,-23.46,-1.38,-33.24,89,351,5,0.08321292,-0.1071384,0.06482984,4.690767,-0.04285002,0.04778301,0.002090293,0.03201186,-0.713984,0.6994268
634796819255120000,0.1016618,0.01564027,-0.7077224,-23.46,-1.38,-33.24,87,349,5,0.1715013,-0.09645392,0.07757648,4.693511,-0.03842973,0.04707574,0.003341976,0.03019132,-0.7131033,0.7004006
634796819255330000,0.07820137,0.01955034,-0.7585533,-23.46,-1.38,-33.24,86,348,5,0.2917587,-0.0283318,0.05626421,4.694804,-0.03308344,0.04808784,0.00555684,0.02864278,-0.7127141,0.7008476
634796819255520000,0.07038123,0.02737048,-0.8132942,-23.46,-1.38,-33.24,86,348,5,0.34497,0.04508708,0.001954567,4.695254,-0.02695131,0.04980946,0.008313523,0.02706218,-0.7126178,0.700981
634796819255720000,0.05865103,0.03128055,-0.8797654,-23.46,-1.38,-33.24,86,348,5,0.2608962,-0.02941879,0.06044577,4.696075,-0.02366471,0.05017483,0.009585054,0.02602297,-0.7123685,0.7012574
634796819255920000,0.04301075,0.03128055,-0.9736071,-23.88,-1.08,-31.92,86,348,5,0.3790252,-0.3369747,0.09652567,4.698492,-0.0186913,0.04719913,0.01024028,0.02322097,-0.7108827,0.702977
634796819256120000,0.01955034,0.02346041,-1.083089,-23.88,-1.08,-31.92,88,350,5,0.5258883,-0.08475084,0.03371264,4.70232,-0.004102707,0.03818822,0.01212559,0.01489011,-0.7104992,0.703436
634796819256320000,0.01564027,0.03128055,-1.13001,-23.88,-1.08,-31.92,88,350,5,0.5439801,0.195086,-0.006728446,4.702834,0.005658149,0.04018152,0.01626349,0.0121277,-0.7103708,0.7035352
634796819256520000,0.03519062,0.06256109,-1.14956,-23.88,-1.08,-31.92,88,350,5,0.4056308,0.004552653,0.04541475,4.703351,0.01148605,0.04178262,0.01887933,0.0106258,-0.7102126,0.7036538
634796819256720000,0.03519062,0.08211143,-1.247312,-23.58,-1.08,-30.72,88,350,5,0.2534466,-0.320036,0.08797228,4.705007,0.01770329,0.03844166,0.01987453,0.007258731,-0.709673,0.7042134
634796819256920000,0.01564027,0.08211143,-1.364614,-23.58,-1.08,-30.72,89,351,5,0.3375204,0.01093598,0.0709302,4.706381,0.02245951,0.03316379,0.01967457,0.003725399,-0.7092168,0.704706
634796819257120000,0.02346041,0.09775171,-1.356794,-23.58,-1.08,-30.72,92,354,5,0.3417773,0.4887534,0.08367152,4.709658,0.03315472,0.04550732,0.02780995,0.004329341,-0.7080572,0.7055939
634796819257320000,0.05474096,0.1055719,-1.302053,-23.58,-1.08,-30.72,92,354,5,0.07463601,0.4057438,0.1081073,4.710845,0.03380799,0.0490899,0.02930457,0.005380326,-0.7076314,0.7059534
634796819257530000,0.08602151,0.1094819,-1.345064,-23.58,-1.08,-30.72,94,356,5,-0.01047613,-0.3626322,-0.06112365,4.709334,0.0337429,0.04284179,0.02707501,0.003175619,-0.7081779,0.7055076
634796819257720000,0.08602151,0.1524927,-1.427175,-23.76,-1.8,-29.28,96,358,5,0.3140846,-0.1018877,-0.1643315,4.704772,0.03657007,0.03286839,0.02454012,-0.001402257,-0.7097918,0.7039825
634796819257920000,0.07038123,0.226784,-1.368524,-23.76,-1.8,-29.28,98,0,5,0.1182372,0.5419573,0.1314918,4.701266,0.041929,0.03163981,0.02598402,-0.003782351,-0.7110162,0.7026852
634796819258120000,0.1016618,0.2346041,-1.180841,-23.76,-1.8,-29.28,98,0,5,-0.1712213,0.3982869,0.2762264,4.702155,0.04386783,0.03778565,0.02884942,-0.00229798,-0.7107094,0.7028902
634796819258320000,0.1446725,0.1681329,-1.024438,-23.76,-1.8,-29.28,103,5,5,-0.2680658,-0.01784173,0.2294005,4.708858,0.03835082,0.05009496,0.03126741,0.004096927,-0.7083403,0.7051663
634796819258520000,0.1524927,0.1212121,-0.9892473,-23.76,-1.8,-29.28,96,358,5,-0.3063779,-0.4169262,-0.00687499,4.708036,0.03021312,0.04628336,0.02705131,0.00562272,-0.7086201,0.705049
634796819258720000,0.1446725,0.1407625,-1.004888,-23.76,-1.8,-29.28,96,358,5,-0.3329835,-0.5339909,-0.09623404,4.705175,0.02055311,0.04102731,0.02179449,0.007160034,-0.7096143,0.7042168
634796819258920000,0.1290323,0.1876833,-0.9814272,-23.76,-1.8,-29.28,96,358,5,-0.3106348,-0.6095509,0.03361931,4.703851,0.01456904,0.03645909,0.01807211,0.007662008,-0.7100756,0.7038518
634796819259120000,0.1016618,0.1994135,-0.9188661,-23.52,-1.98,-28.2,95,357,5,-0.1925058,-0.373293,0.3209601,4.705517,0.006328821,0.03014684,0.01292421,0.008376432,-0.7094817,0.7045556
634796819259320000,0.06647116,0.1329423,-0.8289345,-23.52,-1.98,-28.2,97,359,5,-0.1701147,0.06515698,0.4518598,4.710772,-0.0007269382,0.02969086,0.01024865,0.01074558,-0.7075966,0.7084633
634796819259520000,0.05474096,0.05083089,-0.7468231,-23.52,-1.98,-28.2,97,359,5,-0.2467389,0.208752,0.334795,4.71914,-0.009484053,0.0374589,0.009834209,0.01662859,-0.7045214,0.7094198
634796819259720000,0.08211143,0.03128055,-0.7077224,-23.52,-1.98,-28.2,98,0,5,-0.4159507,0.08309758,0.1581199,4.720241,-0.01448011,0.03838551,0.008378161,0.01872169,-0.7040784,0.7098259
634796819259920000,0.09775171,0.06256109,-0.7116324,-23.52,-1.98,-28.2,95,357,5,0.1320936,-0.07441413,0.2836688,4.723706,-0.01965642,0.03549469,0.005489203,0.01952778,-0.7028257,0.7110729
634796819260120000,0.08602151,0.0742913,-0.7194526,-22.92,-2.34,-27.84,89,351,5,0.3577094,0.2171824,0.2921826,4.728251,-0.01711917,0.03527653,0.006272386,0.01857287,-0.7012342,0.7126615
634796819260320000,0.08602151,0.05083089,-0.7077224,-22.92,-2.34,-27.84,90,352,5,0.3385533,0.3704308,0.2857972,4.732438,-0.01064253,0.04067409,0.01043499,0.01824667,-0.699751,0.7140776
634796819260520000,0.09775171,0.02346041,-0.6803519,-22.92,-2.34,-27.84,90,352,5,0.2097821,0.1682198,0.2176868,4.738837,-0.00113678,0.05183959,0.017675,0.01896316,-0.6974494,0.7161649
634796819260720000,0.09384164,0.01564027,-0.6959922,-22.92,-2.34,-27.84,91,353,5,0.3034339,-0.1967892,0.09208784,4.740706,0.003690719,0.05122733,0.01917411,0.01707836,-0.6968287,0.7167778
634796819260930000,0.08211143,0.03128055,-0.7859238,-22.92,-2.34,-27.84,88,350,5,0.3864434,-0.2425509,-0.02071503,4.740342,0.01030254,0.04782366,0.02036048,0.01355079,-0.6970352,0.7166197
634796819261120000,0.07038123,0.05865103,-0.8914956,-22.92,-2.34,-27.84,88,350,5,0.3140761,0.05968931,-0.06113227,4.739419,0.01476717,0.04747438,0.02184386,0.01185951,-0.6973959,0.7162549
634796819261320000,0.07038123,0.07820137,-0.9540567,-22.92,-2.34,-27.84,88,350,5,0.08207367,0.1128221,-0.04408392,4.737506,0.01893306,0.05088913,0.024537,0.01160681,-0.6980862,0.7154991
634796819261520000,0.06647116,0.08602151,-1.024438,-22.08,-1.5,-27.72,88,350,5,0.1693489,-0.2703045,0.02721182,4.736598,0.02031803,0.05104363,0.02509146,0.01116729,-0.6984177,0.7151633
634796819261720000,0.06256109,0.08993158,-1.13001,-22.08,-1.5,-27.72,92,354,5,0.5322496,-0.4150391,0.03784503,4.735979,0.03158116,0.04134309,0.02573441,0.003755135,-0.6987145,0.7149278
634796819261920000,0.06256109,0.07820137,-1.235582,-22.08,-1.5,-27.72,93,355,5,0.7759572,-0.05532289,-0.03663881,4.734459,0.04421949,0.04182708,0.03042016,-0.0005101946,-0.6992673,0.7142125
634796819262130000,0.06256109,0.05474096,-1.259042,-22.08,-1.5,-27.72,93,355,5,0.2991844,0.4225142,0.01764401,4.734491,0.04964637,0.04934322,0.03498289,0.00027943,-0.6992591,0.7140118
634796819262320000,0.05865103,0.0742913,-1.223851,-22.08,-1.08,-27.84,92,354,5,-0.146728,0.3214128,0.08574005,4.735781,0.04732227,0.05531835,0.03623744,0.003251073,-0.6987936,0.7143975
634796819262520000,0.04692082,0.1251222,-1.231672,-22.08,-1.08,-27.84,92,354,5,-0.1403201,0.02768465,0.01762986,4.736136,0.04550862,0.0561769,0.03588844,0.00419823,-0.698662,0.7145389
634796819262720000,0.07038123,0.1407625,-1.341154,-22.08,-1.08,-27.84,92,354,5,-0.09125987,-0.1127584,-0.4516562,4.732343,0.04396796,0.05307043,0.03426095,0.003560197,-0.7000181,0.7104025
634796819262920000,0.09775171,0.1759531,-1.434995,-22.08,-1.08,-27.84,92,354,5,-0.1082379,0.3576243,-0.2781875,4.716741,0.03976321,0.05332243,0.03288838,0.004865459,-0.7055519,0.707878
634796819263120000,0.07038123,0.2385142,-1.364614,-22.08,-1.08,-27.84,96,358,5,0.04607445,0.550249,0.01451838,4.716741,0.03976321,0.05332243,0.03288838,0.007182423,-0.7061576,0.7071638
634796819263320000,0.03519062,0.2346041,-1.184751,-21.48,-1.14,-27.48,98,0,5,0.2227194,0.4246704,0.1006999,4.716271,0.04212523,0.06994414,0.0395826,0.009912053,-0.7056665,0.7073681
634796819263520000,0.03519062,0.1681329,-1.059628,-21.48,-1.14,-27.48,98,0,5,-0.0156653,-0.08724241,-0.2025769,4.714419,0.04489112,0.07406271,0.04202127,0.01035599,-0.7063149,0.7065737
634796819263720000,0.05083089,0.1290323,-1.043988,-21.48,-1.14,-27.48,102,4,5,-0.4285891,-0.4309871,-0.4324496,4.707585,0.04220891,0.07075214,0.03994064,0.00999528,-0.7087284,0.704279
634796819263920000,0.06256109,0.1564027,-1.055718,-21.48,-1.14,-27.48,102,4,5,-0.4977638,-0.4937764,-0.3856237,4.692255,0.02605915,0.05597913,0.02910179,0.01028549,-0.7141042,0.6993586
634796819264120000,0.04301075,0.1642229,-1.028348,-21.48,-1.14,-27.48,95,357,5,-0.3147171,-0.3745832,-0.231311,4.687206,0.02042007,0.05039274,0.02516232,0.01028056,-0.7158691,0.6977053
634796819264340000,0.02737048,0.1173021,-0.9501466,-21.48,-1.14,-27.48,96,358,5,-0.1635848,0.05003838,-0.1471685,4.683395,0.01488233,0.05135095,0.02359716,0.01255215,-0.71716,0.6963959
634796819264520000,0.05083089,0.05083089,-0.8523949,-21.12,-1.08,-27.54,97,359,5,-0.2008184,0.2767011,-0.2407694,4.680129,0.0102098,0.05433607,0.02306507,0.0152297,-0.7182419,0.6952443
634796819264720000,0.08211143,0.03128055,-0.7820137,-21.12,-1.08,-27.54,97,359,5,-0.2529655,0.03191197,-0.3280359,4.673397,0.002397299,0.05641913,0.02116007,0.01868835,-0.7204934,0.6928869
634796819264920000,0.1055719,0.04301075,-0.7663734,-21.12,-1.08,-27.54,94,356,5,-0.2550939,-0.1947382,-0.3461277,4.667494,-0.002660275,0.05421066,0.01867046,0.01969011,-0.722509,0.6908289
634796819265120000,0.1094819,0.06647116,-0.7585533,-21.12,-1.08,-27.54,87,349,5,0.1226749,-0.007392956,-0.1556059,4.66001,-0.005058527,0.05011093,0.01643232,0.01907913,-0.7251073,0.6881755
634796819265320000,0.1055719,0.07820137,-0.7468231,-21.12,-1.08,-27.54,88,350,5,0.1949853,0.03941039,-0.04806306,4.658011,-0.002419472,0.05153942,0.01787687,0.01859594,-0.7258056,0.6874161
634796819265530000,0.1016618,0.05083089,-0.7507331,-21.12,-1.08,-27.54,88,350,5,0.3099216,0.01278082,-0.02993686,4.657532,0.001617908,0.05291438,0.01976779,0.0175985,-0.7259938,0.6871918
634796819265720000,0.08993158,0.02346041,-0.7624633,-20.94,-1.56,-28.08,90,352,5,0.3833531,0.1351456,-0.07352868,4.656641,0.007949114,0.05514979,0.02276156,0.01605824,-0.726333,0.6867784
634796819265920000,0.08211143,0.02737048,-0.7741935,-20.94,-1.56,-28.08,91,353,5,0.2535177,0.05528842,-0.01389802,4.655887,0.01237869,0.05727708,0.02506058,0.01517079,-0.726608,0.6864274
634796819266120000,0.06647116,0.03128055,-0.7898338,-20.94,-1.56,-28.08,88,350,5,0.207756,-0.002214115,0.1084828,4.656203,0.01765394,0.05927122,0.02759298,0.01394331,-0.7265222,0.6864471
634796819266320000,0.04301075,0.02346041,-0.8211144,-20.94,-1.56,-28.08,88,350,5,0.3546191,-0.04267234,0.1308129,4.661398,0.02807927,0.05930662,0.03115718,0.01024913,-0.7247998,0.6881783
634796819266520000,0.02346041,0.01564027,-0.8719453,-20.94,-1.56,-28.08,88,350,5,0.5397943,-0.04374465,0.1797594,4.663816,0.03447294,0.05878663,0.0331593,0.007793036,-0.723999,0.6889596
634796819266720000,0.02737048,0.007820137,-0.9501466,-20.94,-1.56,-28.08,89,351,5,0.5653357,-0.026718,0.1339863,4.667495,0.04605985,0.05795801,0.03684442,0.003380497,-0.7227657,0.690102
634796819266920000,0.03519062,0.01955034,-1.043988,-19.8,-1.86,-28.2,89,351,5,0.4429498,-0.1330713,0.0488572,4.669309,0.05474353,0.05596304,0.03912088,-0.000411517,-0.7221491,0.6906303
634796819267120000,0.03128055,0.06256109,-1.13392,-19.8,-1.86,-28.2,89,351,5,0.3641971,-0.2171451,0.1010192,4.670883,0.06055427,0.0517398,0.03960785,-0.003939134,-0.721598,0.6911671
634796819267320000,0.02346041,0.09384164,-1.227762,-19.8,-1.86,-28.2,89,351,5,0.3290777,-0.2437508,0.2478797,4.672979,0.06361437,0.0481323,0.03937232,-0.00625067,-0.720859,0.6919343
634796819267520000,0.03128055,0.08993158,-1.239492,-19.8,-1.86,-28.2,89,351,5,0.4237937,0.3330629,0.2947056,4.683749,0.07834959,0.05416059,0.04668787,-0.009221383,-0.7170857,0.6953585
634796819267740000,0.07038123,0.07820137,-1.13001,-19.8,-1.86,-28.2,94,356,5,0.02469693,0.1053113,0.1850904,4.688835,0.08171058,0.06317329,0.05109869,-0.007156153,-0.715333,0.6968762
634796819267920000,0.09775171,0.07038123,-1.13392,-19.8,-1.86,-28.2,94,356,5,0.03005914,-1.03341,-0.1107357,4.69015,0.08186864,0.06244826,0.05089996,-0.007432428,-0.7148716,0.6973612
634796819268120000,0.09775171,0.1094819,-1.352884,-19.02,-2.04,-29.16,96,358,5,0.369547,-1.135575,-0.2533419,4.685369,0.08305167,0.04268181,0.04422739,-0.01487077,-0.7164321,0.6960948
634796819268320000,0.08211143,0.1876833,-1.474096,-19.02,-2.04,-29.16,95,357,5,0.3227211,-0.04262242,0.02763315,4.678897,0.0893352,0.02377951,0.03957707,-0.02383932,-0.7184494,0.6940431
634796819268520000,0.113392,0.2150538,-1.348974,-19.02,-2.04,-29.16,99,1,5,-0.006129306,0.6533809,0.2372754,4.680328,0.09580684,0.02871477,0.04361075,-0.02441838,-0.7179311,0.6943175
634796819268720000,0.1603128,0.1798632,-1.11828,-19.02,-2.04,-29.16,99,1,5,-0.2977268,0.6480597,0.3788173,4.686996,0.09156155,0.04303908,0.04733099,-0.01775593,-0.7157989,0.6964744
634796819268930000,0.1837732,0.1446725,-0.9853373,-19.02,-2.04,-29.16,105,7,5,-0.2572863,-0.07240646,0.2926151,4.6917,0.08670139,0.04683601,0.04702922,-0.01458085,-0.7142267,0.6981804
634796819269120000,0.1759531,0.1446725,-0.9931574,-18.36,-2.64,-29.58,103,5,5,-0.1689555,-0.6364458,0.2330185,4.69392,0.08190894,0.04082322,0.04322913,-0.01492476,-0.7134449,0.6992173
634796819269320000,0.1446725,0.1759531,-1.043988,-18.36,-2.64,-29.58,99,1,5,-0.2274888,-0.5608858,0.2340827,4.69511,0.07702112,0.03601753,0.03981723,-0.01484051,-0.7130312,0.6998435
634796819269520000,0.113392,0.1915933,-1.059628,-18.36,-2.64,-29.58,99,1,5,-0.3956363,-0.4182796,0.2713306,4.697503,0.06664728,0.03076947,0.03433302,-0.01293994,-0.7112442,0.7022145
634796819269720000,0.08602151,0.1837732,-1.047898,-18.36,-2.64,-29.58,99,1,5,-0.4701321,-0.3224994,0.3096427,4.703527,0.05073213,0.0207622,0.02522448,-0.01070744,-0.7101515,0.7035155
634796819269920000,0.06647116,0.1485826,-0.9970675,-18.36,-2.64,-29.58,102,4,5,-0.4190493,-0.2075631,0.3128354,4.705642,0.04592156,0.01916408,0.02297515,-0.009537459,-0.7094237,0.7043432
634796819270120000,0.06256109,0.113392,-0.8993157,-18.12,-2.94,-29.64,105,7,5,-0.2977276,-0.006380023,0.1372236,4.707998,0.03801203,0.01884151,0.02008314,-0.006821798,-0.7086243,0.7052671
634796819270320000,0.06256109,0.08993158,-0.8250244,-18.12,-2.94,-29.64,103,5,5,-0.3605169,0.1957877,0.008410263,4.708239,0.03036642,0.02015638,0.01785307,-0.003646858,-0.7085627,0.7054125
634796819270520000,0.05083089,0.0742913,-0.797654,-18.12,-2.94,-29.64,103,5,5,-0.4264989,0.2117219,-0.0874031,4.706501,0.02389526,0.02431428,0.01704333,9.799666E-05,-0.7091848,0.7048166
634796819270720000,0.06647116,0.06647116,-0.8054741,-18.12,-2.94,-29.64,100,2,5,-0.2807,-0.1735319,-0.06827035,4.701258,0.01156425,0.02775419,0.01393191,0.005646524,-0.7110073,0.703024
634796819270920000,0.08602151,0.0742913,-0.8367546,-18.12,-2.94,-29.64,97,359,5,-0.05508856,-0.2203578,-0.07466273,4.698523,0.009160041,0.02418506,0.01182528,0.005230233,-0.7119716,0.7020891
634796819271130000,0.08602151,0.09384164,-0.8523949,-18.12,-2.94,-29.64,95,357,5,0.1577305,0.103176,-0.05976251,4.695935,0.01092863,0.02478361,0.01266537,0.004794413,-0.7128822,0.7011531
634796819271320000,0.08993158,0.09775171,-0.8289345,-18.12,-2.94,-29.64,95,357,5,0.1470624,0.1670157,-0.05019045,4.694435,0.01287651,0.02735865,0.01426972,0.00499225,-0.7134063,0.7005876
634796819271520000,0.09384164,0.08993158,-0.801564,-18.36,-2.22,-29.88,94,356,5,0.1182594,0.002062897,-0.04806912,4.692135,0.01522565,0.0309236,0.01637018,0.005384484,-0.7142076,0.6997218
634796819271720000,0.1016618,0.09775171,-0.8211144,-18.36,-2.22,-29.88,94,356,5,0.2565868,-0.1745894,-0.02040289,4.690135,0.0179503,0.03060901,0.01721537,0.004284215,-0.7149144,0.6984526
634796819271920000,0.1055719,0.1055719,-0.8758553,-18.36,-2.22,-29.88,95,357,5,0.4098352,-0.06390842,0.02747011,4.688378,0.0286231,0.02904069,0.02038468,-9.710112E-05,-0.7155414,0.6982729
634796819272120000,0.1055719,0.08602151,-0.9384164,-18.36,-2.22,-29.88,95,357,5,0.2959631,-0.04050973,0.06573943,4.688338,0.03483772,0.02919233,0.02260855,-0.002268027,-0.7155514,0.6981905
634796819272330000,0.08211143,0.06647116,-1.036168,-18.36,-2.22,-29.88,95,357,5,0.2565868,-0.16819,0.03057669,4.687804,0.03995228,0.02754438,0.02380343,-0.004679782,-0.7157268,0.6979589
634796819272520000,0.05083089,0.08993158,-1.083089,-18.48,-2.22,-29.46,95,357,5,0.7376166,0.3128895,-0.08968661,4.686572,0.04859352,0.02783394,0.02691759,-0.007687589,-0.7161306,0.6974047
634796819272720000,0.05474096,0.1251222,-1.083089,-18.48,-2.22,-29.46,95,357,5,0.7376166,0.3128895,-0.08968661,4.685282,0.05599833,0.03209162,0.03101701,-0.008873308,-0.7165658,0.6967731
634796819272920000,0.0742913,0.1407625,-1.11828,-18.48,-2.22,-29.46,100,2,5,0.1384379,-0.02659328,-0.1013397,4.680686,0.07133603,0.04161274,0.03974061,-0.01113973,-0.7181302,0.6946838
634796819273120000,0.07038123,0.1564027,-1.227762,-18.48,-2.22,-29.46,100,2,5,-0.1350742,-0.0893449,-0.3461115,4.674409,0.06992316,0.04055154,0.03883465,-0.01112353,-0.7203098,0.6924753
634796819273320000,0.05474096,0.1798632,-1.360704,-18.48,-2.22,-29.46,101,3,5,-0.4660483,0.01386547,-0.6025897,4.667748,0.06606602,0.04086673,0.03758018,-0.009750193,-0.7226337,0.69014
634796819273520000,0.05474096,0.226784,-1.423265,-19.44,-2.22,-29.58,102,4,5,-0.4915897,0.08831505,-0.5493785,4.654706,0.0558238,0.04241741,0.03456843,-0.00573911,-0.727163,0.6855698
634796819273720000,0.03910068,0.2815249,-1.352884,-19.44,-2.22,-29.58,105,7,5,-0.2297903,0.4192599,-0.3727171,4.644924,0.04800582,0.04635417,0.03331022,-0.001708334,-0.7305257,0.6820702
634796819273920000,0.02346041,0.2932551,-1.16911,-19.44,-2.22,-29.58,105,7,5,0.130969,0.8832621,-0.1641096,4.638819,0.04589796,0.05778456,0.03677062,0.002852174,-0.7325862,0.6796744
634796819274120000,0.04301075,0.2580645,-1.004888,-19.44,-2.22,-29.58,112,14,5,0.3597774,0.6395546,-0.0257255,4.635355,0.04927611,0.07420814,0.04393761,0.007127926,-0.7337045,0.6780091
634796819274330000,0.0742913,0.2189638,-0.9462366,-19.44,-2.22,-29.58,113,15,5,0.4119244,0.08932893,0.07642446,4.633222,0.05938816,0.08307051,0.05061614,0.006374731,-0.7344148,0.6767809
634796819274520000,0.07038123,0.1876833,-0.9931574,-20.04,-3,-30,106,8,5,0.2310061,-0.5066397,0.04980181,4.63121,0.05827021,0.07438671,0.04705949,0.003791529,-0.7351314,0.6762787
634796819274720000,0.04301075,0.1837732,-1.063539,-20.04,-3,-30,106,8,5,0.02666735,-0.2820882,-0.04274587,4.62866,0.05503845,0.06460595,0.04237996,0.001610361,-0.7360203,0.6756297
634796819274920000,0.01955034,0.1955034,-1.079179,-20.04,-3,-30,106,8,5,0.09578526,0.2170132,0.07645937,4.625952,0.05128384,0.06046831,0.03959325,0.001537983,-0.736942,0.6747937
634796819275120000,0.02346041,0.1759531,-1.000978,-20.04,-3,-30,105,7,5,0.1734673,0.254261,0.1051791,4.625965,0.05309105,0.06437469,0.04164011,0.002192586,-0.7369289,0.674683
634796819275320000,0.05083089,0.1251222,-0.8954057,-20.04,-3,-30,107,9,5,0.1010488,0.02008321,0.04132164,4.625843,0.05496692,0.0689485,0.04395558,0.003044525,-0.7369579,0.6745011
634796819275520000,0.06647116,0.1016618,-0.8523949,-20.04,-3,-30,107,9,5,0.04353489,-0.3385556,-0.1097703,4.62302,0.05197668,0.06477189,0.04141429,0.002676511,-0.7379189,0.6736123
634796819275720000,0.05474096,0.1094819,-0.8680352,-20.04,-3,-30,105,7,5,0.1031211,-0.212977,-0.1959333,4.618417,0.05084515,0.05993736,0.03925525,0.001372336,-0.7394801,0.6720316
634796819275920000,0.08602151,0.1368524,-0.9032258,-20.64,-4.2,-30.84,102,4,5,-0.2299656,0.3180713,-0.2161536,4.613725,0.04840541,0.06661057,0.0409098,0.004424461,-0.7410287,0.6702114
634796819276120000,0.1173021,0.1681329,-0.914956,-20.64,-4.2,-30.84,100,2,5,-0.7131237,0.09456258,-9.428032E-05,4.610525,0.03871107,0.06978786,0.03885097,0.009020677,-0.7420504,0.6691566
634796819276320000,0.08993158,0.1681329,-0.8797654,-20.64,-4.2,-30.84,102,4,5,-0.6780043,0.04242204,0.2233717,4.611246,0.02996564,0.07076013,0.03628043,0.01260416,-0.7417549,0.6706821
634796819276520000,0.07038123,0.1173021,-0.8797654,-20.64,-4.2,-30.84,102,4,5,-0.3427734,0.01582503,0.1148104,4.612606,0.0151372,0.07238221,0.03190363,0.01866854,-0.7411678,0.6703014
634796819276720000,0.08211143,0.1290323,-0.9853373,-20.64,-4.2,-30.84,102,4,5,0.2170258,-0.1853044,-0.3545074,4.60585,0.01511025,0.06837916,0.03047018,0.01723325,-0.7434698,0.6678527
634796819276920000,0.0742913,0.172043,-1.079179,-22.2,-4.56,-31.62,100,2,5,0.6107892,0.2062714,-0.3215164,4.598198,0.02101898,0.06849825,0.03254484,0.01495205,-0.7460661,0.6649081
634796819277120000,0.05474096,0.2189638,-1.040078,-22.2,-4.56,-31.62,102,4,5,0.3106776,0.5085114,0.08928148,4.594011,0.02652883,0.07198393,0.03570505,0.01398175,-0.7474638,0.663195
634796819277320000,0.07820137,0.2033236,-0.9462366,-22.2,-4.56,-31.62,102,4,5,-0.3299942,0.02853614,0.3734296,4.593866,0.03264713,0.08012784,0.040775,0.01439574,-0.7474794,0.662876
634796819277520000,0.09775171,0.1173021,-0.9423265,-22.2,-4.56,-31.62,106,8,5,-0.7322713,-0.6270266,0.3840718,4.603424,0.01154303,0.06931472,0.02964945,0.01883589,-0.7442375,0.6669908
634796819277720000,0.06256109,0.07820137,-1.028348,-22.2,-4.56,-31.62,106,8,5,-0.4970776,-0.6823663,0.1392874,4.605117,-0.001030922,0.05761993,0.02108734,0.01963091,-0.7436794,0.6679153
634796819277920000,0.03910068,0.1173021,-1.083089,-22.2,-4.56,-31.62,106,8,5,-0.2544342,-0.3194655,0.03285647,4.605093,-0.005642176,0.05350935,0.01801885,0.01997273,-0.7436864,0.6679872
634796819278120000,0.05083089,0.1642229,-1.079179,-22.2,-4.56,-31.62,106,8,5,-0.03946264,0.004055553,0.09350932,4.605669,-0.008256435,0.05320144,0.01702522,0.02084689,-0.7434708,0.6682265
634796819278320000,0.05474096,0.1681329,-1.028348,-23.22,-4.56,-31.62,103,5,5,0.06165311,-0.03319478,0.3084728,4.609005,-0.007596254,0.05298603,0.01713141,0.02055813,-0.7423644,0.6694617
634796819278520000,0.05474096,0.1290323,-0.9931574,-23.22,-4.56,-31.62,105,7,5,0.1584715,0.01255201,0.4393725,4.615036,-0.005078077,0.05327475,0.018022,0.01977444,-0.7403646,0.671673
634796819278720000,0.05865103,0.08211143,-0.9775171,-23.22,-4.56,-31.62,105,7,5,0.06800686,-0.008748459,0.1073137,4.620661,-0.001882315,0.05492533,0.01965236,0.01920095,-0.7384865,0.6737083
634796819278920000,0.04692082,0.06647116,-0.969697,-23.22,-4.56,-31.62,105,7,5,-0.07353158,0.04768091,0.01470803,4.620729,-0.003279448,0.05527091,0.01930862,0.01983394,-0.7384462,0.6737441
634796819279120000,0.03519062,0.0742913,-0.9618768,-23.22,-4.56,-31.62,99,1,5,-0.1278012,0.05405828,-0.1374441,4.618805,-0.006699085,0.05631327,0.01856216,0.02142975,-0.7390472,0.6730568
634796819279320000,0.03519062,0.07820137,-0.9657869,-24.72,-3.42,-32.04,95,357,5,-0.1852516,0.01570627,-0.1959589,4.61507,-0.0106616,0.05731201,0.01764114,0.02319702,-0.7402464,0.6717038
634796819279520000,0.05865103,0.08602151,-0.9892473,-24.72,-3.42,-32.04,96,358,5,-0.2193068,-0.03858443,-0.2002158,4.611367,-0.01556253,0.0567584,0.01583602,0.02479579,-0.7414371,0.6703771
634796819279720000,0.08602151,0.1016618,-1.028348,-24.72,-3.42,-32.04,96,358,5,-0.07984563,-0.0885796,-0.2257572,4.602852,-0.02225757,0.05451214,0.01287154,0.02647064,-0.7442293,0.6672754
634796819279920000,0.08993158,0.1290323,-1.051808,-24.72,-3.42,-32.04,96,358,5,0.002105561,0.1029642,-0.2417205,4.599851,-0.02335405,0.05659532,0.01332269,0.02755319,-0.7451854,0.6661546
634796819280120000,0.08602151,0.1368524,-1.028348,-24.72,-3.42,-32.04,97,359,5,-0.1341132,0.2317151,-0.1799955,4.5963,-0.02682805,0.06115305,0.0139186,0.03033964,-0.7462477,0.6648309
634796819280320000,0.08602151,0.1290323,-0.9931574,-25.8,-2.76,-32.04,97,359,5,-0.3288665,-0.06312047,-0.08522655,4.594316,-0.03332853,0.06376075,0.01276482,0.03361816,-0.7467597,0.6641212
634796819280520000,0.09384164,0.1251222,-0.9931574,-25.8,-2.76,-32.04,97,359,5,-0.1309128,-0.306828,-0.07136384,4.592651,-0.04058432,0.06262302,0.009960073,0.03594156,-0.7472064,0.6635448
634796819280720000,0.1016618,0.1446725,-1.028348,-25.8,-2.76,-32.04,97,359,5,1.268643E-06,-0.1578365,-0.05431187,4.591394,-0.04449606,0.05799437,0.006953458,0.03586519,-0.7476378,0.6631011
634796819280930000,0.08993158,0.1564027,-1.059628,-25.8,-2.76,-32.04,97,359,5,0.03405924,-0.03754894,0.06487262,4.590514,-0.04607916,0.05575239,0.005605291,0.03571226,-0.7479418,0.6627792
634796819281120000,0.09775171,0.1368524,-1.047898,-25.8,-2.76,-32.04,97,359,5,0.09149856,0.1773719,0.1638138,4.593661,-0.04608607,0.05914677,0.006815821,0.03684885,-0.7468355,0.6639522
634796819281320000,0.1094819,0.1016618,-1.012708,-25.8,-2.76,-32.04,97,359,5,0.2032141,0.1921972,0.1127013,4.595602,-0.04324341,0.06308532,0.009196028,0.03710167,-0.7461694,0.664658
634796819281520000,0.1016618,0.08993158,-0.9814272,-25.8,-2.76,-32.04,98,0,5,0.2468473,0.09211582,0.09990265,4.597373,-0.03920341,0.06603491,0.01160798,0.03658352,-0.7455991,0.6652886
634796819281720000,0.08993158,0.09775171,-0.9657869,-26.46,-2.16,-31.8,96,358,5,0.2138563,-0.05793823,0.02645579,4.59862,-0.03613591,0.06680346,0.01289292,0.03570322,-0.7452251,0.6657317
634796819281920000,0.09775171,0.09384164,-0.9814272,-26.46,-2.16,-31.8,93,355,5,0.1659513,-0.07708023,0.05943337,4.599792,-0.03349018,0.06646681,0.01362775,0.0346134,-0.7448876,0.6661522
634796819282120000,0.113392,0.08993158,-1.016618,-26.46,-2.16,-31.8,93,355,5,0.05950689,-0.1441175,-0.01612609,4.600055,-0.03353858,0.06387544,0.01264101,0.03377108,-0.7448451,0.6662624
634796819282320000,0.1212121,0.1055719,-1.040078,-26.46,-2.16,-31.8,93,355,5,-0.08632112,0.04852068,-0.01503664,4.599769,-0.03536749,0.06427633,0.01218616,0.03458377,-0.744902,0.6661655
634796819282520000,0.113392,0.1173021,-1.024438,-26.46,-2.16,-31.8,93,355,5,-0.1576058,0.05809882,0.06264967,4.600368,-0.03851986,0.06636345,0.0119034,0.03645561,-0.7446083,0.6663991
634796819282720000,0.1055719,0.1094819,-0.9931574,-26.58,-2.28,-32.4,94,356,5,-0.1469035,-0.01210705,0.04242854,4.60178,-0.0423007,0.06823038,0.01131225,0.03849231,-0.7440307,0.6669398
634796819282920000,0.1055719,0.09775171,-0.9775171,-26.58,-2.28,-32.4,94,356,5,-0.1191821,-0.1003705,-0.03311506,4.602158,-0.04593277,0.06855439,0.01021428,0.03995319,-0.7438272,0.6670986
634796819283120000,0.1055719,0.1055719,-0.9892473,-26.58,-2.28,-32.4,94,356,5,-0.05744337,-0.1567744,-0.116084,4.599886,-0.05001163,0.06586576,0.007898378,0.04056601,-0.744557,0.6662784
634796819283320000,0.1016618,0.1173021,-0.9970675,-26.58,-2.28,-32.4,93,355,5,-0.09892825,-0.06093977,-0.07772376,4.598657,-0.05263376,0.06550074,0.006914242,0.04141656,-0.7449207,0.6658303
634796819283520000,0.09775171,0.1173021,-0.9853373,-26.58,-2.28,-32.4,94,356,5,-0.0925082,-0.07475853,-0.0212896,4.59856,-0.05508947,0.06507671,0.005940555,0.04218998,-0.7449102,0.6658029
634796819283720000,0.08993158,0.1055719,-0.9853373,-26.7,-1.86,-31.98,94,356,5,-0.02544329,-0.1013401,0.01170989,4.598959,-0.05648827,0.06420576,0.005141509,0.0424227,-0.7447667,0.6659553
634796819283940000,0.09775171,0.09775171,-1.004888,-26.7,-1.86,-31.98,93,355,5,0.02778659,-0.109756,-0.02553714,4.599174,-0.05696726,0.06296849,0.004515978,0.04219035,-0.7447112,0.6660366
634796819284140000,0.1016618,0.09775171,-1.028348,-26.7,-1.86,-31.98,93,355,5,0.02778659,-0.109756,-0.02553714,4.599118,-0.05717444,0.06215215,0.004143734,0.04199607,-0.7447429,0.6660159
634796819284320000,0.1016618,0.1016618,-1.036168,-26.7,-1.86,-31.98,93,355,5,-0.02537816,-0.06286208,-0.07447085,4.597393,-0.0593822,0.06141531,0.00317041,0.04257058,-0.7452859,0.6653771
634796819284520000,0.1016618,0.113392,-1.028348,-26.7,-1.86,-31.98,93,355,5,0.001254077,0.04462158,-0.05104236,4.597291,-0.06026792,0.06356525,0.003680447,0.04361422,-0.7452543,0.6653423
634796819284720000,0.1016618,0.1094819,-1.008798,-26.7,-1.86,-31.98,93,355,5,-0.04341561,0.09563872,0.07768717,4.59849,-0.06162167,0.06594992,0.004093232,0.04491264,-0.7447723,0.6657931
634796819284920000,0.1094819,0.08993158,-0.9970675,-26.4,-2.22,-31.14,94,356,5,0.02786886,0.02645897,0.05849674,4.599562,-0.06247187,0.06764972,0.004419815,0.04579612,-0.7443575,0.6661945
634796819285120000,0.1055719,0.08211143,-0.9892473,-26.4,-2.22,-31.14,94,356,5,0.07040264,-0.07355616,0.01166956,4.600774,-0.06262183,0.06895876,0.004829955,0.04628982,-0.7439199,0.6666462
634796819285330000,0.1055719,0.08211143,-0.9970675,-26.4,-2.22,-31.14,93,355,5,0.01078836,-0.111848,0.01808769,4.60225,-0.06245088,0.06764734,0.004364403,0.04579344,-0.7434618,0.6671945
634796819285520000,0.1016618,0.09384164,-1.012708,-26.4,-2.22,-31.14,93,355,5,-0.06367078,-0.06821173,0.02237822,4.602862,-0.06346369,0.06728053,0.003875808,0.04604908,-0.7432429,0.6674238
634796819285720000,0.09775171,0.1016618,-1.024438,-26.4,-2.22,-31.14,92,354,5,-0.07218257,-0.03309123,0.06175455,4.604061,-0.06515646,0.06725287,0.003272661,0.04667081,-0.7428041,0.6678721
634796819285920000,0.09775171,0.09775171,-1.012708,-26.4,-2.22,-31.14,92,354,5,0.02892957,0.07862166,0.08621321,4.60576,-0.06584311,0.06889439,0.003613898,0.0474757,-0.7421817,0.6685054
634796819286120000,0.09384164,0.08602151,-0.9892473,-26.64,-3,-30.72,95,357,5,0.148098,0.05091317,0.09045042,4.607707,-0.0640912,0.07093775,0.004913018,0.04751175,-0.7415233,0.6692247
634796819286320000,0.09384164,0.07820137,-0.9814272,-26.64,-3,-30.72,95,357,5,0.1140068,-0.04593163,0.08404581,4.608944,-0.06239295,0.07124412,0.005566078,0.04698775,-0.741142,0.6696788
634796819286520000,0.09775171,0.08211143,-0.9931574,-26.64,-3,-30.72,95,357,5,-0.01374266,-0.06613041,0.01912584,4.610373,-0.06141305,0.07088364,0.005727092,0.04672556,-0.7405723,0.6703306
634796819286720000,0.1016618,0.09384164,-1.012708,-26.64,-3,-30.72,94,356,5,-0.07868008,-0.07143217,-0.02448983,4.610512,-0.06448841,0.06935835,0.0041272,0.04713765,-0.7406119,0.6702648
634796819286920000,0.1094819,0.1055719,-1.028348,-26.64,-3,-30.72,93,355,5,0.05013671,0.01369125,0.02021145,4.610675,-0.06520653,0.06892991,0.003723716,0.04726066,-0.7405506,0.6703264
634796819287120000,0.113392,0.1055719,-1.028348,-26.76,-2.52,-30.06,93,355,5,0.08736224,0.03707824,0.04255231,4.611062,-0.06465697,0.06975114,0.004203496,0.04733256,-0.7404146,0.6704687
634796819287320000,0.1055719,0.08993158,-1.008798,-26.76,-2.52,-30.06,93,355,5,0.04901289,-0.002281276,0.03510369,4.611863,-0.06353664,0.07123946,0.005112185,0.0474175,-0.7401371,0.6707627
634796819287540000,0.09775171,0.08602151,-0.9931574,-26.76,-2.52,-30.06,94,356,5,-0.01381642,-0.03204947,0.01062832,4.612588,-0.06316161,0.07206487,0.005526794,0.0475569,-0.7398828,0.6710299
634796819287720000,0.09384164,0.09384164,-0.9892473,-26.76,-2.52,-30.06,94,356,5,-0.05001965,-0.01501846,0.007440113,4.613315,-0.06524158,0.0726906,0.005043252,0.04853759,-0.739574,0.6713039
634796819287920000,0.09384164,0.09775171,-0.9892473,-26.76,-2.52,-30.06,93,355,5,-0.04046823,-0.01716129,0.02340722,4.613691,-0.06599545,0.07295632,0.004879486,0.04890618,-0.7394227,0.6714451
634796819288120000,0.09775171,0.09775171,-0.9853373,-26.76,-2.52,-30.06,93,355,5,-0.004329593,-0.07462923,0.02447336,4.614342,-0.06668258,0.07263898,0.004515252,0.04905544,-0.7391951,0.6716872
634796819288320000,0.1094819,0.09384164,-1.000978,-26.4,-3,-29.88,94,356,5,0.042453,-0.1150455,0.01702591,4.61495,-0.06665492,0.07139932,0.004050536,0.04863129,-0.7390219,0.6719117
634796819288520000,0.113392,0.09775171,-1.020528,-26.4,-3,-29.88,94,356,5,0.05198335,-0.1001215,0.0138377,4.61543,-0.0661521,0.06984114,0.003630987,0.04792413,-0.7389109,0.672087
634796819288720000,0.1055719,0.09384164,-1.020528,-26.4,-3,-29.88,94,356,5,0.008284988,-0.01392147,0.02023295,4.615858,-0.06600571,0.06975174,0.003636844,0.04784087,-0.7387724,0.6722451
634796819288920000,0.1016618,0.08993158,-1.004888,-26.4,-3,-29.88,94,356,5,-0.002402707,-0.0022251,-0.006365867,4.616019,-0.06677818,0.07100201,0.003836095,0.04854565,-0.7386696,0.6723064
634796819289120000,0.1016618,0.08602151,-0.9970675,-26.4,-3,-29.88,94,356,5,-0.01838833,-0.03308636,0.001084986,4.616119,-0.06746053,0.07121265,0.00368224,0.04886853,-0.7386142,0.6723447
634796819289320000,0.1094819,0.08602151,-1.008798,-26.4,-2.46,-29.58,93,355,5,-0.02051039,-0.05011449,0.00534093,4.616289,-0.06818414,0.07108557,0.003387715,0.04909345,-0.7385423,0.6724089
634796819289520000,0.113392,0.08602151,-1.016618,-26.4,-2.46,-29.58,93,355,5,0.006112583,-0.02777907,-0.005299513,4.616339,-0.06843113,0.07130325,0.003384026,0.04925773,-0.738514,0.672428
634796819289720000,0.113392,0.08993158,-1.012708,-26.4,-2.46,-29.58,93,355,5,0.02317254,-0.0544212,0.0149114,4.616491,-0.06853508,0.07154822,0.003435991,0.04937848,-0.7384543,0.6724844
634796819289920000,0.113392,0.08993158,-1.016618,-26.4,-2.46,-29.58,93,355,5,0.0603919,-0.0405998,0.03193028,4.6177,-0.06770395,0.0716604,0.003727275,0.04911145,-0.7380652,0.6729294
634796819290120000,0.113392,0.08993158,-1.020528,-26.4,-2.46,-29.58,93,355,5,0.03269022,0.01152756,0.04468725,4.618729,-0.06719732,0.07248997,0.004179231,0.04920512,-0.7377108,0.6733083
634796819290320000,0.1055719,0.07820137,-1.012708,-25.92,-1.74,-29.82,92,354,5,-0.003498009,0.0008721062,0.01807396,4.619469,-0.06731629,0.07359647,0.00452988,0.04962217,-0.7374317,0.6735812
634796819290520000,0.09775171,0.07820137,-1.000978,-25.92,-1.74,-29.82,92,354,5,0.0135148,-0.04702026,-1.063288E-05,4.619798,-0.06753182,0.07408034,0.00462789,0.04986491,-0.7373034,0.6737031
634796819290720000,0.09384164,0.08211143,-1.000978,-25.92,-1.74,-29.82,92,354,5,0.03370624,-0.08639191,0.008508702,4.620237,-0.06747794,0.07389581,0.004566947,0.04978399,-0.7371613,0.6738649
634796819290930000,0.09384164,0.08211143,-1.008798,-25.92,-1.74,-29.82,91,353,5,0.03261488,-0.04276273,0.0308536,4.620855,-0.06705403,0.07303464,0.004376332,0.0493398,-0.7369847,0.6740919
634796819291120000,0.08993158,0.08211143,-1.008798,-25.92,-1.74,-29.82,91,353,5,0.0570646,-0.02468217,0.01275411,4.621887,-0.06657863,0.07282686,0.004434536,0.04909709,-0.7366539,0.6744708
634796819291320000,0.08993158,0.08993158,-1.004888,-25.92,-1.74,-29.82,91,353,5,0.07513919,-0.02894238,0.001041885,4.622749,-0.06506657,0.07283449,0.004926309,0.04854481,-0.7363999,0.6747847
634796819291520000,0.08993158,0.08602151,-0.9970675,-25.92,-1.74,-29.82,91,353,5,0.08365565,-0.03105944,-2.521316E-05,4.623139,-0.06377959,0.07270563,0.005303661,0.04802858,-0.7363024,0.6749251
634796819291720000,0.08993158,0.08602151,-0.9931574,-25.68,-1.08,-30.18,90,352,5,0.05598962,-0.0757272,-0.03726969,4.62313,-0.06286597,0.07204497,0.005368398,0.04746984,-0.7363431,0.6749197
634796819291920000,0.08993158,0.08993158,-0.9931574,-25.68,-1.08,-30.18,91,353,5,-0.0004142043,-0.05018846,-0.03832295,4.622878,-0.06270599,0.07097053,0.005031977,0.04704862,-0.7364576,0.6748269
634796819292120000,0.08993158,0.08993158,-1.000978,-25.68,-1.08,-30.18,91,353,5,0.05175656,-0.0331913,-0.05532182,4.622429,-0.06357526,0.07071506,0.004654984,0.04728169,-0.7365945,0.6746639
634796819292320000,0.09384164,0.08211143,-1.000978,-25.68,-1.08,-30.18,91,353,5,0.05175656,-0.0331913,-0.05532182,4.622429,-0.06357526,0.07071506,0.004654984,0.04728169,-0.7365945,0.6746639
634796819292520000,0.09775171,0.08602151,-1.000978,-25.56,-0.96,-30,91,353,5,0.2208794,-0.05661138,0.01284393,4.623176,-0.05495381,0.06937432,0.00705211,0.0436573,-0.736569,0.6749151
634796819292720000,0.09384164,0.09384164,-1.008798,-25.56,-0.96,-30,91,353,5,0.2208794,-0.05661138,0.01284393,4.623176,-0.05495381,0.06937432,0.00705211,0.0436573,-0.736569,0.6749151
634796819292920000,0.08993158,0.08602151,-1.000978,-25.56,-0.96,-30,91,353,5,0.2208794,-0.05661138,0.01284393,4.623176,-0.05495381,0.06937432,0.00705211,0.0436573,-0.736569,0.6749151
634796819293120000,0.08993158,0.08211143,-1.000978,-25.56,-0.96,-30,91,353,5,0.2336501,-0.04597253,0.0149844,4.623176,-0.05495381,0.06937432,0.00705211,0.0436573,-0.736569,0.6749151
634796819293320000,0.09384164,0.08602151,-1.004888,-25.56,-0.96,-30,90,352,5,0.2336501,-0.04597253,0.0149844,4.623986,-0.05124855,0.06885767,0.00809484,0.0421219,-0.7363865,0.6753927
634796819293520000,0.1055719,0.08602151,-0.9892473,-25.56,-0.96,-30,90,352,5,-0.05261488,-0.01833152,0.1682101,4.62709,-0.04704332,0.0697838,0.00979254,0.04090082,-0.7354053,0.6763211
634796819293720000,0.1173021,0.05865103,-0.9853373,-25.56,-0.96,-30,90,352,5,-0.05261488,-0.01833152,0.1682101,4.62709,-0.04704332,0.0697838,0.00979254,0.04090082,-0.7354053,0.6763211
634796819293920000,0.1212121,0.04301075,-1.016618,-26.1,-1.08,-30.3,89,351,5,0.06232847,-0.09494286,-0.05852599,4.630927,-0.04743004,0.0683589,0.00905923,0.04057947,-0.7341284,0.6777365
634796819294120000,0.1329423,0.05474096,-1.071359,-26.1,-1.08,-30.3,89,351,5,0.4326788,-0.05768572,-0.101075,4.630927,-0.04743004,0.0683589,0.00905923,0.04057947,-0.7341284,0.6777365
634796819294320000,0.1681329,0.08602151,-1.090909,-26.1,-1.08,-30.3,89,351,5,0.6178539,0.2519981,0.1532639,4.629816,-0.03989911,0.06852722,0.01169408,0.03786533,-0.7346491,0.6772889
