Timestamp,Acc.X,Acc.Y,Acc.Z,Comp.X,Comp.Y,Comp.Z,Comp.TrueHeading,Comp.MagneticHeading,Comp.HeadingAccuracy,Gyro.X,Gyro.Y,Gyro.Z,Motion.Yaw,Motion.Pitch,Motion.Roll,Motion.X,Motion.Y,Motion.Z,Motion.W
634796819989120000,0.1055719,0.02737048,-0.9970675,0,0,0,0,0,0,0,0,0,0,0,0,0,0,0,0
634796819989320000,0.1016618,0.01955034,-0.9814272,0,0,0,0,0,0,0,0,0,0,0,0,0,0,0,0
634796819989520000,0.113392,0.02346041,-0.9853373,0,0,0,0,0,0,0,0,0,0,0,0,0,0,0,0
634796819989720000,0.1251222,0.03519062,-1.000978,0,0,0,0,0,0,0,0,0,0,0,0,0,0,0,0
634796819989930000,0.113392,0.05474096,-1.008798,0,0,0,0,0,0,0,0,0,0,0,0,0,0,0,0
634796819990130000,0.1016618,0.06647116,-1.008798,0,0,0,0,0,0,0,0,0,0,0,0,0,0,0,0
634796819990320000,0.1094819,0.05865103,-1.004888,0,0,0,0,0,0,0.03365505,-0.1458229,0.01643441,0,0,0,0,0,0,0
634796819990520000,0.1173021,0.04692082,-1.012708,-15.18,9.54,-43.8,34,296,5,0.04848503,-0.1937131,0.01000383,0,0,0,0,0,0,0
634796819990720000,0.113392,0.04692082,-1.012708,-8.04,17.4,-43.98,34,296,5,0.01650123,-0.2032911,-0.01127663,0,0,0,0,0,0,0
634796819990920000,0.09775171,0.05474096,-1.000978,-8.04,17.4,-43.98,34,296,5,-0.1506199,-0.2149976,-0.03785193,0,0,0,0,0,0,0
634796819991120000,0.09775171,0.04692082,-1.000978,-4.38,15.18,-42.78,28,290,5,-0.1101818,-0.2160618,-0.03360641,0,0,0,0,0,0,0
634796819991320000,0.09775171,0.04692082,-1.008798,-4.38,15.18,-42.78,28,290,5,-0.02610449,-0.217126,-0.05595003,0,0,0,0,0,0,0
634796819991520000,0.09384164,0.06647116,-1.020528,-4.38,15.18,-42.78,26,288,5,0.01115201,-0.1809424,-0.00380598,0,0,0,0,0,0,0
634796819991720000,0.08993158,0.0742913,-1.024438,-4.38,15.18,-42.78,26,288,5,0.06434826,-0.1117508,0.02171393,0,0,0,0,0,0,0
634796819991920000,0.08211143,0.0742913,-1.016618,-4.38,15.18,-42.78,26,288,5,0.1281375,-0.05000999,0.02275048,0,0,0,0,0,0,0
634796819992120000,0.06647116,0.08602151,-1.008798,-5.46,15.96,-43.32,28,290,5,0.06847128,0.0329967,0.04082922,0,0,0,0,0,0,0
634796819992330000,0.07820137,0.0742913,-1.004888,-5.46,15.96,-43.32,28,290,5,-0.08055227,0.09790326,0.1514801,5.766434,-0.05942225,0.08875275,-0.01736252,0.05045325,-0.2538722,0.9657649
634796819992520000,0.08993158,0.05083089,-0.9892473,-5.46,15.96,-43.32,28,290,5,-0.1114194,0.1340551,0.1642125,5.771955,-0.06503582,0.08831501,-0.02026988,0.0508987,-0.2510721,0.9664167
634796819992720000,0.07820137,0.04692082,-0.9814272,-5.46,15.96,-43.32,27,289,5,-0.01139126,0.08399714,0.09286376,5.774647,-0.06652999,0.08825314,-0.02106842,0.05102806,-0.2497343,0.9667394
634796819992920000,0.07038123,0.05865103,-0.9931574,-5.46,15.96,-43.32,28,290,5,0.05141633,-0.04163124,0.04711539,5.775914,-0.06544256,0.08824741,-0.02057576,0.05087649,-0.2491497,0.9669088
634796819993120000,0.07820137,0.06256109,-1.004888,-6.06,17.88,-43.02,25,287,5,0.02904557,-0.01608429,0.03433361,5.77923,-0.06258535,0.08735549,-0.01938968,0.04895074,-0.2451484,0.9680622
634796819993320000,0.07820137,0.05865103,-1.004888,-6.06,17.88,-43.02,25,287,5,-0.009295054,0.0371128,0.04392388,5.789436,-0.06084895,0.08485055,-0.01911118,0.04853476,-0.2427907,0.9686753
634796819993530000,0.07820137,0.05083089,-1.000978,-6.06,17.88,-43.02,24,286,5,-0.03907814,0.04134353,0.04395857,5.794168,-0.0612824,0.08447956,-0.01948106,0.04836182,-0.2404952,0.969249
634796819993720000,0.07820137,0.04301075,-0.9970675,-6.06,17.88,-43.02,25,287,5,-0.0145867,0.03811947,0.005670945,5.797234,-0.06149745,0.0843768,-0.01967191,0.04830784,-0.2390057,0.9696162
634796819993920000,0.07820137,0.04692082,-1.000978,-6.06,17.88,-43.02,24,286,5,0.008807948,-0.01510222,-0.02731599,5.800927,-0.06048584,0.08400202,-0.01931531,0.04796974,-0.2372463,0.9700722
634796819994120000,0.08211143,0.05474096,-1.008798,-6.06,17.88,-43.02,24,286,5,-0.01782397,-0.04170721,-0.02198252,5.804678,-0.05841684,0.08302318,-0.01851762,0.04721514,-0.2354949,0.9705514
634796819994320000,0.08211143,0.05865103,-1.012708,-6.06,17.88,-43.02,24,286,5,-0.04443726,-0.004469974,-0.03470533,5.811362,-0.0567801,0.08215236,-0.01798254,0.04654022,-0.232305,0.9713625
634796819994520000,0.08211143,0.05865103,-1.000978,-5.22,17.1,-42.72,23,285,5,-0.03064746,-0.01405321,-0.04322892,5.81323,-0.05698347,0.08224212,-0.01811437,0.0465905,-0.231391,0.9715757
634796819994720000,0.08602151,0.05865103,-0.9931574,-5.22,17.1,-42.72,24,286,5,-0.03064746,-0.01405321,-0.04322892,5.815557,-0.05729484,0.08183443,-0.0183672,0.04640725,-0.2302605,0.9718483
634796819994920000,0.08211143,0.05865103,-0.9931574,-5.22,17.1,-42.72,25,287,5,0.004553389,-0.05978563,-0.07084322,5.817098,-0.05749511,0.08088898,-0.01860988,0.04595683,-0.2295253,0.972039
634796819995120000,0.08993158,0.07038123,-1.004888,-5.22,17.1,-42.72,25,287,5,0.004553389,-0.05978563,-0.07084322,5.817979,-0.05749464,0.08015585,-0.01871475,0.0455924,-0.2291104,0.972152
634796819995320000,0.08993158,0.0742913,-1.020528,-5.34,17.76,-42.6,24,286,5,-0.02950554,-0.05127332,-0.01653092,5.819578,-0.05798125,0.07955038,-0.01905752,0.04533882,-0.2283333,0.97234
634796819995520000,0.09384164,0.06647116,-1.016618,-5.34,17.76,-42.6,25,287,5,-0.02632255,0.00513445,-0.01017484,5.820199,-0.05911875,0.07962883,-0.01961558,0.04550066,-0.228004,0.9723986
634796819995730000,0.09775171,0.06256109,-1.004888,-5.34,17.76,-42.6,25,287,5,0.01837054,0.07531754,-0.04639159,5.820691,-0.0613954,0.08185554,-0.02047759,0.0468371,-0.2276698,0.9723957
634796819995920000,0.1016618,0.07038123,-0.9970675,-5.34,17.76,-42.6,25,287,5,-0.0007607127,-0.04708921,0.0004756104,5.820708,-0.06174206,0.08360826,-0.02044488,0.04772802,-0.2276181,0.9723652
634796819996120000,0.1016618,0.0742913,-1.000978,-5.34,17.76,-42.6,25,287,5,-0.0007607127,-0.04708921,0.0004756104,5.821403,-0.06205511,0.08334708,-0.02064365,0.04762957,-0.2272779,0.9724454
634796819996320000,0.09775171,0.0742913,-1.000978,-5.34,17.76,-42.6,26,288,5,0.03541379,-0.007699681,0.03446366,5.821516,-0.06239772,0.08346092,-0.0207999,0.04772269,-0.2272128,0.9724527
634796819996520000,0.08993158,0.07038123,-1.000978,-4.92,18.3,-42.9,25,287,5,0.01840513,-0.004520524,-0.01343754,5.821082,-0.06279755,0.08462822,-0.02084968,0.04904831,-0.2276666,0.9722776
634796819996720000,0.09384164,0.06256109,-1.000978,-4.92,18.3,-42.9,25,287,5,-0.02417697,-0.004532018,-0.01450378,5.82092,-0.06453514,0.08669746,-0.02145248,0.04954445,-0.2273848,0.9723072
634796819996920000,0.09775171,0.06647116,-1.004888,-4.92,18.3,-42.9,23,285,5,-0.03483922,-0.01411664,-0.00815483,5.822646,-0.06556964,0.08710241,-0.02195187,0.04983989,-0.2265118,0.9724847
634796819997120000,0.09384164,0.07038123,-1.000978,-4.92,18.3,-42.9,23,285,5,-0.006072367,-0.01624797,-0.01347862,5.823933,-0.0658307,0.08745039,-0.02207108,0.05002431,-0.225872,0.9726213
634796819997320000,0.08993158,0.06647116,-0.9970675,-4.92,18.3,-42.9,24,286,5,0.005658268,0.001847801,-0.003915169,5.825565,-0.06576824,0.08804214,-0.02201411,0.05028692,-0.2250673,0.9727956
634796819997520000,0.09384164,0.06256109,-0.9931574,-4.92,18.3,-42.9,24,286,5,0.02056647,-0.01305827,-0.01032574,5.827272,-0.06583381,0.08858299,-0.02202748,0.05053837,-0.224224,0.972977
634796819997720000,0.09775171,0.06256109,-0.9970675,-4.8,18.06,-43.02,24,286,5,0.03441821,-0.01626254,-0.0305474,5.830078,-0.06518101,0.08862161,-0.02177635,0.05045346,-0.2228746,0.9732971
634796819997940000,0.09775171,0.06256109,-1.004888,-4.8,18.06,-43.02,23,285,5,0.007789378,-0.03220507,-0.03800603,5.831232,-0.0649147,0.08857548,-0.02168097,0.05038886,-0.2223202,0.9734293
634796819998120000,0.09775171,0.06647116,-1.008798,-4.8,18.06,-43.02,24,286,5,-0.0188188,-0.03217058,-0.05078301,5.831936,-0.0649693,0.08871626,-0.02170958,0.05045579,-0.2219731,0.9735044
634796819998320000,0.09775171,0.07038123,-1.004888,-4.8,18.06,-43.02,24,286,5,-0.0421778,-0.01936742,-0.03905195,5.83272,-0.06534862,0.08910275,-0.02187058,0.05067727,-0.2215743,0.9735802
634796819998520000,0.09775171,0.06647116,-0.9970675,-4.8,18.06,-43.02,23,285,5,0.04833668,0.03278153,-0.02306154,5.833492,-0.065413,0.0894078,-0.02188726,0.05082434,-0.2211907,0.9736593
634796819998720000,0.09775171,0.06647116,-0.9931574,-4.8,18.06,-43.02,23,285,5,0.03447834,-0.02683732,-0.01135144,5.834051,-0.06485486,0.09051763,-0.02150557,0.0512966,-0.2209097,0.9737068
634796819998920000,0.1055719,0.06647116,-0.9970675,-5.1,17.88,-43.2,25,287,5,0.0004395199,-0.08322092,-0.003866749,5.834795,-0.06431031,0.09045959,-0.02126602,0.05120025,-0.2205623,0.973796
634796819999130000,0.1055719,0.06647116,-1.008798,-5.1,17.88,-43.2,25,287,5,-0.02507506,-0.06511569,-0.003887927,5.834598,-0.06461906,0.08994424,-0.0214689,0.05098567,-0.220661,0.9737804
634796819999320000,0.1094819,0.07038123,-1.016618,-5.1,17.88,-43.2,25,287,5,-0.008082689,-0.009775873,-0.007124342,5.833948,-0.06493545,0.09031713,-0.02156466,0.05120905,-0.2209618,0.9736984
634796819999520000,0.113392,0.07038123,-1.012708,-5.1,17.88,-43.2,26,288,5,-0.01125823,0.02326321,0.01627946,5.833004,-0.0649929,0.09140074,-0.02144688,0.05175269,-0.2213975,0.9735732
634796819999720000,0.1094819,0.06647116,-1.000978,-5.1,17.88,-43.2,25,287,5,-0.01763985,0.009413488,0.03224816,5.832217,-0.06523871,0.09301149,-0.02136517,0.05257187,-0.2217402,0.9734532
634796819999920000,0.1055719,0.05865103,-0.9931574,-5.1,18.06,-43.5,26,288,5,-0.00803714,-0.02248635,0.02157802,5.831461,-0.0654962,0.0941559,-0.0213419,0.05316511,-0.2225469,0.9732148
634796820000120000,0.1016618,0.05865103,-0.9970675,-5.1,18.06,-43.5,26,288,5,0.01112902,-0.0394784,-0.005069111,5.829391,-0.06499957,0.09553265,-0.02088961,0.05380113,-0.2230679,0.9730929
634796820000320000,0.1016618,0.06256109,-1.004888,-5.1,18.06,-43.5,25,287,5,0.01428349,-0.03312317,0.03009512,5.828776,-0.06423616,0.09578264,-0.02047329,0.05384381,-0.2233829,0.9730271
634796820000520000,0.1094819,0.06256109,-1.016618,-5.1,18.06,-43.5,25,287,5,0.01428349,-0.03312317,0.03009512,5.828922,-0.06359577,0.0957998,-0.02016374,0.05377917,-0.2233284,0.9730497
634796820000720000,0.1055719,0.05865103,-1.008798,-5.1,18.06,-43.5,25,287,5,0.03133313,-0.001196521,0.02799647,5.829318,-0.06275225,0.09621071,-0.01971752,0.05388088,-0.2231501,0.9730941
634796820000920000,0.1016618,0.05474096,-0.9970675,-5.1,18.06,-43.5,25,287,5,0.02598177,0.053078,0.03016249,5.829375,-0.06188512,0.09767937,-0.01913118,0.05449765,-0.2231156,0.9730794
634796820001120000,0.1055719,0.05083089,-1.000978,-5.16,17.7,-42.84,25,287,5,-0.03248196,-0.05223112,0.01632607,5.829789,-0.06144023,0.09878063,-0.01880161,0.05497955,-0.2229038,0.9731072
634796820001340000,0.1055719,0.05083089,-1.008798,-5.16,17.7,-42.84,25,287,5,0.001583244,-0.04052975,-0.00816292,5.829853,-0.06113839,0.09828794,-0.01871214,0.05470576,-0.222891,0.9731273
634796820001520000,0.1055719,0.05474096,-1.008798,-5.16,17.7,-42.84,25,287,5,0.04199964,0.03713826,0.001432134,5.829658,-0.05984163,0.09873437,-0.01802539,0.05478006,-0.2230123,0.9731083
634796820001720000,0.1055719,0.05865103,-1.000978,-5.16,17.7,-42.84,25,287,5,0.02712231,0.002019142,0.02381758,5.829615,-0.05826401,0.09979533,-0.01713682,0.05512038,-0.2230557,0.9730952
634796820001920000,0.1016618,0.05865103,-0.9892473,-5.16,17.7,-42.84,25,287,5,0.003740215,-0.04798103,0.03127865,5.829898,-0.05743837,0.1000627,-0.0167127,0.05515589,-0.2229351,0.9731282
634796820002120000,0.1016618,0.05083089,-0.9970675,-5.52,17.22,-42.9,27,289,5,-0.01221518,-0.06285571,0.01633565,5.830129,-0.05707455,0.09959936,-0.01659436,0.05488815,-0.2228419,0.9731667
634796820002320000,0.09775171,0.05474096,-1.004888,-5.52,17.22,-42.9,27,289,5,-0.03027455,-0.02984174,0.01309689,5.828609,-0.05738854,0.09868705,-0.01680869,0.05449231,-0.2235906,0.9730135
634796820002530000,0.09775171,0.05474096,-0.9970675,-5.52,17.22,-42.9,27,289,5,-0.01960356,-0.002158151,0.04500747,5.828488,-0.0573945,0.09882509,-0.01679263,0.05456109,-0.2236463,0.9729971
634796820002720000,0.09775171,0.04692082,-0.9931574,-5.52,17.22,-42.9,27,289,5,0.001646247,-0.004293944,0.0386284,5.828288,-0.057127,0.09890889,-0.01664745,0.05457357,-0.2237498,0.9729751
634796820002920000,0.09775171,0.04692082,-0.9931574,-5.52,17.22,-42.9,26,288,5,0.0452284,-0.04154087,0.004573087,5.827655,-0.05628752,0.09825443,-0.01629604,0.05416661,-0.2240931,0.9729248
634796820003120000,0.1016618,0.05083089,-1.000978,-5.52,17.22,-42.9,26,288,5,0.08245009,0.03401592,-0.02416504,5.826619,-0.0544753,0.09834979,-0.01537578,0.05401788,-0.224644,0.972821
634796820003320000,0.1016618,0.06256109,-1.004888,-5.76,17.64,-42.78,26,288,5,0.09516131,0.01378479,-0.009277804,5.825704,-0.05235767,0.09911418,-0.01327558,0.05394068,-0.225353,0.9726922
634796820003520000,0.1055719,0.05474096,-0.9657869,-5.76,17.64,-42.78,26,288,5,-0.07196131,0.3862421,0.1460908,5.825536,-0.04751635,0.1032084,-0.01140892,0.05560408,-0.2252735,0.9726407
634796820003720000,0.1173021,0.01564027,-0.9188661,-5.76,17.64,-42.78,26,288,5,-0.7371021,-0.2086653,0.05662668,5.825536,-0.04751635,0.1032084,-0.01140892,0.05560408,-0.2252735,0.9726407
634796820003920000,0.113392,-0.003910068,-0.9266862,-5.76,17.64,-42.78,28,290,5,-1.047856,-0.4012901,-0.08806878,5.825643,-0.0704987,0.1003246,-0.02291669,0.05678672,-0.2246341,0.9725171
634796820004120000,0.09775171,0.03128055,-0.9384164,-5.76,17.64,-42.78,28,290,5,-0.7583866,-0.2299498,-0.2529994,5.823494,-0.08211637,0.09632599,-0.02896143,0.05617945,-0.2254475,0.972203
634796820004320000,0.1016618,0.03519062,-0.9384164,-5.76,17.64,-42.78,27,289,5,-0.2720357,-0.0671258,-0.3668715,5.819215,-0.09260034,0.09361958,-0.03424783,0.05611982,-0.2273041,0.971602
634796820004530000,0.1290323,0.01955034,-0.9462366,-5.76,17.64,-42.78,27,289,5,-0.03260137,0.005226607,-0.482872,5.812502,-0.09595799,0.09300244,-0.03576163,0.05632222,-0.2304872,0.9707856
634796820004740000,0.1564027,0.06256109,-0.9892473,-5.64,17.52,-42.3,27,289,5,0.2791979,-0.0245949,-0.5850377,5.792358,-0.08501887,0.09491026,-0.02966201,0.05628764,-0.2405096,0.9685593
634796820004920000,0.1564027,0.08993158,-1.020528,-5.64,17.52,-42.3,27,289,5,0.586759,0.01902183,-0.2561921,5.787987,-0.0734334,0.09775066,-0.02358107,0.05631965,-0.2428806,0.9681328
634796820005120000,0.1524927,0.08993158,-1.036168,-5.64,17.52,-42.3,27,289,5,0.6942457,-0.114,0.06307609,5.783193,-0.05981826,0.1014867,-0.01639485,0.05651174,-0.2455013,0.9676087
634796820005320000,0.1173021,0.01564027,-1.012708,-5.64,17.52,-42.3,33,295,5,0.5665387,-0.06823431,0.1886129,5.781308,-0.05011868,0.1025726,-0.01151451,0.05585637,-0.2466644,0.9674214
634796820005520000,0.09384164,-0.0742913,-0.9775171,-5.64,17.52,-42.3,33,295,5,0.04506397,0.07007325,0.1939341,5.780957,-0.04579759,0.1041809,-0.0092142,0.05610242,-0.2469261,0.967863
634796820005720000,0.08993158,-0.09775171,-0.9657869,-5.64,17.52,-42.3,33,295,5,-0.5019276,-0.3928647,-0.1828585,5.788017,-0.04612779,0.09734476,-0.0104123,0.05280198,-0.2436193,0.9683766
634796820005920000,0.07038123,-0.05474096,-0.9892473,-5.46,17.64,-42.3,32,294,5,-0.3295232,-0.2151391,-0.204143,5.791412,-0.04207444,0.09344566,-0.009014249,0.05040582,-0.2421438,0.9688882
634796820006120000,0.06647116,-0.01564027,-1.004888,-5.46,17.64,-42.3,17,279,5,-0.1368683,-0.01613005,-0.1445446,5.79522,-0.0356245,0.09216177,-0.006139501,0.0489913,-0.2404783,0.969398
634796820006330000,0.08211143,-0.01564027,-1.008798,-5.46,17.64,-42.3,17,279,5,-0.02083306,-0.03741988,-0.1126092,5.799593,-0.03069711,0.09153259,-0.003932341,0.04808534,-0.2384861,0.9699467
634796820006520000,0.08993158,-0.02346041,-1.016618,-5.46,17.64,-42.3,17,279,5,0.106878,-0.03102729,-0.1285292,5.802709,-0.02748322,0.09001636,-0.002628635,0.0469629,-0.2370701,0.9703532
634796820006720000,0.08602151,-0.02346041,-1.012708,-5.34,18.6,-41.88,18,280,5,0.09725911,0.07750962,-0.1603663,5.80598,-0.02220225,0.09057163,0.002371543,0.04600183,-0.2346238,0.9709943
634796820006920000,0.0742913,-0.02346041,-0.9931574,-5.34,18.6,-41.88,18,280,5,0.005715207,0.05940023,-0.1411175,5.81112,-0.0134964,0.09181607,0.004177333,0.04619484,-0.2332942,0.9712994
634796820007120000,0.05474096,-0.03519062,-0.9775171,-5.34,18.6,-41.88,18,280,5,-0.01447836,-0.09171069,-0.08679054,5.815416,-0.01040649,0.08987987,0.005355126,0.04490576,-0.2312938,0.9718323
634796820007320000,0.03128055,-0.05083089,-0.9814272,-5.34,18.6,-41.88,17,279,5,0.05146965,-0.1683349,-0.06015437,5.818421,-0.008000135,0.08776414,0.006213772,0.04360879,-0.229902,0.9722164
634796820007520000,0.01955034,-0.06647116,-0.9931574,-5.34,18.6,-41.88,17,279,5,0.09085535,-0.09807965,-0.08460664,5.824264,-0.003088713,0.08413351,0.008062835,0.04130295,-0.2271879,0.9729413
634796820007720000,0.02346041,-0.07820137,-0.9892473,-5.34,18.6,-41.88,15,277,5,0.06950901,-0.04166965,-0.1399283,5.829899,0.00193429,0.08135342,0.01007952,0.03940833,-0.22456,0.9736109
634796820007920000,0.02737048,-0.06647116,-0.9892473,-5.4,18.66,-41.52,10,272,5,-0.1433459,-0.03848103,-0.237837,5.839325,0.009613752,0.07578218,0.01302377,0.03589523,-0.2201299,0.9747229
634796820008130000,0.04301075,-0.05083089,-0.9970675,-5.4,18.66,-41.52,10,272,5,-0.2316637,-0.07464542,-0.1792913,5.842532,0.0106082,0.07367193,0.01322083,0.03477849,-0.2185876,0.9751078
634796820008320000,0.05474096,-0.04692082,-0.9931574,-5.4,18.66,-41.52,10,272,5,-0.1741858,-0.09909386,-0.1313671,5.847438,0.01068687,0.07056618,0.01283869,0.03328707,-0.2162006,0.9756969
634796820008520000,0.04692082,-0.05474096,-0.9853373,-5.4,18.66,-41.52,11,273,5,-0.04646397,-0.1235648,-0.05577933,5.852078,0.01144814,0.06779277,0.01283689,0.03188148,-0.2139513,0.9762396
634796820008720000,0.03519062,-0.0742913,-0.9736071,-5.4,18.66,-41.52,13,275,5,-0.0006674854,-0.07247461,0.003791413,5.857319,0.01389122,0.06530273,0.01368383,0.03044048,-0.2114315,0.9768229
634796820008920000,0.03519062,-0.09775171,-0.9501466,-6,19.62,-41.22,14,276,5,-0.02302771,-0.02245954,-0.001535886,5.863638,0.01696372,0.06398773,0.01495254,0.02952072,-0.2083899,0.9774859
634796820009120000,0.03519062,-0.113392,-0.9384164,-6,19.62,-41.22,14,276,5,-0.07413702,-0.08631283,-0.03981532,5.873275,0.0224359,0.06124854,0.01720911,0.02769474,-0.2037515,0.9784795
634796820009320000,0.02737048,-0.113392,-0.9501466,-6,19.62,-41.22,12,274,5,-0.07516824,-0.1661238,-0.02492298,5.878998,0.02525258,0.05845749,0.01822923,0.02609431,-0.2009806,0.9790779
634796820009520000,0.01955034,-0.09775171,-0.9657869,-6,19.62,-41.22,12,274,5,-0.007074333,-0.1586742,-0.01431436,5.885087,0.02937555,0.05627918,0.01995445,0.02467432,-0.1980429,0.9796795
634796820009720000,0.02346041,-0.08602151,-0.9853373,-6,19.62,-41.22,12,274,5,0.02802988,-0.1490962,0.005877933,5.892026,0.03716683,0.05299557,0.0233696,0.02237513,-0.1947163,0.9803259
634796820009920000,0.02737048,-0.09384164,-1.000978,-6,19.62,-41.22,12,274,5,-0.04332408,-0.1011897,0.07396855,5.896863,0.04097843,0.05093575,0.02498751,0.0210547,-0.1923717,0.980778
634796820010120000,0.03128055,-0.1055719,-1.024438,-6.6,20.22,-41.04,11,273,5,0.01629009,-0.1384375,0.0377982,5.904248,0.04484344,0.04829514,0.02817262,0.01765222,-0.1856995,0.982044
634796820010320000,0.03128055,-0.09384164,-1.043988,-6.6,20.22,-41.04,11,273,5,0.0461183,-0.06818473,0.08247128,5.916679,0.05339217,0.04293847,0.0301505,0.01623749,-0.1826858,0.9825748
634796820010520000,0.02346041,-0.08211143,-1.047898,-6.6,20.22,-41.04,11,273,5,0.02696448,-0.09370505,0.1697053,5.924335,0.05765605,0.04088914,0.03200223,0.01496361,-0.1789322,0.983227
634796820010720000,0.02346041,-0.08211143,-1.055718,-6.6,20.22,-41.04,11,273,5,0.06100968,-0.1255946,0.2335588,5.929883,0.06005716,0.0391438,0.0329889,0.01398216,-0.1761995,0.9837022
634796820010920000,0.02737048,-0.09775171,-1.083089,-6.6,20.22,-41.04,11,273,5,0.1823196,-0.09364547,0.2473937,5.938557,0.06237387,0.03683865,0.0338714,0.01279106,-0.171916,0.984446
634796820011120000,0.02737048,-0.1094819,-1.1261,-7.2,20.28,-40.68,12,274,5,0.2461732,-0.02553856,0.2229165,5.94674,0.0665853,0.03537356,0.03577101,0.01185426,-0.1678918,0.9850849
634796820011320000,0.03128055,-0.08602151,-1.184751,-7.2,20.28,-40.68,11,273,5,0.1769985,0.08191466,0.1420324,5.953577,0.07151341,0.03583884,0.03819689,0.01180032,-0.1645602,0.9855565
634796820011530000,0.05474096,-0.03128055,-1.239492,-7.2,20.28,-40.68,10,272,5,-0.02730589,0.08508339,-0.0005507308,5.960541,0.07397532,0.03853917,0.03958512,0.01306658,-0.1611871,0.9860431
634796820011720000,0.1055719,0.04692082,-1.231672,-7.2,20.28,-40.68,10,272,5,-0.02090341,0.1999548,0.05794175,5.964173,0.07394218,0.04165423,0.039791,0.01467767,-0.1594475,0.986295
634796820011920000,0.1524927,0.1094819,-1.212121,-7.2,20.28,-40.68,12,274,5,0.4335204,0.02003049,0.403756,5.968026,0.07726764,0.04253352,0.04147166,0.01492611,-0.1575872,0.9865209
634796820012120000,0.1446725,0.1212121,-1.235582,-7.2,20.28,-40.68,18,280,5,0.1663894,0.05193469,0.4527103,5.972809,0.08267783,0.04157757,0.04403188,0.01413352,-0.1552495,0.9867923
634796820012320000,0.1290323,0.1016618,-1.239492,-7.2,20.28,-40.68,18,280,5,-0.1103057,0.08274911,0.4090771,5.9751,0.08362507,0.04068744,0.0444153,0.0136716,-0.1541087,0.9869604
634796820012520000,0.1329423,0.09775171,-1.192571,-7.2,20.28,-40.68,18,280,5,-0.2230885,-0.03114671,0.3558658,5.977939,0.07417226,0.03926778,0.03962228,0.0137552,-0.1526174,0.987395
634796820012720000,0.1446725,0.113392,-1.14174,-7.32,21.06,-40.32,23,285,5,-0.09112833,-0.08434413,0.3005261,5.979442,0.06873583,0.0366298,0.03672901,0.01289478,-0.151796,0.987645
634796820012920000,0.1446725,0.113392,-1.106549,-7.32,21.06,-40.32,22,284,5,-0.06557617,-0.0683666,0.2260304,5.97884,0.06514573,0.03416407,0.03477399,0.01193885,-0.1520336,0.9876912
634796820013120000,0.1407625,0.1016618,-1.079179,-7.32,21.06,-40.32,22,284,5,-0.2709603,-0.1492314,0.1589432,5.975822,0.05859589,0.03088891,0.03130809,0.01077161,-0.1534402,0.9876031
634796820013320000,0.1446725,0.08993158,-1.028348,-7.32,21.06,-40.32,25,287,5,-0.3582268,-0.1747728,0.09400568,5.97345,0.05304694,0.0281198,0.02836825,0.009795945,-0.1545483,0.9875293
634796820013520000,0.1329423,0.09384164,-0.9579667,-7.26,21,-39.48,26,288,5,-0.2922449,-0.1247444,0.06847247,5.969322,0.04500723,0.02456796,0.02414285,0.008613179,-0.1586492,0.9870993
634796820013720000,0.113392,0.08993158,-0.9032258,-7.26,21,-39.48,31,293,5,-0.3284285,-0.1332334,0.0620437,5.960116,0.02241063,0.02897704,0.01338804,0.01249652,-0.1609663,0.98679
634796820013920000,0.09775171,0.06256109,-0.8484849,-7.26,21,-39.48,31,293,5,-0.3284285,-0.1332334,0.0620437,5.955827,0.0126121,0.02786112,0.008490951,0.01271622,-0.1630168,0.9865049
634796820014120000,0.08602151,0.05865103,-0.8054741,-7.26,21,-39.48,31,293,5,-0.1102525,-0.2343347,0.1300478,5.953526,0.008646487,0.02541673,0.0063495,0.01182633,-0.164124,0.9863484
634796820014320000,0.07820137,0.05474096,-0.7546432,-7.26,21,-39.48,31,293,5,0.06316762,-0.02148961,0.1331927,5.952067,0.005915642,0.02111661,0.00465716,0.009926251,-0.1648245,0.986262
634796820014520000,0.08993158,0.03910068,-0.7272727,-7.44,21.6,-39.3,31,293,5,0.1067556,0.1327913,0.09377559,5.951151,0.006224394,0.02000177,0.004721903,0.009348907,-0.165277,0.9861916
634796820014720000,0.09384164,0.03519062,-0.7272727,-7.44,21.6,-39.3,31,293,5,0.08546047,-0.05666353,0.1405188,5.949805,0.007232189,0.0216968,0.005365721,0.01009781,-0.1659472,0.9860684
634796820014930000,0.05865103,0.01955034,-0.7546432,-7.44,21.6,-39.3,31,293,5,0.2440085,-0.4493626,0.2916388,5.950521,0.01060367,0.01537049,0.006500905,0.006701188,-0.1655992,0.986149
634796820015120000,0.02737048,-0.01564027,-0.7937439,-7.44,21.6,-39.3,34,296,5,0.5238997,-0.4440415,0.2416202,5.952841,0.01821375,0.006649852,0.009529432,0.001782183,-0.1644443,0.9863387
634796820015320000,0.02737048,-0.03128055,-0.8289345,-7.44,21.6,-39.3,27,289,5,0.6994969,-0.02687065,0.007450221,5.953924,0.03029632,0.00408709,0.01527761,-0.0004668227,-0.1638991,0.9863587
634796820015520000,0.05083089,-0.01564027,-0.8406647,-7.44,21.6,-39.3,20,282,5,0.4323764,0.1561137,-0.108492,5.954015,0.03995466,0.006408929,0.02023088,-0.000112394,-0.1638728,0.986274
634796820015720000,0.07038123,0.007820137,-0.8680352,-7.44,21.6,-39.3,20,282,5,0.1301078,-0.2355423,-0.06797844,5.954185,0.04449201,0.005904436,0.02242712,-0.0007310294,-0.1637827,0.9862412
634796820015920000,0.07038123,0.02346041,-0.969697,-7.44,21.6,-39.3,20,282,5,0.1864817,-0.4962775,-0.02749734,5.953012,0.05053115,-0.008085132,0.02425506,-0.008137941,-0.1641836,0.986098
634796820016120000,0.04301075,0.02737048,-1.067449,-7.2,21.12,-39.36,23,285,5,0.6355848,0.2423013,0.0002133842,5.952819,0.05853223,-0.01156271,0.02791294,-0.01051172,-0.1641928,0.9859772
634796820016320000,0.05083089,0.02737048,-1.090909,-7.2,21.12,-39.36,21,283,5,0.6355848,0.2423013,0.0002133842,5.952109,0.06352735,-0.002835035,0.03109065,-0.006630674,-0.1646556,0.9858387
634796820016520000,0.0742913,0.03910068,-1.11437,-7.2,21.12,-39.36,21,283,5,0.1769037,-0.01524027,-0.03699565,5.952215,0.06608272,-0.002607107,0.03236942,-0.006727017,-0.1645987,0.9858064
634796820016720000,0.05474096,0.07820137,-1.192571,-7.2,21.12,-39.36,16,278,5,-0.03171232,-0.3909117,-0.02312433,5.952148,0.06483769,-0.0070225,0.03139171,-0.008801937,-0.164564,0.9858274
634796820016920000,0.02346041,0.1446725,-1.294233,-7.86,19.14,-39.42,21,283,5,0.03105143,-0.1738098,-0.1571136,5.949816,0.06332254,-0.01588297,0.02989936,-0.0130794,-0.1678364,0.9852613
634796820017120000,0.02346041,0.1994135,-1.376344,-7.86,19.14,-39.42,20,282,5,-0.05510771,0.01243789,-0.09962328,5.941265,0.05922341,-0.02337026,0.02718675,-0.01654617,-0.1697015,0.9849815
634796820017320000,0.05865103,0.1994135,-1.415445,-7.86,19.14,-39.42,20,282,5,-0.2306753,0.2443892,-0.05600186,5.938651,0.05226183,-0.0207448,0.02396247,-0.01469371,-0.1710818,0.9848558
634796820017520000,0.0742913,0.1837732,-1.415445,-7.86,19.14,-39.42,18,280,5,-0.361575,0.1932791,-0.04004849,5.937253,0.04661941,-0.01862764,0.02135636,-0.01318339,-0.1718368,0.9848057
634796820017720000,0.04692082,0.1798632,-1.368524,-7.86,19.14,-39.42,18,280,5,-0.3424189,0.01657081,-0.07724912,5.933171,0.03695846,-0.01721084,0.01669722,-0.01168964,-0.1739223,0.9845484
634796820017920000,0.01955034,0.1955034,-1.274682,-7.86,19.14,-39.42,20,282,5,-0.09014829,-0.1430649,-0.1261481,5.927987,0.0301702,-0.01886904,0.01318005,-0.01194973,-0.1764992,0.98414
634796820018120000,0.003910068,0.1994135,-1.16911,-8.64,17.34,-40.44,25,287,5,0.07475703,-0.05367051,-0.1261146,5.915733,0.02575827,-0.02451825,0.01042169,-0.01440421,-0.1825099,0.9830433
634796820018330000,-0.007820137,0.1642229,-1.016618,-8.64,17.34,-40.44,25,287,5,-0.07847841,0.09211696,-0.07396311,5.911744,0.02345109,-0.02455592,0.00925584,-0.01423066,-0.1844867,0.9826884
634796820018520000,0,0.1290323,-0.914956,-8.64,17.34,-40.44,27,289,5,-0.2104193,0.07718439,-0.09734094,5.90629,0.01494932,-0.02388727,0.005104356,-0.01313172,-0.1872283,0.9822154
634796820018720000,0.03519062,0.08211143,-0.801564,-8.64,17.34,-40.44,29,291,5,-0.3264199,-0.1250342,-0.1856214,5.900418,0.002129793,-0.02538943,-0.001369378,-0.01266514,-0.1901885,0.981665
634796820018920000,0.06647116,0.06647116,-0.7624633,-8.64,17.34,-40.44,33,295,5,-0.3136492,-0.2867964,-0.1845572,5.894209,-0.00586462,-0.03093612,-0.005866023,-0.01460912,-0.1932851,0.9810163
634796820019120000,0.07038123,0.05865103,-0.7311828,-8.64,17.34,-40.44,33,295,5,-0.2668233,-0.3187231,-0.1333936,5.887331,-0.01203084,-0.03729796,-0.009563721,-0.01710084,-0.1967095,0.980266
634796820019320000,0.05083089,0.04692082,-0.6920821,-8.76,15.24,-40.8,47,309,5,-0.108243,-0.02819732,-0.07164586,5.874168,-0.01608276,-0.04327667,-0.01226588,-0.01955236,-0.203202,0.9788648
634796820019520000,0.03519062,0.02346041,-0.6803519,-8.76,15.24,-40.8,48,310,5,-0.108243,-0.02819732,-0.07164586,5.86573,-0.01684022,-0.04311394,-0.01270177,-0.01934235,-0.2073373,0.9779958
634796820019720000,0.03910068,0.003910068,-0.6959922,-8.76,15.24,-40.8,42,304,5,-0.06883962,-0.01970682,-0.1482582,5.856271,-0.01613641,-0.04464245,-0.01261098,-0.02010341,-0.211956,0.9769911
634796820019920000,0.05865103,0.01173021,-0.7155425,-8.76,15.24,-40.8,42,304,5,0.1099357,-0.1420885,-0.2174328,5.848213,-0.01266313,-0.04687166,-0.01123701,-0.02151536,-0.215857,0.9761232
634796820020120000,0.07038123,0.03128055,-0.7468231,-8.76,15.24,-40.8,40,302,5,0.3398084,-0.01118823,-0.1163141,5.838027,-0.0009715557,-0.04827368,-0.005801232,-0.02343191,-0.2206931,0.9750445
634796820020320000,0.05083089,0.03128055,-0.801564,-8.76,15.24,-40.8,40,302,5,0.2429639,0.2761098,-0.02798326,5.838027,-0.0009715557,-0.04472292,-0.002433284,-0.02238145,-0.2232465,0.974502
634796820020520000,0.02346041,0.01564027,-0.8211144,-8.76,14.52,-41.52,44,306,5,0.0939598,0.3378348,0.03904621,5.82894,0.007906675,-0.03802264,-0.0004294321,-0.01941183,-0.2250592,0.9741516
634796820020720000,0.007820137,-0.003910068,-0.8289345,-8.76,14.52,-41.52,44,306,5,0.2344408,0.002574536,0.06030465,5.827616,0.01115465,-0.03537405,0.001438534,-0.01848821,-0.2256847,0.9740239
634796820020920000,0,-0.01955034,-0.8836755,-8.76,14.52,-41.52,35,297,5,0.4930475,-0.08895447,0.02514743,5.827204,0.01553368,-0.03630018,0.003462558,-0.01943406,-0.2258392,0.9739646
634796820021120000,-0.02346041,-0.01564027,-0.9892473,-8.76,14.52,-41.52,30,292,5,0.6643878,0.02488474,-0.05576869,5.827147,0.02633166,-0.03701735,0.008639293,-0.02100251,-0.2257524,0.97392
634796820021320000,-0.03910068,-0.007820137,-1.094819,-7.62,14.4,-42.24,23,285,5,0.4813411,-0.1273219,-0.04089487,5.826839,0.03784108,-0.03628588,0.01432301,-0.0219474,-0.2257865,0.9738243
634796820021520000,-0.03519062,0.007820137,-1.192571,-7.62,14.4,-42.24,23,285,5,0.7665534,-0.4689382,0.06971347,5.829447,0.04532051,-0.04081404,0.01748451,-0.02497303,-0.2243725,0.9740265
634796820021730000,-0.03128055,0.01955034,-1.329423,-7.62,14.4,-42.24,17,279,5,0.967692,-0.1230578,-0.006943103,5.835957,0.06937957,-0.05224108,0.02801949,-0.03314046,-0.2206632,0.9743841
634796820021920000,-0.03519062,0.01955034,-1.419355,-7.62,14.4,-42.24,14,276,5,0.5207174,0.6144503,-0.02293564,5.838725,0.08026505,-0.04501795,0.03416846,-0.03077669,-0.2192913,0.9745751
634796820022120000,0.007820137,0.02346041,-1.345064,-7.62,14.4,-42.24,13,275,5,-0.06990746,0.9869291,0.09513355,5.84341,0.08127951,-0.0301193,0.03636385,-0.02354523,-0.2173177,0.9751391
634796820022320000,0.08993158,0.05083089,-1.204301,-7.62,14.4,-42.24,13,275,5,-0.1485948,0.7527995,0.1376254,5.849404,0.07695866,-0.01626408,0.03581864,-0.0162138,-0.2147225,0.9758834
634796820022520000,0.1329423,0.08993158,-1.188661,-7.62,14.4,-42.24,12,274,5,0.1174744,0.05465899,0.07582913,5.852645,0.07603383,-0.01273572,0.03577052,-0.01433507,-0.2132163,0.9762447
634796820022720000,0.1094819,0.1329423,-1.313783,-6.6,13.8,-42.6,15,277,5,0.2515668,-0.4412614,-0.01889659,5.844847,0.08128405,-0.02405572,0.03704312,-0.02056344,-0.2167468,0.9753081
634796820022920000,0.08602151,0.1642229,-1.317693,-6.6,13.8,-42.6,35,297,5,0.1153478,-0.3593161,0.03537113,5.840514,0.08051037,-0.02762949,0.03622862,-0.02230051,-0.2187917,0.9748438
634796820023120000,0.09384164,0.1837732,-1.16911,-6.6,13.8,-42.6,32,294,5,-0.1389618,0.09615899,0.1087331,5.837589,0.07568049,-0.02578342,0.03404667,-0.02092223,-0.2203075,0.9746116
634796820023320000,0.1016618,0.1681329,-1.028348,-6.6,13.8,-42.6,32,294,5,-0.2443023,0.02691624,0.1033333,5.83316,0.06937599,-0.02631545,0.03086993,-0.02055527,-0.2225202,0.9742224
634796820023520000,0.08993158,0.1329423,-0.9931574,-6.6,13.8,-42.6,32,294,5,-0.3549818,-0.5892664,-0.07021895,5.828403,0.06536889,-0.03135908,0.02830074,-0.02263314,-0.224789,0.9737334
634796820023720000,0.07038123,0.113392,-1.000978,-5.4,12.9,-42.66,43,305,5,-0.5625057,-0.62545,-0.1968603,5.818787,0.05099868,-0.03678858,0.02057685,-0.02376004,-0.2349384,0.971613
634796820023920000,0.03910068,0.1251222,-0.9736071,-5.4,12.9,-42.66,45,307,5,-0.6529648,-0.3423662,-0.1074649,5.800524,0.01739383,-0.04699719,0.002827133,-0.02489256,-0.2387217,0.9707648
634796820024120000,0.02346041,0.1173021,-0.8719453,-5.4,12.9,-42.66,45,307,5,-0.5880471,-0.06353833,-0.03723851,5.796158,0.0007798671,-0.04686617,-0.005271266,-0.02283365,-0.241039,0.9702325
634796820024320000,0.03910068,0.09384164,-0.7350929,-5.4,12.9,-42.66,39,301,5,-0.4677896,0.1205144,0.02873004,5.793423,-0.0121336,-0.04321766,-0.01112278,-0.01949161,-0.2425075,0.9698899
634796820024520000,0.06647116,0.06647116,-0.6334311,-5.4,12.9,-42.66,40,302,5,-0.2783576,-0.3211614,0.1670746,5.792768,-0.01775122,-0.0435456,-0.01389286,-0.01896492,-0.2428797,0.9697715
634796820024720000,0.06256109,0.04301075,-0.6412512,-5.4,12.9,-42.66,40,302,5,-0.1016804,-0.5691258,0.2000656,5.792298,-0.02213621,-0.05139184,-0.01697538,-0.02223307,-0.2431674,0.9695809
634796820024920000,0.03128055,0.02737048,-0.7116324,-5.4,12.9,-42.66,40,302,5,-0.003797051,-0.413749,0.17346,5.789308,-0.02147889,-0.0656507,-0.01842969,-0.0291984,-0.2446331,0.9690008
634796820025120000,0.02737048,0.02346041,-0.7350929,-4.86,12.18,-42.42,55,317,5,-0.02509869,-0.07958589,0.2139005,5.792243,-0.02141881,-0.0658567,-0.01838265,-0.0293326,-0.2432097,0.9693558
634796820025320000,0.03519062,0.01564027,-0.7350929,-4.86,12.18,-42.42,35,297,5,0.016484,-0.07320192,0.2107079,5.79676,-0.02139807,-0.06616378,-0.01834321,-0.02952548,-0.2410196,0.9698976
634796820025520000,0.01173021,-0.003910068,-0.7663734,-4.86,12.18,-42.42,32,294,5,0.1516324,0.05025278,0.08299148,5.799696,-0.02083158,-0.066746,-0.01809456,-0.02990272,-0.2395879,0.9702454
634796820025720000,0.003910068,-0.02346041,-0.8054741,-4.86,12.18,-42.42,32,294,5,0.2516696,0.17046,-0.04470277,5.801747,-0.01761722,-0.06559598,-0.01636728,-0.02974657,-0.2385441,0.970538
634796820025920000,0.01955034,-0.01564027,-0.8523949,-5.52,12.66,-42.3,26,288,5,0.1441663,0.1863532,-0.07554869,5.803564,-0.01241946,-0.06221067,-0.01341584,-0.02873552,-0.2375871,0.9708484
634796820026120000,0.02346041,-0.003910068,-0.9266862,-5.52,12.66,-42.3,21,283,5,0.04622675,0.1766917,0.0170291,5.80829,-0.006630897,-0.05517125,-0.009709047,-0.02602851,-0.235221,0.9715448
634796820026320000,0.01564027,-0.003910068,-1.008798,-5.52,12.66,-42.3,23,285,5,0.2526799,-0.007457275,0.06594376,5.811314,-0.001363277,-0.05476606,-0.007062557,-0.02646177,-0.2336831,0.971927
634796820026520000,0.01564027,0,-1.1261,-5.52,12.66,-42.3,23,285,5,0.5091582,0.05104159,-0.1118034,5.811652,0.005010128,-0.05343807,-0.003805614,-0.02656165,-0.2334392,0.9720011
634796820026720000,0.02346041,0.01955034,-1.247312,-5.52,12.66,-42.3,22,284,5,0.4101852,0.2010176,-0.261854,5.809923,0.01372194,-0.04826688,0.001010897,-0.02506604,-0.2341942,0.9718661
634796820026920000,0.06256109,0.06647116,-1.317693,-5.52,12.66,-42.3,17,279,5,0.06857601,0.4585601,-0.28101,5.807111,0.01673007,-0.04087591,0.003308735,-0.02183161,-0.2355718,0.9716061
634796820027120000,0.08602151,0.1290323,-1.348974,-5.64,12.96,-42.3,16,278,5,0.3814648,0.1935382,0.3053632,5.805548,0.02126646,-0.02950621,0.006863378,-0.01683875,-0.2350421,0.9718151
634796820027320000,0.02737048,0.1407625,-1.380254,-5.64,12.96,-42.3,16,278,5,0.7475583,0.2040934,0.4181711,5.813999,0.03280306,-0.0265609,0.01286364,-0.01672653,-0.2321835,0.9724431
634796820027520000,-0.02346041,0.08211143,-1.372434,-5.64,12.96,-42.3,22,284,5,0.6422,0.3722093,0.05526065,5.816595,0.04099702,-0.02433085,0.0171285,-0.01657136,-0.2308767,0.9726911
634796820027720000,0.003910068,0.05865103,-1.337243,-5.64,12.96,-42.3,28,290,5,0.2899414,0.446705,-0.3299836,5.816078,0.04902219,-0.01761818,0.02180424,-0.01423918,-0.2311476,0.9725701
634796820027920000,0.05474096,0.1290323,-1.282502,-5.64,12.96,-42.3,12,274,5,-0.2251664,0.266851,-0.5555994,5.811512,0.04934049,-0.01087022,0.02271498,-0.01104672,-0.2334515,0.9720404
634796820028120000,0.04692082,0.2111437,-1.223851,-5.46,13.62,-42.48,13,275,5,-0.2985979,0.05499742,-0.2395245,5.804943,0.04298925,-0.007634878,0.01997736,-0.008798539,-0.2367128,0.9713344
634796820028320000,-0.003910068,0.230694,-1.16911,-5.46,13.62,-42.48,13,275,5,-0.1038339,-0.2536279,-0.00749852,5.797362,0.03475285,-0.01537454,0.01501623,-0.01163959,-0.2403568,0.9704987
634796820028520000,-0.03910068,0.1837732,-1.12219,-5.46,13.62,-42.48,25,287,5,0.08771003,-0.1301719,-0.04581222,5.794562,0.03421187,-0.01736939,0.01449616,-0.01256281,-0.2416998,0.9701614
634796820028720000,-0.02346041,0.1251222,-1.051808,-5.46,13.62,-42.48,36,298,5,0.01422369,-0.004593757,-0.1692374,5.790234,0.03111052,-0.01916993,0.01274558,-0.01308896,-0.2438022,0.9696529
634796820028920000,0.02737048,0.08993158,-0.9775171,-5.46,13.62,-42.48,22,284,5,-0.2646081,-0.1535827,-0.2607608,5.786891,0.023947,-0.02326453,0.008748954,-0.01421542,-0.2454392,0.9692683
634796820029120000,0.05865103,0.08602151,-0.9345064,-5.46,13.62,-42.48,22,284,5,-0.2529016,-0.396226,-0.0670367,5.786454,0.01599526,-0.03116977,0.003920418,-0.01707127,-0.2456616,0.9691974
634796820029320000,0.05083089,0.07038123,-0.8836755,-5.46,13.62,-42.48,20,282,5,-0.1305054,-0.09824099,0.1138926,5.786042,0.007357597,-0.03632498,-0.0009029315,-0.01850805,-0.2459125,0.9691149
634796820029520000,0.04692082,0.01955034,-0.7859238,-5.46,13.62,-42.48,20,282,5,-0.06768844,0.08370054,0.09048437,5.787074,0.003263474,-0.03782964,-0.003062161,-0.0187353,-0.2454455,0.9692245
634796820029720000,0.06647116,-0.03128055,-0.6920821,-5.22,13.5,-42.6,34,296,5,-0.06449024,0.03681843,0.001091905,5.787007,0.001915455,-0.03685438,-0.003596348,-0.01809711,-0.245493,0.9692228
634796820029920000,0.08211143,-0.04692082,-0.6608016,-5.22,13.5,-42.6,34,296,5,-0.04535068,-0.2175415,-0.1159305,5.785392,0.001122952,-0.03913736,-0.004276042,-0.01910275,-0.2462764,0.9690019
634796820030120000,0.08602151,-0.02346041,-0.6686217,-5.22,13.5,-42.6,34,296,5,0.07805528,-0.1888074,-0.1254392,5.783168,0.002791166,-0.04276192,-0.003937572,-0.02105986,-0.2473264,0.9686953
634796820030320000,0.07820137,0.007820137,-0.6608016,-4.74,13.02,-42.96,37,299,5,0.1323397,-0.004715609,-0.02641778,5.782237,0.006965637,-0.04276109,-0.001925688,-0.02157469,-0.2477334,0.9685861
634796820030520000,0.07038123,-0.007820137,-0.6412512,-4.74,13.02,-42.96,40,302,5,0.154661,0.08675944,0.08959755,5.783093,0.01407409,-0.03931915,0.001955585,-0.02078715,-0.2471158,0.968761
634796820030720000,0.07038123,-0.04301075,-0.6529814,-4.74,13.02,-42.96,40,302,5,0.3079094,-0.04524865,-0.04658378,5.783067,0.01988769,-0.03898895,0.004808991,-0.02134623,-0.247214,0.9687138
634796820030920000,0.06647116,-0.04301075,-0.7155425,-4.74,13.02,-42.96,41,303,5,0.3089736,-0.2102049,-0.06250502,5.782081,0.02678037,-0.04014397,0.007993275,-0.02276139,-0.2476061,0.9685604
634796820031120000,0.04301075,-0.02346041,-0.8093842,-4.74,13.02,-42.96,35,297,5,0.2153218,-0.2591593,-0.03480143,5.781963,0.03325582,-0.04350805,0.01071014,-0.02519234,-0.2475527,0.9684876
634796820031320000,0.007820137,-0.01564027,-0.9188661,-4.74,13.02,-42.96,31,293,5,0.0865032,-0.281508,0.002449965,5.783078,0.03692484,-0.0478059,0.01196873,-0.02772045,-0.2469157,0.9685665
634796820031520000,-0.01955034,-0.01173021,-1.012708,-4.74,13.02,-42.96,31,293,5,0.2045942,-0.186792,-0.06034113,5.785002,0.03906059,-0.05258667,0.01243979,-0.03028673,-0.2458941,0.9687436
634796820031720000,-0.01173021,0,-1.11828,-4.68,12.96,-43.02,25,287,5,0.3269801,0.07817369,-0.1422527,5.789071,0.04670596,-0.0524274,0.01622591,-0.0311164,-0.2438071,0.9691886
634796820031920000,0,0.007820137,-1.219941,-4.68,12.96,-43.02,9,271,5,0.2322641,0.08661766,-0.1911872,5.790706,0.05010366,-0.05068838,0.01811054,-0.0306734,-0.2429885,0.969375
634796820032120000,-0.02737048,0.003910068,-1.325513,-4.68,12.96,-43.02,10,272,5,-0.08705021,-0.1283714,-0.1315531,5.792673,0.04879975,-0.05277896,0.01725423,-0.03151092,-0.2420237,0.969605
634796820032320000,-0.05474096,0.01173021,-1.384164,-4.68,12.96,-43.02,10,272,5,-0.03063202,-0.1730689,-0.09426213,5.79527,0.04799771,-0.05588674,0.0165302,-0.03289862,-0.2407303,0.9698935
634796820032520000,-0.03910068,0.05083089,-1.333333,-4.68,12.96,-43.02,10,272,5,0.5642728,1.092268,-0.3357834,5.798655,0.05666732,-0.04784584,0.02175832,-0.03000723,-0.2390798,0.9702922
634796820032720000,0.02737048,0.09384164,-1.243402,-5.76,13.08,-43.32,9,271,5,0.001313998,0.8198262,-0.4113433,5.799601,0.06360435,-0.0360378,0.02655471,-0.02509724,-0.2387271,0.9703991
634796820032920000,0.08993158,0.09775171,-1.255132,-5.76,13.08,-43.32,10,272,5,-0.6616983,-0.4487303,-0.3251411,5.792973,0.05615282,-0.0194751,0.02487041,-0.0162544,-0.2422869,0.9697496
634796820033120000,0.08602151,0.1094819,-1.348974,-5.76,13.08,-43.32,22,284,5,-0.5148352,-0.7020159,-0.277251,5.785868,0.04449153,-0.03209233,0.01760917,-0.02102177,-0.2456655,0.9689667
634796820033320000,0.05474096,0.172043,-1.337243,-5.76,13.08,-43.32,22,284,5,0.03752415,0.07591391,-0.3155631,5.778397,0.04276943,-0.03510594,0.0163203,-0.02233114,-0.2492639,0.9680405
634796820033520000,0.1094819,0.2150538,-1.17302,-5.76,13.08,-43.32,29,291,5,0.01727886,0.5239527,-0.2261682,5.772025,0.04316425,-0.02747714,0.01740521,-0.01874393,-0.2524372,0.9672751
634796820033720000,0.1876833,0.1915933,-0.9970675,-6.96,13.02,-43.68,35,297,5,-0.2221761,0.3004654,-0.07394341,5.76801,0.04133749,-0.02249276,0.0171198,-0.01613742,-0.2544533,0.9667988
634796820033920000,0.2072336,0.1759531,-0.914956,-6.96,13.02,-43.68,54,316,5,-0.4669479,-0.2646509,0.1048332,5.760049,0.0349977,-0.0240308,0.007973606,-0.01461362,-0.261807,0.9649767
634796820034120000,0.1681329,0.1485826,-0.911046,-6.96,13.02,-43.68,54,316,5,-0.4882323,-0.6914052,0.2431722,5.746907,0.01004457,-0.02987206,0.0008853491,-0.01573202,-0.2648323,0.9641657
634796820034320000,0.1094819,0.1173021,-0.9305963,-6.96,13.02,-43.68,64,326,5,-0.3818099,-0.8723235,0.2484933,5.743247,0.004735231,-0.03803217,-0.002789848,-0.01895751,-0.2666095,0.9636142
634796820034520000,0.06647116,0.1094819,-0.914956,-6.96,13.02,-43.68,67,329,5,-0.2647451,-0.4221562,0.4198336,5.740447,0.0005874634,-0.05121159,-0.006579964,-0.02474475,-0.2679555,0.963091
634796820034720000,0.04301075,0.09384164,-0.8484849,-7.02,12.54,-42.9,49,311,5,-0.3062499,-0.1539715,0.5124211,5.742075,-0.003785133,-0.05833089,-0.009616771,-0.02759484,-0.2672054,0.9631964
634796820034920000,0.04301075,0.04692082,-0.7624633,-7.02,12.54,-42.9,49,311,5,-0.2902865,-0.1497146,0.4687879,5.746673,-0.009485006,-0.06123888,-0.01268509,-0.02826297,-0.2650632,0.9637333
634796820035120000,0.04692082,0.007820137,-0.7077224,-7.02,12.54,-42.9,48,310,5,-0.2434606,-0.2305957,0.379393,5.751358,-0.01508141,-0.06387889,-0.01566358,-0.02883017,-0.2628819,0.96427
634796820035320000,0.05083089,0.007820137,-0.688172,-7.02,12.54,-42.9,45,307,5,-0.06146965,-0.3806515,0.388971,5.759874,-0.02046466,-0.07169533,-0.01914818,-0.0319731,-0.2588549,0.965197
634796820035520000,0.05474096,0.01955034,-0.6999022,-7.02,12.54,-42.9,42,304,5,0.149263,-0.4061928,0.4113197,5.765899,-0.01844382,-0.07828581,-0.01891674,-0.03547281,-0.2559114,0.9658639
634796820035740000,0.05083089,0.01564027,-0.7311828,-7.5,13.14,-41.82,45,307,5,0.3163463,-0.1071445,0.3953564,5.771443,-0.01251125,-0.08105338,-0.01630073,-0.0376139,-0.2531208,0.9665658
634796820035920000,0.04692082,0.003910068,-0.7663734,-7.5,13.14,-41.82,45,307,5,0.2365295,0.1790914,0.3240533,5.775471,-0.006962538,-0.07875203,-0.01325329,-0.03723038,-0.2510759,0.9671603
634796820036120000,0.04301075,-0.01564027,-0.7898338,-7.5,13.14,-41.82,43,305,5,0.07262719,0.08649636,0.3804572,5.778412,-0.00453043,-0.07543695,-0.01160851,-0.03594949,-0.2496199,0.9676067
634796820036320000,0.03128055,-0.04301075,-0.8328446,-7.5,13.14,-41.82,39,301,5,0.1619861,-0.1774177,0.3996133,5.789729,0.002935886,-0.07809341,-0.008111662,-0.03821281,-0.2439906,0.9689905
634796820036520000,0.01955034,-0.04692082,-0.911046,-7.5,13.14,-41.82,35,297,5,0.5482999,0.02476299,0.0579773,5.792746,0.01371932,-0.07910132,-0.002949842,-0.04002057,-0.242311,0.9693683
634796820036720000,0.01564027,-0.01955034,-1.016618,-7.5,13.14,-41.82,35,297,5,0.180078,0.02578614,0.06119115,5.794417,0.02196383,-0.07769596,0.001250687,-0.04033704,-0.2413479,0.9695992
634796820036930000,0.02346041,0.01173021,-1.13001,-7.5,13.14,-41.82,25,287,5,0.04170634,-0.1306442,0.1377675,5.79626,0.02380371,-0.07757341,0.002194833,-0.04049768,-0.2404185,0.9698217
634796820037120000,0.02346041,0.05474096,-1.235582,-6.54,12.72,-40.2,21,283,5,0.363089,0.1087992,0.17177,5.799448,0.02490568,-0.07694697,0.002869061,-0.04032191,-0.2388563,0.9702132
634796820037320000,0.03128055,0.05474096,-1.302053,-6.54,12.72,-40.2,21,283,5,0.4971813,0.4525439,0.1887976,5.803175,0.03066706,-0.06770504,0.01094233,-0.03747819,-0.2350555,0.9711975
634796820037520000,0.04692082,0.007820137,-1.325513,-6.54,12.72,-40.2,21,283,5,0.3833092,0.4419017,0.1312875,5.809511,0.04528356,-0.06017864,0.01494089,-0.03454704,-0.2338009,0.9715557
634796820037720000,0.02737048,-0.02346041,-1.341154,-6.54,12.72,-40.2,22,284,5,0.2598591,0.03961639,0.08973016,5.810938,0.04872847,-0.05858755,0.01682578,-0.03416507,-0.2330721,0.9717135
634796820037920000,-0.003910068,0.007820137,-1.391984,-6.54,12.72,-40.2,19,281,5,0.2140974,-0.1434195,-0.1007925,5.810718,0.05279922,-0.06042361,0.01858441,-0.03553307,-0.2330789,0.9716308
634796820038120000,-0.003910068,0.0742913,-1.446725,-5.76,12.78,-39.12,13,275,5,0.03315636,0.1992244,-0.3828122,5.806414,0.05487895,-0.05855203,0.01973926,-0.03490912,-0.2351638,0.971128
634796820038320000,0.02737048,0.1524927,-1.415445,-5.76,12.78,-39.12,13,275,5,-0.3020377,0.5078498,-0.4477299,5.801101,0.05174327,-0.05138087,0.01898261,-0.03110983,-0.2379106,0.9706031
634796820038520000,0.04692082,0.1915933,-1.282502,-5.76,12.78,-39.12,11,273,5,-0.05508696,0.3950419,-0.04010201,5.796241,0.04151392,-0.03697407,0.01568433,-0.02293967,-0.2406082,0.9702244
634796820038720000,0.03519062,0.1955034,-1.13392,-5.76,12.78,-39.12,13,275,5,0.1598867,0.3588582,-0.1337641,5.794429,0.04097271,-0.03062618,0.01616983,-0.01981024,-0.2415697,0.9700465
634796820038920000,0.007820137,0.172043,-1.036168,-5.76,12.78,-39.12,32,294,5,-0.02318287,0.1236403,-0.3072329,5.788343,0.04173684,-0.02584028,0.01706639,-0.01763359,-0.2445692,0.9693213
634796820039140000,0.007820137,0.1524927,-0.9775171,-5.76,12.78,-39.12,39,301,5,-0.3211659,-0.3243985,-0.3327743,5.779758,0.03727722,-0.02803731,0.01455764,-0.01821555,-0.2487431,0.9682888
634796820039320000,0.01564027,0.1524927,-0.9540567,-5.76,12.78,-39.12,39,301,5,-0.340322,-0.3861236,-0.2146453,5.772613,0.02963042,-0.03549778,0.009851032,-0.02091136,-0.2522005,0.9673989
634796820039520000,0.02737048,0.1251222,-0.9071358,-4.56,13.08,-38.28,28,290,5,-0.2562482,-0.06260456,-0.03795026,5.770878,0.02069282,-0.03996229,0.004944792,-0.02194769,-0.2530975,0.9671791
634796820039720000,0.04301075,0.05474096,-0.8211144,-4.56,13.08,-38.28,28,290,5,-0.1998443,0.1800095,-0.001775115,5.770674,0.003497124,-0.03824604,-0.003155467,-0.01894051,-0.2533814,0.9671758
634796820039920000,0.06256109,-0.01173021,-0.7194526,-4.56,13.08,-38.28,32,294,5,-0.1955874,0.1959586,-0.1050299,5.769475,-0.0005457401,-0.0351758,-0.00473166,-0.01694074,-0.2540061,0.9670427
634796820040120000,0.06647116,-0.03910068,-0.6529814,-4.56,13.08,-38.28,32,294,5,-0.2881749,0.01074237,-0.168876,5.767539,-0.005299091,-0.03543412,-0.007078764,-0.01645502,-0.254981,0.9667801
634796820040330000,0.07038123,-0.02737048,-0.6647117,-4.56,13.08,-38.28,31,293,5,-0.1519388,-0.3862136,-0.1495813,5.766174,-0.00847268,-0.03824222,-0.008982514,-0.01740172,-0.2556654,0.966567
634796820040520000,0.0742913,-0.003910068,-0.7116324,-2.94,12.6,-38.04,28,290,5,0.07581391,-0.2478644,-0.07606984,5.765354,-0.01056743,-0.04403615,-0.01074317,-0.01992967,-0.2560794,0.9663906
634796820040720000,0.07820137,0.01955034,-0.7507331,-2.94,12.6,-38.04,30,292,5,0.1928448,0.01180117,-0.01534707,5.765434,-0.009619712,-0.04956186,-0.009177624,-0.02351312,-0.2555541,0.9664652
634796820040920000,0.06647116,0.01955034,-0.742913,-2.94,12.6,-38.04,30,292,5,0.3152308,0.07353805,0.1602662,5.769305,-0.0002224445,-0.04855144,-0.00627593,-0.02344822,-0.2540502,0.9668864
634796820041120000,0.04692082,0.003910068,-0.7194526,-2.94,12.6,-38.04,32,294,5,0.4269744,-0.03713977,0.2070921,5.772722,0.004839897,-0.04808605,-0.003728693,-0.02387261,-0.2523393,0.9673371
634796820041320000,0.03128055,-0.01955034,-0.7585533,-2.94,12.6,-38.04,30,292,5,0.4099468,-0.1115898,0.1709084,5.778086,0.01264882,-0.04901993,-1.702201E-06,-0.02530942,-0.2496431,0.9680071
634796820041520000,0.003910068,-0.03519062,-0.8680352,-2.04,12.42,-38.16,21,283,5,0.3280014,-0.1807644,0.06554106,5.782752,0.01948118,-0.0517838,0.003023801,-0.02749267,-0.247275,0.9685505
634796820041720000,-0.02346041,-0.01173021,-0.9579667,-2.04,12.42,-38.16,4,266,5,0.2843682,-0.01362827,0.09319846,5.788093,0.02529383,-0.05430865,0.005604404,-0.02941885,-0.2445832,0.9691657
634796820041920000,-0.01955034,0.007820137,-0.9931574,-2.04,12.42,-38.16,4,266,5,0.3099096,0.02468213,0.1772751,5.796035,0.03055,-0.05420483,0.008283279,-0.02997855,-0.2406551,0.9701123
634796820042120000,-0.007820137,-0.01564027,-1.032258,-2.04,12.42,-38.16,359,5,5,0.4589011,-0.008343751,0.1485425,5.812607,0.04134035,-0.05324292,0.01388803,-0.03069602,-0.2324568,0.972023
634796820042320000,-0.003910068,-0.03519062,-1.110459,-2.04,12.42,-38.16,0,262,5,0.4546442,-0.04135283,-0.06746133,5.817624,0.04789019,-0.05335021,0.01713774,-0.0314664,-0.2299144,0.972551
634796820042540000,0,-0.01955034,-1.208211,-1.02,13.02,-37.8,357,3,5,0.2290285,-0.3350748,-0.289852,5.819682,0.05285883,-0.05532718,0.01935921,-0.03297853,-0.2288032,0.9727213
634796820042720000,0.007820137,0.003910068,-1.325513,-1.02,13.02,-37.8,357,3,5,0.2822397,-0.01793998,-0.2866594,5.820533,0.05705547,-0.0610038,0.02076198,-0.03620936,-0.2282218,0.9727141
634796820042920000,0.01173021,0.03519062,-1.395894,-1.02,13.02,-37.8,357,3,5,0.2098724,0.7408305,-0.08764192,5.821336,0.06047511,-0.06204903,0.02231982,-0.03709865,-0.2277501,0.9727566
634796820043120000,0.05083089,0.04692082,-1.333333,-1.02,13.02,-37.8,358,4,5,0.02785865,0.7248672,-0.02805211,5.831603,0.06518006,-0.04086816,0.02717856,-0.0271968,-0.2230631,0.9740455
634796820043320000,0.1251222,0.01955034,-1.259042,-1.02,13.02,-37.8,358,4,5,-0.1306453,-0.06161492,-0.1365978,5.835563,0.06248712,-0.0373106,0.02631582,-0.02511215,-0.2212321,0.9745426
634796820043520000,0.1564027,0.03128055,-1.325513,-1.02,13.02,-37.8,358,4,5,-0.07311545,-0.5149748,-0.2153504,5.835425,0.05978083,-0.04471898,0.02417137,-0.02842341,-0.2212086,0.9745125
634796820043730000,0.1212121,0.1212121,-1.364614,-1.02,13.02,-37.8,2,264,5,0.1152451,-0.1265253,-0.08549047,5.834879,0.05981969,-0.04936313,0.02366519,-0.03069627,-0.2213938,0.9744139
634796820043920000,0.1173021,0.1485826,-1.255132,-1.02,13.02,-37.8,2,264,5,0.153539,0.4300369,0.1241578,5.83691,0.06245947,-0.04702711,0.02524177,-0.02982512,-0.2204055,0.9746254
634796820044120000,0.1368524,0.1290323,-1.075269,-1.32,13.62,-38.28,12,274,5,-0.1252986,0.2331552,0.2475982,5.84225,0.06273031,-0.03995323,0.02622874,-0.02633883,-0.2151827,0.9759518
634796820044320000,0.1290323,0.09775171,-0.9814272,-1.32,13.62,-38.28,12,274,5,-0.2945104,-0.1680792,0.2252494,5.850905,0.05077147,-0.04512548,0.01994926,-0.02747105,-0.213778,0.9762921
634796820044520000,0.09775171,0.1016618,-0.9657869,-1.32,13.62,-38.28,16,278,5,-0.3338867,-0.4703191,0.06556053,5.851823,0.04426193,-0.0502522,0.01623427,-0.02926978,-0.2133495,0.9764025
634796820044720000,0.08211143,0.1094819,-0.969697,-1.32,13.62,-38.28,25,287,5,-0.354107,-0.4394566,0.07937684,5.852837,0.03410578,-0.05492973,0.01078994,-0.03046379,-0.2129488,0.9765287
634796820044920000,0.05474096,0.113392,-0.9462366,-1.5,14.16,-39,22,284,5,-0.3445289,-0.3394194,0.2389966,5.855156,0.02360678,-0.05922198,0.005241253,-0.03143492,-0.2119355,0.9767639
634796820045120000,0.03128055,0.08602151,-0.8875855,-1.5,14.16,-39,22,284,5,-0.2381064,-0.209584,0.3667036,5.860643,0.01313066,-0.06235706,-0.0001208937,-0.03185579,-0.2093965,0.9773118
634796820045320000,0.02737048,0.03519062,-0.8172043,-1.5,14.16,-39,20,282,5,-0.1316563,-0.1169924,0.2826298,5.869272,0.004040956,-0.06403148,-0.004601214,-0.03174208,-0.2053133,0.9781706
634796820045520000,0.04692082,0.003910068,-0.7585533,-1.5,14.16,-39,16,278,5,-0.1092822,-0.06803305,0.2368681,5.883621,-0.002014399,-0.06796657,-0.007729511,-0.03310116,-0.198375,0.9795366
634796820045720000,0.07820137,0.01173021,-0.6999022,-1.5,14.16,-39,11,273,5,-0.02838725,0.02986853,0.2964647,5.891818,-0.003644228,-0.06814194,-0.008409644,-0.0330601,-0.194385,0.980332
634796820045940000,0.09384164,0.01173021,-0.6412512,-2.28,15.12,-39.72,27,289,5,0.09185562,0.07881054,0.3656394,5.900041,-0.002829075,-0.06668377,-0.007735072,-0.03245664,-0.1903429,0.9811505
634796820046120000,0.0742913,-0.01173021,-0.6177908,-2.28,15.12,-39.72,27,289,5,0.245104,-0.04888977,0.4284286,5.908225,0.0009112358,-0.06659865,-0.005757977,-0.03279462,-0.1862658,0.981935
634796820046320000,0.04692082,-0.04692082,-0.629521,-2.28,15.12,-39.72,34,296,5,0.3877102,-0.1457192,0.3507402,5.913029,0.005291462,-0.06780183,-0.003638325,-0.03380206,-0.1838288,0.9823701
634796820046520000,0.05083089,-0.06256109,-0.6803519,-2.28,15.12,-39.72,29,291,5,0.4313434,-0.06483293,0.1911064,5.922992,0.02114224,-0.07072651,0.004060665,-0.03667442,-0.1786353,0.9832232
634796820046720000,0.07038123,-0.06256109,-0.7663734,-2.28,15.12,-39.72,16,278,5,0.04288328,-0.0680305,-0.01007522,5.925912,0.02637124,-0.0712943,0.006634952,-0.03741079,-0.1770971,0.9834598
634796820046920000,0.06256109,-0.06256109,-0.8523949,-2.28,15.12,-39.72,16,278,5,0.07691421,-0.1638028,-0.01325002,5.927525,0.02764773,-0.07244467,0.007191021,-0.03808361,-0.1762691,0.9835787
634796820047130000,0.04301075,-0.05865103,-0.9266862,-2.7,15.84,-41.16,17,279,5,0.2833539,-0.06056645,-0.03237947,5.92865,0.02992081,-0.07423306,0.008172404,-0.03915862,-0.175653,0.9836391
634796820047320000,0.03910068,-0.03519062,-1.028348,-2.7,15.84,-41.16,13,275,5,0.1833167,0.1288209,-0.1015203,5.929722,0.03565145,-0.07471764,0.01096929,-0.03989413,-0.1750068,0.9836975
634796820047520000,0.04692082,-0.02346041,-1.14565,-2.7,15.84,-41.16,9,271,5,-0.1359587,0.2053671,-0.127031,5.930451,0.0394299,-0.07217026,0.01306652,-0.03611552,-0.1745348,0.9839047
634796820047720000,0.06256109,-0.01564027,-1.196481,-2.7,15.84,-41.16,9,271,5,-0.08272084,0.285184,-0.1972405,5.929708,0.03726292,-0.06063616,0.01300298,-0.03311016,-0.1751528,0.9838985
634796820047920000,0.1094819,0.003910068,-1.208211,-2.7,15.84,-41.16,6,268,5,0.1662775,0.2905051,-0.2621582,5.928027,0.03928661,-0.05654871,0.01433243,-0.03128896,-0.1759959,0.9837891
634796820048120000,0.1212121,0.01564027,-1.251222,-2.7,15.84,-41.16,7,269,5,0.1141192,-0.2192746,0.05072194,5.927166,0.04285121,-0.05499339,0.0162103,-0.03084472,-0.1763836,0.9837046
634796820048320000,0.04692082,0.04692082,-1.321603,-2.64,16.44,-42.66,12,274,5,0.1141192,-0.2192746,0.05072194,5.928332,0.04515362,-0.05817675,0.01707916,-0.03260311,-0.1757315,0.9837499
634796820048520000,-0.02346041,0.09775171,-1.364614,-2.64,16.44,-42.66,12,274,5,0.1662587,0.4841395,-0.262198,5.929209,0.04754281,-0.0609579,0.01802299,-0.03417267,-0.1752213,0.9837707
634796820048720000,0.01564027,0.1329423,-1.341154,-2.64,16.44,-42.66,12,274,5,0.2439471,0.4841395,-0.262198,5.928682,0.05105233,-0.05694305,0.02009535,-0.0325111,-0.175481,0.9837406
634796820048920000,0.08602151,0.1329423,-1.251222,-2.64,16.44,-42.66,359,5,5,-0.3775518,0.4564697,-0.2302713,5.926635,0.04644799,-0.03821647,0.01946226,-0.02291638,-0.1768152,0.9837847
634796820049120000,0.09384164,0.1368524,-1.14956,-2.64,16.44,-42.66,4,266,5,-0.2530374,-0.02990549,-0.09617742,5.925857,0.03866982,-0.03324533,0.01606993,-0.01978967,-0.177341,0.9838192
634796820049340000,0.05083089,0.1564027,-1.094819,-2.64,16.44,-42.66,14,276,5,-0.1125403,-0.2565776,-0.1312641,5.924398,0.03402281,-0.03575956,0.01354516,-0.0206241,-0.1780797,0.9837067
634796820049520000,0.02346041,0.172043,-1.094819,-2.64,16.44,-42.66,14,276,5,-0.181682,-0.3491651,-0.3132466,5.920274,0.03101921,-0.04154694,0.01150294,-0.02322666,-0.1800839,0.9833097
634796820049720000,0.04301075,0.1798632,-1.083089,-2.46,16.8,-44.22,18,280,5,-0.5818307,-0.2948897,-0.2770629,5.916719,0.02645135,-0.04620707,0.008791499,-0.02512189,-0.1818447,0.982967
634796820049920000,0.05865103,0.1603128,-1.032258,-2.46,16.8,-44.22,11,273,5,-0.7042165,-0.3789635,-0.02481304,5.914292,0.0007457733,-0.05934846,-0.005075174,-0.02923498,-0.1833114,0.982607
634796820050120000,0.04301075,0.08602151,-0.9657869,-2.46,16.8,-44.22,16,278,5,-0.4647658,-0.3949268,0.09755509,5.916724,-0.01115203,-0.06495118,-0.01139593,-0.03091038,-0.1822862,0.9826935
634796820050320000,0.01955034,0.003910068,-0.8875855,-2.46,16.8,-44.22,16,278,5,-0.1699604,-0.08415362,0.003878579,5.917732,-0.0178225,-0.06432927,-0.01460173,-0.03000403,-0.1818923,0.9827521
634796820050530000,0.03128055,-0.03910068,-0.8172043,-2.46,16.8,-44.22,19,281,5,-0.4434395,-0.1947839,-0.2313052,5.91711,-0.02189159,-0.06270385,-0.01646278,-0.02883,-0.1822544,0.9826908
634796820050720000,0.05865103,-0.04301075,-0.7820137,-2.04,17.64,-44.94,11,273,5,-0.5051646,-0.2235179,-0.2483328,5.916351,-0.02826714,-0.06498325,-0.01981324,-0.02936139,-0.1827274,0.9825253
634796820050920000,0.0742913,-0.02346041,-0.7859238,-2.04,17.64,-44.94,7,269,5,-0.317861,-0.01490875,-0.2217271,5.915148,-0.03617358,-0.06918836,-0.02409757,-0.03069037,-0.1844767,0.9819735
634796820051120000,0.07820137,-0.003910068,-0.7741935,-2.04,17.64,-44.94,7,269,5,-0.1369305,0.1979261,-0.1280464,5.911983,-0.04413962,-0.06815826,-0.02796254,-0.02940922,-0.1851245,0.9818769
634796820051320000,0.0742913,0.003910068,-0.7350929,-2.04,17.64,-44.94,12,274,5,0.06420428,0.1787587,-0.0418135,5.911818,-0.04339695,-0.06506645,-0.02731631,-0.02795733,-0.1851712,0.9819286
634796820051520000,0.06256109,-0.007820137,-0.7038123,-2.04,17.64,-44.94,12,274,5,0.1823181,0.1233901,-0.01200126,5.912327,-0.04046583,-0.0618211,-0.0255721,-0.02664134,-0.1848568,0.9820715
634796820051720000,0.05474096,-0.01955034,-0.7077224,-2.04,17.64,-44.94,19,281,5,0.2259513,0.02867649,-0.03965802,5.913012,-0.03602028,-0.05984247,-0.02319841,-0.02608825,-0.1844488,0.9822219
634796820051920000,0.04692082,-0.02346041,-0.7546432,-1.56,17.94,-44.88,14,276,5,0.2429789,-0.0979199,-0.08540374,5.913465,-0.03090072,-0.06033336,-0.02072305,-0.02680616,-0.1841615,0.9823118
634796820052120000,0.02737048,-0.01173021,-0.8289345,-1.56,17.94,-44.88,14,276,5,0.2536212,-0.04680741,-0.0375151,5.91436,-0.02552128,-0.06149447,-0.0181748,-0.02787994,-0.1836531,0.9824276
634796820052320000,0.01564027,0.007820137,-0.9032258,-1.56,17.94,-44.88,10,272,5,0.2365935,-0.1117213,0.04015163,5.919374,-0.01672244,-0.06370031,-0.0139797,-0.02980645,-0.181068,0.9829194
634796820052520000,0.01173021,0.01173021,-0.9931574,-1.56,17.94,-44.88,5,267,5,0.3259885,-0.3894841,0.1369429,5.925308,-0.01065087,-0.07046533,-0.01150665,-0.03371518,-0.1780571,0.9833751
634796820052740000,0.01173021,0.003910068,-1.14956,-1.26,17.94,-44.28,359,5,5,0.6133292,-0.4501449,0.1666876,5.93202,-1.120567E-05,-0.07778668,-0.006797814,-0.03828473,-0.1745499,0.9838803
634796820052920000,0.003910068,0.01564027,-1.227762,-1.26,17.94,-44.28,359,5,5,0.4547597,0.3618368,0.2208944,5.938848,0.01148844,-0.07755554,-0.0009866304,-0.03917759,-0.1709684,0.9844968
634796820053120000,0.007820137,0.01564027,-1.262952,-1.26,17.94,-44.28,358,4,5,0.05779956,0.1191448,0.1474409,5.944513,0.01766706,-0.07338262,0.002519293,-0.03764462,-0.1680888,0.9850496
634796820053320000,0.03519062,0.02737048,-1.321603,-1.26,17.94,-44.28,357,3,5,0.1663661,0.06057664,0.006918539,5.956709,0.02052736,-0.06946647,0.004477792,-0.03592975,-0.1620558,0.9861171
634796820053520000,0.08993158,0.1016618,-1.329423,-1.26,17.94,-44.28,357,3,5,0.4792483,0.3681178,0.06966196,5.961053,0.02691889,-0.06498718,0.008068181,-0.03422174,-0.1598398,0.9865166
634796820053720000,0.1368524,0.1524927,-1.270772,-1.26,17.94,-44.28,357,3,5,0.4430646,0.4564485,0.1611252,5.966163,0.03505611,-0.05678844,0.01281983,-0.03079567,-0.1572687,0.9869924
634796820053930000,0.1485826,0.1212121,-1.262952,-1.26,17.94,-44.28,6,268,5,-0.01134262,0.07970054,0.2728688,5.970572,0.03704691,-0.05321777,0.0141491,-0.02915929,-0.1551025,0.9873666
634796820054120000,0.1173021,0.08993158,-1.321603,-1.14,17.82,-43.56,13,275,5,-0.2433208,-0.3811072,0.2622266,5.975331,0.03375435,-0.05549764,0.01241714,-0.02999982,-0.1527765,0.9877273
634796820054320000,0.09384164,0.1173021,-1.313783,-1.14,17.82,-43.56,13,275,5,-0.04002583,-0.1352711,0.1813455,5.979026,0.02946281,-0.06179035,0.00987467,-0.03276099,-0.1509557,0.9879482
634796820054520000,0.1016618,0.1485826,-1.204301,-1.14,17.82,-43.56,8,270,5,0.1696165,0.1647978,0.2111438,5.988266,0.03069258,-0.0601629,0.01075375,-0.03200063,-0.1463856,0.9886514
634796820054720000,0.113392,0.1329423,-1.098729,-1.14,17.82,-43.56,8,270,5,0.02698918,0.08497741,0.2526486,5.992436,0.02882075,-0.06021905,0.009890769,-0.03187085,-0.1443531,0.9889634
634796820054920000,0.1094819,0.1055719,-1.043988,-1.14,17.82,-43.56,11,273,5,-0.3401502,-0.1501855,0.20263,5.99744,0.02243257,-0.06263839,0.006637917,-0.03258935,-0.1419608,0.9893134
634796820055120000,0.1016618,0.1055719,-1.004888,-1.14,17.58,-43.56,16,278,5,-0.3656916,-0.2204244,0.1738959,6.000786,0.01519561,-0.06569707,0.002896221,-0.0335835,-0.140404,0.9895203
634796820055320000,0.09384164,0.1212121,-0.9736071,-1.14,17.58,-43.56,16,278,5,-0.4625361,-0.4290125,0.2345567,6.003791,0.007583856,-0.07037628,-0.001145993,-0.03536555,-0.1390236,0.9896567
634796820055520000,0.07820137,0.1290323,-0.9579667,-1.14,17.58,-43.56,16,278,5,-0.372077,-0.5290496,0.3792914,6.012723,-0.01139975,-0.07899129,-0.01096674,-0.03835638,-0.1349347,0.9900511
634796820055720000,0.04301075,0.1212121,-0.9462366,-1.14,17.58,-43.56,16,278,5,-0.1485707,-0.417306,0.3760987,6.019813,-0.01933622,-0.08422374,-0.0151034,-0.04046465,-0.1315873,0.9903632
634796820055920000,0.01173021,0.08993158,-0.9188661,-1.14,17.58,-43.56,16,278,5,0.00152791,-0.08739334,0.3452362,6.02698,-0.02364468,-0.08494353,-0.01713844,-0.04059923,-0.1281261,0.9907783
634796820056120000,0.01955034,0.04692082,-0.8367546,-1.14,17.58,-43.56,9,271,5,0.03348446,0.1711501,0.2473274,6.033895,-0.02566576,-0.0812124,-0.0177689,-0.03868276,-0.1247266,0.9912776
634796820056320000,0.05083089,0.02737048,-0.7507331,-1.14,17.58,-43.56,9,271,5,-0.04098108,0.1061852,0.1738959,6.040043,-0.02681589,-0.07873344,-0.01807072,-0.03743789,-0.1216908,0.9916971
634796820056520000,0.07038123,0.02346041,-0.7116324,-1.32,17.88,-43.62,2,264,5,-0.05265882,-0.0704793,0.1302245,6.043517,-0.02791023,-0.07897699,-0.01856288,-0.03752438,-0.1199894,0.9918921
634796820056720000,0.06256109,0.02346041,-0.7155425,-1.32,17.88,-43.62,4,266,5,-0.01330632,-0.03110158,0.04189164,6.048335,-0.02889276,-0.08047067,-0.0190468,-0.03825228,-0.1176257,0.9921382
634796820056920000,0.06647116,0.03519062,-0.7194526,-1.32,17.88,-43.62,19,281,5,0.1729184,-0.1077079,-0.01453858,6.04867,-0.02740669,-0.08065081,-0.01831367,-0.03843212,-0.1174319,0.992168
634796820057120000,0.08211143,0.06256109,-0.7350929,-1.32,17.88,-43.62,19,281,5,0.3761854,-0.2109378,0.05138772,6.048994,-0.02449274,-0.0825752,-0.01697371,-0.0395607,-0.1172219,0.9921723
634796820057330000,0.06647116,0.06256109,-0.797654,-1.32,17.88,-43.62,17,279,5,0.3708642,0.04130916,0.04493958,6.050058,-0.01704741,-0.08615196,-0.01346594,-0.04177854,-0.1165521,0.9922141
634796820057520000,0.05474096,0.02737048,-0.8093842,-1.92,19.02,-43.74,19,281,5,0.2867905,0.1051386,-0.03063935,6.049901,-0.01050305,-0.08549439,-0.01018425,-0.04183261,-0.116493,0.9922579
634796820057720000,0.05474096,0.003910068,-0.8132942,-1.92,19.02,-43.74,24,286,5,0.2740198,-0.05557121,-0.07530776,6.049363,-0.005445957,-0.08383631,-0.007590079,-0.04130235,-0.1166554,0.9922842
634796820057920000,0.05083089,-0.003910068,-0.8758553,-1.92,19.02,-43.74,11,273,5,0.3463871,-0.2694733,-0.1369813,6.047423,0.004165649,-0.08819782,-0.003118331,-0.0440233,-0.1174023,0.9921033
634796820058120000,0.05083089,0.01173021,-0.9775171,-1.92,19.02,-43.74,11,273,5,0.3761854,-0.1364452,-0.1401387,6.045837,0.01123571,-0.09166633,0.0001479463,-0.0461586,-0.1180139,0.9919386
634796820058320000,0.05083089,0.02737048,-1.055718,-1.92,19.02,-43.74,8,270,5,0.3591578,0.05189766,-0.1401241,6.044378,0.01791811,-0.0909177,0.003472966,-0.04618393,-0.1185882,0.9918628
634796820058520000,0.06256109,0.03519062,-1.11828,-2.94,20.04,-43.56,9,271,5,0.3644789,0.1412376,-0.1220134,6.043417,0.02375698,-0.08566236,0.006661581,-0.04392705,-0.1189736,0.9919029
634796820058720000,0.07820137,0.01955034,-1.188661,-2.94,20.04,-43.56,8,270,5,0.4996355,-0.06521341,-0.03898468,6.043046,0.03137898,-0.0849328,0.01047727,-0.04402035,-0.1189978,0.9918629
634796820058920000,0.06256109,0.01173021,-1.243402,-2.94,20.04,-43.56,8,270,5,0.714609,-0.1641864,0.1142553,6.043731,0.03859115,-0.08703565,0.01394289,-0.04548699,-0.1184728,0.9918169
634796820059120000,-0.003910068,0.03519062,-1.274682,-2.94,20.04,-43.56,8,270,5,0.3591578,0.008238248,-0.2773969,6.045776,0.06248641,-0.08956945,0.02568786,-0.04812869,-0.1168608,0.9916488
634796820059320000,-0.03519062,0.08993158,-1.321603,-2.94,20.04,-43.56,5,267,5,0.07923816,0.1965448,-0.4753428,6.041018,0.06697845,-0.08796048,0.0278981,-0.0476601,-0.1191421,0.9913402
634796820059520000,0.003910068,0.1524927,-1.407625,-3.9,20.46,-43.44,0,262,5,-0.03571997,0.2295117,-0.5051411,6.034392,0.06681919,-0.08384847,0.0279188,-0.04570581,-0.1225085,0.9910213
634796820059720000,0.04692082,0.1994135,-1.478006,-3.9,20.46,-43.44,0,262,5,0.1738927,0.4604486,-0.2348279,6.030767,0.06632924,-0.08036459,0.02781441,-0.04400047,-0.1243822,0.990868
634796820059920000,0.03128055,0.2072336,-1.403715,-3.9,20.46,-43.44,4,266,5,0.3611963,0.8510192,-0.01345382,6.028504,0.0681312,-0.07215309,0.02918334,-0.04007849,-0.1256217,0.9908386
634796820060120000,0.003910068,0.1642229,-1.188661,-3.9,20.46,-43.44,7,269,5,0.3101135,0.8371843,0.03653497,6.032026,0.0760982,-0.0437696,0.03499245,-0.02645839,-0.1243034,0.991274
634796820060320000,0.01173021,0.1094819,-0.9775171,-3.9,20.46,-43.44,7,269,5,0.1014993,0.3657326,-0.1762737,6.030605,0.07601165,-0.03769016,0.03531566,-0.02346541,-0.1251312,0.9912338
634796820060520000,0.04692082,0.08993158,-0.9266862,-3.9,20.46,-43.44,7,269,5,-0.1656543,-0.5154538,-0.3252652,6.027417,0.07205867,-0.04152608,0.03307353,-0.0251717,-0.1266838,0.991072
634796820060730000,0.06647116,0.1094819,-1.032258,-3.9,20.46,-43.44,7,269,5,-0.2295078,-0.8528131,-0.3646415,6.021479,0.06333065,-0.05428707,0.02783833,-0.03102418,-0.1295148,0.990701
634796820060920000,0.04692082,0.1212121,-1.083089,-4.62,19.5,-43.14,19,281,5,-0.2475996,-0.6953078,-0.3965682,6.013783,0.05847191,-0.06818473,0.02437461,-0.03768595,-0.133171,0.9900764
634796820061120000,0.02346041,0.113392,-1.051808,-4.62,19.5,-43.14,19,281,5,-0.551968,-0.01739904,-0.248641,6.006145,0.04841566,-0.07249331,0.0189556,-0.03922115,-0.1370777,0.989602
634796820061320000,0.03128055,0.08993158,-0.9462366,-4.62,19.5,-43.14,16,278,5,-0.4519309,-0.02485213,-0.2975953,5.997801,0.03088927,-0.07369649,0.01003837,-0.0386559,-0.1415317,0.9891278
634796820061520000,0.03910068,0.07820137,-0.8719453,-4.62,19.5,-43.14,16,278,5,-0.3689213,-0.0354698,-0.343357,5.99263,0.0220809,-0.07374965,0.005579824,-0.03807304,-0.1442568,0.9887918
634796820061720000,0.04692082,0.1055719,-0.8602151,-4.62,19.5,-43.14,13,275,5,-0.3955269,-0.09399186,-0.2688613,5.987074,0.01356244,-0.07338738,0.001290891,-0.0372829,-0.1471666,0.988408
634796820061920000,0.05083089,0.1329423,-0.8523949,-5.82,18.36,-42.54,25,287,5,-0.306132,-0.1812583,-0.115556,5.983025,0.006509065,-0.07610309,-0.002472345,-0.03810082,-0.149286,0.9880567
634796820062120000,0.05083089,0.1407625,-0.8523949,-5.82,18.36,-42.54,25,287,5,0.02697949,0.02731853,0.03558355,5.97997,0.001959085,-0.0789299,-0.004991143,-0.03914998,-0.1508715,0.9877653
634796820062320000,0.04692082,0.1212121,-0.8328446,-5.82,18.36,-42.54,29,291,5,0.27067,0.2795013,0.1739168,5.979295,0.002373457,-0.07825363,-0.00474855,-0.03884561,-0.151199,0.9877284
634796820062520000,0.04301075,0.07038123,-0.7937439,-5.82,18.36,-42.54,34,296,5,0.2132019,0.2518314,0.1994583,5.981925,0.0086658,-0.06983387,-0.0009573037,-0.03516404,-0.1498186,0.9880875
634796820062720000,0.03519062,0.03128055,-0.7741935,-5.82,18.36,-42.54,28,290,5,0.01844686,-0.044025,0.1781738,5.983551,0.008248568,-0.07064258,-0.001195274,-0.03553329,-0.1490192,0.9881949
634796820062920000,0.03910068,0.03910068,-0.8172043,-5.82,18.36,-42.54,28,290,5,-0.0337271,-0.0280331,0.05576615,5.983497,0.007286787,-0.07143163,-0.001730343,-0.03585141,-0.149059,0.9881766
634796820063120000,0.06256109,0.09384164,-0.8758553,-6.54,18.36,-42.12,27,289,5,-0.02945966,0.01243437,-0.03788183,5.982568,0.006728172,-0.07158995,-0.002034852,-0.03588706,-0.1495277,0.988104
634796820063320000,0.07820137,0.1446725,-0.8875855,-6.54,18.36,-42.12,26,288,5,0.2312536,0.2476172,0.3718152,5.984344,0.008140564,-0.06750786,-0.001001202,-0.03397679,-0.1486437,0.9883065
634796820063520000,0.1290323,0.1055719,-0.8406647,-6.54,18.36,-42.12,26,288,5,0.5005026,0.3955197,0.6761836,5.991925,0.01349044,-0.0639931,0.002028028,-0.03263006,-0.1395381,0.9898322
634796820063720000,0.1524927,0.03519062,-0.8797654,-6.54,18.36,-42.12,31,293,5,-0.2817191,0.1166841,0.5261278,6.005692,0.01254415,-0.05234706,0.002590286,-0.02678568,-0.1380892,0.9900541
634796820063920000,0.1290323,0.08211143,-1.008798,-6.54,18.36,-42.12,31,293,5,-0.2476639,0.1049726,0.1407996,6.004107,0.001659393,-0.05641699,-0.003101576,-0.02804598,-0.139008,0.9898892
634796820064120000,0.1212121,0.1915933,-1.075269,-6.54,18.36,-42.12,42,304,5,-0.03799369,0.1698115,0.2685066,6.003642,-0.002207041,-0.05451298,-0.004889193,-0.02683364,-0.139295,0.9898753
634796820064320000,0.1251222,0.2424242,-1.1261,-6.18,17.88,-42.06,37,299,5,-0.00605927,-0.01214657,0.20891,6.005608,-0.004262209,-0.04817307,-0.005441834,-0.02355783,-0.1383539,0.9900877
634796820064520000,0.1290323,0.2619746,-1.219941,-6.18,17.88,-42.06,37,299,5,0.2865908,-0.1302367,0.2035888,6.004151,0.0003464222,-0.05100382,-0.003374612,-0.02527547,-0.1390151,0.9899619
634796820064720000,0.1329423,0.2658846,-1.317693,-6.18,17.88,-42.06,37,299,5,0.4100409,-0.1206527,0.3089471,6.004468,0.004863501,-0.05284178,-0.001262334,-0.02649928,-0.1387955,0.9899657
634796820064920000,0.1485826,0.2463343,-1.309873,-6.18,17.88,-42.06,37,299,5,-0.06885707,0.303944,0.5792603,6.007189,0.008905888,-0.05208873,0.0008268762,-0.02640592,-0.137398,0.9901636
634796820065120000,0.172043,0.226784,-1.16911,-6.06,18.84,-41.88,30,292,5,-0.2753068,0.2060118,0.6931324,6.023108,-0.0009777546,-0.04578554,-0.003452895,-0.02263413,-0.1296496,0.9912955
634796820065320000,0.172043,0.1955034,-0.9931574,-6.06,18.84,-41.88,30,292,5,-0.2699856,-0.1813828,0.8176468,6.023108,-0.0009777546,-0.04578554,-0.003452895,-0.02263413,-0.1296496,0.9912955
634796820065520000,0.1485826,0.1524927,-0.9775171,-6.06,18.84,-41.88,36,298,5,-0.1763227,-0.4272188,0.789977,6.033174,-0.005983829,-0.05068493,-0.006126919,-0.02476903,-0.124715,0.9918644
634796820065720000,0.09384164,0.1016618,-1.067449,-6.06,18.84,-41.88,36,298,5,-0.120957,-0.5442836,0.6420496,6.04617,-0.01577663,-0.05915964,-0.01132614,-0.02843493,-0.1184064,0.9924934
634796820065920000,0.06256109,0.1173021,-1.106549,-6.06,18.84,-41.88,36,298,5,-0.08153593,-0.1569057,0.5090215,6.051905,-0.0192585,-0.05932224,-0.01298227,-0.0283468,-0.1156105,0.9928052
634796820066120000,0.07038123,0.1329423,-1.043988,-6.06,18.84,-41.88,25,287,5,-0.07298307,0.1559311,0.4834801,6.058287,-0.02126717,-0.05666018,-0.01374031,-0.02695308,-0.1124602,0.9931956
634796820066340000,0.08602151,0.113392,-0.9462366,-5.04,19.56,-42.78,18,280,5,-0.1378589,0.1877993,0.4196266,6.063726,-0.02449989,-0.05317926,-0.01508293,-0.02508362,-0.1097862,0.9935242
634796820066520000,0.08993158,0.08602151,-0.911046,-5.04,19.56,-42.78,18,280,5,-0.4400802,-0.3389949,0.1184375,6.0679,-0.0301764,-0.05223155,-0.01780028,-0.02433831,-0.1077779,0.9937176
634796820066720000,0.09384164,0.08211143,-0.9736071,-5.04,19.56,-42.78,22,284,5,-0.4805208,-0.3560225,-0.05605039,6.068694,-0.03682804,-0.05380774,-0.02117957,-0.02477132,-0.1074761,0.9936733
634796820066920000,0.08602151,0.113392,-1.063539,-5.04,19.56,-42.78,26,288,5,-0.3272723,-0.09846003,-0.06875319,6.063548,-0.05290103,-0.06135749,-0.02963633,-0.02758127,-0.1103145,0.9930719
634796820067120000,0.08993158,0.1603128,-1.071359,-5.04,19.56,-42.78,24,286,5,-0.1580431,0.148405,0.07175571,6.06187,-0.05684948,-0.05902302,-0.03149204,-0.02617771,-0.1111725,0.9929571
634796820067320000,0.09384164,0.1642229,-1.020528,-5.04,19.56,-42.78,21,283,5,0.1048108,0.3016534,0.1685882,6.062532,-0.05619287,-0.05380975,-0.03087259,-0.02363552,-0.1107709,0.9930851
634796820067530000,0.09384164,0.1290323,-0.9736071,-5.04,19.56,-42.78,21,283,5,0.1792921,0.1132403,0.1121765,6.062464,-0.0542159,-0.05071354,-0.02972244,-0.02220628,-0.1107443,0.9931561
634796820067720000,0.08602151,0.09384164,-0.9618768,-3.6,20.04,-42.24,19,281,5,0.1196711,-0.04530793,-0.01550383,6.062055,-0.05341553,-0.04718709,-0.02913632,-0.02049317,-0.1108964,0.9931934
634796820067920000,0.08211143,0.07820137,-0.9814272,-3.6,20.04,-42.24,22,284,5,0.04836212,-0.1091306,-0.1505833,6.059508,-0.05321216,-0.04603422,-0.02899744,-0.01989497,-0.1121449,0.9930694
634796820068120000,0.06647116,0.09384164,-0.9931574,-3.6,20.04,-42.24,19,281,5,0.04624676,-0.009109479,-0.2324949,6.049783,-0.05299639,-0.04254735,-0.02878496,-0.01803568,-0.1169289,0.9925592
634796820068320000,0.05865103,0.1055719,-0.9579667,-3.6,20.04,-42.24,19,281,5,0.06752829,0.1813315,-0.2739997,6.043567,-0.05218792,-0.03746295,-0.02813731,-0.0154719,-0.119946,0.992261
634796820068520000,0.08602151,0.1094819,-0.9462366,-3.6,20.04,-42.24,17,279,5,-0.07079917,0.02797664,-0.2835777,6.039076,-0.05188847,-0.03430676,-0.0278322,-0.01386126,-0.1221345,0.9920264
634796820068720000,0.1016618,0.1094819,-0.9657869,-3,21.06,-42.9,13,275,5,-0.1537277,-0.05185174,-0.2335591,6.033981,-0.05422949,-0.03241444,-0.02891107,-0.01270601,-0.124654,0.9916976
634796820068920000,0.1016618,0.1016618,-0.9814272,-3,21.06,-42.9,18,280,5,-0.1866903,-0.0678248,-0.161124,6.029493,-0.05812335,-0.03140795,-0.03080629,-0.0118951,-0.1268895,0.991367
634796820069120000,0.1055719,0.09384164,-0.9853373,-3,21.06,-42.9,18,280,5,-0.1270342,-0.1231398,-0.1291104,6.025932,-0.0623188,-0.03046346,-0.03284614,-0.01110224,-0.1286657,0.9910818
634796820069320000,0.1016618,0.09384164,-0.9931574,-3,21.06,-42.9,19,281,5,-0.0940195,-0.1135248,-0.1854627,6.019041,-0.06743574,-0.03025293,-0.03540481,-0.01054675,-0.1321039,0.9905472
634796820069520000,0.08602151,0.1173021,-1.032258,-3,21.06,-42.9,18,280,5,-0.1354887,-0.04430692,-0.3280689,6.014993,-0.06908202,-0.02962446,-0.03619946,-0.01005344,-0.1341073,0.9902544
634796820069720000,0.1016618,0.1290323,-1.051808,-3,21.06,-42.9,18,280,5,-0.2685007,0.0994068,-0.3791517,6.007914,-0.07291436,-0.02707982,-0.03795745,-0.008402151,-0.1375867,0.9897265
634796820069920000,0.1407625,0.1251222,-1.047898,-2.58,21.9,-42.78,14,276,5,-0.3344827,0.1004913,-0.3312616,6.001488,-0.07919549,-0.02384865,-0.04086518,-0.00623971,-0.140731,0.9891844
634796820070120000,0.1329423,0.1173021,-1.008798,-2.58,21.9,-42.78,14,276,5,0.1220815,0.1473135,-0.2195179,5.996519,-0.08379769,-0.02208125,-0.04303017,-0.004934778,-0.1431667,0.9887504
634796820070320000,0.1016618,0.1212121,-0.9540567,-2.58,21.9,-42.78,18,280,5,0.251917,0.0983135,-0.3131698,5.985713,-0.07990217,-0.01621079,-0.04069832,-0.002090871,-0.1483858,0.9880896
634796820070520000,0.08993158,0.1173021,-0.9345064,-2.58,21.9,-42.78,19,281,5,0.1071626,-0.03261577,-0.4238492,5.980988,-0.07791924,-0.01454937,-0.03959917,-0.001323522,-0.1506861,0.9877874
634796820070720000,0.08211143,0.1173021,-0.9657869,-1.74,22.14,-42.48,14,276,5,0.05074364,-0.1305019,-0.5568773,5.973097,-0.07709097,-0.01485681,-0.03921891,-0.001383078,-0.1545872,0.9871995
634796820070920000,0.09775171,0.113392,-1.012708,-1.74,22.14,-42.48,14,276,5,0.1166977,-0.1198088,-0.588804,5.963341,-0.07583451,-0.01782346,-0.03884108,-0.002755265,-0.1594539,0.9864372
634796820071120000,0.1173021,0.09775171,-1.047898,-1.74,22.14,-42.48,11,273,5,0.2071453,-0.0804015,-0.3599957,5.95506,-0.07389331,-0.01899052,-0.03799031,-0.00332845,-0.1635546,0.9857969
634796820071320000,0.1173021,0.08602151,-1.055718,-1.74,22.14,-42.48,12,274,5,0.1826681,0.01110132,-0.1929123,5.94793,-0.06869316,-0.01746857,-0.03531359,-0.002877506,-0.1670343,0.9853143
634796820071520000,0.1094819,0.08602151,-1.032258,-1.74,22.14,-42.48,12,274,5,-0.01102239,0.1004758,-0.2088757,5.945858,-0.06905484,-0.01654124,-0.0354171,-0.002353674,-0.1680408,0.9851408
634796820071720000,0.1016618,0.09384164,-1.008798,-1.74,22.14,-42.48,12,274,5,-0.1844658,-0.001670127,-0.1843985,5.943435,-0.0721674,-0.01611018,-0.03691635,-0.001835112,-0.1692298,0.9848833
634796820071920000,0.1016618,0.09775171,-1.012708,-1.74,22.14,-42.48,11,273,5,-0.1727451,-0.09849025,-0.1289892,5.942251,-0.07490897,-0.01616907,-0.03827227,-0.001609476,-0.1698166,0.9847309
634796820072120000,0.1055719,0.09384164,-1.016618,-2.22,22.08,-43.44,13,275,5,0.1400716,0.007971432,-0.1575716,5.941067,-0.07427358,-0.01662695,-0.03799929,-0.001866437,-0.1704073,0.984639
634796820072320000,0.1016618,0.1016618,-1.000978,-2.22,22.08,-43.44,13,275,5,0.01976894,0.06011134,-0.076616,5.939131,-0.07222962,-0.01501048,-0.03685697,-0.001208925,-0.1713305,0.9845232
634796820072520000,0.08993158,0.1094819,-0.9814272,-2.22,22.08,-43.44,13,275,5,-0.03877451,0.02389915,0.06387651,5.939757,-0.07298446,-0.01042819,-0.03683743,0.001100041,-0.1709426,0.9845915
634796820072720000,0.09384164,0.09384164,-0.9736071,-2.22,22.08,-43.44,13,275,5,0.1133828,0.001568519,-0.009545238,5.941017,-0.07262659,-0.008456588,-0.03649439,0.002017166,-0.1702884,0.9847162
634796820072920000,0.09384164,0.07820137,-0.9736071,-2.22,22.08,-43.44,13,275,5,0.1750884,-0.0537284,-0.05846671,5.941,-0.07016778,-0.007499218,-0.03520226,0.002279478,-0.1702828,0.9847636
634796820073120000,0.08993158,0.09775171,-0.9853373,-2.94,22.5,-42.54,15,277,5,-0.02181417,-0.08033244,-0.04246949,5.940869,-0.06966639,-0.007117629,-0.03492289,0.002426985,-0.1703415,0.9847631
634796820073320000,0.08602151,0.1055719,-1.000978,-2.94,22.5,-42.54,14,276,5,-0.1122416,-0.06324204,0.01820518,5.941632,-0.07165337,-0.006940126,-0.03588715,0.002669942,-0.1699603,0.9847936
634796820073520000,0.08602151,0.09775171,-1.004888,-2.94,22.5,-42.54,14,276,5,-0.08772876,-0.05041494,0.001189389,5.942581,-0.07368659,-0.006111026,-0.03681948,0.003233517,-0.1694752,0.9848411
634796820073720000,0.08993158,0.09384164,-1.000978,-2.94,22.5,-42.54,14,276,5,-0.07598887,-0.0121056,-0.001986153,5.943721,-0.07677937,-0.00413096,-0.03817727,0.004448834,-0.1688716,0.9848884
634796820073920000,0.09384164,0.08993158,-0.9892473,-2.94,22.5,-42.54,13,275,5,-0.1365739,-0.04295781,0.01291939,5.94462,-0.07930231,-0.003062606,-0.03933193,0.005170241,-0.1684024,0.9849197
634796820074120000,0.08993158,0.07820137,-0.9892473,-2.94,22.5,-42.54,13,275,5,-0.06205412,-0.0822655,-0.04347827,5.945425,-0.08172941,-0.002632618,-0.04049322,0.005570058,-0.1679911,0.9849408
634796820074320000,0.08602151,0.08211143,-0.9970675,-2.94,22.5,-42.54,13,275,5,0.02094342,-0.02372853,-0.1041105,5.944981,-0.08227992,-0.002204299,-0.040727,0.005836294,-0.1681997,0.984894
634796820074520000,0.09384164,0.09384164,-1.004888,-3.12,22.74,-42.6,14,276,5,0.02626156,-0.1013757,-0.09981494,5.94381,-0.0816443,-0.001809597,-0.04037732,0.006000849,-0.1687705,0.9848098
634796820074720000,0.1016618,0.1094819,-1.028348,-3.12,22.74,-42.6,13,275,5,0.05819108,-0.08961067,0.01194615,5.943346,-0.0813024,-0.002151728,-0.04023654,0.005812836,-0.1690063,0.9847761
634796820074920000,0.1094819,0.1055719,-1.043988,-3.12,22.74,-42.6,14,276,5,0.1794969,0.08176747,0.07791343,5.946021,-0.07714175,0.001191616,-0.03791471,0.007056928,-0.1676373,0.9850941
634796820075120000,0.1212121,0.08602151,-1.028348,-3.12,22.74,-42.6,14,276,5,0.2007814,0.213653,0.09703074,5.948002,-0.0737741,0.006034612,-0.03585888,0.009124668,-0.1665842,0.9853327
634796820075320000,0.1173021,0.06647116,-1.008798,-3.12,22.74,-42.6,15,277,5,0.03260722,0.1380447,0.1320993,5.950401,-0.07291722,0.00946617,-0.03516326,0.01070167,-0.1653431,0.9855509
634796820075520000,0.113392,0.05865103,-1.004888,-3.48,23.04,-42.12,15,277,5,-0.1333424,0.03795311,0.08944771,5.95292,-0.07484055,0.01349246,-0.03579362,0.01279946,-0.1640155,0.985725
634796820075720000,0.113392,0.05865103,-1.000978,-3.48,23.04,-42.12,16,278,5,-0.04073322,0.06558997,0.02983589,5.954222,-0.07627987,0.0153029,-0.03636296,0.01378599,-0.1633293,0.9858049
634796820075920000,0.1212121,0.07038123,-1.004888,-3.48,23.04,-42.12,15,277,5,-0.02156237,0.0485299,-0.01592324,5.955289,-0.07696795,0.01793611,-0.03619601,0.01642992,-0.1627446,0.9858672
634796820076120000,0.1251222,0.08211143,-1.004888,-3.48,23.04,-42.12,15,277,5,0.02207597,0.00174529,0.02876389,5.955766,-0.07621384,0.0224694,-0.03575632,0.01728497,-0.1624285,0.9859207
634796820076320000,0.1290323,0.08211143,-1.008798,-3.48,23.04,-42.12,16,278,5,0.05398708,-0.04187921,0.01065535,5.956324,-0.07498049,0.02363729,-0.03505794,0.0177507,-0.1621414,0.9859848
634796820076520000,0.1290323,0.08211143,-1.012708,-3.12,23.1,-42.06,16,278,5,-0.006692273,-0.003568811,-0.02021963,5.95615,-0.07437515,0.02493691,-0.03465194,0.0183452,-0.1622076,0.9859774
634796820076720000,0.1251222,0.08993158,-1.004888,-3.12,23.1,-42.06,16,278,5,-0.1716185,0.01662636,0.00742873,5.956055,-0.07504272,0.02620148,-0.03487699,0.01902434,-0.1622234,0.985954
634796820076920000,0.1212121,0.08602151,-0.9970675,-3.12,23.1,-42.06,16,278,5,-0.1918388,0.0007013975,0.03826401,5.956486,-0.07828259,0.0280689,-0.03632601,0.02019962,-0.1619418,0.9859246
634796820077120000,0.1251222,0.08993158,-1.004888,-3.12,23.1,-42.06,16,278,5,0.06039382,-0.07802188,0.03293853,5.957978,-0.07754659,0.02939749,-0.03587046,0.02076809,-0.1611867,0.9860532
634796820077320000,0.1290323,0.08993158,-1.020528,-3.12,23.1,-42.06,16,278,5,0.2785468,-0.01205962,0.04145467,5.95896,-0.07306385,0.03075349,-0.0335606,0.02105881,-0.1607226,0.9862041
634796820077520000,0.1251222,0.0742913,-1.024438,-3.06,22.92,-42.54,17,279,5,0.01779118,0.0156592,0.06164855,5.960184,-0.07133508,0.03239083,-0.03258887,0.02170716,-0.1601057,0.9863229
634796820077720000,0.1212121,0.07038123,-1.008798,-3.06,22.92,-42.54,17,279,5,0.0805827,0.003997634,0.02010152,5.960873,-0.07119226,0.03355718,-0.03243206,0.02225964,-0.1597459,0.9863741
634796820077920000,0.113392,0.0742913,-0.9970675,-3.06,22.92,-42.54,15,277,5,0.1337663,-0.01301059,-0.001181065,5.961449,-0.06990885,0.03506612,-0.03168433,0.02289206,-0.1594478,0.9864322
634796820078120000,0.113392,0.07038123,-1.004888,-3.06,22.92,-42.54,15,277,5,0.1369261,-0.03212642,-0.02566133,5.961623,-0.06749701,0.03631842,-0.03039616,0.02331469,-0.159367,0.9864759
634796820078320000,0.1212121,0.06647116,-1.012708,-3.06,22.92,-42.54,15,277,5,0.2561193,-0.02361518,-0.04164355,5.960972,-0.06002593,0.03770339,-0.02659209,0.02341093,-0.1597517,0.9865212
634796820078520000,0.1368524,0.06256109,-1.032258,-3.06,22.92,-42.54,15,277,5,0.4668359,-0.03638332,-0.05120582,5.96034,-0.051759,0.03837335,-0.02245306,0.02308792,-0.1601491,0.9865673
634796820078720000,0.1329423,0.05474096,-1.036168,-3.06,22.92,-42.54,15,277,5,0.5062122,0.08071391,-0.08739278,5.958966,-0.04299306,0.04107428,-0.0178949,0.02373035,-0.1608939,0.9865241
634796820078920000,0.1368524,0.04692082,-1.008798,-2.1,22.08,-42.54,14,276,5,0.3242297,0.1466468,-0.06719038,5.958203,-0.03882813,0.04369891,-0.01561872,0.02469568,-0.1612893,0.9864745
634796820079120000,0.1407625,0.04301075,-0.9853373,-2.1,22.08,-42.54,13,275,5,0.02303749,0.04018363,-0.02357641,5.958052,-0.03722953,0.04634249,-0.01461399,0.02587158,-0.1613547,0.9864491
634796820079320000,0.1329423,0.04301075,-0.9853373,-2.1,22.08,-42.54,14,276,5,-0.1152226,-0.02898536,-0.06292219,5.957811,-0.040066,0.04956627,-0.01574817,0.02769203,-0.1613982,0.9863751
634796820079520000,0.1368524,0.05083089,-0.9892473,-2.1,22.08,-42.54,14,276,5,-0.07473713,-0.1194199,-0.05651237,5.95718,-0.04195285,0.04927671,-0.01669347,0.02770675,-0.161687,0.9863118
634796820079720000,0.1485826,0.0742913,-1.000978,-2.1,22.08,-42.54,15,277,5,-0.07473713,-0.1194199,-0.05651237,5.957208,-0.04066109,0.04955446,-0.01603431,0.02773904,-0.1616878,0.9863217
634796820079920000,0.1446725,0.07820137,-1.004888,-1.74,21.78,-42.78,15,277,5,0.2179227,-0.02256276,0.0392265,5.958311,-0.03677034,0.05059791,-0.01404599,0.02793122,-0.1611859,0.9864287
634796820080120000,0.1329423,0.05083089,-0.9970675,-1.74,21.78,-42.78,16,278,5,-0.05558054,-0.05024251,0.08811168,5.960648,-0.03386569,0.05227029,-0.01251113,0.02850726,-0.1600558,0.9866169
634796820080320000,0.1290323,0.03128055,-0.9931574,-1.74,21.78,-42.78,16,278,5,-0.1438555,-0.08528106,0.02957387,5.9624,-0.03512025,0.05291867,-0.01310321,0.02891597,-0.1591664,0.9867412
634796820080530000,0.1329423,0.03128055,-1.000978,-1.74,21.78,-42.78,16,278,5,-0.1853209,-0.08734959,0.006148042,5.963701,-0.04034472,0.05252767,-0.01573104,0.02912858,-0.1584534,0.9868113
634796820080720000,0.1368524,0.04692082,-1.008798,-1.74,21.78,-42.78,14,276,5,-0.1374141,-0.1448178,0.006121116,5.964398,-0.04349756,0.0514263,-0.01738454,0.02882897,-0.1580777,0.9868526
634796820080920000,0.1329423,0.06256109,-1.020528,-1.74,21.78,-42.78,13,275,5,0.03607553,-0.07777082,0.01781014,5.965219,-0.04356503,0.05068004,-0.01748887,0.02845896,-0.1576814,0.9869249
634796820081120000,0.1368524,0.05865103,-1.028348,-1.2,21.36,-42.9,13,275,5,0.1158759,0.01053667,0.07312611,5.966727,-0.04142665,0.05193686,-0.01635576,0.02889811,-0.1569518,0.9870479
634796820081320000,0.1329423,0.04692082,-1.024438,-1.2,21.36,-42.9,13,275,5,0.01369392,-0.04693181,0.07841723,5.968731,-0.04045486,0.05298996,-0.01582228,0.02932565,-0.155964,0.9872006
634796820081520000,0.1290323,0.03910068,-1.024438,-1.2,21.36,-42.9,13,275,5,-0.009721699,-0.02982024,-0.0163119,5.969494,-0.04060745,0.05314922,-0.01589634,0.02941006,-0.1555829,0.9872569
634796820081720000,0.1329423,0.05083089,-1.024438,-1.2,21.36,-42.9,13,275,5,-0.04909761,-0.01172235,-0.01949755,5.970163,-0.04160857,0.05461179,-0.0162861,0.03020434,-0.1552204,0.9872837
634796820081920000,0.1329423,0.06256109,-1.024438,-1.2,21.36,-42.9,11,273,5,0.2052393,-0.004251915,0.01774724,5.971088,-0.03784394,0.0554837,-0.01437353,0.03033582,-0.1548099,0.9873738
634796820082120000,0.1329423,0.07038123,-0.9931574,-1.2,21.36,-42.9,11,273,5,0.5574979,0.07662186,0.05178084,5.972858,-0.02986479,0.05909168,-0.01018115,0.03149,-0.1540213,0.9875131
634796820082320000,0.1485826,0.05083089,-0.9736071,-0.54,21.24,-42.6,11,273,5,-0.1597733,-0.01808812,0.2954718,5.976363,-0.03060031,0.06171655,-0.01039846,0.03282429,-0.1522533,0.9877416
634796820082520000,0.1407625,0.03910068,-0.9814272,-0.54,21.24,-42.6,11,273,5,-0.536509,-0.3618328,0.2667377,5.982321,-0.04095769,0.05638922,-0.01601419,0.03093431,-0.1492037,0.9881927
634796820082720000,0.1212121,0.04301075,-1.000978,-0.54,21.24,-42.6,11,273,5,0.01371626,0.03197441,-0.1046713,5.985673,-0.04733777,0.05341566,-0.01944027,0.02990868,-0.1474887,0.9884203
634796820082920000,0.1407625,0.05083089,-1.012708,-0.54,21.24,-42.6,12,274,5,0.1137375,-0.0191367,-0.1599662,5.982962,-0.04639935,0.05558145,-0.01877352,0.0309351,-0.148813,0.988203
634796820083120000,0.1485826,0.05865103,-1.028348,-0.54,21.24,-42.6,10,272,5,0.6000884,0.1447055,-0.1716377,5.980473,-0.03971195,0.05776966,-0.0152657,0.03153742,-0.1501196,0.9880468
634796820083320000,0.1446725,0.0742913,-1.028348,-0.72,21.42,-42.54,12,274,5,0.6841622,0.1148679,-0.0779647,5.97911,-0.03156877,0.06045437,-0.01101784,0.03225964,-0.1508929,0.9879622
634796820083520000,0.1290323,0.07038123,-1.000978,-0.72,21.42,-42.54,12,274,5,0.1658709,-0.02025169,0.0837789,5.979066,-0.02226996,0.06272197,-0.006251588,0.03267792,-0.1510452,0.9879668
