Timestamp,Acc.X,Acc.Y,Acc.Z,Comp.X,Comp.Y,Comp.Z,Comp.TrueHeading,Comp.MagneticHeading,Comp.HeadingAccuracy,Gyro.X,Gyro.Y,Gyro.Z,Motion.Yaw,Motion.Pitch,Motion.Roll,Motion.X,Motion.Y,Motion.Z,Motion.W
634796822335520000,0.1173021,0.02737048,-1.004888,0,0,0,0,0,0,0,0,0,0,0,0,0,0,0,0
634796822335720000,0.1016618,0.03519062,-1.004888,0,0,0,0,0,0,0,0,0,0,0,0,0,0,0,0
634796822335930000,0.1016618,0.03910068,-1.004888,0,0,0,0,0,0,0,0,0,0,0,0,0,0,0,0
634796822336120000,0.1094819,0.04692082,-1.000978,0,0,0,0,0,0,0,0,0,0,0,0,0,0,0,0
634796822336320000,0.1173021,0.03910068,-0.9970675,0,0,0,0,0,0,0,0,0,0,0,0,0,0,0,0
634796822336520000,0.1212121,0.03128055,-1.004888,0,0,0,0,0,0,0,0,0,0,0,0,0,0,0,0
634796822336720000,0.1251222,0.03519062,-1.008798,0,0,0,0,0,0,-0.1498969,0.05696211,0.02167114,0,0,0,0,0,0,0
634796822336920000,0.1212121,0.04301075,-1.004888,2.4,18.3,-37.8,0,262,5,-0.2754754,0.006933948,0.02489553,0,0,0,0,0,0,0
634796822337120000,0.1212121,0.04692082,-1.000978,3.06,17.1,-39,359,5,5,-0.3467786,-0.006915459,0.003630505,0,0,0,0,0,0,0
634796822337320000,0.1212121,0.05474096,-0.9970675,3.06,17.1,-39,359,5,5,-0.2765397,-0.02927792,0.01427765,0,0,0,0,0,0,0
634796822337520000,0.1173021,0.06256109,-0.9853373,3.06,17.1,-39,0,262,5,-0.1062059,-0.1293235,0.06431422,0,0,0,0,0,0,0
634796822337740000,0.1094819,0.06647116,-0.9853373,3.06,17.1,-39,0,262,5,0.1427493,-0.04523704,0.03772572,0,0,0,0,0,0,0
634796822337920000,0.1094819,0.05083089,-0.9853373,3.06,17.1,-39,0,262,5,0.1427493,-0.04523704,0.03772572,0,0,0,0,0,0,0
634796822338120000,0.1094819,0.04301075,-0.9931574,3.06,17.1,-39,0,262,5,0.04694678,-0.1175823,0.02810374,0,0,0,0,0,0,0
634796822338320000,0.1094819,0.05474096,-1.012708,3.06,17.1,-39,358,4,5,-0.1435223,-0.2527389,-0.0325423,0,0,0,0,0,0,0
634796822338520000,0.1094819,0.0742913,-1.032258,3.36,18.48,-38.7,357,3,5,-0.3042203,-0.1165075,0.02179182,0,0,0,0,0,0,0
634796822338720000,0.1094819,0.07820137,-1.032258,3.36,18.48,-38.7,356,2,5,-0.1573283,-0.04624976,0.04409947,0,0,0,0,0,0,0
634796822338930000,0.1094819,0.08211143,-1.028348,3.36,18.48,-38.7,356,2,5,0.1300253,-0.021763,0.02489,6.261552,-0.06666446,0.103283,-0.03272162,0.05194685,-0.009075608,0.9980724
634796822339120000,0.1055719,0.08211143,-1.024438,3.36,18.48,-38.7,356,2,5,0.1843008,0.08357486,-0.02941028,6.267198,-0.06598782,0.1037115,-0.03252842,0.05206598,-0.006268591,0.9980941
634796822339320000,0.1055719,0.0742913,-1.012708,3.36,18.48,-38.7,356,2,5,0.06613347,0.087781,0.015271,6.27418,-0.06613707,0.1055312,-0.03277885,0.0528604,-0.002750292,0.99806
634796822339520000,0.1094819,0.06256109,-0.9970675,3.06,19.02,-37.56,356,2,5,-0.08817417,-0.06016003,0.05352447,6.282126,-0.0694592,0.1059126,-0.03464595,0.05291795,0.001309136,0.9979968
634796822339720000,0.1094819,0.06647116,-0.9970675,3.06,19.02,-37.56,356,2,5,-0.005109587,-0.1399688,0.0247508,0.01016276,-0.07191086,0.1014814,-0.03615847,0.05050306,0.006894741,0.9980453
634796822339920000,0.1055719,0.08211143,-1.004888,3.06,19.02,-37.56,356,2,5,0.1630265,-0.1208029,0.04817311,0.01271594,-0.06983614,0.1005877,-0.03518559,0.05001929,0.008101049,0.9980954
634796822340120000,0.1094819,0.08602151,-1.004888,3.06,19.02,-37.56,357,3,5,0.217302,-0.1271763,0.0588043,0.01648205,-0.06701517,0.09916258,-0.03386727,0.04925572,0.009886488,0.9981629
634796822340320000,0.113392,0.07038123,-0.9970675,3.06,19.02,-37.56,357,3,5,0.2034671,-0.09521729,0.07577114,0.02022149,-0.06671166,0.09835456,-0.03380438,0.04879085,0.01173203,0.9981679
634796822340520000,0.1094819,0.05865103,-0.9931574,3.06,19.02,-37.56,357,3,5,0.07147078,-0.1260584,0.01509455,0.02193685,-0.06733775,0.09793483,-0.03415673,0.04854837,0.01259646,0.9981572
634796822340720000,0.1055719,0.05865103,-1.004888,3.06,19.02,-37.56,357,3,5,-0.02003971,-0.1441503,0.02470865,0.02259828,-0.06785964,0.09734094,-0.03443041,0.04823733,0.01292933,0.9981586
634796822340920000,0.1055719,0.05865103,-1.012708,3.3,18.66,-37.62,357,3,5,-0.0636458,-0.09625246,-0.001887503,0.02348042,-0.06806993,0.09702586,-0.034555,0.04806346,0.01336939,0.9981474
634796822341140000,0.1016618,0.06647116,-1.012708,3.3,18.66,-37.62,356,2,5,-0.0572497,-0.02602692,-0.09019723,0.02532824,-0.06771994,0.09781479,-0.03442904,0.04842775,0.01429628,0.9981308
634796822341320000,0.1016618,0.0742913,-1.004888,3.3,18.66,-37.62,356,2,5,-0.02324505,-0.04519084,-0.009334205,0.02743019,-0.06731772,0.09797239,-0.0342802,0.04847327,0.01533815,0.9981182
634796822341520000,0.09775171,0.0742913,-0.9931574,3.3,18.66,-37.62,356,2,5,0.06293101,-0.00261492,-0.01248591,0.03024976,-0.06665372,0.09790348,-0.03401663,0.04839607,0.01672807,0.9981086
634796822341720000,0.09384164,0.07038123,-0.9814272,3.3,18.66,-37.62,355,1,5,0.09483255,-0.005803869,-0.04333439,0.03187054,-0.06604123,0.09817993,-0.03375208,0.04851181,0.01752656,0.9980983
634796822341920000,0.09384164,0.06256109,-0.9853373,3.3,18.66,-37.62,355,1,5,0.07885534,-0.0472797,-0.05080419,0.03404251,-0.06558155,0.09812307,-0.03357492,0.04845104,0.01859841,0.9980878
634796822342120000,0.09384164,0.06256109,-0.9970675,3.06,19.26,-37.14,355,1,5,0.05545685,-0.1015062,-0.05506737,0.03820711,-0.06512713,0.095335,-0.03342461,0.0469943,0.02062166,0.9981228
634796822342330000,0.08993158,0.07038123,-1.004888,3.06,19.26,-37.14,355,1,5,0.07888066,-0.05783989,-0.04759864,0.04025028,-0.06398725,0.09411549,-0.03289238,0.04636376,0.02159565,0.9981493
634796822342520000,0.09384164,0.07038123,-1.004888,3.06,19.26,-37.14,355,1,5,0.12886,0.01559047,-0.04650142,0.04164141,-0.06291675,0.09409451,-0.03239021,0.04634233,0.02226479,0.9981521
634796822342720000,0.1016618,0.07038123,-1.004888,3.06,19.26,-37.14,354,0,5,0.1831108,0.04111527,-0.03049122,0.04375192,-0.06089639,0.0945183,-0.03143508,0.04654316,0.02327752,0.9981502
634796822342920000,0.1094819,0.05865103,-1.004888,3.66,19.14,-36.84,354,0,5,0.1320033,0.03472002,-0.002789647,0.04579962,-0.05969143,0.09499347,-0.03088653,0.04676277,0.02427827,0.9981332
634796822343120000,0.113392,0.04692082,-1.004888,3.66,19.14,-36.84,354,0,5,0.04894827,0.003845992,0.007836323,0.04713063,-0.06012487,0.09585869,-0.03114352,0.04716861,0.02496515,0.9980892
634796822343320000,0.1055719,0.05083089,-1.000978,3.66,19.14,-36.84,355,1,5,-0.042537,-0.03235395,0.007810994,0.04938433,-0.06102466,0.09730387,-0.03166235,0.04784294,0.02613218,0.9980109
634796822343520000,0.09775171,0.06256109,-0.9970675,3.66,19.14,-36.84,355,1,5,-0.01059088,-0.02809694,0.03653677,0.05124442,-0.06056213,0.0977571,-0.03148157,0.04804595,0.02705588,0.9979822
634796822343720000,0.09775171,0.05865103,-0.9970675,3.66,19.14,-36.84,354,0,5,0.07879286,-0.01108477,0.01734581,0.05375893,-0.0591619,0.09813416,-0.03084801,0.04821426,0.02828227,0.9979599
634796822343920000,0.1016618,0.05083089,-0.9970675,3.72,18.96,-37.5,353,255,5,0.1042815,-0.004727086,-0.01885604,0.05619524,-0.05721926,0.09834979,-0.02994029,0.04831292,0.02945405,0.9979488
634796822344120000,0.1055719,0.05083089,-1.004888,3.72,18.96,-37.5,353,255,5,0.02550349,-0.02600755,-0.02945264,0.05849525,-0.0555923,0.09831237,-0.02918346,0.04828461,0.03056189,0.9979393
634796822344320000,0.1055719,0.05083089,-1.004888,3.72,18.96,-37.5,354,0,5,-0.04153471,-0.003650407,-0.02629434,0.05968679,-0.05499291,0.09813404,-0.0289106,0.04818758,0.03113964,0.9979341
634796822344540000,0.1016618,0.05083089,-0.9970675,3.72,18.96,-37.5,354,0,5,-0.06173583,-0.01748661,-0.013538,0.06263309,-0.05584406,0.09852099,-0.0294121,0.04832416,0.0326353,0.997865
634796822344720000,0.1016618,0.05474096,-1.000978,3.72,18.96,-37.5,354,0,5,0.02233231,-0.072836,-0.02209608,0.06396363,-0.05523228,0.09794128,-0.02913005,0.04802552,0.03327683,0.9978666
634796822344920000,0.1094819,0.05865103,-1.012708,3.72,18.96,-37.5,354,0,5,0.1084946,-0.06645193,-0.02638363,0.06525281,-0.05333924,0.09691822,-0.02820063,0.04752832,0.03386178,0.9978974
634796822345120000,0.113392,0.05865103,-1.020528,3.72,18.96,-37.5,354,0,5,0.1850983,0.04633721,-0.01151331,0.06619141,-0.05141282,0.09725963,-0.02726713,0.04771845,0.03428841,0.9978997
634796822345320000,0.113392,0.05083089,-1.008798,3.72,18.54,-37.92,355,1,5,0.1755203,0.07610922,-0.008299034,0.06706534,-0.04879164,0.09906614,-0.02600922,0.04865345,0.03468241,0.9978745
634796822345520000,0.113392,0.04692082,-0.9931574,3.72,18.54,-37.92,355,1,5,0.08820753,0.03670777,0.008760176,0.06734773,-0.04851126,0.102242,-0.02592772,0.05023928,0.03485223,0.9977921
634796822345730000,0.1173021,0.04692082,-0.9931574,3.72,18.54,-37.92,355,1,5,-0.1203604,-0.01119854,0.005558029,0.06741034,-0.0513289,0.1029249,-0.02734597,0.05052998,0.03496237,0.9977357
634796822345920000,0.1212121,0.05474096,-0.9970675,3.72,18.54,-37.92,355,1,5,-0.2214618,-0.01759496,0.001340291,0.06714618,-0.05363584,0.1034186,-0.02849809,0.05073969,0.03489504,0.9976951
634796822346120000,0.1251222,0.05865103,-0.9931574,3.72,18.54,-37.92,356,2,5,-0.1884708,-0.01654021,0.01733442,0.06659838,-0.05640864,0.1042942,-0.02988128,0.05113622,0.03470365,0.9976411
634796822346320000,0.1290323,0.0742913,-0.9931574,3.9,18.18,-38.1,356,2,5,-0.09265295,-0.02080466,0.01096184,0.06568915,-0.0583601,0.1052917,-0.03084707,0.05161399,0.03431366,0.9976007
634796822346520000,0.1251222,0.08602151,-1.008798,3.9,18.18,-38.1,356,2,5,0.02972304,0.02492435,0.03440662,0.06496337,-0.05792165,0.1071349,-0.03063803,0.05255213,0.03396537,0.99757
634796822346720000,0.1173021,0.08602151,-1.016618,3.9,18.18,-38.1,357,3,5,0.01798602,0.05683302,0.127021,0.06467405,-0.05902385,0.1106641,-0.03123432,0.0542983,0.03389889,0.9974602
634796822346920000,0.1173021,0.07038123,-1.012708,3.9,18.18,-38.1,357,3,5,-0.0320199,0.1015031,0.1174316,0.06575187,-0.06127214,0.1132245,-0.03242467,0.05551965,0.0345342,0.9973332
634796822347120000,0.113392,0.04692082,-0.9970675,3.9,18.18,-38.1,355,1,5,-0.04052125,0.05675959,0.07271787,0.06686759,-0.06389785,0.1153973,-0.03379923,0.05653897,0.03519596,0.9972072
634796822347320000,0.1094819,0.04692082,-0.9931574,3.9,18.18,-38.1,355,1,5,-0.04052125,0.05675959,0.07271787,0.06731832,-0.06578898,0.1160666,-0.03476538,0.05683159,0.03548446,0.9971471
634796822347520000,0.1016618,0.06256109,-0.9970675,3.36,17.76,-38.1,357,3,5,-0.02027384,0.0003094676,0.04176701,0.06761215,-0.0654776,0.1155586,-0.03461042,0.05657874,0.0356143,0.9971623
634796822347720000,0.1016618,0.06647116,-0.9970675,3.36,17.76,-38.1,356,2,5,0.006338286,-0.006088548,0.05345976,0.06764493,-0.06470013,0.1153543,-0.03422044,0.05649012,0.03560555,0.9971811
634796822347940000,0.1094819,0.05865103,-1.000978,3.36,17.76,-38.1,355,1,5,0.04037689,0.04816278,0.009826742,0.06848832,-0.06270695,0.1145648,-0.03323775,0.05611786,0.03595819,0.9972227
634796822348120000,0.1094819,0.05083089,-1.000978,3.36,17.76,-38.1,355,1,5,0.02333013,0.03534812,-0.0146631,0.06781445,-0.06198287,0.1146842,-0.03285965,0.05620153,0.03560359,0.9972432
634796822348320000,0.1173021,0.05865103,-1.004888,3.36,17.76,-38.1,356,2,5,-0.01285491,-0.03279368,-0.01682816,0.06715945,-0.06182313,0.114282,-0.03275532,0.05601452,0.03526669,0.9972692
634796822348520000,0.1212121,0.06256109,-1.008798,3,18.24,-37.5,357,3,5,-0.05115158,-0.03918116,0.01823976,0.06645122,-0.06163263,0.1129852,-0.03262012,0.05538272,0.03488949,0.9973221
634796822348720000,0.1173021,0.05474096,-1.008798,3,18.24,-37.5,358,4,5,-0.02239952,-0.02962272,0.008619377,0.06524675,-0.06185937,0.1122086,-0.03268784,0.05501112,0.03428388,0.9973615
634796822348920000,0.113392,0.05474096,-1.000978,3,18.24,-37.5,358,4,5,0.02868968,-0.01155835,0.01393901,0.06307802,-0.06165671,0.1121205,-0.03252578,0.05500599,0.0331955,0.9974039
634796822349130000,0.1173021,0.05865103,-0.9931574,3,18.24,-37.5,358,4,5,0.06592457,-0.02222103,0.01818336,0.06022148,-0.05918813,0.111853,-0.03121217,0.05495811,0.0316992,0.9974971
634796822349320000,0.1251222,0.05474096,-1.000978,3,18.24,-37.5,358,4,5,0.0776021,-0.06267969,5.662078E-05,0.05842254,-0.05755639,0.1109808,-0.03033687,0.05457618,0.03074528,0.997575
634796822349520000,0.1212121,0.05474096,-1.012708,3,18.24,-37.5,359,5,5,0.01372401,-0.03501942,-0.01168476,0.05605,-0.05709314,0.1105962,-0.03003594,0.05442711,0.02954403,0.9976286
634796822349720000,0.1173021,0.05865103,-1.008798,3,18.24,-37.5,359,5,5,-0.03522482,-0.04567614,-0.01276697,0.05443198,-0.05739522,0.1105063,-0.03014142,0.05440219,0.02874393,0.9976501
634796822349920000,0.1212121,0.05865103,-1.008798,3.06,17.88,-36.84,359,5,5,-0.02773001,-0.04355333,-0.02659711,0.05201082,-0.05780696,0.1101813,-0.03027702,0.05427087,0.02754294,0.997687
634796822350120000,0.1290323,0.05865103,-1.020528,3.06,17.88,-36.84,358,4,5,0.02122424,-0.05419165,-0.02339805,0.04773102,-0.05812788,0.1096321,-0.03031486,0.05405746,0.02540904,0.9977541
634796822350320000,0.1407625,0.06256109,-1.036168,3.06,17.88,-36.84,358,4,5,0.1808388,0.02562951,-0.003167131,0.04644503,-0.05721831,0.109331,-0.02982297,0.05393797,0.02473878,0.9977922
634796822350520000,0.1407625,0.0742913,-1.036168,3.06,17.88,-36.84,359,5,5,0.2883255,0.1554298,0.01493651,0.04418971,-0.05351448,0.1119037,-0.02794073,0.05529882,0.02354638,0.9978011
634796822350720000,0.1407625,0.07820137,-0.9775171,3.06,17.88,-36.84,359,5,5,0.2968393,0.2820261,0.07560042,0.04170772,-0.04870963,0.1167541,-0.02552191,0.05780696,0.02223116,0.9977539
634796822350920000,0.1642229,0.04692082,-0.9345064,3.42,18,-36.9,359,5,5,-0.3299721,0.1564248,0.159667,0.04085978,-0.05042195,0.1267948,-0.02644622,0.06280765,0.02197769,0.9974331
634796822351120000,0.1759531,0.03910068,-0.9579667,3.42,18,-36.9,1,263,5,-0.8940114,-0.6364257,0.2181994,0.04098687,-0.07280517,0.1189908,-0.03754018,0.05866392,0.02260577,0.9973155
634796822351330000,0.1485826,0.06647116,-1.004888,3.42,18,-36.9,1,263,5,-0.6918087,-0.6034347,0.08837049,0.03720905,-0.08079839,0.1119841,-0.04135824,0.05515727,0.02081899,0.9974035
634796822351520000,0.1212121,0.08602151,-1.047898,3.42,18,-36.9,1,263,5,-0.07029487,-0.1436894,-0.05419258,0.03144501,-0.07872915,0.113112,-0.0401746,0.05585732,0.01790882,0.9974694
634796822351720000,0.1251222,0.09384164,-1.075269,3.42,18,-36.9,5,267,5,0.3607071,0.2276883,-0.02012705,0.02916956,-0.07171774,0.1183469,-0.03664654,0.0585727,0.01666935,0.997471
634796822351920000,0.1407625,0.09384164,-1.071359,3.6,18.18,-36.42,356,2,5,0.4852214,0.212751,0.02031787,0.0294508,-0.06610465,0.1211306,-0.03387298,0.06000294,0.01668986,0.9974837
634796822352120000,0.1407625,0.08602151,-1.040078,3.6,18.18,-36.42,356,2,5,0.6448551,0.2755402,0.06926872,0.0307391,-0.05636454,0.1257915,-0.02908514,0.06238973,0.0171034,0.9974813
634796822352320000,0.1407625,0.06647116,-0.9657869,3.6,18.18,-36.42,358,4,5,0.5554603,0.5447892,0.09257971,0.03217996,-0.03468156,0.1379827,-0.01840535,0.06863905,0.0172438,0.9973227
634796822352530000,0.1368524,0.02737048,-0.8954057,3.6,18.18,-36.42,358,4,5,0.07761455,0.06376187,0.1425301,0.03298882,-0.02895522,0.1465343,-0.0156435,0.07294587,0.01750729,0.9970595
634796822352720000,0.1290323,-0.01564027,-0.8875855,3.6,18.18,-36.42,358,4,5,-0.3980736,-0.454496,0.1232921,0.03393418,-0.0323348,0.1449169,-0.01735006,0.07210165,0.01808977,0.9970823
634796822352920000,0.1016618,-0.02346041,-0.9266862,3.6,18.18,-36.42,358,4,5,-0.5896342,-0.6684052,0.039215,0.03472045,-0.04080438,0.1349178,-0.02152126,0.06703022,0.01869123,0.9973437
634796822353130000,0.07038123,-0.01564027,-0.9736071,4.5,17.7,-36.9,356,2,5,-0.5491936,-0.5257991,-0.1086963,0.03592626,-0.04910588,0.1229725,-0.02560357,0.06097891,0.01943114,0.9976214
634796822353320000,0.05865103,0.01564027,-0.9853373,4.5,17.7,-36.9,352,254,5,-0.2948438,-0.01070366,-0.1863711,0.03670279,-0.0540781,0.1168345,-0.02805602,0.05785758,0.01989055,0.9977323
634796822353520000,0.07820137,0.03910068,-0.9657869,4.5,17.7,-36.9,348,250,5,-0.08091243,0.2138001,-0.1650772,0.04211283,-0.05123329,0.1138248,-0.02676399,0.05631201,0.02247051,0.9978015
634796822353720000,0.1055719,0.02737048,-0.9540567,4.5,17.7,-36.9,348,250,5,0.008484188,0.1073009,-0.1182248,0.04455654,-0.04981136,0.1135749,-0.02612077,0.05617136,0.0236467,0.9977993
634796822353920000,0.1055719,-0.003910068,-0.9775171,4.5,17.7,-36.9,346,248,5,0.01486454,-0.09703085,-0.07880906,0.04772418,-0.04837584,0.1109551,-0.02546411,0.0548409,0.02515684,0.9978533
634796822354120000,0.08993158,-0.02737048,-1.000978,4.5,17.7,-36.9,352,254,5,-0.06387451,-0.1257524,-0.07342738,0.0504957,-0.0477035,0.1076211,-0.02516479,0.05315091,0.02648378,0.997918
634796822354320000,0.08602151,-0.03910068,-1.008798,4.44,18.48,-36.84,352,254,5,-0.1042836,-0.005470133,-0.1042413,0.05215622,-0.04645443,0.1062027,-0.02456806,0.05243933,0.02726367,0.9979495
634796822354520000,0.09775171,-0.04301075,-1.004888,4.44,18.48,-36.84,350,252,5,-0.1446767,0.0360173,-0.1574051,0.05295346,-0.04426813,0.1047703,-0.02205638,0.05177507,0.02795574,0.9980237
634796822354730000,0.1055719,-0.04301075,-1.024438,4.44,18.48,-36.84,350,252,5,-0.218068,-0.2044984,-0.1583299,0.05490461,-0.03778219,0.1010744,-0.02024508,0.04996981,0.0283628,0.9981427
634796822354930000,0.1055719,-0.04692082,-1.047898,4.44,18.48,-36.84,350,252,5,-0.1765428,-0.1747001,-0.1881282,0.05491102,-0.03462743,0.09707605,-0.01861773,0.0480187,0.02825531,0.9982731
634796822355120000,0.1094819,-0.03910068,-1.043988,4.44,18.48,-36.84,352,254,5,-0.1765428,-0.1747001,-0.1881282,0.05429907,-0.03212786,0.09467828,-0.01732374,0.04686239,0.02787215,0.9983621
634796822355320000,0.1094819,-0.02737048,-1.020528,3.78,18.6,-36.54,353,255,5,-0.08603901,0.01897683,-0.1806593,0.05318234,-0.03162884,0.09470485,-0.0170488,0.04689211,0.02730319,0.9983812
634796822355520000,0.1094819,-0.02737048,-0.9970675,3.78,18.6,-36.54,353,255,5,-0.148771,0.03274375,-0.04760428,0.05250349,-0.03139353,0.0952593,-0.01692252,0.04717787,0.0269628,0.9983791
634796822355720000,0.1055719,-0.04692082,-0.9775171,3.78,18.6,-36.54,354,0,5,-0.1519029,-0.04709581,-0.01247995,0.0527782,-0.02947545,0.09628784,-0.0159847,0.04771493,0.02706159,0.9983664
634796822355920000,0.09384164,-0.05865103,-0.9657869,3.78,18.6,-36.54,354,0,5,-0.06885859,-0.04815971,-0.04012182,0.05497918,-0.02342796,0.09566724,-0.01301011,0.04747245,0.02801269,0.9983949
634796822356120000,0.08211143,-0.06256109,-0.9618768,3.78,18.6,-36.54,354,0,5,0.01202901,0.04122616,-0.1039569,0.05514262,-0.01806521,0.09609866,-0.01034268,0.04776189,0.02796855,0.9984136
634796822356320000,0.08211143,-0.06256109,-0.9579667,3.78,18.6,-36.54,354,0,5,0.02372464,0.07631291,-0.1262977,0.05485121,-0.01411557,0.09695101,-0.008375518,0.0482438,0.02773114,0.9984155
634796822356520000,0.08993158,-0.05865103,-0.9501466,3.78,18.6,-36.54,353,255,5,-0.01459609,0.02094181,-0.1156658,0.0547946,-0.008195162,0.09773993,-0.005429378,0.04871967,0.02756103,0.9984174
634796822356720000,0.08993158,-0.05865103,-0.9501466,3.84,18.96,-36.6,352,254,5,-0.05396678,-0.04930354,-0.1156399,0.05514886,-0.003136396,0.09719825,-0.002905141,0.04851827,0.02761451,0.9984363
634796822356920000,0.08993158,-0.06256109,-0.9501466,3.84,18.96,-36.6,352,254,5,-0.08160482,0.03050228,-0.1283086,0.05536196,0.004503012,0.09620512,0.0009172233,0.04812769,0.02753714,0.9984611
634796822357120000,0.08993158,-0.06647116,-0.9423265,3.84,18.96,-36.6,352,254,5,-0.06879314,0.04855984,-0.1325065,0.0552698,0.006674767,0.09661233,0.001997934,0.0483608,0.02743791,0.998451
634796822357320000,0.08602151,-0.06256109,-0.9345064,3.84,18.96,-36.6,352,254,5,-0.04640535,0.02618557,-0.1229355,0.05511549,0.01030254,0.09694481,0.003808109,0.04857612,0.02727203,0.9984398
634796822357520000,0.08602151,-0.06256109,-0.9384164,3.66,20.1,-35.4,353,255,5,-0.07615384,0.0219191,-0.08569247,0.0554942,0.01349378,0.0971439,0.005389248,0.04872,0.02738274,0.9984225
634796822357720000,0.08993158,-0.0742913,-0.9384164,3.66,20.1,-35.4,352,254,5,-0.1112623,0.05277193,-0.07824183,0.05609301,0.01305556,0.09786748,0.005145657,0.04907677,0.0276895,0.9983979
634796822357920000,0.08993158,-0.08211143,-0.9266862,3.66,20.1,-35.4,352,254,5,-0.0995187,0.05912462,-0.1069394,0.0560296,0.01258659,0.09954453,0.004889452,0.0499073,0.02766291,0.9983587
634796822358130000,0.08993158,-0.08211143,-0.9188661,3.66,20.1,-35.4,353,255,5,-0.01543204,0.0154552,-0.1005384,0.05579722,0.0135746,0.1001695,0.005379592,0.05023227,0.02751971,0.9983439
634796822358320000,0.08602151,-0.08211143,-0.9266862,3.66,20.1,-35.4,353,255,5,-0.003690868,-0.014348,-0.09520611,0.05567471,0.01528049,0.1001464,0.006234585,0.05024381,0.0274158,0.9983412
634796822358520000,0.07820137,-0.08211143,-0.9657869,3.66,20.1,-35.4,353,255,5,-0.07708483,-0.007977445,-0.09835164,0.05549257,0.01685119,0.0997492,0.007028745,0.05006645,0.02728737,0.9983483
634796822358720000,0.07820137,-0.07820137,-0.9892473,3.48,20.22,-35.64,353,255,5,-0.1334548,-0.006931734,-0.03018121,0.0555129,0.01701236,0.09964347,0.007110181,0.05001592,0.027294,0.9983501
634796822358920000,0.0742913,-0.08602151,-1.008798,3.48,20.22,-35.64,353,255,5,-0.07275961,-0.08992566,0.0007163362,0.0570594,0.02000022,0.09876323,0.008575731,0.04962388,0.02799622,0.9983387
634796822359120000,0.06256109,-0.09775171,-1.040078,3.48,20.22,-35.64,352,254,5,0.08050083,-0.09201729,-0.01522331,0.06137033,0.02970505,0.09366094,0.01339257,0.04724136,0.0299484,0.9983446
634796822359320000,0.05865103,-0.1016618,-1.083089,3.48,20.22,-35.64,351,253,5,0.1528529,-0.03666672,-0.06735736,0.0625905,0.03657412,0.09175205,0.01682315,0.04640138,0.03041381,0.998318
634796822359520000,0.06647116,-0.09775171,-1.13392,3.48,20.22,-35.64,350,252,5,0.1145154,-0.1430867,-0.09180069,0.06317975,0.03980923,0.09007215,0.01845155,0.04561749,0.03065073,0.9983181
634796822359720000,0.0742913,-0.08211143,-1.16129,3.48,20.22,-35.64,350,252,5,0.08254628,-0.2846286,-0.1194124,0.06343137,0.04266262,0.08548295,0.01994483,0.043373,0.03076328,0.998386
634796822359920000,0.07820137,-0.05474096,-1.176931,3.9,20.52,-35.64,350,252,5,0.2474447,-0.588997,-0.04379722,0.06488998,0.04672551,0.07678688,0.02208628,0.03911056,0.03151035,0.9984937
634796822360120000,0.07038123,-0.03910068,-1.219941,3.9,20.52,-35.64,350,252,5,0.4241061,-0.5262077,-0.02992303,0.0668854,0.05423164,0.06603348,0.02597921,0.03388621,0.03251145,0.9985589
634796822360320000,0.08211143,-0.01173021,-1.282502,3.9,20.52,-35.64,350,252,5,-0.08142922,0.4177478,-0.4289636,0.06666126,0.06269407,0.06582844,0.03021145,0.03391776,0.03012496,0.9984351
634796822360520000,0.1446725,0.04301075,-1.313783,3.9,20.52,-35.64,350,252,5,-0.4315593,0.5358768,-0.4470555,0.06247603,0.05747342,0.0747608,0.02753194,0.0382348,0.03012496,0.9984351
634796822360720000,0.2346041,0.113392,-1.294233,3.9,20.52,-35.64,350,252,5,-0.6401474,0.4198763,-0.2352746,0.05913001,0.04563188,0.08468186,0.0215326,0.04297259,0.02856127,0.9984357
634796822360920000,0.2815249,0.172043,-1.266862,3.9,20.52,-35.64,350,252,5,-0.3794123,-0.1069154,0.1755445,0.05698543,0.03134727,0.09036362,0.01436406,0.04558861,0.02774869,0.9984715
634796822361120000,0.2619746,0.1994135,-1.227762,3.36,20.64,-35.52,1,263,5,0.02498596,-0.1175495,0.409674,0.05730887,0.02197242,0.08875835,0.009699719,0.04465819,0.02813339,0.998559
634796822361320000,0.2033236,0.1837732,-1.13783,3.36,20.64,-35.52,6,268,5,0.262295,-0.03028233,0.5022616,0.06088293,0.02006578,0.08624708,0.008706633,0.04339314,0.02997463,0.9985704
634796822361540000,0.1251222,0.1212121,-0.9892473,3.36,20.64,-35.52,6,268,5,0.4485344,-0.06962696,0.5810143,0.06689318,0.02398848,0.0854491,0.01054806,0.0430853,0.03289544,0.998474
634796822361720000,0.1055719,0.08602151,-0.9227762,3.36,20.64,-35.52,6,268,5,0.3889378,-0.1525844,0.4820413,0.07363023,0.02607918,0.08388709,0.01147572,0.04237877,0.03622492,0.9983788
634796822361920000,0.1094819,0.05083089,-0.8836755,3.36,20.64,-35.52,3,265,5,0.1494716,-0.3952277,0.3436921,0.08009645,0.0232842,0.08014882,0.01001925,0.04049461,0.03953663,0.998347
634796822362120000,0.1173021,0.04301075,-0.8797654,3.36,20.64,-35.52,3,265,5,0.004720236,-0.5750818,0.2266273,0.08304972,0.02242613,0.07421982,0.009655391,0.03753227,0.04106608,0.9984046
634796822362320000,0.113392,0.06256109,-0.9032258,2.88,20.28,-36.48,358,4,5,-0.1740475,-0.6410637,0.08402111,0.08452894,0.01969028,0.0634222,0.005825468,0.02626827,0.04145038,0.9987782
634796822362520000,0.09384164,0.08602151,-0.9227762,2.88,20.28,-36.48,0,262,5,-0.3996632,-0.6346784,0.005271326,0.08331441,0.01383352,0.0520128,0.005825468,0.02626827,0.04145038,0.9987782
634796822362720000,0.08602151,0.09775171,-0.8797654,2.88,20.28,-36.48,0,262,5,-0.4432964,-0.5633753,0.09677618,0.08253391,-0.006239891,0.0301032,-0.003737805,0.01490944,0.04129729,0.9990287
634796822362920000,0.0742913,0.09384164,-0.8250244,2.88,20.28,-36.48,0,262,5,-0.4017916,-0.3217961,0.09888313,0.08365581,-0.01268244,0.02571857,-0.00687278,0.01258231,0.04189288,0.9990193
634796822363120000,0.07038123,0.06256109,-0.797654,2.88,20.28,-36.48,356,2,5,-0.417755,-0.00890162,0.0158725,0.08427718,-0.02252412,0.02437866,-0.0117644,0.01170306,0.04225747,0.998969
634796822363320000,0.06256109,0.03910068,-0.7702835,2.88,20.28,-36.48,356,2,5,-0.436911,0.1081651,-0.08948303,0.08348219,-0.03248549,0.02572679,-0.01676325,0.01217242,0.04192876,0.9989058
634796822363520000,0.0742913,0.05474096,-0.742913,2.88,20.28,-36.48,356,2,5,-0.4518102,0.1336339,-0.1267387,0.08114903,-0.04234385,0.02860761,-0.02173085,0.01342967,0.0408527,0.9988386
634796822363720000,0.08211143,0.06647116,-0.7781036,1.86,20.4,-35.94,359,5,5,-0.1133826,-0.157943,-0.1447812,0.07481068,-0.05378485,0.02683711,-0.0273696,0.01239847,0.03774029,0.9988357
634796822363920000,0.08993158,0.05474096,-0.8484849,1.86,20.4,-35.94,358,4,5,0.09304518,-0.1707136,-0.1479164,0.07059959,-0.05519485,0.023862,-0.02799568,0.01094498,0.03560553,0.9989138
634796822364120000,0.1055719,0.04301075,-0.8954057,1.86,20.4,-35.94,2,264,5,0.3239605,-0.1281172,-0.1382869,0.06629385,-0.05257058,0.02072966,-0.0266098,0.009484397,0.03339988,0.9990427
634796822364320000,0.113392,0.03128055,-0.9071358,0.84,20.82,-35.1,4,266,5,0.3324743,0.09536616,-0.120181,0.06150329,-0.04632187,0.01954246,-0.02344712,0.009051809,0.03096327,0.9992045
634796822364520000,0.1055719,0.01173021,-0.9188661,0.84,20.82,-35.1,4,266,5,0.2228592,0.201735,-0.08823895,0.05638572,-0.04085708,0.02187121,-0.02072592,0.01035299,0.02840485,0.999328
634796822364720000,0.1016618,-0.01173021,-0.9305963,0.84,20.82,-35.1,4,266,5,0.1121414,-0.01857457,-0.04246747,0.05327611,-0.03850937,0.02407944,-0.01956591,0.01152012,0.02685976,0.9994555
634796822364940000,0.1016618,-0.01173021,-0.9853373,0.84,20.82,-35.1,5,267,5,0.2792014,-0.4432004,-0.1329072,0.04547781,-0.03020716,0.0163511,-0.01528448,0.007829012,0.02285704,0.9995912
634796822365120000,0.08211143,0.003910068,-1.110459,0.84,20.82,-35.1,2,264,5,0.476083,-0.5198246,-0.2510275,0.03927322,-0.02010512,0.007969499,-0.01012861,0.003786416,0.01967425,0.999748
634796822365320000,0.05083089,0.03128055,-1.200391,0.84,20.82,-35.1,2,264,5,0.5112025,-0.2229058,-0.272312,0.03331788,-0.009654284,0.006568551,-0.004881092,0.003203348,0.01667373,0.999844
634796822365520000,0.04692082,0.06647116,-1.223851,-0.6,20.46,-34.32,1,263,5,0.3611467,0.2655725,-0.2574129,0.03001777,-0.004959345,0.009192824,-0.002548338,0.004558659,0.01501952,0.9998736
634796822365720000,0.07038123,0.09384164,-1.255132,-0.6,20.46,-34.32,358,4,5,0.1280464,0.1686951,-0.07543217,0.02495544,-0.001174688,0.01522982,-0.0006822867,0.007606918,0.0124815,0.999893
634796822365920000,0.07820137,0.113392,-1.290323,-0.6,20.46,-34.32,0,262,5,0.296194,0.03565621,0.08095945,0.02235218,-0.0003013611,0.01913667,-0.0002576293,0.009565879,0.01117679,0.9998918
634796822366120000,0.04692082,0.1368524,-1.298143,-0.6,20.46,-34.32,0,262,5,0.2610745,0.05906129,0.04683623,0.02274529,0.006406784,0.02114284,0.003082737,0.01060693,0.01133785,0.9998747
634796822366320000,0.007820137,0.1485826,-1.313783,-0.6,20.46,-34.32,0,262,5,0.07480638,0.1016256,-0.05854313,0.02217338,0.006978035,0.02200139,0.003366614,0.01103843,0.01104735,0.9998724
634796822366520000,0.03128055,0.1524927,-1.309873,-1.86,19.08,-33,2,264,5,-0.1475998,0.2005726,-0.1330069,0.02044833,0.004404783,0.02465868,0.002076017,0.01235085,0.01019604,0.9998696
634796822366720000,0.08602151,0.1994135,-1.255132,-1.86,19.08,-33,359,5,5,-0.1390494,0.02071214,-0.09678032,0.0177161,-0.001172066,0.02769852,-0.0007086595,0.01384305,0.008865199,0.9998646
634796822366920000,0.09384164,0.2228739,-1.184751,-1.86,19.08,-33,359,5,5,0.04082567,-0.03566508,-0.01801382,0.01538646,-0.005491257,0.02766359,-0.002851736,0.01380976,0.007730367,0.9998707
634796822367120000,0.07038123,0.2189638,-1.12219,-1.86,19.08,-33,7,269,5,0.2813406,-0.1495041,-0.004191447,0.009538858,-0.004405499,0.02430773,-0.002260536,0.01214289,0.004795818,0.9999123
634796822367320000,0.04301075,0.1876833,-1.110459,-1.86,19.08,-33,7,269,5,0.2121659,-0.357028,-0.2298086,0.001621067,-0.004240274,0.01829552,-0.002127426,0.00914588,0.0008298915,0.9999556
634796822367520000,0.04301075,0.1915933,-1.11437,-1.86,19.08,-33,10,272,5,-0.01133243,-0.4772854,-0.3936992,6.274985,-0.008749007,0.009858012,-0.004354133,0.004946842,-0.00407865,0.99997
634796822367720000,0.05474096,0.2189638,-1.059628,-1.98,18,-32.82,7,269,5,-0.5083256,-0.09840402,-0.1425427,6.266526,-0.01869821,0.002411962,-0.009338615,0.001283785,-0.008318458,0.999921
634796822367920000,0.07820137,0.2150538,-0.9384164,-1.98,18,-32.82,7,269,5,-0.4455363,0.05060655,0.02344872,6.262042,-0.03072762,0.0004627704,-0.01535988,0.0003937347,-0.01056649,0.9998261
634796822368120000,0.1055719,0.1603128,-0.797654,-1.98,18,-32.82,7,269,5,-0.2699391,0.131459,0.03833797,6.259848,-0.03852391,0.0007772445,-0.01925498,0.0006132537,-0.01165849,0.9995665
634796822368340000,0.1212121,0.08602151,-0.7077224,-1.98,18,-32.82,19,281,5,-0.13155,-0.0186081,-0.08083726,6.248023,-0.05946731,0.006653547,-0.02966602,0.003847437,-0.01747388,0.9993997
634796822368520000,0.1212121,0.05083089,-0.6920821,-1.98,18,-32.82,19,281,5,-0.04954524,-0.3048732,-0.2117191,6.237344,-0.0620954,0.003022671,-0.03099985,0.002221655,-0.02286081,0.9992555
634796822368720000,0.09775171,0.05474096,-0.7155425,-1.98,18,-32.82,27,289,5,-0.06124193,-0.3410568,-0.2574808,6.226168,-0.06248665,-0.003499031,-0.03127536,-0.0008575183,-0.02854575,0.9991027
634796822368920000,0.07820137,0.08211143,-0.7350929,-1.98,16.74,-32.52,30,292,5,-0.1208046,-0.08669202,-0.1276359,6.219215,-0.06273246,-0.006337881,-0.03144616,-0.002162852,-0.03206326,0.9989887
634796822369120000,0.08993158,0.08993158,-0.7194526,-1.98,16.74,-32.52,25,287,5,-0.06434936,0.04317698,0.02131739,6.212254,-0.0642035,-0.006925344,-0.0321986,-0.002320651,-0.03555069,0.9988464
634796822369320000,0.09775171,0.0742913,-0.6959922,-1.98,16.74,-32.52,23,285,5,0.1292769,-0.04298523,0.1000075,6.204702,-0.05933237,-0.007744669,-0.02979067,-0.002703997,-0.03932865,0.9987785
634796822369520000,0.07820137,0.04692082,-0.7038123,-1.98,16.74,-32.52,23,285,5,0.417682,-0.09723689,0.05313666,6.199686,-0.05090594,-0.009400129,-0.02562386,-0.003632202,-0.04184303,0.998789
634796822369720000,0.04692082,0.02737048,-0.7546432,-1.98,16.74,-32.52,26,288,5,0.4474803,0.07306948,-0.1149811,6.195649,-0.04449153,-0.009652138,-0.02243342,-0.003846992,-0.04385027,0.9987788
634796822369920000,0.01955034,0.02737048,-0.8132942,-1.98,16.74,-32.52,28,290,5,0.2144149,0.2252597,-0.06069584,6.19001,-0.03667641,-0.008360027,-0.01851174,-0.00332078,-0.04663936,0.9987347
634796822370120000,0.007820137,0.02737048,-0.8445748,-1.56,15.24,-33.12,12,274,5,0.08239729,0.145447,0.01164401,6.187655,-0.03259468,-0.004459142,-0.01638441,-0.001448598,-0.04777701,0.9987226
634796822370320000,0.003910068,0.02737048,-0.8993157,-1.56,15.24,-33.12,12,274,5,0.13341,-0.05459104,-0.007538221,6.188486,-0.03093266,-0.00175178,-0.01548977,-0.0001427739,-0.04733979,0.9987587
634796822370520000,0.007820137,0.02737048,-0.9892473,-1.56,15.24,-33.12,5,267,5,0.336677,-0.1503713,0.01585142,6.190565,-0.02454996,-0.004730225,-0.01237096,-0.001794162,-0.04631878,0.9988485
634796822370720000,0.01173021,0.04301075,-1.11437,-1.56,15.24,-33.12,2,264,5,0.4984392,-0.03325119,-0.0395051,6.191505,-0.01663089,-0.006094098,-0.008446185,-0.002662673,-0.04584739,0.9989092
634796822370920000,0,0.06647116,-1.223851,-0.9,15,-34.08,358,4,5,0.440971,0.06148858,-0.04270629,6.191991,-0.008719444,-0.005205154,-0.004473806,-0.002401136,-0.04559184,0.9989473
634796822371120000,-0.003910068,0.08211143,-1.302053,-0.9,15,-34.08,357,3,5,0.2228049,0.02852612,0.07753711,6.194692,-0.00444293,-0.004474759,-0.002318301,-0.002136895,-0.044237,0.9990161
634796822371320000,0.007820137,0.08211143,-1.325513,-0.9,15,-34.08,357,3,5,0.1865944,0.03174562,0.1999041,6.200147,-0.002267122,-0.004262805,-0.001221038,-0.002082493,-0.04150909,0.9991352
634796822371520000,0.02346041,0.0742913,-1.286412,-0.9,15,-34.08,356,2,5,0.3483566,0.0966491,0.2456657,6.207071,0.001710892,-0.00303781,0.0007970773,-0.001550383,-0.03804644,0.9992744
634796822371720000,0.05474096,0.06647116,-1.255132,-0.9,15,-34.08,357,3,5,0.2185212,0.009282486,-0.1448928,6.213206,0.01256871,0.001871705,0.006313206,0.0007154089,-0.03498761,0.9993676
634796822371920000,0.1212121,0.08602151,-1.270772,-0.9,15,-34.08,2,264,5,-0.02306955,-0.2833714,-0.2257739,6.210917,0.01364803,0.0004597902,0.006827858,-1.678033E-05,-0.03612721,0.9993239
634796822372120000,0.1837732,0.1759531,-1.298143,-0.9,15,-34.08,2,264,5,-0.2060707,-0.5579416,-0.06292157,6.206835,0.01077271,-0.007060885,0.005247677,-0.003733412,-0.03814633,0.9992514
634796822372320000,0.1837732,0.2697947,-1.262952,-0.9,15,-34.08,2,264,5,-0.2411902,-0.2365455,0.193558,6.203276,0.005599976,-0.01631653,0.002471777,-0.008263498,-0.03991988,0.9991657
634796822372520000,0.1446725,0.3010753,-1.14956,-1.14,14.1,-34.98,19,281,5,-0.2486397,0.0912505,0.3723478,6.202038,-6.747246E-05,-0.0185622,-0.0004101743,-0.009271935,-0.04056119,0.9991339
634796822372720000,0.113392,0.2737048,-1.016618,-1.14,14.1,-34.98,29,291,5,-0.4061451,0.2742863,0.4532289,6.199831,-0.004199743,-0.0170443,-0.002452999,-0.008427134,-0.04168117,0.9990924
634796822372920000,0.1055719,0.2072336,-0.9266862,-1.14,14.1,-34.98,29,291,5,-0.5232099,0.1518745,0.4340729,6.193148,-0.02491832,-0.01036727,-0.01267926,-0.004617295,-0.04506367,0.998893
634796822373120000,0.1016618,0.1485826,-0.8875855,-1.14,14.1,-34.98,39,301,5,-0.5295952,-0.2333675,0.406403,6.190328,-0.03858328,-0.01306832,-0.0195725,-0.005630553,-0.0465285,0.9987093
634796822373320000,0.0742913,0.1290323,-0.8797654,-1.68,13.14,-36,43,305,5,-0.5349163,-0.6239381,0.2233563,6.187167,-0.05315304,-0.01988411,-0.02701846,-0.008651709,-0.04823532,0.9984331
634796822373520000,0.05083089,0.1329423,-0.8836755,-1.68,13.14,-36,35,297,5,-0.6541095,-0.4142858,0.1381974,6.183719,-0.06352711,-0.03048515,-0.03247257,-0.01363688,-0.05016531,0.9981198
634796822373720000,0.05083089,0.1407625,-0.8836755,-1.68,13.14,-36,35,297,5,-0.7711743,-0.1194799,0.1062494,6.181774,-0.07152867,-0.03581285,-0.03661193,-0.01605903,-0.05128279,0.9978837
634796822373920000,0.05474096,0.1407625,-0.8484849,-1.68,13.14,-36,27,289,5,-0.8062937,-0.00346714,0.1796674,6.177326,-0.1002045,-0.04031992,-0.05106609,-0.01745609,-0.05383588,0.9970904
634796822374120000,0.04301075,0.1329423,-0.7898338,-1.68,13.14,-36,23,285,5,-0.6221827,-0.1247711,0.338237,6.177742,-0.1130876,-0.04109776,-0.05750432,-0.01750856,-0.05376188,0.9967429
634796822374320000,0.02737048,0.09775171,-0.7546432,-1.68,13.14,-36,27,289,5,-0.1592181,-0.3429372,0.2999248,6.178837,-0.1201148,-0.04505372,-0.06109696,-0.01932439,-0.0533932,0.9965154
634796822374520000,0.02346041,0.06256109,-0.7781036,-2.46,14.46,-36.24,27,289,5,0.2271063,-0.2620561,0.2137226,6.179518,-0.1184814,-0.05008352,-0.06040307,-0.02189513,-0.05318396,0.9965157
634796822374720000,0.03519062,0.05474096,-0.801564,-2.46,14.46,-36.24,27,289,5,0.5218966,0.08592681,0.1605001,6.179727,-0.1135933,-0.05088472,-0.05798512,-0.02243039,-0.05304846,0.9966546
634796822374920000,0.05474096,0.05474096,-0.801564,-2.46,14.46,-36.24,21,283,5,0.4697496,0.2497671,0.2254145,6.180573,-0.1033735,-0.04775786,-0.05280393,-0.01919817,-0.0514449,0.9973099
634796822375120000,0.04692082,0.03128055,-0.8250244,-2.46,14.46,-36.24,16,278,5,0.3367215,0.126274,0.2509559,6.182907,-0.08875585,-0.04075503,-0.04221114,-0.01823917,-0.0515577,0.9976108
634796822375320000,0.03519062,0.003910068,-0.8914956,-2.46,14.46,-36.24,21,283,5,0.3228865,0.09961317,-0.0118743,6.181597,-0.08250188,-0.04075503,-0.04221114,-0.01823917,-0.0515577,0.9976108
634796822375520000,0.05474096,0.01173021,-0.9579667,-2.46,14.46,-36.24,21,283,5,0.4452724,0.1623395,-0.1171552,6.177976,-0.07442212,-0.03825974,-0.03814929,-0.01713325,-0.05324537,0.9977054
634796822375720000,0.07038123,0.04692082,-1.016618,-3.24,15.6,-36.48,12,274,5,0.514447,0.0633183,-0.1266629,6.17551,-0.06794477,-0.0364362,-0.0348907,-0.01635275,-0.05438967,0.997776
634796822375920000,0.05083089,0.0742913,-1.102639,-3.24,15.6,-36.48,12,274,5,0.5091259,0.04093646,-0.1329906,6.170613,-0.05575227,-0.03231835,-0.02873339,-0.01455884,-0.05667676,0.9978728
634796822376120000,0.04692082,0.08211143,-1.180841,-3.24,15.6,-36.48,16,278,5,0.4612358,0.2090253,-0.1765598,6.164926,-0.04580641,-0.02815032,-0.02369048,-0.01269321,-0.05939586,0.9978727
634796822376320000,0.08211143,0.08993158,-1.216031,-3.24,15.6,-36.48,16,278,5,0.2952166,-0.02195765,-0.2723401,6.152401,-0.03096032,-0.02024674,-0.01610711,-0.009088878,-0.06549057,0.9976818
634796822376520000,0.1016618,0.1055719,-1.274682,-3.24,15.6,-36.48,10,272,5,0.2952166,-0.02195765,-0.2723401,6.144903,-0.02570581,-0.02104974,-0.01354823,-0.00961079,-0.06921174,0.9974637
634796822376720000,0.0742913,0.1368524,-1.333333,-3.24,15.6,-36.48,10,272,5,0.3686482,-0.1379489,-0.2318995,6.140065,-0.02163029,-0.02286208,-0.01160375,-0.01062766,-0.07161355,0.9973083
634796822376920000,0.03128055,0.1603128,-1.372434,-3.24,15.6,-36.48,10,272,5,0.3601344,-0.005985866,-0.201037,6.13309,-0.01492906,-0.02397573,-0.008341738,-0.01139389,-0.07505909,0.9970791
634796822377120000,0.02346041,0.1524927,-1.391984,-3.48,16.44,-37.2,14,276,5,-0.01232812,0.345131,-0.4787998,6.126168,-0.01124692,-0.02305114,-0.006509621,-0.01104863,-0.07848622,0.9968327
634796822377320000,0.03519062,0.1642229,-1.376344,-3.48,16.44,-37.2,8,270,5,-0.0580385,0.3110757,-0.5650021,6.107324,-0.01404953,-0.01270485,-0.007555307,-0.005710777,-0.08785795,0.996088
634796822377520000,0.02346041,0.2111437,-1.317693,-3.48,16.44,-37.2,7,269,5,0.05050448,0.2248735,-0.4383592,6.097927,-0.01530933,-0.008501768,-0.008014901,-0.003524502,-0.09252597,0.9956718
634796822377720000,-0.007820137,0.2424242,-1.216031,-3.48,16.44,-37.2,7,269,5,0.2228994,0.2162715,-0.3127807,6.093115,-0.01475501,-0.006246448,-0.007640447,-0.002409015,-0.09491175,0.9954535
634796822377920000,-0.02737048,0.230694,-1.11828,-3.48,16.44,-37.2,8,270,5,0.1962938,0.1832127,-0.4106894,6.086369,-0.01278019,-0.002955198,-0.006504324,-0.0008426157,-0.09825665,0.9951395
634796822378120000,-0.01564027,0.1837732,-1.067449,-3.6,17.7,-38.04,9,271,5,-0.04208278,0.03312909,-0.6267272,6.077811,-0.01388264,-0.001369119,-0.006974832,3.058474E-05,-0.1025092,0.9947076
634796822378320000,0.003910068,0.1564027,-1.028348,-3.6,17.7,-38.04,7,269,5,-0.2261806,-0.1531037,-0.7405992,6.067754,-0.01887941,-0.002788424,-0.009534718,-0.0003712487,-0.1132897,0.9934738
634796822378520000,0.01564027,0.1524927,-0.9736071,-3.6,17.7,-38.04,8,270,5,-0.2698139,-0.1424615,-0.7246358,6.045603,-0.03438711,-0.008197546,-0.01755705,-0.002031742,-0.1185632,0.9927892
634796822378720000,0.04692082,0.1368524,-0.8914956,-3.6,17.7,-38.04,8,270,5,-0.199575,0.06823181,-0.5703232,6.039513,-0.0400753,-0.007266163,-0.02032913,-0.001170292,-0.1215824,0.9923725
634796822378920000,0.08602151,0.08602151,-0.7546432,-3.6,17.7,-38.04,10,272,5,-0.1016336,0.2011835,-0.4223959,6.031743,-0.0456903,-0.003983974,-0.02291252,0.0008885789,-0.1254027,0.9918409
634796822379120000,0.1016618,0.03910068,-0.6647117,-3.78,16.98,-39.48,24,286,5,0.0218034,-0.02881211,-0.2287069,6.024663,-0.04759026,-0.002006054,-0.02372365,0.002072543,-0.1288886,0.9913731
634796822379320000,0.1173021,0.007820137,-0.6256109,-3.78,16.98,-39.48,34,296,5,0.04415553,-0.2799706,-0.2287069,6.016955,-0.04729629,-0.002781272,-0.02362127,0.001760388,-0.1327174,0.9908709
634796822379520000,0.1173021,0,-0.6334311,-3.78,16.98,-39.48,34,296,5,0.0547451,-0.4236411,-0.1861379,6.003057,-0.04262233,-0.01437545,-0.02210359,-0.004140778,-0.139723,0.9899352
634796822379720000,0.113392,0.01173021,-0.6608016,-3.78,16.98,-39.48,38,300,5,0.04829941,-0.2842275,-0.07753178,5.999829,-0.04072833,-0.01782978,-0.02141652,-0.005948381,-0.1413495,0.9897102
634796822379920000,0.113392,0.02737048,-0.6764418,-3.78,16.98,-39.48,40,302,5,0.03548774,-0.02350014,0.04382458,5.996612,-0.03808737,-0.01962912,-0.02024774,-0.006992979,-0.1429495,0.9894981
634796822380120000,0.1173021,0.02737048,-0.6686217,-3.78,16.98,-39.48,37,299,5,0.006740139,0.07436165,0.1215071,5.995169,-0.03620934,-0.01811075,-0.0192149,-0.006362065,-0.1436434,0.9894225
634796822380320000,0.09775171,0.003910068,-0.7116324,-3.78,16.98,-39.48,37,299,5,-0.0134447,-0.1576573,0.1842864,5.995,-0.03503131,-0.01857078,-0.0186656,-0.006672688,-0.1437269,0.9894189
634796822380520000,0.05474096,-0.007820137,-0.8093842,-4.26,16.5,-40.32,40,302,5,0.1227907,-0.4545761,0.09698699,5.993784,-0.0327177,-0.02461159,-0.01796006,-0.00981667,-0.1443649,0.9893128
634796822380720000,0.03910068,0.007820137,-0.9266862,-4.26,16.5,-40.32,41,303,5,0.2653969,-0.3939153,0.1352634,5.994103,-0.02354479,-0.03632677,-0.01426333,-0.0162764,-0.1442162,0.9893095
634796822380920000,0.03128055,0.02346041,-1.055718,-4.26,16.5,-40.32,15,277,5,0.2579473,-0.3513463,0.1671532,5.996971,-0.01831651,-0.0430392,-0.01213117,-0.01999123,-0.1427753,0.9894789
634796822381120000,0.01564027,0.03910068,-1.14956,-4.86,16.44,-40.38,14,276,5,0.4282233,0.06581528,0.1884377,6.000658,-0.01223683,-0.04682207,-0.009351564,-0.02231411,-0.140895,0.9897289
634796822381330000,0.01564027,0.06647116,-1.1652,-4.86,16.44,-40.38,14,276,5,0.4920768,0.4553217,0.2022726,6.004725,-0.004072428,-0.04249167,-0.00496439,-0.02075607,-0.138792,0.9900916
634796822381520000,0.05474096,0.07820137,-1.17302,-4.86,16.44,-40.38,11,273,5,0.342021,0.2158394,0.2778326,6.009605,0.004429817,-0.0344485,-0.0001547041,-0.01736446,-0.1363055,0.9905146
634796822381720000,0.08993158,0.06256109,-1.251222,-4.86,16.44,-40.38,12,274,5,0.2004791,-0.1854021,0.3086951,6.013274,0.007584571,-0.03615201,0.002814406,-0.0186099,-0.1320306,0.9910669
634796822381920000,0.07820137,0.06647116,-1.337243,-4.86,16.44,-40.38,17,279,5,0.3377641,-0.2183931,0.32253,6.022185,0.01604199,-0.03974938,0.005365144,-0.02074736,-0.1299423,0.99129
634796822382120000,0.07820137,0.09775171,-1.333333,-4.86,16.44,-40.38,17,279,5,0.5389027,0.5010203,0.2810252,6.025772,0.02467775,-0.03008687,0.01030446,-0.01650083,-0.1281435,0.9915648
634796822382320000,0.1446725,0.09775171,-1.247312,-4.86,16.44,-40.38,14,276,5,0.3303146,0.9767289,0.2352636,6.029052,0.02924824,-0.0134294,0.01365455,-0.008512961,-0.1266112,0.9918219
634796822382520000,0.226784,0.08993158,-1.208211,-4.92,15.84,-40.32,16,278,5,-0.215626,-0.1151772,0.1873734,6.030453,0.02742839,-0.009686469,0.01299387,-0.006532467,-0.1259506,0.9919299
634796822382720000,0.2228739,0.1329423,-1.247312,-4.92,15.84,-40.32,24,286,5,-0.1677351,-0.789896,0.312952,6.02978,0.02282476,-0.01771832,0.01020085,-0.0102295,-0.1262504,0.9918932
634796822382920000,0.1407625,0.1759531,-1.208211,-4.92,15.84,-40.32,24,286,5,0.2355912,-0.3652701,0.4161819,6.029815,0.02226615,-0.03001618,0.009146383,-0.0162928,-0.1261589,0.9918341
634796822383120000,0.1290323,0.1368524,-1.083089,-4.92,15.84,-40.32,32,294,5,0.3047659,0.2966515,0.3853193,6.031183,0.02999663,-0.02480864,0.0133191,-0.01418886,-0.1254596,0.9919079
634796822383320000,0.1446725,0.08602151,-0.9931574,-4.92,15.84,-40.32,31,293,5,-0.7434645,-0.3131693,0.2097222,6.031332,0.02657747,-0.02271366,0.01175609,-0.0129345,-0.1254254,0.9919491
634796822383540000,0.1446725,0.0742913,-0.9814272,-4.32,16.02,-40.08,30,292,5,-0.9137406,-0.647336,0.09370439,6.029741,0.0136342,-0.02756774,0.005019747,-0.01453404,-0.1262747,0.9918762
634796822383720000,0.1290323,0.113392,-0.9892473,-4.32,16.02,-40.08,30,292,5,-0.7072809,-0.6292443,0.02455136,6.026667,-0.004678011,-0.0343008,-0.00451299,-0.01670952,-0.1279287,0.9916323
634796822383920000,0.09384164,0.1603128,-0.9462366,-4.32,16.02,-40.08,32,294,5,-0.3858849,-0.3216832,0.08416137,6.02279,-0.01854157,-0.04041994,-0.01181389,-0.01883332,-0.1299839,0.9912668
634796822384120000,0.06256109,0.1603128,-0.8406647,-4.32,16.02,-40.08,31,293,5,-0.1826179,0.006087241,0.2969992,6.018469,-0.03468084,-0.04097927,-0.01988778,-0.01801811,-0.1322766,0.9908495
634796822384320000,0.05083089,0.1094819,-0.7194526,-4.32,16.02,-40.08,36,298,5,-0.1485406,-0.01202321,0.3214764,6.019011,-0.04077482,-0.03827643,-0.02272466,-0.01628201,-0.1320387,0.9908503
634796822384520000,0.05865103,0.04692082,-0.6647117,-4.32,16.02,-40.08,39,301,5,-0.210268,-0.1631369,0.153318,6.019282,-0.04461837,-0.03919613,-0.02468681,-0.01648725,-0.1319444,0.9908125
634796822384730000,0.06647116,0.02346041,-0.7155425,-4.32,16.02,-40.08,39,301,5,-0.2773142,-0.2610456,0.03411896,6.018048,-0.04901766,-0.04282773,-0.02711523,-0.01797942,-0.1326308,0.9906314
634796822384920000,0.07820137,0.04301075,-0.7624633,-3.66,15.9,-39.78,36,298,5,-0.299663,-0.1556873,0.1320278,6.017045,-0.05402446,-0.04696739,-0.02987713,-0.01968295,-0.1332211,0.9904404
634796822385120000,0.09384164,0.05865103,-0.7350929,-3.66,15.9,-39.78,28,290,5,-0.1134278,-0.1556802,0.2661201,6.018056,-0.05679106,-0.04836833,-0.03205214,-0.02128967,-0.1314117,0.9905809
634796822385320000,0.08602151,0.05083089,-0.7116324,-3.66,15.9,-39.78,30,292,5,0.2930853,-0.1397168,0.3470013,6.023801,-0.05281806,-0.05253732,-0.0295709,-0.0226221,-0.1299266,0.9908243
634796822385520000,0.05474096,0.02346041,-0.7624633,-3.66,15.9,-39.78,30,292,5,0.5016734,0.0007507909,0.270377,6.024845,-0.04319,-0.05182659,-0.02474299,-0.02290801,-0.1292927,0.991033
634796822385720000,0.05474096,-0.003910068,-0.8484849,-3.66,15.9,-39.78,36,298,5,0.5240221,0.1134895,0.09371663,6.02388,-0.03265762,-0.0495435,-0.01938803,-0.02244765,-0.129634,0.9911182
634796822385920000,0.07038123,0.003910068,-0.9305963,-2.52,16.32,-39.06,30,292,5,0.33459,-0.1653622,-0.07119261,6.02352,-0.02765322,-0.05030918,-0.01696151,-0.02314837,-0.1297596,0.9911301
634796822386120000,0.07038123,0.04301075,-1.016618,-2.52,16.32,-39.06,13,275,5,0.2324244,-0.1430135,-0.005191817,6.02332,-0.02143979,-0.05346059,-0.01408824,-0.0251119,-0.1297977,0.9911224
634796822386320000,0.03910068,0.08211143,-1.106549,-2.52,16.32,-39.06,13,275,5,0.2388097,-0.01423446,0.06397165,6.025548,-0.01222491,-0.0510906,-0.009340968,-0.02454544,-0.1285732,0.9913522
634796822386520000,0.02737048,0.08993158,-1.16129,-2.52,16.32,-39.06,13,275,5,0.315434,0.3039362,0.0607496,6.027426,-0.00667119,-0.04215765,-0.005995605,-0.02047974,-0.1275721,0.9915997
634796822386720000,0.06647116,0.09384164,-1.188661,-2.52,16.32,-39.06,8,270,5,0.1664246,0.5316803,0.05116242,6.028963,-0.003542423,-0.03573871,-0.004021824,-0.01749969,-0.1267805,0.9917683
634796822386930000,0.09775171,0.0742913,-1.219941,-2.7,16.5,-38.58,10,272,5,-0.0144986,0.2336973,0.1564784,6.031725,-0.001795053,-0.02700829,-0.002583662,-0.0132846,-0.1253995,0.9920141
634796822387120000,0.09775171,0.05474096,-1.270772,-2.7,16.5,-38.58,10,272,5,0.02699745,-0.04088192,0.1649696,6.034756,-0.002761364,-0.02299774,-0.002794599,-0.01123895,-0.1239035,0.9922267
634796822387320000,0.05083089,0.08993158,-1.313783,-2.7,16.5,-38.58,12,274,5,0.03655718,0.002760791,0.03298035,6.037236,-0.002737999,-0.02366161,-0.002809731,-0.01157328,-0.1226722,0.9923758
634796822387520000,0.01564027,0.1603128,-1.341154,-2.7,16.5,-38.58,10,272,5,0.03655718,0.002760791,0.03298035,6.036426,-0.002929926,-0.02215397,-0.002816977,-0.01081226,-0.1230754,0.9923344
634796822387720000,0.03128055,0.2033236,-1.329423,-2.7,16.5,-38.58,6,268,5,-0.06445812,0.4007407,-0.1659755,6.033947,-0.004744291,-0.01626921,-0.003364802,-0.007776561,-0.1243114,0.9922071
634796822387920000,0.06647116,0.2150538,-1.255132,-2.16,15.84,-36.96,6,268,5,0.04944207,0.1591401,-0.006335538,6.033319,-0.006868839,-0.0106926,-0.004073778,-0.004876648,-0.1246242,0.9921837
634796822388130000,0.06647116,0.1876833,-1.1652,-2.16,15.84,-36.96,6,268,5,0.2058674,-0.03670143,0.03941199,6.03455,-0.006894112,-0.009516001,-0.004010335,-0.004293828,-0.1240116,0.9922634
634796822388320000,0.03519062,0.1446725,-1.098729,-2.16,15.84,-36.96,12,274,5,0.2175739,-0.009033488,-0.1606318,6.034887,-0.004130602,-0.01059926,-0.002705672,-0.005003082,-0.1238396,0.992286
634796822388520000,0.04301075,0.1094819,-1.067449,-2.16,15.84,-36.96,14,276,5,-0.1644576,-0.2314547,-0.5448171,6.032197,-0.003043651,-0.01111269,-0.002205251,-0.007312465,-0.1295856,0.9915301
634796822388720000,0.0742913,0.1251222,-1.071359,-2.16,15.84,-36.96,9,271,5,-0.5560924,-0.5688141,-0.6948729,6.012513,-0.0176909,-0.02571428,-0.01049838,-0.01154539,-0.1350195,0.9907201
634796822388920000,0.08602151,0.1759531,-1.083089,-2.16,15.84,-36.96,9,271,5,-0.7242401,-0.6135116,-0.6086706,6.002841,-0.03105545,-0.03703141,-0.01795861,-0.01616184,-0.1399574,0.9898627
634796822389120000,0.08993158,0.1915933,-1.032258,-2.16,15.84,-36.96,14,276,5,-0.6529369,-0.2804091,-0.2553478,5.997835,-0.04391289,-0.04273331,-0.02476382,-0.01802181,-0.1425891,0.989308
634796822389320000,0.09775171,0.1251222,-0.8954057,-1.62,14.7,-35.94,18,280,5,-0.1676186,0.1037564,0.002227962,5.996453,-0.04911613,-0.042804,-0.02735481,-0.01766686,-0.1433198,0.9891406
634796822389520000,0.113392,0.04301075,-0.7820137,-1.62,14.7,-35.94,23,285,5,0.2420759,0.0462544,-0.03608925,5.994631,-0.05082345,-0.04134178,-0.02811045,-0.01679561,-0.1442199,0.9890037
634796822389720000,0.1173021,0,-0.7468231,-1.62,14.7,-35.94,23,285,5,0.3091221,0.01324331,-0.07546771,5.989285,-0.04518318,-0.03631401,-0.02500033,-0.01464868,-0.1467661,0.9887468
634796822389920000,0.1173021,-0.007820137,-0.742913,-1.62,14.7,-35.94,26,288,5,0.07495612,0.008972889,-0.02013939,5.988051,-0.04423571,-0.03577399,-0.02450134,-0.01443608,-0.1473636,0.9886735
634796822390120000,0.113392,0,-0.7390029,-1.62,14.7,-35.94,26,288,5,-0.2272599,-0.1368116,0.1181376,5.988176,-0.04599357,-0.03619516,-0.02540029,-0.01451634,-0.1473189,0.9886563
634796822390330000,0.1055719,0.01173021,-0.7350929,-1.62,12.66,-34.68,29,291,5,-0.09738494,-0.2740966,0.1500097,5.989089,-0.04866433,-0.03829587,-0.02686736,-0.01537041,-0.1469094,0.9886655
634796822390520000,0.08211143,0.007820137,-0.7468231,-1.62,12.66,-34.68,29,291,5,0.2718859,-0.3815834,0.1307968,5.99033,-0.04890752,-0.04258323,-0.02728953,-0.01748913,-0.1463436,0.9887027
634796822390720000,0.05865103,0.007820137,-0.7663734,-1.62,12.66,-34.68,29,291,5,0.5113366,0.04942312,0.09455684,5.991458,-0.04347825,-0.04849947,-0.0250237,-0.02082565,-0.1457916,0.9887795
634796822390920000,0.05083089,0.01955034,-0.8093842,-1.62,12.66,-34.68,29,291,5,0.4293912,0.1728079,0.07427803,5.99372,-0.02722144,-0.04574478,-0.01676269,-0.02066667,-0.1444852,0.9891491
634796822391120000,0.03128055,0.01173021,-0.9188661,-1.62,12.66,-34.68,18,280,5,0.3570239,-0.3358776,0.1593543,5.996572,-0.01971507,-0.04672885,-0.01309001,-0.02171427,-0.1429985,0.9893981
634796822391320000,0.01564027,0.01564027,-1.024438,-1.62,12.66,-34.68,18,280,5,0.2814639,-0.4327221,0.0922645,6.000629,-0.01354694,-0.05367172,-0.01048169,-0.02561128,-0.1409345,0.9896321
634796822391530000,0.007820137,0.04692082,-1.110459,-1.62,12.66,-34.68,15,277,5,0.2059039,-0.3209784,0.09224204,6.004413,-0.008936644,-0.06032789,-0.00861311,-0.02924605,-0.1390044,0.9898223
634796822391720000,0.003910068,0.07038123,-1.14174,-1.56,10.68,-34.14,10,272,5,0.1717884,-0.1528309,0.1677559,6.009127,-0.00595951,-0.06312632,-0.007261197,-0.03085511,-0.1366252,0.9901155
634796822391920000,0.01564027,0.06647116,-1.14174,-1.56,10.68,-34.14,3,265,5,0.3367433,0.02703609,0.05705599,6.012789,-0.004128218,-0.06471574,-0.006404863,-0.03202545,-0.1329543,0.9905979
634796822392120000,0.04301075,0.08211143,-1.176931,-1.56,10.68,-34.14,5,267,5,0.4697714,0.09194084,-0.05361469,6.017693,0.008971452,-0.06241357,0.0003143655,-0.03152032,-0.1321521,0.9907281
634796822392320000,0.09384164,0.1094819,-1.200391,-1.56,10.68,-34.14,5,267,5,0.4218813,0.395245,0.001753744,6.018936,0.01379657,-0.05831432,0.002994611,-0.02980664,-0.131482,0.9908658
634796822392520000,0.1329423,0.1094819,-1.15347,-2.52,8.88,-34.26,20,282,5,0.1675038,0.4431351,0.1720392,6.021703,0.01813435,-0.04738152,0.005898969,-0.02466712,-0.1301143,0.9911745
634796822392720000,0.1290323,0.08211143,-1.12219,-2.52,8.88,-34.26,30,292,5,-0.01771203,-0.186882,0.1933238,6.021512,0.01811051,-0.04597199,0.005976934,-0.02396766,-0.1302176,0.9911777
634796822392920000,0.1016618,0.08602151,-1.212121,-2.52,8.88,-34.26,35,297,5,0.05994938,-0.5359479,0.02515095,6.017638,0.01841116,-0.05171942,0.005698436,-0.02684639,-0.1320983,0.9908566
634796822393120000,0.08993158,0.1290323,-1.333333,-2.52,8.88,-34.26,35,297,5,0.03864082,-0.5806453,-0.1238322,6.004729,0.02092695,-0.07083952,0.005441379,-0.03651894,-0.1383171,0.9896995
634796822393320000,0.1173021,0.172043,-1.302053,-2.52,8.88,-34.26,28,290,5,-0.02518044,-0.07087316,0.07307311,6.00293,0.02003694,-0.06952441,0.005060161,-0.03581125,-0.1392335,0.9895989
634796822393520000,0.1485826,0.1759531,-1.13392,-2.52,8.88,-34.26,26,288,5,-0.02406503,0.2941276,0.2422811,6.002558,0.01968717,-0.06622744,0.00511136,-0.03415659,-0.1394476,0.989627
634796822393730000,0.1642229,0.1446725,-1.008798,-4.26,7.56,-34.38,55,317,5,0.005780101,-0.215674,0.2316388,6.001178,0.02043986,-0.06357908,0.005646634,-0.03290262,-0.1401367,0.9895692
634796822393920000,0.1681329,0.1329423,-0.9775171,-4.26,7.56,-34.38,55,317,5,-0.2283069,-0.471088,0.2539876,5.994432,0.02169037,-0.06702697,0.0059055,-0.03471611,-0.1434264,0.9890343
634796822394120000,0.1603128,0.1329423,-1.012708,-4.26,7.56,-34.38,67,329,5,-0.5018128,-0.6935111,0.2848501,5.987664,0.01534748,-0.07016765,0.002421449,-0.03582245,-0.1468623,0.9885051
634796822394320000,0.1251222,0.1446725,-1.036168,-4.26,7.56,-34.38,66,328,5,-0.6061068,-0.3412526,0.4125571,5.978469,-0.003669024,-0.07730102,-0.007676356,-0.03791498,-0.1517257,0.9876654
634796822394520000,0.0742913,0.1524927,-0.9814272,-4.26,7.56,-34.38,64,326,5,-0.332601,-0.3699867,0.6424297,5.976709,-0.01382756,-0.07901513,-0.01285612,-0.03797902,-0.1527863,0.9874455
634796822394720000,0.02346041,0.09775171,-0.8680352,-4.26,7.56,-34.38,64,326,5,0.04518272,-0.4359686,0.714797,5.978487,-0.01797676,-0.08431518,-0.01527202,-0.0402924,-0.1519941,0.9874417
634796822394930000,-0.02346041,0.01564027,-0.7741935,-5.82,7.38,-35.04,70,332,5,0.3644503,-0.2305731,0.506209,5.979759,-0.01609135,-0.08790755,-0.01458599,-0.04221874,-0.1513303,0.9874735
634796822395120000,-0.01564027,-0.003910068,-0.7507331,-5.82,7.38,-35.04,60,322,5,0.311239,0.03549817,0.1997121,5.97772,-0.009050608,-0.08979725,-0.0112966,-0.04367284,-0.1521854,0.987322
634796822395320000,0.03910068,0.02737048,-0.7272727,-5.82,7.38,-35.04,36,298,5,-0.05061958,0.1035953,0.09643625,5.978026,-0.005799531,-0.08891284,-0.009617815,-0.04256203,-0.1521959,0.9873878
634796822395520000,0.07820137,0.0742913,-0.7077224,-5.82,7.38,-35.04,36,298,5,-0.252801,-0.07941932,0.2688262,5.97749,-0.009881495,-0.08805025,-0.01157906,-0.04274574,-0.1523185,0.9873388
634796822395720000,0.0742913,0.08211143,-0.6959922,-5.82,7.38,-35.04,35,297,5,-0.2783424,-0.1027826,0.4880566,5.978785,-0.01426888,-0.08936739,-0.01381709,-0.04307073,-0.1517731,0.9873798
634796822395920000,0.05865103,0.05083089,-0.7507331,-5.82,7.38,-35.04,54,316,5,-0.07506759,-0.06230849,0.4859281,5.977355,-0.01489377,-0.08986007,-0.01419378,-0.04325644,-0.1524927,0.9872555
634796822396120000,0.04301075,0.01955034,-0.8602151,-5.82,7.38,-35.04,54,316,5,0.2835635,-0.09527265,0.1474912,5.974511,-0.01278591,-0.09048748,-0.01326308,-0.04370802,-0.1538505,0.9870378
634796822396320000,0.03519062,0.04692082,-0.9266862,-6.48,7.56,-35.1,70,332,5,0.3655089,0.1718053,0.05595356,5.968403,-0.00579977,-0.09037161,-0.009941232,-0.04415785,-0.1567109,0.9866068
634796822396520000,0.04692082,0.08211143,-0.9423265,-6.48,7.56,-35.1,48,310,5,0.2335449,0.4059349,0.1059518,5.960551,0.004826784,-0.07724189,-0.003821424,-0.03849725,-0.1604063,0.9862927
634796822396720000,0.06647116,0.08211143,-0.9462366,-6.48,7.56,-35.1,49,311,5,0.06113109,0.3591089,0.2783372,5.958742,0.006403923,-0.07193184,-0.002649795,-0.0360027,-0.1612922,0.9862462
634796822396920000,0.06256109,0.07820137,-0.9423265,-6.48,7.56,-35.1,58,320,5,0.2994581,0.1153053,0.457127,5.95801,0.007945061,-0.06977665,-0.001728506,-0.03506359,-0.1616359,0.9862258
634796822397130000,0.04692082,0.08211143,-0.9657869,-6.48,7.56,-35.1,58,320,5,0.5399731,0.05141132,0.2219332,5.958155,0.01155496,-0.06460785,0.0004725652,-0.0328065,-0.1615297,0.9863223
634796822397320000,0.0742913,0.06647116,-1.047898,-6.48,8.64,-35.82,52,314,5,0.6283038,0.09393721,-0.195257,5.954998,0.0211668,-0.06319857,0.005274972,-0.03289584,-0.1629377,0.9860737
634796822397520000,0.1016618,0.0742913,-1.14174,-6.48,8.64,-35.82,50,312,5,0.6016981,-0.06783224,-0.1697065,5.945732,0.03048539,-0.05955135,0.0100202,-0.03190354,-0.1673858,0.9853242
634796822397720000,0.08602151,0.1212121,-1.180841,-6.48,8.64,-35.82,47,309,5,0.1206502,0.37486,0.088871,5.932441,0.04633045,-0.05767595,0.01776889,-0.03242377,-0.1736976,0.9841048
634796822397920000,0.04692082,0.1290323,-1.184751,-6.48,8.64,-35.82,47,309,5,-0.3422666,0.4983101,0.05372029,5.927965,0.04660845,-0.04982937,0.01852821,-0.02862922,-0.1760039,0.9837986
634796822398120000,0.04692082,0.08602151,-1.208211,-6.48,8.64,-35.82,50,312,5,-0.4614598,0.3067496,-0.02608937,5.921941,0.03930569,-0.04172361,0.01558102,-0.02404648,-0.1791645,0.9834018
634796822398330000,0.09775171,0.07038123,-1.251222,-5.64,9.6,-36.42,40,302,5,-0.2794773,0.2119555,-0.1303387,5.915396,0.03173923,-0.03749621,0.01217099,-0.02132986,-0.1825124,0.9828968
634796822398520000,0.1251222,0.08211143,-1.262952,-5.64,9.6,-36.42,33,295,5,0.04407401,0.3588186,-0.2026683,5.911185,0.02848935,-0.03466225,0.01079191,-0.01966341,-0.1846405,0.9825501
634796822398720000,0.1368524,0.1016618,-1.266862,-5.64,9.6,-36.42,33,295,5,0.0313048,0.5344157,-0.2473657,5.90348,0.02919698,-0.02784371,0.01170736,-0.01642436,-0.1927471,0.9810914
634796822398920000,0.1212121,0.1446725,-1.216031,-5.64,9.6,-36.42,35,297,5,-0.2996255,0.6951138,-0.1505041,5.887571,0.0242548,-0.005798459,0.01132089,-0.005225719,-0.1964699,0.9804306
634796822399120000,0.1016618,0.1642229,-1.094819,-5.64,9.6,-36.42,41,303,5,-0.6114435,0.6291318,-0.08236623,5.879993,0.01285481,0.005996108,0.006897483,0.001650314,-0.200247,0.9797198
634796822399320000,0.1055719,0.1524927,-1.024438,-3.96,10.74,-36.96,38,300,5,-0.4794796,0.2396254,-0.268582,5.874295,0.006043672,0.01030302,0.004004784,0.004430665,-0.2030354,0.9791532
634796822399520000,0.1173021,0.1603128,-1.004888,-3.96,10.74,-36.96,38,300,5,-0.2751483,-0.01049722,-0.2770958,5.864282,-0.002037763,0.01308989,0.0003642483,0.006613697,-0.2079125,0.978125
634796822399720000,0.1094819,0.1759531,-0.9970675,-3.96,10.74,-36.96,45,307,5,-0.2506711,-0.1030545,-0.1525683,5.854967,-0.009985447,0.01388669,-0.003403355,0.0078455,-0.2124357,0.9771376
634796822399920000,0.08211143,0.1642229,-0.969697,-3.96,10.74,-36.96,48,310,5,-0.3049466,-0.009374464,0.08154254,5.844507,-0.02721715,0.01761186,-0.01136583,0.01155485,-0.2174388,0.9759394
634796822400120000,0.05865103,0.1094819,-0.914956,-3.96,10.74,-36.96,55,317,5,-0.3060108,0.1576827,0.1634327,5.842581,-0.03283978,0.02060711,-0.01377024,0.01364079,-0.2183185,0.9756851
634796822400320000,0.06256109,0.05474096,-0.8523949,-3.96,10.74,-36.96,51,313,5,-0.2261939,0.1618945,0.05378957,5.83891,-0.03903365,0.02408349,-0.01638225,0.01604261,-0.220028,0.9752241
634796822400540000,0.08993158,0.03519062,-0.8367546,-3.96,10.74,-36.96,51,313,5,-0.0270919,-0.4064178,-0.333551,5.834277,-0.04173135,0.02363574,-0.01770968,0.01616215,-0.2222698,0.9746904
634796822400720000,0.08993158,0.06256109,-0.856305,-2.88,11.82,-37.26,31,293,5,-0.0270919,-0.4064178,-0.333551,5.82881,-0.04229974,0.01688957,-0.01870254,0.01298909,-0.2250059,0.9740913
634796822400920000,0.07038123,0.1055719,-0.8875855,-2.88,11.82,-37.26,28,290,5,0.1345869,-0.1648387,-0.3197161,5.823367,-0.04106426,0.01117241,-0.01871738,0.01011669,-0.2277259,0.9734928
634796822401120000,0.06256109,0.1055719,-0.8875855,-2.88,11.82,-37.26,34,296,5,0.2058887,0.1096965,-0.2643764,5.81075,-0.03545689,0.007561445,-0.0163505,0.007823859,-0.233923,0.9720861
634796822401320000,0.07038123,0.07820137,-0.856305,-2.88,11.82,-37.26,34,296,5,0.3091185,-0.07124415,-0.3090739,5.804864,-0.03104496,0.008013487,-0.01413092,0.007569109,-0.2367964,0.9714271
634796822401520000,0.08993158,0.0742913,-0.8719453,-2.88,11.82,-37.26,35,297,5,0.3878712,-0.6161274,-0.3292941,5.800017,-0.02667594,0.003719687,-0.01250537,0.00499655,-0.2391952,0.9708781
634796822401730000,0.08602151,0.09384164,-0.9501466,-2.22,12.84,-37.74,27,289,5,0.4762019,-0.5097049,-0.2835324,5.79498,-0.01934171,-0.007743716,-0.01031964,-0.001419661,-0.2417088,0.9702929
634796822401920000,0.05474096,0.1173021,-0.9814272,-2.22,12.84,-37.74,26,288,5,0.4985506,-0.07123766,-0.1142869,5.791359,-0.01044106,-0.01368832,-0.006729506,-0.005367224,-0.2434677,0.9698708
634796822402120000,0.04692082,0.1016618,-0.9579667,-2.22,12.84,-37.74,26,288,5,0.3974492,0.1373178,0.1028191,5.7909,-0.004047155,-0.0113858,-0.003349703,-0.005028211,-0.2423377,0.9701813
634796822402320000,0.03910068,0.05083089,-0.9540567,-2.22,12.84,-37.74,21,283,5,0.3899997,-0.007439599,0.06235882,5.796575,0.002804994,-0.008064032,0.0003898563,-0.004251126,-0.2409038,0.9705396
634796822402520000,0.04692082,0.03128055,-0.9853373,-2.22,12.84,-37.74,19,281,5,0.4378898,0.1904645,-0.03022601,5.798125,0.007995367,-0.004005551,0.003399666,-0.002904219,-0.2401494,0.9707257
634796822402720000,0.08211143,0.04692082,-1.012708,-1.56,13.68,-38.64,9,271,5,0.405963,0.1414926,-0.141926,5.798471,0.01377058,-0.0009846687,0.006565885,-0.002130352,-0.2399826,0.9707527
634796822402920000,0.1055719,0.06647116,-1.063539,-1.56,13.68,-38.64,9,271,5,0.4123484,-0.3618906,-0.1759275,5.79884,0.01844406,-0.004012346,0.008471745,-0.004159104,-0.239784,0.9707804
634796822403120000,0.08211143,0.1055719,-1.17302,-1.56,13.68,-38.64,15,277,5,0.2793202,0.1169963,-0.03755746,5.797031,0.02407455,-0.00889957,0.01061211,-0.007215814,-0.2406183,0.970535
634796822403320000,0.03910068,0.1290323,-1.176931,-1.56,13.68,-38.64,17,279,5,0.1399053,0.6959348,0.3338571,5.80354,0.0316298,0.0003906488,0.01540801,-0.003566657,-0.2375037,0.9712579
634796822403520000,0.03519062,0.08211143,-1.094819,-1.56,13.68,-38.64,13,275,5,0.1089977,0.5224661,0.2444622,5.81071,0.03239703,0.009283662,0.01683404,0.0007212898,-0.2340861,0.9720699
634796822403720000,0.08211143,0.01173021,-1.059628,-1.62,13.62,-39,7,269,5,0.1738743,-0.1352489,-0.1386545,5.816687,0.03355837,0.01503301,0.0180607,0.003433782,-0.2312236,0.9727269
634796822403940000,0.1212121,0.04692082,-1.13783,-1.62,13.62,-39,7,269,5,0.09192593,-0.4566449,-0.4781424,5.815073,0.03563666,0.009953499,0.01848535,0.0007080332,-0.2319713,0.9725467
634796822404120000,0.1368524,0.1564027,-1.223851,-1.62,13.62,-39,12,274,5,-0.1368157,-0.09374049,-0.3876832,5.808515,0.03515434,0.004301071,0.01758904,-0.002042443,-0.2351132,0.9718067
634796822404320000,0.1407625,0.1994135,-1.200391,-1.62,13.62,-39,16,278,5,-0.09315282,-0.001166956,0.06675874,5.806014,0.03268003,0.003602266,0.01630199,-0.002111556,-0.2363257,0.9715348
634796822404520000,0.1368524,0.1485826,-1.11828,-1.62,13.62,-39,22,284,5,0.1238989,-0.1012011,0.273205,5.811629,0.03133011,0.0009553432,0.01534262,-0.003194826,-0.233578,0.9722118
634796822404720000,0.1173021,0.08602151,-1.051808,-1.62,13.62,-39,22,284,5,0.1185322,-0.2129448,0.2370214,5.81491,0.03206444,-0.003562808,0.01518083,-0.005451961,-0.2319462,0.9725949
634796822404920000,0.09384164,0.05865103,-0.9970675,-1.62,13.62,-39,29,291,5,-0.1719366,-0.32256,0.06884293,5.815561,0.02955937,-0.008211612,0.01342571,-0.007417763,-0.2316012,0.9726899
634796822405130000,0.07820137,0.08211143,-0.9736071,-1.32,13.32,-40.02,22,284,5,-0.4188368,-0.3917346,-0.09821106,5.814764,0.02246189,-0.01547539,0.009128192,-0.01013219,-0.2319689,0.9726276
634796822405320000,0.06647116,0.1329423,-0.9736071,-1.32,13.32,-40.02,18,280,5,-0.5763421,-0.256578,0.0444231,5.815239,0.01130843,-0.01916373,0.003278494,-0.01063131,-0.2317772,0.9727053
634796822405520000,0.03910068,0.1329423,-0.9462366,-1.32,13.32,-40.02,18,280,5,-0.5082318,-0.2618991,0.3828362,5.82162,-0.001055241,-0.02193367,-0.003022147,-0.01055514,-0.2238894,0.9745224
634796822405720000,0.003910068,0.05474096,-0.9227762,-1.32,13.32,-40.02,18,280,5,0.03128139,-0.2533853,0.5265066,5.845603,-0.0107429,-0.03120935,-0.008629551,-0.01406612,-0.2171018,0.9760095
634796822405920000,0,-0.02346041,-0.8993157,-1.32,13.32,-40.02,18,280,5,-0.3263043,-0.1544124,0.1806334,5.856294,-0.0143125,-0.03417682,-0.01061226,-0.01518372,-0.2119115,0.9771133
634796822406120000,0.01564027,-0.01173021,-0.856305,-1.32,13.32,-40.02,21,283,5,-0.4540114,-0.2203944,0.02843908,5.862717,-0.02159476,-0.03710055,-0.01442844,-0.01588686,-0.2088367,0.977715
634796822406320000,0.02737048,0.05083089,-0.8328446,-1.08,13.2,-40.56,1,263,5,-0.2975703,-0.3864135,0.103982,5.86664,-0.02714515,-0.04087293,-0.01750109,-0.01718587,-0.2069795,0.9780378
634796822406520000,0.03128055,0.08602151,-0.8523949,-1.08,13.2,-40.56,1,263,5,-0.1560235,-0.3757712,0.2678727,5.872744,-0.03215051,-0.04751396,-0.02057302,-0.01997849,-0.2040735,0.9785355
634796822406720000,0.02346041,0.06256109,-0.8719453,-1.08,13.2,-40.56,2,264,5,0.1696182,-0.1373848,0.2274322,5.887465,-0.0334599,-0.0570507,-0.02200181,-0.02467396,-0.1969324,0.9798595
634796822406920000,0,0.01955034,-0.8367546,-1.08,13.2,-40.56,9,271,5,0.1983523,-0.03521215,0.09331605,5.891188,-0.03103304,-0.05763447,-0.02082306,-0.02523779,-0.1950805,0.9802414
634796822407120000,0.003910068,0,-0.8132942,-1.08,13.2,-40.56,7,269,5,0.1685344,-0.1607792,-0.1727069,5.892758,-0.02799892,-0.05984842,-0.0195301,-0.02663431,-0.1942814,0.9803897
634796822407340000,0.05083089,0.02737048,-0.8758553,-1.08,13.2,-40.56,7,269,5,0.03018183,-0.3257341,-0.4909103,5.889334,-0.02631521,-0.06513965,-0.01926691,-0.02935904,-0.1959547,0.979984
634796822407520000,0.09384164,0.08602151,-0.9579667,-1.2,13.5,-40.44,1,263,5,0.1099944,-0.3342479,-0.5707271,5.883126,-0.02418685,-0.07155144,-0.01895097,-0.032651,-0.1989805,0.9792761
634796822407720000,0.08602151,0.1329423,-0.9970675,-1.2,13.5,-40.44,12,274,5,0.2483204,-0.2491099,-0.3695886,5.877803,-0.02138901,-0.07625663,-0.01814091,-0.03518535,-0.2015476,0.9786784
634796822407920000,0.03910068,0.1212121,-0.9853373,-1.2,13.5,-40.44,23,285,5,0.3696421,-0.01923186,-0.1876061,5.871274,-0.01212072,-0.07263362,-0.01335343,-0.03430232,-0.2045797,0.9781576
634796822408120000,0,0.07038123,-0.9540567,-1.2,13.5,-40.44,23,285,5,0.3238804,-0.1480892,-0.08752795,5.872178,-0.009064436,-0.06861805,-0.01143386,-0.03265585,-0.2040905,0.9783404
634796822408320000,-0.01564027,0.02346041,-0.9853373,-1.62,13.62,-40.74,14,276,5,0.2962106,-0.4460722,-0.2620334,5.872368,-0.006973981,-0.07010484,-0.01055962,-0.03359751,-0.2039603,0.9783455
634796822408530000,-0.01564027,0.04301075,-1.079179,-1.62,13.62,-40.74,3,265,5,0.1887238,-0.1693737,-0.5355393,5.871759,-0.003038883,-0.07655918,-0.009303552,-0.03715318,-0.2041722,0.9781855
634796822408720000,0.01564027,0.08993158,-1.14565,-1.62,13.62,-40.74,358,4,5,-0.09219854,0.2903552,-0.8452288,5.865831,-8.726119E-05,-0.0776087,-0.008079519,-0.03794396,-0.2070115,0.977569
634796822408920000,0.06256109,0.1329423,-1.15738,-1.62,13.62,-40.74,4,266,5,0.00356183,0.3009975,-0.5823652,5.85519,-0.000803709,-0.07278085,-0.008118921,-0.03546721,-0.2155353,0.9758923
634796822409120000,0.07820137,0.1407625,-1.16129,-1.62,13.62,-40.74,4,266,5,0.1280543,0.3201535,-0.04492775,5.845841,0.0002872944,-0.06345832,-0.006741862,-0.03099951,-0.2168198,0.975696
634796822409320000,0.03519062,0.1016618,-1.13392,-1.62,13.62,-40.74,14,276,5,0.08124366,0.2786487,0.2306809,5.849951,0.001234293,-0.05838072,-0.005670463,-0.0286367,-0.2148178,0.9762177
634796822409520000,-0.01955034,0.05865103,-1.086999,-2.1,14.1,-40.38,18,280,5,0.005710926,0.06255906,0.207268,5.855515,0.0009431838,-0.05632675,-0.005515061,-0.02761834,-0.212112,0.9768395
634796822409720000,-0.03910068,0.03128055,-1.086999,-2.1,14.1,-40.38,9,271,5,-0.1804858,-0.2152009,0.1061407,5.859236,-0.0004570484,-0.05726719,-0.006246716,-0.02794085,-0.2103112,0.9772152
634796822409920000,-0.02346041,0.02346041,-1.14565,-2.1,14.1,-40.38,9,271,5,-0.2432751,-0.2620268,0.02629924,5.865105,-0.004936218,-0.06204676,-0.008850167,-0.02983112,-0.2074952,0.9777411
634796822410120000,-0.007820137,0.03910068,-1.196481,-2.1,14.1,-40.38,356,2,5,-0.2432751,-0.1694392,0.04649643,5.870227,-0.009549856,-0.06644559,-0.01148073,-0.03153236,-0.205055,0.978175
634796822410320000,0.01564027,0.06256109,-1.184751,-2.1,14.1,-40.38,358,4,5,-0.2411466,0.01254443,0.01987356,5.878047,-0.01736617,-0.06768238,-0.01530742,-0.03139573,-0.2013517,0.9788961
634796822410520000,0.04301075,0.08211143,-1.13783,-2.34,14.1,-39.48,1,263,5,-0.2592385,0.1625516,-0.05141389,5.88061,-0.02239656,-0.06473756,-0.01743625,-0.02947004,-0.2001689,0.9791629
634796822410740000,0.03519062,0.09775171,-1.032258,-2.34,14.1,-39.48,1,263,5,-0.1719692,0.2167599,0.3348813,5.88518,-0.0273819,-0.06033039,-0.01937614,-0.02685732,-0.1979881,0.9796448
634796822410920000,-0.003910068,0.07820137,-0.9345064,-2.34,14.1,-39.48,5,267,5,-0.1719692,0.2167599,0.3348813,5.892898,-0.0310471,-0.05645954,-0.02069481,-0.02467814,-0.1942365,0.9804259
634796822411120000,-0.02737048,0.02737048,-0.914956,-2.34,14.1,-39.48,12,274,5,0.01101705,-0.1493388,0.3274318,5.900462,-0.03338742,-0.05612099,-0.02171733,-0.02436714,-0.1905542,0.9811339
634796822411320000,-0.03519062,-0.02346041,-0.9384164,-2.34,14.1,-39.48,12,274,5,-0.1071282,-0.08013117,0.03476398,5.916005,-0.03561354,-0.06044793,-0.02301463,-0.02645764,-0.1829774,0.9824916
634796822411520000,-0.04301075,-0.01955034,-0.9188661,-2.34,14.1,-39.48,12,274,5,-0.1198435,0.15291,-0.1833911,5.917514,-0.03747153,-0.05927002,-0.02380075,-0.02572688,-0.1822527,0.9826269
634796822411720000,-0.04692082,0.04301075,-0.8680352,-2.34,14.1,-39.48,359,5,5,-0.09742793,0.290195,-0.15784,5.917203,-0.03851008,-0.05554628,-0.02397742,-0.02379856,-0.1823934,0.9826451
634796822411930000,-0.04692082,0.09384164,-0.8289345,-2.88,14.16,-38.7,359,5,5,-0.1878526,0.1731096,0.04541113,5.919441,-0.04029107,-0.05062127,-0.02438213,-0.02124313,-0.1812781,0.9829001
634796822412120000,-0.04301075,0.07820137,-0.8367546,-2.88,14.16,-38.7,358,4,5,-0.09630282,-0.1685279,0.228424,5.924947,-0.04389476,-0.04876077,-0.02593027,-0.02007343,-0.1785935,0.9833764
634796822412320000,-0.02737048,0.05083089,-0.8836755,-2.88,14.16,-38.7,358,4,5,0.1963609,-0.2802716,0.2167175,5.93328,-0.04481769,-0.05299258,-0.02666749,-0.02420993,-0.1720182,0.9844649
634796822412520000,-0.02737048,0.06256109,-0.9540567,-2.88,14.16,-38.7,358,4,5,0.4698668,-0.1387296,0.08790341,5.943638,-0.03379774,-0.05854284,-0.0215922,-0.0259885,-0.1693502,0.9849766
634796822412720000,-0.04692082,0.0742913,-0.9775171,-2.22,15.36,-37.92,359,5,5,0.3836645,0.2699046,0.07723711,5.9478,-0.02745533,-0.05359924,-0.01800197,-0.02412766,-0.167195,0.9854642
634796822412920000,-0.03910068,0.07820137,-0.9423265,-2.22,15.36,-37.92,355,1,5,0.2293519,0.5806584,0.1282932,5.953368,-0.02422237,-0.04370474,-0.01553053,-0.01956495,-0.164372,0.9860821
634796822413120000,-0.01564027,0.06647116,-0.9305963,-2.22,15.36,-37.92,355,1,5,0.2857558,0.3720702,0.2325745,5.959237,-0.02166581,-0.03803015,-0.01375512,-0.0170173,-0.1614312,0.9866413
634796822413320000,-0.003910068,0.03519062,-0.9736071,-2.22,15.36,-37.92,357,3,5,0.8625659,0.6136245,0.05269958,5.966934,-0.01269936,-0.03423631,-0.008964822,-0.01590371,-0.1575487,0.9873425
634796822413520000,0.01173021,0.04301075,-0.9892473,-2.22,15.36,-37.92,1,263,5,0.6039592,0.6008539,0.08994193,5.971495,0.001409531,-0.02572739,-0.001300451,-0.01281685,-0.1551932,0.9878001
634796822413720000,0.03519062,0.1016618,-0.9579667,-2.22,15.36,-37.92,2,264,5,0.234673,-0.02704049,0.2985173,5.979186,0.01843572,-0.008444786,0.008472016,-0.005569214,-0.1513689,0.9884254
634796822413920000,0.05083089,0.1290323,-0.9970675,-2.22,15.36,-37.92,2,264,5,0.2272234,-0.3665283,0.3932333,5.987281,0.02014422,-0.01164222,0.009103633,-0.007241888,-0.1473446,0.9890168
634796822414140000,0.03910068,0.1094819,-1.13001,-1.44,15.24,-37.62,8,270,5,0.4006921,0.0740575,0.3144807,5.995689,0.02191734,-0.01595759,0.009702194,-0.009465723,-0.1431535,0.9896077
634796822414320000,0.03519062,0.1055719,-1.16129,-1.44,15.24,-37.62,11,273,5,0.2644713,0.5391239,-0.05480865,6.000756,0.02491069,-0.01083863,0.01156821,-0.007117911,-0.1406658,0.9899639
634796822414520000,0.08993158,0.1173021,-1.14565,-1.44,15.24,-37.62,5,267,5,0.234673,0.3369211,-0.05052462,6.001284,0.02735519,-0.004203796,0.01324631,-0.004002268,-0.1404424,0.9899921
634796822414720000,0.1642229,0.1290323,-1.12219,-1.44,15.24,-37.62,4,266,5,0.277242,0.2709391,-0.04943091,6.002497,0.03457689,0.007084608,0.01761289,0.001088728,-0.1399229,0.9900051
634796822414920000,0.1798632,0.1524927,-1.102639,-1.44,15.24,-37.62,4,266,5,0.1974251,0.07935553,0.1527628,6.004375,0.03736639,0.008280754,0.01907591,0.001503536,-0.1390052,0.9901068
634796822415120000,0.1524927,0.1485826,-1.067449,-0.24,15.54,-37.68,17,279,5,0.0760577,-0.08985787,0.3634794,6.009542,0.03818107,0.006337404,0.01934301,0.0005348218,-0.1364295,0.9904608
634796822415320000,0.1290323,0.1094819,-1.083089,-0.24,15.54,-37.68,17,279,5,0.05476947,-0.3771986,0.4060484,6.015211,0.03842973,-0.0008938313,0.01898178,-0.003009512,-0.1335532,0.9908553
634796822415520000,0.1173021,0.08211143,-1.13001,-0.24,15.54,-37.68,20,282,5,0.2080251,-0.08027345,-0.1473427,6.016856,0.04021883,-0.006917,0.01947086,-0.006096949,-0.1326751,0.9909496
634796822415720000,0.1446725,0.1016618,-1.13783,-0.24,15.54,-37.68,14,276,5,-0.1176218,-0.01642665,-0.2495083,6.015817,0.04230952,-0.01079667,0.02022851,-0.008208605,-0.1351137,0.9905896
634796822415920000,0.1603128,0.1603128,-1.090909,-0.24,15.54,-37.68,13,275,5,-0.3038612,-0.01004758,-0.1558414,6.008585,0.03675317,-0.01129448,0.0174296,-0.008108118,-0.1367407,0.9904203
634796822416120000,0.172043,0.1915933,-1.004888,-0.24,15.54,-37.68,13,275,5,-0.3379164,0.398587,-0.02492511,6.006722,0.03058052,-0.008084059,0.01458677,-0.006109783,-0.1377135,0.9903458
634796822416320000,0.2072336,0.1642229,-0.9618768,0.78,16.08,-38.22,16,278,5,-1.079681,-0.334694,0.0197401,6.005653,-0.003277063,-0.004809141,-0.001955368,-0.002154806,-0.1383245,0.9903827
634796822416520000,0.2111437,0.1446725,-0.9970675,0.78,16.08,-38.22,16,278,5,-1.079681,-0.334694,0.0197401,6.005653,-0.003277063,-0.004809141,-0.001955368,-0.002154806,-0.1383245,0.9903827
634796822416720000,0.1798632,0.1485826,-1.020528,0.78,16.08,-38.22,25,287,5,-0.3325953,-0.004779771,-0.05156096,6.002842,-0.02358699,-0.005601644,-0.01206877,-0.001125485,-0.1397353,0.9901147
634796822416920000,0.1759531,0.1485826,-1.028348,0.78,16.08,-38.22,25,287,5,-0.04952034,0.04202623,-0.06325307,5.997316,-0.03218985,0.001409769,-0.01582972,0.002990188,-0.1424186,0.9896754
634796822417130000,0.1837732,0.1798632,-1.043988,0.78,16.08,-38.22,21,283,5,-0.01758454,-0.0314019,-0.06748869,5.995807,-0.03301811,0.002141237,-0.0161849,0.003423335,-0.1431584,0.9895615
634796822417320000,0.172043,0.2111437,-1.024438,1.26,16.68,-38.7,18,280,5,0.1505466,0.1260737,0.09000451,5.99648,-0.03061223,0.00415051,-0.01485206,0.004240307,-0.1428135,0.9896291
634796822417520000,0.1212121,0.1876833,-0.9579667,1.26,16.68,-38.7,20,282,5,0.6954298,-0.2400379,0.3539148,6.000972,-0.0237236,0.00336957,-0.01150671,0.003336146,-0.1406093,0.9899927
634796822417720000,0.07820137,0.113392,-0.8914956,1.26,16.68,-38.7,20,282,5,0.6815948,-0.160221,0.2230151,6.006027,-0.01213098,-0.0008203983,-0.006063962,0.0004315903,-0.1381361,0.9903946
634796822417920000,0.05865103,0.03519062,-0.8914956,1.26,16.68,-38.7,23,285,5,0.2931527,-0.6125167,0.1676576,6.015298,-0.001023293,-0.0136112,-0.001415849,-0.006676264,-0.133544,0.9910194
634796822418130000,0.02737048,0.007820137,-0.9657869,1.26,16.68,-38.7,5,267,5,-0.2315006,-0.6848841,0.1207905,6.015298,-0.001023293,-0.0136112,-0.001415849,-0.006676264,-0.133544,0.9910194
634796822418320000,0.007820137,0.02346041,-0.9853373,1.26,16.68,-38.7,5,267,5,-0.2432071,-0.4028644,0.06542271,6.022846,-0.009266138,-0.03148257,-0.006636386,-0.01500599,-0.129857,0.991397
634796822418520000,0.01955034,0.05474096,-0.969697,1.26,16.68,-38.7,359,5,5,0.1133047,0.04197281,-0.06229303,6.026208,-0.01018453,-0.03281378,-0.007151802,-0.01561826,-0.1281994,0.9915996
634796822418720000,0.06256109,0.08602151,-0.9227762,1.08,18.12,-39.06,351,253,5,0.3059295,0.2058091,-0.1133487,6.027696,-0.006182193,-0.02946913,-0.004942684,-0.01422014,-0.1274286,0.9917335
634796822418920000,0.08602151,0.1094819,-0.8954057,1.08,18.12,-39.06,0,262,5,0.2442044,0.06530637,0.05799113,6.030468,-0.002274751,-0.02616501,-0.002776835,-0.01283448,-0.1260265,0.99194
634796822419120000,0.05474096,0.05474096,-0.9032258,1.08,18.12,-39.06,0,262,5,0.1941859,-0.190091,0.170767,6.033669,-0.0004374981,-0.02718675,-0.001908429,-0.0134601,-0.1244263,0.9921357
634796822419320000,0.05474096,0.003910068,-0.9423265,1.08,18.12,-39.06,6,268,5,0.2282411,0.0397887,-0.3837121,6.035936,0.007369518,-0.03160393,0.001707772,-0.01613491,-0.1232358,0.9922448
634796822419520000,0.07820137,0.04692082,-0.9736071,1.08,18.12,-39.06,359,5,5,-0.05592623,-0.05386205,-0.3336935,6.031397,0.0098207,-0.03156853,0.002889116,-0.01627498,-0.1254678,0.99196
634796822419720000,0.06256109,0.1212121,-0.9657869,0.54,19.08,-40.2,359,5,5,-0.2176885,-0.1538858,-0.002705362,6.030151,0.006440878,-0.03259516,0.00113795,-0.01657283,-0.1261103,0.9918771
634796822419920000,0.05474096,0.1368524,-0.9462366,0.54,19.08,-40.2,359,5,5,0.07605025,-0.07086752,0.01537274,6.032723,0.002102852,-0.03343737,-0.001045034,-0.01671829,-0.1248689,0.9920319
634796822420120000,0.0742913,0.1094819,-0.969697,0.54,19.08,-40.2,2,264,5,0.2378039,-0.01977662,-0.319849,6.033732,0.001422405,-0.03327215,-0.001363872,-0.01659455,-0.1243743,0.9920956
634796822420320000,0.1290323,0.08993158,-1.040078,0.54,19.08,-40.2,2,264,5,0.0004986707,0.1813473,-0.7976861,6.017116,-0.0005156994,-0.02749741,-0.002079144,-0.01359258,-0.1326333,0.9910698
634796822420520000,0.2072336,0.113392,-1.090909,0.54,19.08,-40.2,4,266,5,-0.375154,-0.05810457,-0.6582726,6.006123,-0.00747323,-0.02764106,-0.005608807,-0.01317164,-0.1381255,0.9903113
634796822420720000,0.1837732,0.1798632,-1.098729,0.54,19.08,-40.2,4,266,5,-0.450714,-0.1336575,-0.3911521,5.999522,-0.01519728,-0.02901769,-0.009572318,-0.01328822,-0.1414471,0.9898103
634796822420920000,0.1173021,0.2346041,-1.063539,0.54,19.62,-40.68,8,270,5,-0.2304194,0.3239237,-0.04099958,5.99819,-0.01944899,-0.02347541,-0.011292,-0.01023701,-0.1421126,0.9897332
634796822421120000,0.1290323,0.230694,-1.024438,0.54,19.62,-40.68,16,278,5,0.1388599,0.4761079,0.2378086,6.000047,-0.01919937,-0.01789832,-0.01076572,-0.007504698,-0.1411698,0.9898984
634796822421320000,0.1798632,0.172043,-1.059628,0.54,19.62,-40.68,16,278,5,-0.08035967,0.2398499,-0.05381807,6.004144,-0.01757145,-0.009887099,-0.009387642,-0.003673533,-0.1391045,0.9902264
634796822421520000,0.226784,0.1251222,-1.13392,0.54,19.62,-40.68,16,278,5,-0.3793961,0.09507307,-0.1325554,6.004263,-0.0187757,-0.004809022,-0.009630742,-0.001076055,-0.1390254,0.9902414
634796822421720000,0.2228739,0.1485826,-1.13783,0.54,19.62,-40.68,16,278,5,-0.5166811,0.03015864,-0.07293305,5.999644,-0.03295588,-0.002105951,-0.01646059,0.001285858,-0.1412939,0.98983
634796822421920000,0.1603128,0.1642229,-1.079179,0.54,19.62,-40.68,17,279,5,-0.4336716,-0.1390325,0.1303082,6.000274,-0.04153776,-0.00346744,-0.02080428,0.001211814,-0.1409894,0.9897918
634796822422120000,0.09384164,0.1212121,-1.040078,-0.3,19.74,-40.38,19,281,5,-0.2208265,-0.1262457,0.05046333,6.001127,-0.04590988,-0.00521028,-0.02309101,0.0006477284,-0.1405839,0.9897993
634796822422320000,0.08211143,0.0742913,-1.004888,-0.3,19.74,-40.38,16,278,5,-0.06331674,0.110005,-0.1432012,6.000511,-0.04921126,-0.006192446,-0.02479377,0.0004013596,-0.140899,0.9897134
634796822422520000,0.1368524,0.09384164,-0.9618768,-0.3,19.74,-40.38,16,278,5,-0.1515842,0.08761083,-0.2336603,5.997164,-0.05085421,-0.003811836,-0.0254363,0.001737703,-0.1425255,0.9894627
634796822422720000,0.1642229,0.1485826,-0.9462366,-0.3,19.74,-40.38,8,270,5,-0.353787,-0.1858853,-0.1016746,5.99613,-0.06282567,-0.006335973,-0.03153745,0.001358522,-0.1430629,0.9892101
634796822422920000,0.08993158,0.1485826,-0.9618768,-0.3,19.74,-40.38,5,267,5,-0.0728223,-0.1092499,0.2601225,5.99961,-0.06939387,-0.008870244,-0.03496787,0.0005141502,-0.1413786,0.9893377
634796822423120000,0.06256109,0.1016618,-0.9462366,0,20.16,-40.08,20,282,5,0.1538255,0.1429526,0.2622509,6.002932,-0.07087493,-0.008126973,-0.03564962,0.0009272894,-0.1397224,0.9895483
634796822423320000,0.06647116,0.06647116,-0.8954057,0,20.16,-40.08,20,282,5,0.2208717,-0.0454371,0.1898836,6.008401,-0.06995034,-0.004375696,-0.03493786,0.002623343,-0.1369521,0.9899579
634796822423520000,0.06647116,0.04692082,-0.8484849,0,20.16,-40.08,9,271,5,0.2027799,-0.4828337,0.09618233,6.013608,-0.06689692,-0.003984451,-0.03340635,0.002520947,-0.1343715,0.9903646
634796822423720000,0.08602151,0.04692082,-0.8875855,0,20.16,-40.08,3,265,5,0.1495498,-0.6765226,0.03549479,6.020247,-0.06064438,-0.02346253,-0.03159093,-0.007650314,-0.1313742,0.9907998
634796822423920000,0.08993158,0.08602151,-0.9892473,-0.06,20.64,-39.12,7,269,5,-0.05798029,-0.5360449,-0.04433168,6.021408,-0.06146001,-0.03300452,-0.03261093,-0.01234309,-0.1309389,0.9907771
634796822424120000,0.07038123,0.1564027,-1.051808,-0.06,20.64,-39.12,5,267,5,-0.1079251,-0.1476027,0.1152568,6.023099,-0.06292415,-0.03540063,-0.03348039,-0.0134627,-0.1301442,0.9908382
634796822424320000,0.08602151,0.1798632,-1.028348,-0.06,20.64,-39.12,5,267,5,-0.008958139,0.06414244,0.338744,6.029177,-0.06445885,-0.03358471,-0.03408561,-0.01256668,-0.1271162,0.9912224
634796822424520000,0.1094819,0.1173021,-1.028348,-0.06,20.64,-39.12,3,265,5,0.2059882,-0.09442764,0.480286,6.038792,-0.06288195,-0.03370214,-0.03324991,-0.01288509,-0.1223413,0.9918473
634796822424750000,0.08993158,0.04692082,-1.075269,-0.06,20.64,-39.12,7,269,5,0.0963629,0.1355422,-0.2561941,6.047457,-0.05978131,-0.03323019,-0.03162765,-0.01297782,-0.118016,0.9924231
634796822424920000,0.1094819,0.04692082,-1.079179,-0.06,20.64,-39.12,8,270,5,-0.01326963,0.1801995,-0.3392037,6.047457,-0.05978131,-0.03323019,-0.03162765,-0.01297782,-0.118016,0.9924231
634796822425120000,0.1524927,0.1212121,-1.059628,-0.06,20.64,-39.12,8,270,5,-0.1207716,0.01628297,-0.00185696,6.038989,-0.05947351,-0.02731752,-0.03117102,-0.009929778,-0.1221328,0.9919745
634796822425320000,0.1290323,0.1876833,-1.043988,-0.18,21.42,-38.76,4,266,5,-0.1207716,0.01628297,-0.00185696,6.038989,-0.05947351,-0.02731752,-0.03117102,-0.009929778,-0.1221328,0.9919745
634796822425520000,0.06647116,0.1524927,-0.9931574,-0.18,21.42,-38.76,11,273,5,-0.04093247,0.503648,0.5025668,6.047895,-0.06380581,-0.02327299,-0.03303992,-0.007806253,-0.1176747,0.9924717
634796822425720000,0.07038123,0.07038123,-0.914956,-0.18,21.42,-38.76,11,273,5,0.1835915,0.2631332,0.1854277,6.057022,-0.06569766,-0.01391959,-0.03341724,-0.003205614,-0.1130044,0.9930272
634796822425920000,0.1016618,0.03519062,-0.8914956,-0.18,21.42,-38.76,4,266,5,0.3432252,0.05874758,-0.05190119,6.061042,-0.06410407,-0.007765293,-0.03227903,-0.0003046012,-0.1109094,0.9933062
634796822426120000,0.09384164,0.05865103,-0.9540567,-0.18,21.42,-38.76,4,266,5,0.09098346,-0.3233017,-0.03486518,6.061542,-0.05596209,-0.01016974,-0.02836751,-0.001957557,-0.1106917,0.993448
634796822426320000,0.06256109,0.07820137,-1.024438,-0.18,21.42,-38.76,4,266,5,-0.2910856,-0.09554548,0.1577287,6.06429,-0.05891657,-0.01329243,-0.03000274,-0.003386397,-0.109374,0.993542
634796822426520000,0.07820137,0.05865103,-1.036168,0.72,21.9,-38.82,5,267,5,-0.4187926,0.04921148,0.115127,6.068356,-0.06608987,-0.01140654,-0.0334591,-0.002125254,-0.1073354,0.9936574
634796822426720000,0.09775171,0.05865103,-1.008798,0.72,21.9,-38.82,5,267,5,-0.2527735,0.1002984,-0.02749489,6.06985,-0.07178259,-0.008859633,-0.03615058,-0.0005814443,-0.1065537,0.9936494
634796822426920000,0.09384164,0.06647116,-0.9892473,0.72,21.9,-38.82,0,262,5,0.01645205,0.1439103,-0.02216855,6.070453,-0.07326889,-0.006492733,-0.03676353,0.0006625874,-0.1062124,0.9936634
634796822427140000,0.1055719,0.04301075,-0.9931574,0.72,21.9,-38.82,0,262,5,0.1058353,0.003422557,-0.1126065,6.069785,-0.06992459,-0.001388788,-0.03483026,0.003032605,-0.1064571,0.9937025
634796822427320000,0.1251222,0.03128055,-1.016618,0.72,21.9,-38.82,2,264,5,0.02497872,0.002346619,-0.1913267,6.067573,-0.07041454,-0.001674414,-0.03508567,0.002955625,-0.1075603,0.9935749
634796822427520000,0.1290323,0.05865103,-1.040078,1.2,22.38,-38.76,1,263,5,-0.135665,-0.2456176,-0.1785384,6.066394,-0.07145643,-0.003661155,-0.03570887,0.002045674,-0.1081789,0.9934878
634796822427720000,0.1251222,0.07820137,-1.040078,1.2,22.38,-38.76,1,263,5,0.01335707,-0.1381309,-0.1455112,6.064846,-0.07033372,-0.0045048,-0.03519546,0.001593118,-0.1089641,0.9934211
634796822427920000,0.1212121,0.0742913,-1.020528,1.2,22.38,-38.76,3,265,5,0.4443641,0.1065613,-0.1379919,6.062744,-0.0646081,-0.0007901191,-0.03214587,0.003160283,-0.1099528,0.9934118
634796822428120000,0.1290323,0.05083089,-1.012708,1.2,22.38,-38.76,3,265,5,0.4252081,-0.01264299,-0.1007151,6.061323,-0.05672598,0.0007371902,-0.02814407,0.003505636,-0.1106492,0.9934548
634796822428330000,0.1446725,0.03910068,-1.028348,1.2,22.38,-38.76,3,265,5,0.2985653,0.1160946,-0.1474997,6.059323,-0.04493546,0.004930019,-0.02204997,0.004958331,-0.1116142,0.9934946
634796822428520000,0.1407625,0.05083089,-1.032258,1.2,22.38,-38.76,3,265,5,0.05166641,0.1469015,-0.02934355,6.058498,-0.04204297,0.00953114,-0.0203531,0.007090923,-0.1119819,0.9934765
634796822428720000,0.1368524,0.05474096,-0.9931574,1.2,22.38,-38.76,4,266,5,-0.01003599,0.08086387,0.0515333,6.059922,-0.04198194,0.01328993,-0.02011825,0.00894029,-0.1112343,0.9935504
634796822428920000,0.1329423,0.05083089,-0.9657869,1.68,22.44,-38.58,4,266,5,0.08467005,-0.07130351,0.1079173,6.061653,-0.04128599,0.01448524,-0.0197141,0.009478312,-0.1103649,0.9936504
634796822429120000,0.1329423,0.05083089,-0.9736071,1.68,22.44,-38.58,4,266,5,0.08354889,-0.1734691,0.1674768,6.065445,-0.03961825,0.01428616,-0.01891413,0.009251506,-0.1084904,0.9938745
634796822429320000,0.1251222,0.03910068,-1.012708,1.68,22.44,-38.58,4,266,5,0.002602116,-0.1308802,0.1749264,6.069817,-0.03844643,0.01284492,-0.01842856,0.008431494,-0.1063375,0.9941236
634796822429520000,0.1094819,0.02737048,-1.028348,1.68,22.44,-38.58,4,266,5,-0.1304384,0.002159844,0.1323319,6.073836,-0.03938675,0.01346135,-0.01888083,0.008749924,-0.1043292,0.9943251
634796822429720000,0.1055719,0.02346041,-1.016618,2.46,22.26,-37.8,359,5,5,-0.09637678,0.06809752,0.03017813,6.077712,-0.0431633,0.01791131,-0.02054707,0.0111193,-0.1023357,0.9944755
634796822429920000,0.113392,0.03519062,-1.004888,2.46,22.26,-37.8,357,3,5,-0.1251219,-0.005360714,0.003591553,6.079316,-0.04513502,0.01928556,-0.02146641,0.01188623,-0.1015111,0.9945318
634796822430120000,0.1251222,0.03910068,-1.012708,2.46,22.26,-37.8,357,3,5,-0.08138877,-0.01379086,0.03337155,6.081675,-0.0472064,0.02004635,-0.02247228,0.01234318,-0.1003167,0.9946252
634796822430320000,0.1329423,0.03519062,-1.012708,2.46,22.26,-37.8,358,4,5,-0.08138877,-0.01379086,0.03337155,6.083159,-0.04804039,0.02072692,-0.02286216,0.01270647,-0.09956472,0.9946873
634796822430540000,0.1368524,0.03519062,-1.004888,2.46,22.26,-37.8,359,5,5,-0.2143708,-0.001006862,-0.02088445,6.08628,-0.05292296,0.02448857,-0.02512525,0.01478091,-0.09792922,0.9947664
634796822430720000,0.1407625,0.04301075,-1.008798,2.82,22.02,-37.26,0,262,5,-0.1249541,-0.1244502,-0.01129408,6.087438,-0.05562544,0.02447271,-0.02647877,0.01489002,-0.09733351,0.9947881
634796822430920000,0.1407625,0.05083089,-1.020528,2.82,22.02,-37.26,0,262,5,-0.05359302,-0.1350889,-0.003836633,6.088155,-0.05632853,0.02422154,-0.02684604,0.01478971,-0.09697537,0.9948148
634796822431120000,0.1290323,0.04692082,-1.028348,2.82,22.02,-37.26,0,262,5,-0.01952983,-0.1372174,-0.01235448,6.089724,-0.05696416,0.02338469,-0.02721444,0.01438293,-0.09620262,0.9948857
634796822431320000,0.1290323,0.03128055,-1.040078,2.82,22.02,-37.26,0,262,5,0.1006654,-0.08825002,-0.1389759,6.090151,-0.05613565,0.02253234,-0.02684651,0.01391338,-0.09600863,0.9949211
634796822431520000,0.1368524,0.04301075,-1.047898,2.82,22.02,-37.26,358,4,5,0.09426256,0.09798056,-0.2251627,6.088508,-0.05407071,0.02307987,-0.02578121,0.0141078,-0.0968328,0.9948667
634796822431730000,0.1446725,0.0742913,-1.024438,2.82,22.02,-37.26,358,4,5,0.01447025,0.2075152,-0.1187296,6.085464,-0.05199909,0.03030586,-0.02437174,0.01763885,-0.09826311,0.9947056
634796822431920000,0.1407625,0.07820137,-0.9931574,2.82,22.02,-37.26,358,4,5,0.05064975,0.1903947,-0.01548564,6.086418,-0.05099106,0.03449404,-0.02367231,0.01966087,-0.09774076,0.9947361
634796822432120000,0.1329423,0.05474096,-0.9853373,2.7,21.48,-36.54,1,263,5,0.2464482,0.1041389,0.04410309,6.088278,-0.04714179,0.03795778,-0.0216067,0.02117528,-0.09680965,0.994843
634796822432320000,0.1251222,0.03910068,-0.9853373,2.7,21.48,-36.54,1,263,5,0.2730539,0.1456338,0.03771338,6.089473,-0.04418897,0.04055345,-0.02002439,0.02231142,-0.09621544,0.994909
634796822432520000,0.1290323,0.03128055,-0.9423265,2.7,21.48,-36.54,1,263,5,0.2400629,0.09026961,0.02813461,6.091484,-0.03961658,0.04424906,-0.01759445,0.02391199,-0.09522531,0.995013
634796822432720000,0.1446725,0.02737048,-0.9305963,2.7,21.48,-36.54,359,5,5,-0.2633212,-0.3503238,0.02598285,6.095936,-0.04938698,0.04583621,-0.0224346,0.02511647,-0.09287184,0.9951084
634796822432920000,0.1524927,0.04692082,-0.9931574,2.7,21.48,-36.54,359,5,5,-0.2633212,-0.3503238,0.02598285,6.095936,-0.04938698,0.04583621,-0.0224346,0.02511647,-0.09287184,0.9951084
634796822433120000,0.1485826,0.0742913,-1.051808,2.7,21.48,-36.54,359,5,5,0.1262312,-0.1278882,0.06533364,6.099788,-0.05114031,0.03869975,-0.023684,0.02160187,-0.09103072,0.995332
634796822433320000,0.1485826,0.07038123,-1.098729,2.88,21.54,-36.48,1,263,5,0.4923247,0.01369243,0.02168221,6.101816,-0.04671931,0.0378747,-0.02154299,0.02096818,-0.09007913,0.9954808
634796822433540000,0.1485826,0.07038123,-1.090909,2.88,21.54,-36.48,0,262,5,0.6232244,0.536227,0.006762625,6.102956,-0.03604889,0.04144168,-0.01608224,0.02225358,-0.08958719,0.9956005
