Timestamp,Acc.X,Acc.Y,Acc.Z,Comp.X,Comp.Y,Comp.Z,Comp.TrueHeading,Comp.MagneticHeading,Comp.HeadingAccuracy,Gyro.X,Gyro.Y,Gyro.Z,Motion.Yaw,Motion.Pitch,Motion.Roll,Motion.X,Motion.Y,Motion.Z,Motion.W
634796812479510000,0.1212121,0.05474096,-1.004888,0,0,0,0,0,0,0,0,0,0,0,0,0,0,0,0
634796812479710000,0.1094819,0.03910068,-0.9931574,0,0,0,0,0,0,0,0,0,0,0,0,0,0,0,0
634796812479910000,0.1173021,0.03519062,-0.9853373,0,0,0,0,0,0,0,0,0,0,0,0,0,0,0,0
634796812480110000,0.1173021,0.04692082,-0.9970675,0,0,0,0,0,0,0,0,0,0,0,0,0,0,0,0
634796812480310000,0.1212121,0.06256109,-1.020528,0,0,0,0,0,0,-0.274944,-0.0449734,-0.04218737,0,0,0,0,0,0,0
634796812480510000,0.1290323,0.06256109,-1.024438,0,0,0,0,0,0,-0.274944,-0.0449734,-0.04218737,0,0,0,0,0,0,0
634796812480710000,0.1329423,0.05474096,-1.008798,0,0,0,0,0,0,-0.274944,-0.0449734,-0.04218737,0,0,0,0,0,0,0
634796812480910000,0.1016618,0.07820137,-1.004888,0,0,0,0,0,0,0.0943801,-0.2290843,-0.2369402,0,0,0,0,0,0,0
634796812481110000,0.08211143,0.1055719,-1.012708,-18.96,-16.86,-17.34,135,37,5,0.2572049,-0.2514331,-0.1145393,0,0,0,0,0,0,0
634796812481310000,0.09384164,0.09775171,-1.012708,2.76,-18.36,-41.22,170,72,5,0.2603975,-0.1450106,-0.0230161,0,0,0,0,0,0,0
634796812481510000,0.1016618,0.08602151,-1.012708,2.76,-18.36,-41.22,170,72,5,0.1688742,-0.1077475,0.02063681,0,0,0,0,0,0,0
634796812481710000,0.09384164,0.07038123,-1.032258,4.74,-18.18,-39,176,78,5,-0.07263461,0.0880807,-0.004867979,0,0,0,0,0,0,0
634796812481910000,0.08993158,0.04301075,-1.028348,4.74,-18.18,-39,176,78,5,-0.05873891,0.2445218,-0.09744833,0,0,0,0,0,0,0
634796812482110000,0.1016618,0.04692082,-0.9892473,4.74,-18.18,-39,177,79,5,0.02642922,0.1051129,-0.1006068,0,0,0,0,0,0,0
634796812482310000,0.1055719,0.0742913,-0.969697,4.74,-18.18,-39,177,79,5,0.02532849,-0.07472508,0.02074249,0,0,0,0,0,0,0
634796812482510000,0.1055719,0.07038123,-0.9853373,4.74,-18.18,-39,176,78,5,0.02531359,-0.1183214,0.06112782,0,0,0,0,0,0,0
634796812482710000,0.1055719,0.05083089,-1.004888,6,-19.14,-39.42,178,80,5,0.09338718,0.0200381,-0.03462956,3.227587,-0.06130027,0.09486734,0.04603399,0.03261972,-0.99742,0.04436731
634796812482910000,0.1055719,0.04692082,-1.004888,6,-19.14,-39.42,178,80,5,0.03695909,0.1466803,-0.1261329,3.220302,-0.06101608,0.09721231,0.04732791,0.03235439,-0.9975199,0.04076089
634796812483110000,0.113392,0.05083089,-1.004888,6,-19.14,-39.42,178,80,5,-0.07159954,0.06366612,-0.1271108,3.2121,-0.06064463,0.1002631,0.04898979,0.03202649,-0.9977559,0.0329117
634796812483320000,0.1212121,0.06256109,-1.004888,6,-19.14,-39.42,178,80,5,0.002893559,-0.07038964,-0.09724305,3.198956,-0.05563855,0.1002436,0.04926442,0.02920579,-0.9979131,0.03002359
634796812483510000,0.1251222,0.07820137,-1.008798,6,-19.14,-39.42,178,80,5,0.2316835,-0.01500705,-0.04931066,3.196631,-0.05226231,0.1010891,0.04976886,0.02747475,-0.9979718,0.02879049
634796812483710000,0.1173021,0.08211143,-1.016618,6.36,-20.1,-39.6,177,79,5,0.07949,0.1339952,0.05928075,3.194369,-0.05040145,0.1035386,0.05104856,0.02652073,-0.9979755,0.02764428
634796812483910000,0.113392,0.06256109,-1.008798,6.36,-20.1,-39.6,177,79,5,-0.09924471,0.171214,0.06567301,3.192343,-0.05523133,0.10856,0.0535157,0.02893863,-0.9977888,0.02682271
634796812484110000,0.1251222,0.05083089,-0.9892473,6.36,-20.1,-39.6,177,79,5,-0.113018,0.08073491,0.05184755,3.189899,-0.06236649,0.1131725,0.05576012,0.03248439,-0.9975784,0.02586336
634796812484310000,0.1212121,0.05474096,-0.9775171,6.36,-20.1,-39.6,178,80,5,-0.1108574,-0.02144891,0.04119264,3.186567,-0.0640924,0.1145048,0.05645747,0.03326585,-0.9975464,0.02427021
634796812484510000,0.1173021,0.05474096,-0.9814272,6.36,-20.1,-39.6,177,79,5,-0.1703804,-0.08210666,-0.002491459,3.185441,-0.06487489,0.1140655,0.05624881,0.03362057,-0.9975765,0.02372345
634796812484710000,0.1290323,0.05865103,-1.000978,6.36,-20.1,-39.6,177,79,5,-0.1469038,-0.1012113,-0.03869054,3.183796,-0.06580663,0.1130279,0.05574664,0.03402822,-0.997584,0.02291315
634796812484910000,0.1407625,0.0742913,-1.016618,6.36,-20.1,-39.6,177,79,5,-0.04262207,-0.03099607,-0.02375351,3.182186,-0.06493688,0.112914,0.05572942,0.03354983,-0.9976647,0.02208292
634796812485110000,0.1251222,0.08993158,-1.012708,5.82,-19.32,-39.6,176,78,5,-0.06813517,0.01262429,0.06885601,3.183722,-0.06480789,0.1145309,0.05651044,0.03354309,-0.9975825,0.02287149
634796812485310000,0.1094819,0.08211143,-0.9970675,5.82,-19.32,-39.6,175,77,5,-0.1096131,0.004139538,0.1241786,3.185967,-0.06580257,0.1159377,0.05716227,0.03411658,-0.9974918,0.02404134
634796812485510000,0.113392,0.06256109,-0.9892473,5.82,-19.32,-39.6,176,78,5,-0.07548545,-0.05439008,0.02196795,3.190161,-0.07284904,0.1173846,0.05771977,0.03776659,-0.9972724,0.02635927
634796812485710000,0.1212121,0.05474096,-0.9892473,5.82,-19.32,-39.6,176,78,5,-0.07548545,-0.05439008,0.02196795,3.18971,-0.07408928,0.1166109,0.05732515,0.03836299,-0.9972592,0.02615725
634796812485910000,0.1212121,0.06256109,-0.9931574,5.82,-19.32,-39.6,177,79,5,0.04044453,-0.141619,-0.024915,3.1892,-0.07301593,0.11529,0.0566913,0.03779944,-0.9973453,0.02584808
634796812486110000,0.1173021,0.0742913,-1.008798,5.82,-19.32,-39.6,177,79,5,0.05954897,-0.07240816,-0.03451155,3.189103,-0.0712645,0.113816,0.05598051,0.03690739,-0.997421,0.025725
634796812486310000,0.1212121,0.07820137,-1.020528,5.82,-19.98,-39.6,176,78,5,0.0201587,0.03828221,-0.02917009,3.188941,-0.06891798,0.1132102,0.05571121,0.03572577,-0.9974802,0.02556871
634796812486510000,0.1329423,0.0742913,-1.008798,5.82,-19.98,-39.6,176,78,5,-0.006422349,0.05950935,0.003862603,3.188314,-0.06862521,0.1143647,0.05630267,0.03557512,-0.9974725,0.02526649
634796812486720000,0.1407625,0.07038123,-1.004888,5.82,-19.98,-39.6,176,78,5,0.03191136,-0.06071457,0.003873777,3.188859,-0.06926966,0.1154801,0.0568414,0.03592406,-0.9974266,0.02557482
634796812486910000,0.1368524,0.06647116,-1.016618,5.82,-19.98,-39.6,176,78,5,0.05216091,-0.07346547,-0.001413507,3.189686,-0.06910276,0.1154847,0.05683009,0.0358639,-0.9974047,0.02598263
634796812487110000,0.1329423,0.06647116,-1.016618,5.34,-19.2,-39.06,173,75,5,0.04894194,-0.03935024,-0.02160143,3.191094,-0.06852078,0.1162635,0.05720049,0.03562219,-0.9973636,0.02668151
634796812487310000,0.1251222,0.07038123,-1.008798,5.34,-19.2,-39.06,174,76,5,0.003123006,-0.03823312,0.001842384,3.192997,-0.06828022,0.1173693,0.05772138,0.0355697,-0.9973102,0.02764158
634796812487510000,0.1290323,0.07038123,-1.008798,5.34,-19.2,-39.06,174,76,5,-0.01288688,-0.04992087,0.02847143,3.195589,-0.06827116,0.1178472,0.05791488,0.03564658,-0.9972798,0.02894096
634796812487710000,0.1251222,0.0742913,-1.004888,5.34,-19.2,-39.06,175,77,5,0.06685647,0.002209567,0.0007404851,3.198716,-0.06738901,0.1182941,0.05809489,0.03530294,-0.9972263,0.03048216
634796812487910000,0.1251222,0.0742913,-1.000978,5.34,-19.2,-39.06,174,76,5,0.03381643,-0.04783658,0.01241344,3.200063,-0.06679177,0.1191453,0.05850457,0.03505559,-0.997186,0.03114994
634796812488110000,0.1290323,0.06647116,-0.9970675,5.34,-18.9,-39.06,175,77,5,0.03274135,-0.09254723,-0.008852866,3.201275,-0.06710696,0.1186187,0.05821589,0.03524095,-0.9971797,0.03175471
634796812488310000,0.1329423,0.0742913,-1.004888,5.34,-18.9,-39.06,175,77,5,0.05298909,-0.07872199,-0.01413728,3.202092,-0.0670588,0.1176147,0.05770231,0.03522695,-0.9972098,0.03214438
634796812488510000,0.1290323,0.07820137,-1.012708,5.34,-18.9,-39.06,174,76,5,-0.03104415,0.05322777,0.03694585,3.203399,-0.06704688,0.1176974,0.05771992,0.03525952,-0.997173,0.03279764
634796812488710000,0.1329423,0.06647116,-0.9931574,5.34,-18.9,-39.06,174,76,5,-0.05656097,0.03728845,0.02733366,3.204622,-0.06798482,0.1191188,0.05839231,0.03578377,-0.9971073,0.03345662
634796812488930000,0.1368524,0.05474096,-0.9853373,5.34,-18.9,-39.06,174,76,5,-0.005501795,-0.1127145,-0.01845718,3.20704,-0.07019019,0.1191127,0.05830659,0.03695301,-0.9970086,0.03472681
634796812489110000,0.1290323,0.06256109,-1.000978,5.34,-18.9,-39.06,174,76,5,0.01048436,-0.1307919,-0.04931407,3.207949,-0.06950498,0.1178855,0.0576907,0.03661934,-0.9970536,0.03513993
634796812489310000,0.1290323,0.06647116,-1.012708,5.34,-18.9,-39.06,174,76,5,0.0009086721,-0.09352409,-0.07378348,3.208441,-0.06872772,0.117569,0.05753769,0.03624109,-0.9970701,0.03535743
634796812489510000,0.1329423,0.0742913,-1.004888,6.06,-18.12,-38.64,176,78,5,-0.3738192,-0.05722102,0.06351168,3.206881,-0.07595849,0.1253388,0.06131303,0.03991796,-0.9967085,0.03492768
634796812489710000,0.1329423,0.0742913,-0.9970675,6.06,-18.12,-38.64,176,78,5,-0.3738192,-0.05722102,0.06351168,3.206881,-0.07595849,0.1253388,0.06131303,0.03991796,-0.9967085,0.03492768
634796812489910000,0.1290323,0.06647116,-0.9970675,6.06,-18.12,-38.64,176,78,5,-0.2322772,-0.1785363,0.02836884,3.206881,-0.07595849,0.1253388,0.06131303,0.03991796,-0.9967085,0.03492768
634796812490120000,0.1329423,0.05865103,-0.9931574,6.06,-18.12,-38.64,176,78,5,-0.2322772,-0.1785363,0.02836884,3.206881,-0.07595849,0.1253388,0.06131303,0.03991796,-0.9967085,0.03492768
634796812490310000,0.1290323,0.06256109,-0.9970675,6.06,-18.12,-38.64,176,78,5,-0.2322772,-0.1785363,0.02836884,3.206881,-0.07595849,0.1253388,0.06131303,0.03991796,-0.9967085,0.03492768
634796812490510000,0.1212121,0.06647116,-1.004888,6.06,-18.12,-38.64,176,78,5,-0.2322772,-0.1785363,0.02836884,3.206881,-0.07595849,0.1253388,0.06131303,0.03991796,-0.9967085,0.03492768
634796812490710000,0.1290323,0.06647116,-1.024438,6.06,-18.12,-38.64,176,78,5,-0.2322772,-0.1785363,0.02836884,3.206881,-0.07595849,0.1253388,0.06131303,0.03991796,-0.9967085,0.03492768
634796812490910000,0.1290323,0.07038123,-1.012708,6.06,-18.12,-38.64,176,78,5,-0.2322772,-0.1785363,0.02836884,3.206881,-0.07595849,0.1253388,0.06131303,0.03991796,-0.9967085,0.03492768
634796812491110000,0.1368524,0.0742913,-0.9970675,6.06,-18.12,-38.64,176,78,5,-0.2322772,-0.1785363,0.02836884,3.206881,-0.07595849,0.1253388,0.06131303,0.03991796,-0.9967085,0.03492768
634796812491310000,0.1524927,0.06256109,-0.9931574,6.06,-18.12,-38.64,176,78,5,-0.2322772,-0.1785363,0.02836884,3.206881,-0.07595849,0.1253388,0.06131303,0.03991796,-0.9967085,0.03492768
634796812491510000,0.1524927,0.05083089,-0.9892473,6.06,-18.12,-38.64,176,78,5,-0.2322772,-0.1785363,0.02836884,3.206881,-0.07595849,0.1253388,0.06131303,0.03991796,-0.9967085,0.03492768
634796812491710000,0.1407625,0.05083089,-1.004888,6.06,-18.12,-38.64,176,78,5,-0.06942055,-0.1103962,-0.03658306,3.209156,-0.07782936,0.1244128,0.06077232,0.04090567,-0.99666,0.03610166
634796812491910000,0.1368524,0.05865103,-1.024438,6.12,-18.72,-39.12,174,76,5,-0.06942055,-0.1103962,-0.03658306,3.210313,-0.07602667,0.1245182,0.06083434,0.04004414,-0.996675,0.03662496
634796812492110000,0.1446725,0.08211143,-1.036168,6.12,-18.72,-39.12,174,76,5,0.05410684,0.005685864,-0.1514183,3.20933,-0.07431364,0.1252823,0.06126636,0.03917292,-0.9967099,0.0360963
634796812492330000,0.1524927,0.1016618,-1.059628,6.12,-18.72,-39.12,175,77,5,0.5191725,0.07272566,-0.06945762,3.205943,-0.06632566,0.127473,0.06256057,0.03511995,-0.9968306,0.03419777
634796812492510000,0.1485826,0.09775171,-1.040078,6.24,-18.3,-39.6,175,77,5,0.8501465,0.1450549,0.01352779,3.205717,-0.05264449,0.1306316,0.06437229,0.02834171,-0.9969689,0.03369384
634796812492720000,0.1446725,0.06256109,-0.969697,6.24,-18.3,-39.6,175,77,5,0.8501465,0.1450549,0.01352779,3.205717,-0.05264449,0.1306316,0.06437229,0.02834171,-0.9969689,0.03369384
634796812492910000,0.1251222,0,-0.9384164,6.24,-18.3,-39.6,175,77,5,-0.0246288,-0.2359402,0.02618537,3.207851,-0.03839302,0.1345549,0.06654322,0.02136794,-0.9969662,0.03433194
634796812493110000,0.1055719,-0.01173021,-0.9618768,6.24,-18.3,-39.6,174,76,5,-0.3608934,-0.2944726,0.00280753,3.208238,-0.04319406,0.1319302,0.06514698,0.02373188,-0.9969853,0.03465894
634796812493310000,0.1094819,0.03128055,-0.9775171,6.24,-18.3,-39.6,174,76,5,-0.292783,-0.2763807,-0.1131231,3.207545,-0.04775071,0.1262935,0.06226701,0.02589249,-0.9971305,0.03440066
634796812493510000,0.1251222,0.05474096,-0.9970675,6.24,-18.3,-39.6,180,82,5,0.04670281,-0.09648369,-0.09280703,3.200804,-0.04227399,0.1187333,0.05866898,0.02284522,-0.9975575,0.03079585
634796812493710000,0.1368524,0.05865103,-1.012708,6.24,-18.3,-39.6,179,81,5,0.1190477,-0.1283421,-0.03422485,3.198858,-0.04044175,0.1167129,0.05770998,0.02184625,-0.9976571,0.02975287
634796812493910000,0.1368524,0.05083089,-1.016618,5.76,-18.78,-39.48,176,78,5,0.04348513,-0.07717481,0.01582758,3.197593,-0.03960585,0.1153649,0.05706387,0.0213749,-0.9977303,0.02908503
634796812494110000,0.1407625,0.04301075,-1.008798,5.76,-18.78,-39.48,176,78,5,-0.07998532,-0.07923963,-0.008621184,3.197359,-0.0415957,0.114956,0.05683344,0.02235539,-0.9977233,0.02902117
634796812494310000,0.1329423,0.04301075,-1.000978,5.76,-18.78,-39.48,175,77,5,-0.07994244,-0.06642251,-0.04585246,3.196965,-0.04413557,0.1147053,0.05667653,0.02360808,-0.9977135,0.02889433
634796812494510000,0.1329423,0.04692082,-0.9931574,5.76,-18.78,-39.48,174,76,5,-0.05118387,-0.03449012,-0.09371184,3.195999,-0.04650569,0.1157876,0.05719483,0.02477722,-0.9976788,0.02849106
634796812494710000,0.1290323,0.04692082,-0.9814272,5.76,-18.78,-39.48,175,77,5,-0.05118387,-0.03449012,-0.09371184,3.195134,-0.04743338,0.1157459,0.0571698,0.02521415,-0.9976482,0.02808652
634796812494910000,0.1290323,0.04301075,-0.9736071,5.76,-18.78,-39.48,175,77,5,0.05205086,-0.137655,-0.109647,3.19429,-0.04726934,0.1146312,0.05662654,0.02509422,-0.997693,0.02764832
634796812495110000,0.1329423,0.04692082,-0.9853373,5.76,-18.78,-39.48,175,77,5,0.04461385,-0.07267208,-0.1000675,3.193584,-0.04675055,0.1137052,0.05618044,0.02480406,-0.997735,0.02727172
634796812495310000,0.1407625,0.04692082,-0.9931574,5.94,-19.2,-39.66,175,77,5,0.01588785,-0.02690081,-0.0574804,3.192548,-0.04594493,0.1135096,0.05610782,0.02437105,-0.9977883,0.02672922
634796812495510000,0.1368524,0.03519062,-0.9970675,5.94,-19.2,-39.66,175,77,5,-0.02132225,-0.02903437,-0.05533237,3.192144,-0.04584026,0.1142783,0.05649666,0.02431632,-0.9977553,0.02653338
634796812495710000,0.1173021,0.01955034,-0.9892473,5.94,-19.2,-39.66,174,76,5,-0.04897018,0.07098663,-0.05422291,3.192205,-0.04671311,0.1168342,0.0577603,0.02478436,-0.9976848,0.02661581
634796812495910000,0.1055719,0.007820137,-0.9579667,5.94,-19.2,-39.66,174,76,5,-0.07878498,0.0528468,-0.03501801,3.192282,-0.04712534,0.1191031,0.05888357,0.02501868,-0.9975768,0.0266924
634796812496110000,0.1016618,-0.007820137,-0.9423265,5.94,-19.2,-39.66,175,77,5,-0.0489473,-0.08336551,-0.04669267,3.192182,-0.04617977,0.1185955,0.05864519,0.02453825,-0.9976199,0.02660881
634796812496310000,0.09384164,-0.01955034,-0.9579667,6.18,-19.08,-39.36,178,80,5,0.02129624,-0.1301937,-0.1530703,3.190025,-0.04340887,0.1162548,0.05753925,0.02306592,-0.9977511,0.02542786
634796812496510000,0.08993158,-0.01173021,-0.9814272,6.18,-19.08,-39.36,180,82,5,-0.005354403,-0.04823107,-0.2009422,3.187571,-0.04089522,0.1148388,0.05689153,0.02172609,-0.9978535,0.02411715
634796812496710000,0.08211143,-0.01173021,-0.9931574,6.18,-19.08,-39.36,180,82,5,-0.1745645,0.01455651,-0.167938,3.182565,-0.03633738,0.1132175,0.0561863,0.01929372,-0.9980136,0.02147605
634796812496920000,0.07820137,-0.02737048,-0.9853373,6.18,-19.08,-39.36,181,83,5,-0.2267115,0.003918833,-0.1487571,3.172331,-0.03464127,0.1100893,0.05473964,0.01813801,-0.9982637,0.0162949
634796812497110000,0.08211143,-0.04301075,-0.9892473,6.18,-19.08,-39.36,181,83,5,-0.1628267,-0.03545655,-0.1934518,3.168246,-0.03312469,0.1080059,0.05374748,0.01725618,-0.9983659,0.01419799
634796812497310000,0.08602151,-0.04301075,-1.016618,6.24,-19.26,-39,183,85,5,-0.142558,-0.1631353,-0.246663,3.161732,-0.02981448,0.1033789,0.05151132,0.0154072,-0.9985563,0.01082441
634796812497510000,0.08993158,-0.05083089,-1.043988,6.24,-19.26,-39,183,85,5,-0.2276825,-0.2067685,-0.2189932,3.155935,-0.02710199,0.09834158,0.04904666,0.01388606,-0.9986388,0.007827744
634796812497710000,0.1016618,-0.05865103,-1.067449,6.24,-19.26,-39,183,85,5,-0.1819209,-0.1173282,-0.1977087,3.150525,-0.02439165,0.09461498,0.04723033,0.01239304,-0.9987718,0.005037527
634796812497910000,0.1094819,-0.05083089,-1.075269,6.24,-19.26,-39,182,84,5,-0.1392663,-0.08640962,-0.2232501,3.145472,-0.02060366,0.09226465,0.04612232,0.01038685,-0.9995123,0.002410695
634796812498110000,0.1173021,-0.04301075,-1.067449,6.24,-19.26,-39,181,83,5,-0.07843932,-0.02781499,-0.08915929,3.139044,-0.0209229,0.09119582,-0.0458765,-0.01045861,1.005105,0.000791106
634796812498310000,0.1173021,-0.03910068,-1.028348,6.48,-18.36,-40.08,180,82,5,-0.07843932,-0.02781499,-0.08915929,3.137803,-0.01899433,0.0909847,-0.04552846,-0.009407978,0.9997066,0.001459749
634796812498510000,0.1055719,-0.05474096,-0.969697,6.48,-18.36,-40.08,180,82,5,0.09712792,0.001945957,-0.03920702,3.137308,-0.0151124,0.09127581,-0.04587641,-0.007490281,1.004176,0.001785735
634796812498710000,0.1016618,-0.08211143,-0.9266862,6.48,-18.36,-40.08,180,82,5,0.006666659,-0.004477812,-0.1009381,3.136907,-0.0104742,0.09165704,-0.04583317,-0.00512539,0.9991368,0.002100177
634796812498910000,0.1016618,-0.08993158,-0.9071358,6.48,-18.36,-40.08,181,83,5,-0.1029095,-0.08006505,-0.1211485,3.136144,-0.00675869,0.09225762,-0.04615779,-0.003251575,0.9997191,0.002563477
634796812499110000,0.09775171,-0.08211143,-0.9032258,6.48,-18.36,-40.08,182,84,5,-0.07418806,-0.149223,-0.1094368,3.13315,0.0005609989,0.09037995,-0.04518296,0.0004708766,0.9991905,0.00422864
634796812499310000,0.08602151,-0.07820137,-0.914956,6.48,-18.36,-40.08,182,84,5,0.05773702,-0.1439018,-0.0860244,3.13159,0.004285574,0.08749247,-0.04374325,0.002360724,0.9995376,0.005087565
634796812499510000,0.0742913,-0.08211143,-0.9227762,6.9,-17.58,-39.96,185,87,5,0.08640405,-0.05019767,-0.08283631,3.129531,0.007136583,0.08635461,-0.0431421,0.003825233,0.9990603,0.006178736
634796812499710000,0.07038123,-0.09775171,-0.914956,6.9,-17.58,-39.96,187,89,5,-0.01049983,-0.006563799,-0.126436,3.125602,0.01072621,0.08598888,-0.04294433,0.005702264,0.9992127,0.008216883
634796812499910000,0.06256109,-0.113392,-0.914956,6.9,-17.58,-39.96,187,89,5,-0.09135775,-0.05868848,-0.1646979,3.120316,0.01231909,0.08560037,-0.04271808,0.006608735,0.9989979,0.01089165
634796812500110000,0.06256109,-0.113392,-0.9305963,6.9,-17.58,-39.96,187,89,5,-0.08490853,-0.0384367,-0.1859699,3.113681,0.01311278,0.08467758,-0.04222896,0.007140525,0.9989635,0.01422054
634796812500320000,0.07038123,-0.1016618,-0.9423265,6.9,-17.58,-39.96,191,93,5,-0.0454958,-0.03626207,-0.1678684,3.100766,0.01643991,0.08381832,-0.04172055,0.009066362,0.9989072,0.02073687
634796812500510000,0.05474096,-0.09775171,-0.9540567,6.9,-17.58,-39.96,193,95,5,-0.007144962,-0.07239135,-0.1146546,3.094688,0.01916194,0.08267318,-0.0410868,0.01053885,0.998809,0.02382467
634796812500710000,0.03519062,-0.1173021,-0.9657869,7.2,-16.8,-40.62,193,95,5,-0.01136291,-0.103201,-0.04229497,3.090005,0.0232501,0.08069288,-0.04001894,0.01265153,0.9987532,0.02623745
634796812500910000,0.03128055,-0.1329423,-0.9736071,7.2,-16.8,-40.62,193,95,5,0.00664399,0.03952172,-0.113503,3.08433,0.03110576,0.07876658,-0.03890711,0.01666086,0.9986714,0.02921385
634796812501110000,0.04301075,-0.1329423,-0.9892473,7.2,-16.8,-40.62,195,97,5,-0.09124196,0.003361163,-0.1272981,3.076589,0.03763127,0.07796859,-0.03833617,0.02005668,0.998516,0.03319819
634796812501310000,0.06647116,-0.1094819,-1.028348,7.2,-16.8,-40.62,200,102,5,-0.2263833,-0.08919801,-0.1400023,3.061154,0.0444572,0.07450223,-0.03631013,0.02369048,0.998219,0.04099764
634796812501520000,0.08993158,-0.07820137,-1.090909,7.2,-16.8,-40.62,199,101,5,-0.2944937,-0.2275344,-0.09096837,3.054019,0.04477382,0.07053947,-0.03424081,0.0238929,0.9981424,0.04452305
634796812501710000,0.1016618,-0.03910068,-1.17302,7.2,-16.8,-40.62,199,101,5,-0.1795394,-0.3137366,0.06124903,3.05048,0.04440188,0.06484342,-0.03136398,0.02364024,0.9981588,0.04622421
634796812501910000,0.08993158,-0.01955034,-1.223851,7.56,-16.44,-41.82,195,97,5,0.04923513,-0.1977361,0.1985199,3.050796,0.0444889,0.06017923,-0.0290377,0.02357474,0.9982409,0.04601954
634796812502110000,0.09384164,-0.03128055,-1.223851,7.56,-16.44,-41.82,195,97,5,0.3216504,-0.1179096,0.2581165,3.052501,0.04639912,0.05824279,-0.028048,0.02446087,0.9982849,0.04517509
634796812502310000,0.1173021,-0.03128055,-1.204301,7.56,-16.44,-41.82,186,88,5,0.40466,-0.1370451,0.2166118,3.05414,0.05230069,0.05574572,-0.02669076,0.02733019,0.9982899,0.0444081
634796812502510000,0.1290323,0,-1.216031,7.56,-16.44,-41.82,186,88,5,0.2695034,-0.03591822,0.1335845,3.055292,0.06127953,0.05326975,-0.02527343,0.03174389,0.9982121,0.04391631
634796812502710000,0.1485826,0.04301075,-1.235582,7.56,-16.44,-41.82,186,88,5,-0.1519508,0.1556215,0.0686769,3.056216,0.05542541,0.05625618,-0.02690587,0.02887267,0.9982756,0.04342101
634796812502910000,0.1603128,0.08211143,-1.227762,7.56,-16.44,-41.82,186,88,5,-0.4531265,-0.0678536,0.1910601,3.058148,0.04848123,0.05746067,-0.02768267,0.02540525,0.9984043,0.04237581
634796812503110000,0.1564027,0.1094819,-1.219941,7.62,-16.56,-41.88,182,84,5,-0.1040631,-0.2721629,0.1846748,3.062164,0.03846049,0.05594433,-0.02717836,0.02031681,0.9986228,0.04021823
634796812503310000,0.1446725,0.1251222,-1.216031,7.62,-16.56,-41.88,180,82,5,0.1438675,-0.2700345,0.1633776,3.066512,0.03335166,0.05107975,-0.0248899,0.01761619,0.998813,0.03793952
634796812503510000,0.1485826,0.1446725,-1.176931,7.62,-16.56,-41.88,179,81,5,0.1332145,-0.1093295,0.2144462,3.070419,0.03257895,0.0458107,-0.02230667,0.01708916,0.9989689,0.03593763
634796812503720000,0.1642229,0.1446725,-1.067449,7.62,-16.56,-41.88,179,81,5,-0.07747056,0.04816036,0.4177132,3.079354,0.02876234,0.04360104,-0.02133892,0.01504873,0.9991767,0.03141669
634796812503910000,0.1681329,0.1173021,-0.9853373,7.62,-16.56,-41.88,179,81,5,-0.1295688,-0.09124026,0.4613464,3.088278,0.02275014,0.04261767,-0.02099512,0.01193604,0.9993448,0.02688874
634796812504110000,0.1564027,0.07038123,-0.9305963,7.08,-16.68,-42.78,175,77,5,-0.01146742,-0.4009298,0.3623735,3.097812,0.01575446,0.03851485,-0.01907875,0.008295273,0.9995462,0.01844474
634796812504310000,0.1446725,0.06647116,-0.969697,7.08,-16.68,-42.78,175,77,5,0.1098134,-0.5935546,0.1441911,3.104843,0.009087801,0.03251243,-0.01616949,0.004841229,0.9997094,0.01844474
634796812504510000,0.1251222,0.09384164,-1.024438,7.08,-16.68,-42.78,173,75,5,0.09063711,-0.5754627,0.07815085,3.109352,0.008500338,0.02172554,-0.01079313,0.004424669,0.9998572,0.0161636
634796812504710000,0.1094819,0.1055719,-1.000978,7.08,-16.68,-42.78,173,75,5,-0.02001134,-0.3147275,0.1877074,3.112069,0.004867554,0.02060818,-0.01026683,0.002585514,0.999835,0.01478563
634796812504920000,0.1094819,0.0742913,-0.8914956,7.08,-16.68,-42.78,173,75,5,0.2098166,-0.04226675,0.3335062,3.123001,-0.006986141,0.02526546,-0.0126638,-0.003375172,0.999836,0.009250804
634796812505110000,0.09775171,0.02737048,-0.7585533,7.08,-16.68,-42.78,178,80,5,0.2534498,-0.1060648,0.2653958,3.128618,-0.008166313,0.02692091,-0.01349172,-0.00399716,1.000293,0.006429294
634796812505310000,0.09384164,0.007820137,-0.684262,6.3,-17.04,-43.14,176,78,5,0.1342426,-0.343387,0.04718104,3.132343,-0.005529642,0.02384806,-0.01193566,-0.002709276,0.9998565,0.004591856
634796812505510000,0.09384164,0.02346041,-0.7155425,6.3,-17.04,-43.14,176,78,5,-0.03599941,-0.484929,0.003511623,3.133387,-0.004858971,0.01928949,-0.009648262,-0.002388085,0.9992956,0.004081605
634796812505710000,0.09775171,0.06256109,-0.7702835,6.3,-17.04,-43.14,175,77,5,0.001273698,-0.3157171,0.1290559,3.13578,-0.00584197,0.01096821,-0.005494837,-0.00290612,1.00039,0.002888711
634796812505910000,0.1094819,0.06647116,-0.7663734,6.3,-17.04,-43.14,176,78,5,0.2854072,-0.01558609,0.2823043,3.146437,-0.002798557,0.004950166,0.002471253,0.001405036,-0.9998388,0.002426099
634796812506110000,0.1094819,0.03910068,-0.7390029,4.86,-17.22,-42.78,169,71,5,0.3247836,0.1567924,0.2897539,3.152849,0.0006575584,0.00753355,0.003768234,-0.0003075286,-0.9998977,0.005627163
634796812506310000,0.06647116,0,-0.742913,4.86,-17.22,-42.78,169,71,5,0.09276439,0.1609936,0.2312215,3.157907,0.000827074,0.009641051,0.004823773,-0.0003741283,-0.9999709,0.008154991
634796812506510000,0.03519062,-0.02737048,-0.7937439,4.86,-17.22,-42.78,168,70,5,-0.1051791,-0.0922765,0.1002966,3.163991,-0.002114773,0.009615421,0.004795598,0.001111109,-0.9999309,0.0112039
634796812506710000,0.05083089,-0.01564027,-0.8914956,4.86,-17.22,-42.78,178,80,5,0.06085275,-0.2295615,-0.04232818,3.16621,-0.003498554,0.006239414,0.00309791,0.001787583,-0.9999132,0.01231398
634796812506910000,0.0742913,0.01955034,-1.012708,4.86,-17.22,-42.78,187,89,5,0.1885364,-0.1061074,-0.08703531,3.162423,0.0004119873,0.00314641,0.001575241,-0.0001896125,-0.9999357,0.01041468
634796812507120000,0.08602151,0.02737048,-1.102639,4.86,-17.22,-42.78,187,89,5,0.01397299,0.3078409,0.1141256,3.159848,0.004680634,0.01005244,0.005048031,-0.002294665,-1.000083,0.009114493
634796812507310000,0.08602151,0.01173021,-1.15347,4.86,-17.22,-42.78,183,85,5,0.04060171,0.1226473,0.09598066,3.161789,0.003710985,0.01654541,0.008290986,-0.001771855,-0.9999213,0.01008245
634796812507510000,0.08993158,-0.01173021,-1.227762,3.78,-17.64,-42.48,175,77,5,0.2374882,-0.1732136,-0.1221658,3.162585,0.004873037,0.01657724,0.008314095,-0.002349423,-0.9999633,0.0104746
634796812507710000,0.1094819,0.007820137,-1.337243,3.78,-17.64,-42.48,175,77,5,0.3800943,-0.06358752,-0.1923764,3.160742,0.01021385,0.01352406,0.006810728,-0.005041945,-0.9999514,0.009539464
634796812507910000,0.1290323,0.05865103,-1.411535,3.78,-17.64,-42.48,175,77,5,0.1502051,0.06094704,0.01837565,3.159264,0.01578689,0.01317,0.006655354,-0.007836154,-1.000085,0.008781429
634796812508110000,0.1212121,0.07820137,-1.407625,3.78,-17.64,-42.48,175,77,5,-0.1030712,0.1811812,0.5036623,3.162087,0.01608825,0.0145185,0.007340986,-0.007968934,-0.9998874,0.0101883
634796812508320000,0.09384164,0.06647116,-1.333333,3.78,-17.64,-42.48,174,76,5,0.1268236,0.1087414,0.5558094,3.183531,0.01378894,0.01970291,0.009993415,-0.006685956,-0.999706,0.02089792
634796812508510000,0.09775171,0.05474096,-1.251222,3.18,-18,-42.24,173,75,5,0.3982011,0.206617,0.2354776,3.189717,0.01894736,0.02324712,0.01184768,-0.009190803,-0.9996322,0.02394632
634796812508710000,0.1212121,0.0742913,-1.219941,3.18,-18,-42.24,173,75,5,0.3056135,0.07249676,-0.05827655,3.189543,0.02261543,0.02462208,0.01257771,-0.01100847,-0.9995958,0.02382999
634796812508910000,0.09775171,0.1681329,-1.219941,3.18,-18,-42.24,174,76,5,-0.04029249,-0.1839941,-0.2189584,3.187572,0.02138495,0.02270913,0.01159671,-0.01042807,-0.9996387,0.02286302
634796812509110000,0.05865103,0.2111437,-1.192571,3.18,-18,-42.24,171,73,5,-0.07536701,0.153343,-0.079469,3.186592,0.01771021,0.02024555,0.01031901,-0.008624725,-0.9996742,0.02240547
634796812509310000,0.02737048,0.1759531,-1.083089,3.18,-18,-42.24,176,78,5,-0.1678758,0.2512517,-0.2540009,3.183297,0.007253646,0.02687657,0.01351049,-0.003345439,-0.9996863,0.02080001
634796812509510000,0.04301075,0.1290323,-0.9618768,3.18,-18,-42.24,176,78,5,-0.2636561,0.1565303,-0.4264053,3.175961,-0.0008738041,0.03070486,0.01534222,0.0007005744,-0.9997444,0.01718809
634796812509710000,0.07820137,0.1329423,-0.8602151,3,-19.08,-42.66,177,79,5,-0.2977113,0.01604536,-0.4870661,3.169858,-0.008407593,0.03203154,0.01595393,0.004429164,-0.9997621,0.01419747
634796812509910000,0.1055719,0.1524927,-0.8367546,3,-19.08,-42.66,176,78,5,-0.4009412,-0.04568225,-0.4711028,3.161174,-0.02210069,0.03202522,0.01590414,0.01120633,-0.9998909,0.009964258
634796812510110000,0.1055719,0.1603128,-0.8484849,3,-19.08,-42.66,171,73,5,-0.6425203,-0.02754286,-0.3327535,3.154892,-0.03365922,0.03112387,0.01544765,0.01693077,-0.999768,0.006909654
634796812510310000,0.1094819,0.1407625,-0.8250244,3,-19.08,-42.66,171,73,5,-0.5712172,0.01716355,-0.06883217,3.152896,-0.05014109,0.03052175,0.01511875,0.0251587,-0.9998686,0.006029828
634796812510520000,0.1212121,0.1016618,-0.7624633,3,-19.08,-42.66,168,70,5,-0.267913,0.03633929,0.02158046,3.15649,-0.06952143,0.03115427,0.01531064,0.03487095,-0.9994299,0.007983249
634796812510710000,0.1251222,0.07038123,-0.7194526,3.78,-19.14,-42.9,169,71,5,0.07372487,0.1204403,-0.04656677,3.159493,-0.0723145,0.03272355,0.016028,0.0362937,-0.9992893,0.009533214
634796812510910000,0.1212121,0.06256109,-0.7233627,3.78,-19.14,-42.9,165,67,5,0.1194821,0.03636217,-0.06467701,3.161841,-0.07225703,0.03415418,0.01670028,0.0362897,-0.9992415,0.01073178
634796812511110000,0.113392,0.0742913,-0.7390029,3.78,-19.14,-42.9,161,63,5,0.07904503,-0.2052008,0.03638032,3.166255,-0.07233477,0.03160644,0.01534515,0.03634705,-0.9991398,0.01289273
634796812511310000,0.09775171,0.0742913,-0.7468231,3.78,-19.14,-42.9,161,63,5,0.1897021,-0.1775309,0.1863813,3.173246,-0.07093477,0.0278846,0.01337087,0.03567423,-0.9991866,0.01630815
634796812511510000,0.0742913,0.05083089,-0.7272727,3.78,-19.14,-42.9,165,67,5,0.3578497,0.1023542,0.2385283,3.185459,-0.06258845,0.03033721,0.01447095,0.03161079,-0.999155,0.0223925
634796812511720000,0.05865103,0.007820137,-0.6999022,3.78,-19.14,-42.9,168,70,5,0.4078683,0.2140701,0.2385283,3.191182,-0.0559721,0.03350604,0.01604649,0.02838447,-0.9991286,0.02524791
634796812511910000,0.03910068,-0.02737048,-0.7350929,3.78,-19.14,-42.9,168,70,5,0.312088,-0.2115947,-0.02437384,3.195002,-0.04955959,0.03309441,0.01587424,0.02520714,-0.9992049,0.02709906
634796812512110000,0.02346041,-0.04301075,-0.8523949,3.78,-19.14,-42.9,168,70,5,0.312088,-0.2115947,-0.02437384,3.195408,-0.04286718,0.02927482,0.01405178,0.02181579,-0.9992988,0.02720881
634796812512310000,0.01173021,-0.007820137,-0.9892473,4.2,-19.68,-43.74,176,78,5,0.1907663,0.01511821,-0.02326003,3.194627,-0.03764129,0.02654326,0.01276527,0.01916304,-0.9993749,0.02675652
634796812512510000,0.01564027,0.02737048,-1.102639,4.2,-19.68,-43.74,176,78,5,-0.08490226,0.274782,0.1171926,3.191856,-0.03125429,0.02544653,0.01232489,0.01594027,-0.9994919,0.02532246
634796812512710000,0.03128055,0.01955034,-1.17302,4.2,-19.68,-43.74,184,86,5,0.01943619,0.1225908,0.0458747,3.189553,-0.02944708,0.03238833,0.01583412,0.01510515,-0.9994699,0.02421027
634796812512910000,0.06256109,0.003910068,-1.196481,4.2,-19.68,-43.74,184,86,5,0.405745,-0.1540985,-0.002004044,3.187669,-0.0244987,0.03147221,0.01544807,0.01260681,-0.9995387,0.02322418
634796812513110000,0.06647116,0.01564027,-1.235582,4.38,-20.16,-43.98,181,83,5,0.8612334,-0.5680821,0.02567773,3.186845,-0.01566195,0.02618027,0.0129092,0.008124571,-0.9996542,0.02272312
634796812513310000,0.04692082,0.03128055,-1.333333,4.38,-20.16,-43.98,181,83,5,0.8303709,-0.2818055,0.06933576,3.186841,0.0006744861,0.01585448,0.007932722,-0.0001578423,-0.9997114,0.02261894
634796812513510000,0.05083089,0.01955034,-1.384164,4.38,-20.16,-43.98,178,80,5,0.3355062,0.571703,0.07360405,3.187369,0.01339483,0.01464605,0.00747437,-0.006528082,-0.9997202,0.02283531
634796812513710000,0.1446725,0.02346041,-1.298143,4.38,-20.16,-43.98,178,80,5,-0.2136325,0.4972072,0.008694291,3.186911,0.01626611,0.02674115,0.01355021,-0.007827017,-0.9995973,0.02254636
634796812513920000,0.2189638,0.06647116,-1.262952,4.38,-20.16,-43.98,179,81,5,-0.2391739,-0.203036,-0.04766771,3.1851,0.008431196,0.03426218,0.01721781,-0.003841324,-0.999613,0.02167633
634796812514110000,0.2463343,0.1290323,-1.309873,4.38,-20.16,-43.98,179,81,5,0.1790633,-0.5361385,-0.1231724,3.185526,0.007228613,0.02587056,0.01301106,-0.003329042,-0.9996663,0.0219163
634796812514310000,0.2228739,0.1955034,-1.333333,4.44,-20.4,-43.32,173,75,5,0.3206052,-0.3424495,-0.03908761,3.187148,0.01042414,0.01834249,0.009287327,-0.005001652,-0.9996853,0.02272673
634796812514510000,0.2111437,0.2072336,-1.247312,4.44,-20.4,-43.32,173,75,5,0.04385345,0.08003648,0.2790867,3.194074,0.01013017,0.01795363,0.009106409,-0.004827627,-0.9996036,0.02619084
634796812514710000,0.2150538,0.1681329,-1.11828,4.44,-20.4,-43.32,167,69,5,-0.2371141,0.02041113,0.3195272,3.201832,0.004142284,0.01981091,0.009962953,-0.001771692,-0.9994754,0.03009374
634796812514910000,0.1915933,0.1290323,-1.016618,4.44,-20.4,-43.32,169,71,5,-0.241371,-0.1700605,0.2482241,3.212329,-0.00832653,0.01430833,0.007002341,0.004413529,-0.999337,0.03538923
634796812515110000,0.1642229,0.1212121,-0.9579667,3.84,-21.84,-42.96,165,67,5,-0.1594177,-0.4637866,0.05869361,3.216925,-0.01668549,0.01101446,0.005188908,0.008543897,-0.9992357,0.03770155
634796812515310000,0.1446725,0.1212121,-0.9188661,3.84,-21.84,-42.96,166,68,5,-0.1924077,-0.4733647,0.07891453,3.220516,-0.02610564,0.008851647,0.003907039,0.01321678,-0.9991239,0.03950573
634796812515510000,0.09775171,0.1290323,-0.8641251,3.84,-21.84,-42.96,166,68,5,-0.2275272,-0.4084469,0.2502538,3.225047,-0.03454494,0.004359484,0.001456996,0.01734738,-0.9989736,0.04174662
634796812515710000,0.06256109,0.1016618,-0.7741935,3.84,-21.84,-42.96,167,69,5,-0.1445169,-0.1987946,0.2694099,3.231443,-0.0406785,-0.001351357,-0.001588208,0.02028695,-0.9987848,0.04488703
634796812515910000,0.06647116,0.05083089,-0.6764418,3.84,-21.84,-42.96,171,73,5,-0.0944839,-0.1945377,0.1651079,3.234783,-0.0437529,-0.003391266,-0.002712268,0.02177197,-0.9986767,0.04652993
634796812516110000,0.08602151,0.03128055,-0.6490713,3.84,-21.84,-42.96,174,76,5,-0.220022,-0.3073455,0.01610577,3.238283,-0.05240822,-0.01189923,-0.00720681,0.02588273,-0.9984839,0.04815299
634796812516310000,0.08602151,0.03519062,-0.6725318,3.84,-21.84,-42.96,174,76,5,-0.3168665,-0.4009973,0.05651886,3.240655,-0.05823445,-0.01885748,-0.01085446,0.02860965,-0.998323,0.04921326
634796812516510000,0.06256109,0.03519062,-0.684262,3.84,-21.84,-42.96,174,76,5,-0.1348592,-0.3509788,0.08200088,3.243765,-0.06092024,-0.02497447,-0.01401995,0.02977609,-0.9981786,0.05065624
634796812516710000,0.05865103,0.01955034,-0.688172,2.46,-21.42,-43.26,163,65,5,0.250399,-0.1402472,0.09575632,3.246691,-0.0569024,-0.02763057,-0.0152843,0.02768015,-0.9981433,0.05210644
634796812516910000,0.08211143,0.007820137,-0.7116324,2.46,-21.42,-43.26,168,70,5,0.01732168,0.3396892,-0.03836191,3.24807,-0.0529387,-0.02660716,-0.01468785,0.02571853,-0.9981564,0.05283882
634796812517110000,0.1016618,0.007820137,-0.7390029,2.46,-21.42,-43.26,168,70,5,-0.3434434,0.2247529,-0.007450748,3.248383,-0.05040026,-0.02140427,-0.01202803,0.02458918,-0.9982148,0.05308024
634796812517310000,0.1094819,0.02346041,-0.7585533,2.46,-21.42,-43.26,169,71,5,-0.1508091,-0.1700906,0.01276751,3.251897,-0.05853438,-0.01628673,-0.009740457,0.02876887,-0.9980327,0.05486093
634796812517510000,0.1212121,0.04692082,-0.856305,1.08,-21.84,-43.68,157,59,5,0.3919441,-0.2637424,0.02658466,3.256313,-0.05492139,-0.02150619,-0.01230518,0.02679433,-0.9979398,0.05700919
634796812517710000,0.113392,0.05083089,-1.008798,1.08,-21.84,-43.68,157,59,5,0.3802377,0.2268642,0.08723389,3.260626,-0.04766059,-0.02128112,-0.01203572,0.02315177,-0.997904,0.05920813
634796812517910000,0.1016618,0.01564027,-1.11437,1.08,-21.84,-43.68,160,62,5,0.02371363,0.429067,0.15317,3.264001,-0.04579877,-0.01659775,-0.009681541,0.02234629,-0.9978436,0.06095796
634796812518110000,0.1094819,0,-1.180841,1.08,-21.84,-43.68,160,62,5,-0.1486097,0.1534142,0.06690932,3.268341,-0.04801631,-0.005792141,-0.004409736,0.02377426,-0.997707,0.06324397
634796812518310000,0.1329423,0.04692082,-1.251222,1.08,-21.84,-43.68,165,67,5,0.1876649,0.1416842,0.01899855,3.273253,-0.04205775,0.002255916,-0.0002579876,0.02105603,-0.9976155,0.06579137
634796812518510000,0.172043,0.05083089,-1.270772,1.08,-21.84,-43.68,167,69,5,0.4835194,0.5652457,0.07968003,3.276718,-0.03485823,0.01127529,0.004447322,0.0177687,-0.997545,0.06759819
634796812518710000,0.1994135,0.01173021,-1.329423,0.12,-21.24,-44.58,164,66,5,0.1908004,-0.3042324,0.2466899,3.283146,-0.03230786,0.01140201,0.004543696,0.01651575,-0.9973477,0.07079899
634796812518910000,0.1251222,0.04692082,-1.434995,0.12,-21.24,-44.58,164,66,5,0.6175547,-0.420233,0.2168916,3.288649,-0.02933741,0.006737947,0.002281924,0.01487596,-0.9971809,0.07350285
634796812519110000,0.03128055,0.1094819,-1.478006,0.12,-21.24,-44.58,162,64,5,0.6122336,0.4332754,-0.003410949,3.296801,-0.01914144,-8.404255E-05,-0.0007838886,0.009538465,-0.9969425,0.07752224
634796812519310000,0.03910068,0.1212121,-1.419355,0.12,-21.24,-44.58,161,63,5,0.07159141,0.6418635,-0.211965,3.298774,-0.009049177,0.005982637,0.002626828,0.004745393,-0.9968982,0.07852224
634796812519510000,0.1094819,0.1407625,-1.321603,0.12,-21.24,-44.58,172,74,5,-0.5573657,0.3672934,-0.2939104,3.288611,-0.02105212,0.02372217,0.0110551,0.01136772,-0.9971638,0.07355848
634796812519710000,0.1368524,0.1876833,-1.219941,0.12,-21.24,-44.58,172,74,5,-0.37964,0.1086688,-0.1076711,3.287261,-0.02970099,0.02639997,0.01208264,0.0157697,-0.9971389,0.07295057
634796812519910000,0.1212121,0.1915933,-1.106549,-0.42,-20.58,-45.3,171,73,5,-0.04015861,0.08733025,-0.01616696,3.288259,-0.03214002,0.02769542,0.01263099,0.01703895,-0.99707,0.07347274
634796812520110000,0.1055719,0.1446725,-1.040078,-0.42,-20.58,-45.3,166,68,5,0.1683737,-0.1307692,-0.1949523,3.288101,-0.03212023,0.0270977,0.01233509,0.01700631,-0.9970824,0.07338924
634796812520310000,0.09384164,0.1368524,-1.012708,-0.42,-20.58,-45.3,164,66,5,-0.4893631,-0.2350632,-0.2886041,3.284339,-0.03499674,0.02371359,0.01057684,0.01829715,-0.99722,0.0715031
634796812520510000,0.09384164,0.1446725,-0.9384164,-0.42,-20.58,-45.3,163,65,5,-0.5298036,-0.2893387,-0.1129988,3.280655,-0.04425716,0.01931334,0.008093658,0.02274293,-0.9972767,0.06966815
634796812520710000,0.1055719,0.1290323,-0.8406647,-0.42,-20.58,-45.3,163,65,5,-0.3286651,-0.3787337,-0.05448258,3.280739,-0.07011032,0.01352417,0.004305175,0.03543221,-0.9969286,0.06970899
634796812520910000,0.1016618,0.08993158,-0.7624633,-0.42,-20.58,-45.3,163,65,5,-0.09773894,-0.3925686,-0.02790558,3.282066,-0.07410359,0.009736776,0.002253386,0.03729302,-0.9968261,0.07030964
634796812521110000,0.0742913,0.05474096,-0.7233627,0,-21.42,-45.6,160,62,5,-0.07861013,-0.3723483,-0.08859185,3.284132,-0.0771544,0.002918482,-0.001291933,0.03857362,-0.9967158,0.07121241
634796812521310000,0.05474096,0.04301075,-0.7077224,0,-21.42,-45.6,159,61,5,-0.1637607,-0.3244582,-0.1024474,3.28545,-0.08025026,-0.003477335,-0.004615645,0.0398858,-0.996617,0.07173914
634796812521510000,0.06647116,0.05083089,-0.7077224,0,-21.42,-45.6,159,61,5,-0.3202018,-0.2042007,-0.06309301,3.286355,-0.08484173,-0.008444071,-0.007274021,0.0419916,-0.9964873,0.07207371
634796812521710000,0.08602151,0.05865103,-0.7155425,0,-21.42,-45.6,162,64,5,-0.2488987,-0.1882373,0.04434882,3.287655,-0.09070706,-0.0118829,-0.009227588,0.04478315,-0.9963079,0.07262138
634796812521910000,0.09775171,0.05865103,-0.6999022,0.12,-20.58,-46.02,160,62,5,0.03208471,-0.1020151,0.09963467,3.293928,-0.09298753,-0.01561081,-0.0113108,0.04574755,-0.9960199,0.07564756
634796812522110000,0.1055719,0.04692082,-0.6764418,0.12,-20.58,-46.02,156,58,5,0.3481546,0.009722063,0.1442898,3.299155,-0.08750463,-0.01523363,-0.01102794,0.04300264,-0.9959433,0.07828962
634796812522310000,0.1016618,0.01564027,-0.6803519,0.12,-20.58,-46.02,156,58,5,0.2874938,-0.01788947,0.1261615,3.30518,-0.0817902,-0.01525092,-0.01093371,0.04012335,-0.9958204,0.0813211
634796812522510000,0.08993158,0.007820137,-0.7272727,0.12,-20.58,-46.02,150,52,5,0.101244,-0.2104988,0.1964011,3.310835,-0.07749604,-0.01540029,-0.01094087,0.03794813,-0.9956679,0.08415728
634796812522710000,0.0742913,0.01955034,-0.8367546,0.12,-20.58,-46.02,149,51,5,0.02250019,-0.2913799,0.2783464,3.318243,-0.07594465,-0.01880181,-0.01270598,0.03629211,-0.9949873,0.09193143
634796812522910000,0.03910068,0.01173021,-0.9540567,0.12,-20.58,-46.02,154,56,5,0.2150893,-0.1796363,0.361356,3.332352,-0.07283997,-0.0255512,-0.01617618,0.03502772,-0.9947598,0.09470116
634796812523110000,0,-0.01173021,-1.051808,-0.6,-21.12,-46.02,159,61,5,0.5013659,-0.01356424,0.2549334,3.338698,-0.06472182,-0.02590251,-0.01606457,0.03092198,-0.9945868,0.09791607
634796812523310000,-0.003910068,-0.02737048,-1.11828,-0.6,-21.12,-46.02,159,61,5,0.5428706,0.08116382,0.1506372,3.342082,-0.05323362,-0.02345634,-0.01432814,0.02530499,-0.99459,0.09972375
634796812523510000,0.007820137,-0.01955034,-1.188661,-0.6,-21.12,-46.02,172,74,5,0.2629794,0.0502932,0.07188309,3.34254,-0.04610037,-0.02238762,-0.0134459,0.02180809,-0.9946572,0.100015
634796812523710000,0.01173021,0.003910068,-1.259042,-0.6,-21.12,-46.02,172,74,5,0.1097345,-0.1018955,0.1761632,3.343999,-0.04252123,-0.02310049,-0.01363596,0.01998227,-0.9946178,0.1007567
634796812523910000,0.007820137,0.007820137,-1.309873,-0.6,-21.12,-46.02,171,73,5,0.2331828,-0.1241901,0.1868055,3.346863,-0.03855133,-0.0254966,-0.01465312,0.01786558,-0.9944974,0.1021833
634796812524110000,0.03519062,-0.01564027,-1.302053,-0.6,-21.12,-46.02,171,73,5,0.5950194,0.3781075,0.1442281,3.350936,-0.0221138,-0.02305889,-0.0126205,0.00979094,-0.9944136,0.1043406
634796812524310000,0.08993158,-0.03910068,-1.270772,-0.6,-21.96,-46.14,172,74,5,0.2267975,0.5334844,-0.03027774,3.351702,-0.01302743,-0.01507831,-0.008180394,0.005687012,-0.9944439,0.1048072
634796812524510000,0.1564027,-0.01955034,-1.262952,-0.6,-21.96,-46.14,170,72,5,-0.3925828,0.1652519,-0.1281223,3.350614,-0.01279163,-0.007133603,-0.004214447,0.005988717,-0.9945208,0.1042946
634796812524720000,0.2033236,0.07038123,-1.309873,-0.6,-21.96,-46.14,170,72,5,-0.4543078,-0.323223,-0.07487527,3.350014,-0.02059436,-0.007228255,-0.00466544,0.009865162,-0.994519,0.1039789
634796812524910000,0.1837732,0.1642229,-1.368524,-0.6,-21.96,-46.14,165,67,5,-0.1680199,-0.3019385,0.08792394,3.351473,-0.0258758,-0.01221597,-0.00742902,0.01222637,-0.9944057,0.1046581
634796812525110000,0.1564027,0.1915933,-1.313783,-0.6,-21.96,-46.14,165,67,5,0.08309387,0.2588975,0.2401081,3.356055,-0.02943635,-0.01617777,-0.009616561,0.01376696,-0.9941294,0.106892
634796812525310000,0.1798632,0.1603128,-1.15738,-0.6,-21.96,-46.14,160,62,5,0.04479114,0.294017,0.2124383,3.366756,-0.03104258,-0.005458474,-0.004455278,0.01511575,-0.9935509,0.112288
634796812525510000,0.1876833,0.1329423,-1.032258,-0.6,-21.96,-46.14,160,62,5,-0.09671995,0.0609214,0.1751904,3.370548,-0.03491592,-0.0037328,-0.003847996,0.01712961,-0.9933063,0.1141776
634796812525710000,0.1681329,0.1212121,-0.9736071,0.18,-22.56,-45.24,162,64,5,-0.2414423,-0.2626126,0.1687623,3.373586,-0.03948212,-0.006286978,-0.005406339,0.01924334,-0.9930893,0.1156519
634796812525910000,0.1368524,0.1173021,-0.9423265,0.18,-22.56,-45.24,159,61,5,-0.2786902,-0.4030904,0.1186779,3.377853,-0.04625869,-0.01234984,-0.008855817,0.02223813,-0.992763,0.11768
634796812526110000,0.09384164,0.113392,-0.8954057,0.18,-22.56,-45.24,158,60,5,-0.3978834,-0.2764476,0.1409891,3.381649,-0.05574942,-0.01337194,-0.009972427,0.02686971,-0.9924209,0.119506
634796812526310000,0.07038123,0.08993158,-0.8172043,0.66,-23.88,-44.28,165,67,5,-0.4212964,-0.2062087,0.173978,3.388625,-0.07506061,-0.01434553,-0.01173566,0.03635166,-0.9916903,0.1228453
634796812526510000,0.0742913,0.07038123,-0.7390029,0.66,-23.88,-44.28,165,67,5,-0.2329285,-0.1891811,0.0824667,3.389152,-0.07846498,-0.01663959,-0.01309204,0.03789456,-0.9915907,0.1230406
634796812526710000,0.08602151,0.08602151,-0.742913,0.66,-23.88,-44.28,166,68,5,-0.1946023,-0.301989,-0.01221124,3.388777,-0.08275222,-0.02178228,-0.0158976,0.03970491,-0.9915201,0.1227176
634796812526930000,0.08602151,0.1094819,-0.7702835,0.66,-23.88,-44.28,163,65,5,-0.344658,-0.02742962,0.1506229,3.38972,-0.08922958,-0.02638674,-0.01859713,0.04262241,-0.9913135,0.1230279
634796812527110000,0.08602151,0.1055719,-0.7390029,0.66,-23.88,-44.28,162,64,5,-0.09987868,0.06194998,0.3059998,3.392331,-0.09622406,-0.02652931,-0.01915804,0.04605514,-0.9909963,0.1242526
634796812527310000,0.08993158,0.07038123,-0.6764418,0.66,-23.88,-44.28,162,64,5,0.2651455,-0.1167959,0.307064,3.396955,-0.09955835,-0.02493453,-0.01868563,0.04776429,-0.9906333,0.1265517
634796812527510000,0.08993158,0.02737048,-0.6725318,0.66,-23.88,-44.28,162,64,5,0.4077517,-0.09330579,0.157002,3.405324,-0.09213852,-0.02716958,-0.0195068,0.04386474,-0.9902578,0.1307118
634796812527710000,0.08602151,0.01173021,-0.7468231,1.56,-23.82,-44.04,161,63,5,0.1704295,0.04719419,0.07186659,3.407254,-0.08687496,-0.02734625,-0.01928997,0.04122812,-0.9902421,0.1317145
634796812527910000,0.09384164,0.03128055,-0.7937439,1.56,-23.82,-44.04,160,62,5,0.03421327,0.1036189,0.1176205,3.408526,-0.0847075,-0.02625584,-0.01863304,0.04021563,-0.9902065,0.1323891
634796812528120000,0.09775171,0.03910068,-0.8445748,1.56,-23.82,-44.04,160,62,5,0.07360556,0.2249097,0.1484675,3.410276,-0.08353543,-0.02362764,-0.01728914,0.0397956,-0.9901233,0.1333228
634796812528310000,0.09775171,0.01955034,-0.911046,1.56,-23.82,-44.04,163,65,5,0.1331383,0.1759304,0.166552,3.411851,-0.08226991,-0.02036547,-0.01562098,0.03937576,-0.9900512,0.1341824
634796812528510000,0.1094819,-0.003910068,-0.9931574,1.56,-23.82,-44.04,164,66,5,0.3779101,-0.2465706,0.08885024,3.415385,-0.07315111,-0.02079856,-0.01528497,0.03480518,-0.9899802,0.1359937
634796812528710000,0.1016618,-0.003910068,-1.102639,1.8,-24.18,-43.86,166,68,5,0.5109383,-0.3370297,-0.00800276,3.415121,-0.06249237,-0.02408099,-0.016181,0.02930644,-0.990159,0.1358889
634796812528910000,0.09775171,0.007820137,-1.196481,1.8,-24.18,-43.86,166,68,5,0.3853597,-0.06989677,-0.03568187,3.413835,-0.05412197,-0.02310669,-0.01511357,0.0252384,-0.9903629,0.1353328
634796812529110000,0.113392,0.02346041,-1.239492,1.8,-24.18,-43.86,166,68,5,-0.0477922,0.1748941,-0.03248122,3.412592,-0.05302572,-0.02132523,-0.01414184,0.02482549,-0.990468,0.1347503
634796812529310000,0.1368524,0.03910068,-1.294233,1.8,-24.18,-43.86,169,71,5,-0.2287139,0.002471923,0.1229202,3.411988,-0.05627703,-0.0193665,-0.01338295,0.02657211,-0.9904734,0.1344568
634796812529510000,0.1173021,0.08993158,-1.388074,1.8,-24.18,-43.86,169,71,5,0.576872,-0.2508065,0.3378877,3.414822,-0.05691695,-0.02327597,-0.01539959,0.02660335,-0.990259,0.1357978
634796812529710000,0.06256109,0.1212121,-1.454545,1.8,-24.18,-43.86,169,71,5,0.4289447,0.2387394,0.1888961,3.423028,-0.0413835,-0.02844763,-0.01698136,0.01848928,-0.9898449,0.139918
634796812529910000,0.05474096,0.1055719,-1.442815,1.8,-24.18,-43.86,169,71,5,-0.001041847,0.4281715,-0.04631305,3.422806,-0.03671217,-0.02235425,-0.0136369,0.01660672,-0.9899319,0.1399081
634796812530110000,0.07820137,0.1173021,-1.368524,1.8,-24.18,-43.86,169,71,5,-0.4661082,0.3568684,-0.06120327,3.41845,-0.04142904,-0.01524067,-0.01040379,0.01946303,-0.9902145,0.1377972
634796812530320000,0.09775171,0.1485826,-1.262952,0.96,-24.72,-45,172,74,5,-0.356493,0.3334554,0.03776595,3.415602,-0.05024147,-0.008577704,-0.007677857,0.02429698,-0.9903231,0.1364254
634796812530510000,0.1016618,0.1329423,-1.13392,0.96,-24.72,-45,170,72,5,-0.1255528,0.317492,-0.05267053,3.414036,-0.05573678,-0.002443433,-0.00499397,0.02744078,-0.9903553,0.1357141
634796812530710000,0.09775171,0.09775171,-1.040078,0.96,-24.72,-45,170,72,5,-0.09149992,-0.009242323,-0.3942868,3.410928,-0.05760312,0.001018763,-0.003361826,0.02860522,-0.9905339,0.1342199
634796812530910000,0.1055719,0.1094819,-0.9970675,1.08,-24.72,-45.12,169,71,5,-0.2319752,-0.3966203,-0.5411499,3.392128,-0.06606364,-0.005706072,-0.006955333,0.03241059,-0.9916311,0.1247781
634796812531110000,0.08993158,0.1603128,-0.969697,1.08,-24.72,-45.12,168,70,5,-0.2532597,-0.4487673,-0.4357916,3.384106,-0.07222438,-0.01120222,-0.009923439,0.03516164,-0.9920201,0.1206782
634796812531310000,0.05865103,0.172043,-0.911046,1.08,-24.72,-45.12,168,70,5,-0.3085994,-0.2135735,-0.1739655,3.381001,-0.07720136,-0.01269925,-0.01090783,0.03755657,-0.9921153,0.1190832
634796812531520000,0.06647116,0.113392,-0.8328446,1.08,-24.72,-45.12,168,70,5,-0.3692602,-0.05814347,-0.09516663,3.378216,-0.08744907,-0.01160562,-0.01091603,0.04272001,-0.9920734,0.1176693
634796812531710000,0.09384164,0.05474096,-0.7546432,1.08,-24.72,-45.12,170,72,5,-0.391609,-0.05808025,-0.1834839,3.374199,-0.09584022,-0.01228809,-0.01165394,0.04686521,-0.9921212,0.1156133
634796812531910000,0.1055719,0.05865103,-0.6999022,1.08,-24.72,-45.12,170,72,5,-0.316049,-0.09637001,-0.2249887,3.369653,-0.1028414,-0.0140934,-0.01283973,0.05026231,-0.9922096,0.1132701
634796812532110000,0.08993158,0.08211143,-0.688172,0.54,-25.14,-45.3,160,62,5,-0.08192892,-0.4038968,-0.06641009,3.365542,-0.1093874,-0.02168167,-0.01686476,0.0531114,-0.9922605,0.1109781
634796812532310000,0.05474096,0.06647116,-0.742913,0.54,-25.14,-45.3,160,62,5,0.05536911,-0.2506484,-0.03976882,3.36642,-0.1102316,-0.02836096,-0.02024812,0.0531465,-0.9921684,0.1112189
634796812532510000,0.04692082,0.03910068,-0.8132942,0.54,-25.14,-45.3,159,61,5,0.07664872,-0.01328702,-0.2078647,3.36553,-0.1092758,-0.03152907,-0.02174296,0.05250335,-0.9922289,0.1106985
634796812532710000,0.06256109,0.04692082,-0.8602151,0.54,-25.14,-45.3,166,68,5,0.05638938,0.06017836,-0.1844517,3.362143,-0.1082411,-0.03184378,-0.0217538,0.05200921,-0.9924405,0.109021
634796812532910000,0.0742913,0.07038123,-0.8602151,0.54,-25.14,-45.3,168,70,5,0.1478965,0.1112122,-0.0588094,3.358199,-0.1065018,-0.0312897,-0.02128304,0.05121881,-0.992701,0.1070971
634796812533110000,0.06256109,0.06647116,-0.856305,0.3,-24.96,-45.24,166,68,5,0.2798604,0.1047549,0.09014807,3.358381,-0.09834503,-0.02746057,-0.01894972,0.04737604,-0.9929091,0.1073701
634796812533310000,0.02737048,0.01955034,-0.8758553,0.3,-24.96,-45.24,166,68,5,0.3735122,0.2143289,0.1560814,3.360212,-0.09348464,-0.02478885,-0.0174037,0.04509228,-0.9929327,0.1083888
634796812533510000,0.01173021,-0.01564027,-0.914956,0.3,-24.96,-45.24,167,69,5,0.3884113,0.1855757,0.02514115,3.360212,-0.09348464,-0.02478885,-0.0174037,0.04509228,-0.9929327,0.1083888
634796812533730000,0.02737048,-0.003910068,-0.9970675,0.3,-24.96,-45.24,171,73,5,0.2990164,-0.0421554,-0.002554887,3.360023,-0.07935834,-0.02006471,-0.01428819,0.03833786,-0.9932534,0.1085116
634796812533910000,0.04301075,0.02737048,-1.079179,0.3,-24.96,-45.24,171,73,5,0.3447781,-0.1443021,0.01976372,3.359263,-0.07273412,-0.02276576,-0.01525686,0.034906,-0.9934065,0.10813
634796812534110000,0.04301075,0.04692082,-1.12219,0.3,-24.96,-45.24,171,73,5,0.4948339,0.1994404,0.1112148,3.359575,-0.0643394,-0.02134275,-0.01410086,0.03081136,-0.9935327,0.1083718
634796812534310000,0.04301075,0.05083089,-1.15347,0.3,-24.96,-45.24,171,73,5,0.4001178,0.2601013,0.2026831,3.363946,-0.04794073,-0.01262653,-0.008931583,0.02311945,-0.9935381,0.1107631
634796812534510000,0.04301075,0.03910068,-1.192571,0.72,-25.2,-44.52,172,74,5,0.4363015,-0.1497063,0.2516374,3.367179,-0.04179621,-0.01269078,-0.008655597,0.02004934,-0.993425,0.1123954
634796812534710000,0.05865103,0.02737048,-1.235582,0.72,-25.2,-44.52,172,74,5,0.5554947,0.06098547,0.1675411,3.369798,-0.03538799,-0.01468265,-0.009306803,0.01674185,-0.99333,0.1137055
634796812534920000,0.09384164,0.01955034,-1.259042,0.72,-25.2,-44.52,172,74,5,0.1148901,0.4525935,-0.02190452,3.371513,-0.02577543,-0.01340997,-0.008138375,0.01203295,-0.993306,0.114609
634796812535110000,0.1446725,0.05474096,-1.227762,0.72,-25.2,-44.52,172,74,5,-0.3459315,0.3738409,-0.07828089,3.370369,-0.02306056,-0.006092906,-0.004342355,0.01110697,-0.9933982,0.1140959
634796812535310000,0.2150538,0.1329423,-1.204301,0.72,-25.2,-44.52,171,73,5,-0.5247213,-0.3051313,0.0111203,3.368782,-0.03701568,-0.00249505,-0.003336995,0.01824613,-0.9933878,0.1133078
634796812535510000,0.2189638,0.1994135,-1.259042,0.66,-26.4,-44.58,166,68,5,-0.1277669,-0.8074455,0.3591091,3.374242,-0.0434525,-0.01449585,-0.009718546,0.02073614,-0.9930011,0.1158756
634796812535710000,0.1485826,0.1955034,-1.298143,0.66,-26.4,-44.58,166,68,5,0.3021744,-0.5584169,0.5474769,3.384284,-0.04226255,-0.02593243,-0.01542513,0.01940341,-0.9923753,0.1207387
634796812535910000,0.1055719,0.1290323,-1.219941,0.66,-26.4,-44.58,163,65,5,0.2979175,0.05032544,0.5836605,3.395102,-0.03793192,-0.02639293,-0.01548512,0.01714309,-0.9917442,0.1261335
634796812536110000,0.113392,0.06256109,-1.083089,0.66,-26.4,-44.58,164,66,5,-0.2533357,0.06736848,0.3271823,3.400999,-0.03914547,-0.02421617,-0.01453499,0.01783999,-0.9913684,0.1290704
634796812536310000,0.1173021,0.05474096,-0.9892473,0.66,-26.4,-44.58,168,70,5,-0.6492274,-0.2603998,0.1036555,3.404449,-0.04764008,-0.02422261,-0.01512422,0.0220239,-0.9910597,0.1307174
634796812536510000,0.113392,0.08993158,-0.9657869,0.66,-26.4,-44.58,166,68,5,-0.6556128,-0.4764375,0.01954194,3.405843,-0.07059932,-0.03688514,-0.02291808,0.03255077,-0.9905843,0.1309913
634796812536710000,0.09384164,0.1329423,-0.9618768,0.66,-26.4,-44.58,166,68,5,-0.434254,-0.5179423,-0.01771339,3.40634,-0.07668447,-0.04095137,-0.02533863,0.03528921,-0.9904186,0.1310847
634796812536910000,0.04301075,0.1407625,-0.8993157,0.54,-26.94,-44.4,165,67,5,-0.1128151,0.0205431,0.2099964,3.408368,-0.08225298,-0.04269576,-0.02660549,0.03790384,-0.9901702,0.1319797
634796812537130000,0.03128055,0.08602151,-0.8054741,0.54,-26.94,-44.4,167,69,5,-0.1500258,0.1684632,0.07802632,3.410899,-0.08624458,-0.03970337,-0.0254385,0.04004797,-0.9899473,0.1332473
634796812537310000,0.04301075,0.03910068,-0.7585533,0.54,-26.94,-44.4,171,73,5,-0.5491102,0.0577333,-0.187987,3.409885,-0.09072208,-0.03669703,-0.02422763,0.04247918,-0.9899414,0.1327597
634796812537510000,0.06647116,0.05083089,-0.7624633,0.54,-26.94,-44.4,171,73,5,-0.7481204,-0.03697635,-0.2103357,3.406166,-0.09785986,-0.03581023,-0.02417681,0.04611656,-0.9900336,0.1308541
634796812537710000,0.0742913,0.09775171,-0.7546432,0.12,-26.94,-44.88,167,69,5,-0.3128523,-0.1284914,-0.03470896,3.398764,-0.1193154,-0.03877306,-0.02683514,0.05663762,-0.989942,0.1268333
634796812537910000,0.0742913,0.1055719,-0.7390029,0.12,-26.94,-44.88,164,66,5,0.1298213,-0.04440965,0.08554018,3.399549,-0.1197622,-0.04023146,-0.02760737,0.05675374,-0.9898713,0.1271705
634796812538110000,0.0742913,0.05474096,-0.7468231,0.12,-26.94,-44.88,164,66,5,0.3809785,0.1045634,0.04082932,3.400009,-0.1152756,-0.03876913,-0.02661097,0.05462166,-0.9899758,0.1275035
634796812538320000,0.08211143,0.01564027,-0.7702835,0.12,-26.94,-44.88,164,66,5,0.175583,0.1247542,-0.09428811,3.398939,-0.1102323,-0.03649545,-0.02513604,0.05228595,-0.9901911,0.1271056
634796812538510000,0.09775171,0.02737048,-0.7898338,0.12,-26.94,-44.88,163,65,5,-0.0447566,-0.002995332,-0.09848116,3.396654,-0.1083176,-0.03496718,-0.02419907,0.05146422,-0.9903944,0.1260405
634796812538710000,0.1055719,0.05083089,-0.8289345,0.12,-26.94,-44.88,161,63,5,0.02547439,0.02466058,-0.09841838,3.393965,-0.106895,-0.03513944,-0.02412646,0.05078126,-0.9905981,0.1247212
634796812538910000,0.09775171,0.05474096,-0.8836755,-0.3,-26.22,-45.72,159,61,5,0.1723297,0.01297645,-0.06962832,3.393218,-0.1034901,-0.03479063,-0.02372298,0.04912566,-0.9907311,0.1244016
634796812539110000,0.09775171,0.04301075,-0.9266862,-0.3,-26.22,-45.72,159,61,5,0.2202198,0.0853677,-0.01212014,3.393227,-0.09946609,-0.03342593,-0.02279694,0.04721822,-0.9908356,0.1244887
634796812539310000,0.09775171,0.03128055,-1.016618,-0.3,-26.22,-45.72,159,61,5,0.2340548,-0.08168755,-0.08443552,3.392277,-0.09516311,-0.03469408,-0.02313583,0.04501719,-0.990985,0.1240358
634796812539510000,0.08993158,0.05474096,-1.14174,-0.3,-26.22,-45.72,163,65,5,0.3181285,-0.213632,-0.1737608,3.390762,-0.09142399,-0.03725195,-0.02413856,0.04302209,-0.9911477,0.1232665
634796812539710000,0.09384164,0.08993158,-1.200391,-0.3,-26.22,-45.72,164,66,5,0.2542751,-0.03801899,-0.04706217,3.388303,-0.08236312,-0.03899872,-0.02439825,0.03845227,-0.9914704,0.1221183
634796812539910000,0.1251222,0.08211143,-1.231672,-0.6,-25.68,-46.62,166,68,5,0.04357111,0.01303764,0.0029545,3.386862,-0.07485747,-0.04042935,-0.02462401,0.0346604,-0.9916844,0.1214662
634796812540110000,0.1290323,0.05865103,-1.290323,-0.6,-25.68,-46.62,166,68,5,0.04357111,0.01303764,0.0029545,3.387248,-0.07451415,-0.04092109,-0.0248536,0.03445519,-0.991664,0.1216519
634796812540310000,0.06647116,0.09384164,-1.341154,-0.6,-25.68,-46.62,167,69,5,0.3223311,-0.06667826,0.05728554,3.389038,-0.07093501,-0.0428766,-0.02563441,0.03253714,-0.9915976,0.122547
634796812540510000,0.01564027,0.1407625,-1.348974,-0.6,-25.68,-46.62,165,67,5,0.1648115,0.1386718,-0.04909409,3.390254,-0.06579161,-0.04337823,-0.02558607,0.02994027,-0.9915994,0.1232062
634796812540710000,0.04692082,0.1446725,-1.341154,-0.6,-25.68,-46.62,169,71,5,-0.1438048,0.1535263,-0.2448604,3.388556,-0.06311059,-0.04098343,-0.02420928,0.02878076,-0.9917628,0.1224396
634796812540910000,0.09775171,0.1642229,-1.309873,-0.6,-25.68,-46.62,169,71,5,-0.2353282,0.2056344,-0.2310254,3.383108,-0.06544662,-0.03828752,-0.02293359,0.03016844,-0.9920792,0.119756
634796812541110000,0.1094819,0.2111437,-1.231672,-0.6,-25.68,-46.62,172,74,5,-0.008662126,0.2705522,0.009534285,3.377267,-0.07120632,-0.03093469,-0.019534,0.03352739,-0.992382,0.1169293
634796812541310000,0.08211143,0.2033236,-1.075269,-0.66,-25.86,-47.22,170,72,5,0.1498903,0.1034237,0.05211638,3.377665,-0.07116055,-0.02645957,-0.01731784,0.03376526,-0.9923818,0.1172103
634796812541510000,0.06647116,0.1446725,-1.012708,-0.66,-25.86,-47.22,167,69,5,-0.06507511,-0.2254326,-0.2043344,3.377397,-0.07025743,-0.02575517,-0.01691092,0.03336094,-0.9924156,0.1170977
634796812541720000,0.07038123,0.1212121,-1.028348,-0.66,-25.86,-47.22,167,69,5,-0.305559,-0.4499842,-0.4235648,3.37231,-0.07466768,-0.03069055,-0.01952778,0.03530775,-0.9926099,0.1144404
634796812541910000,0.07820137,0.1603128,-1.043988,-0.66,-25.86,-47.22,167,69,5,-0.3789906,-0.4382777,-0.395895,3.367283,-0.08005762,-0.03521633,-0.02198685,0.03777635,-0.9927695,0.1117982
634796812542110000,0.08602151,0.1876833,-0.9931574,-0.66,-25.86,-47.22,167,69,5,-0.2033934,-0.09240632,-0.1734457,3.357175,-0.09366035,-0.04268598,-0.02622936,0.04423731,-0.9929883,0.1064469
634796812542310000,0.08993158,0.1485826,-0.8797654,0,-26.04,-47.82,168,70,5,-0.1000863,0.1012984,-0.01696545,3.356655,-0.09795427,-0.03877914,-0.0245066,0.04658735,-0.9929483,0.1062315
634796812542510000,0.08602151,0.06647116,-0.7937439,0,-26.04,-47.82,164,66,5,-0.1021618,0.07257519,0.05855164,3.357312,-0.1022351,-0.03547644,-0.02311077,0.04888346,-0.9928313,0.106592
634796812542710000,0.07038123,0.003910068,-0.7820137,0,-26.04,-47.82,164,66,5,-0.05211284,-0.2881838,-0.1958268,3.354853,-0.1039896,-0.04014969,-0.02546263,0.04953231,-0.992888,0.1052256
634796812542910000,0.07038123,0.007820137,-0.8132942,0,-26.04,-47.82,161,63,5,0.2309797,-0.4957077,-0.4544335,3.351146,-0.1031067,-0.04698324,-0.02871747,0.04878036,-0.9930457,0.1032138
634796812543110000,0.06647116,0.05865103,-0.8406647,0,-26.04,-47.82,161,63,5,0.2543926,-0.2381653,-0.4459197,3.344344,-0.09753346,-0.05548453,-0.03249496,0.04567463,-0.9934379,0.09969752
634796812543310000,0.05865103,0.09775171,-0.8250244,0,-26.04,-47.82,163,65,5,0.03722375,0.1321487,-0.2022122,3.336694,-0.09371543,-0.05459702,-0.03169594,0.04394497,-0.9939076,0.09598018
634796812543510000,0.05865103,0.07820137,-0.7859238,0,-26.04,-47.82,163,65,5,-0.1106998,0.2555452,0.03405542,3.337141,-0.09570907,-0.04961753,-0.02932774,0.04517441,-0.9938955,0.09629537
634796812543710000,0.06256109,0.03519062,-0.7741935,0.36,-26.22,-47.46,167,69,5,-0.006393943,0.2747013,0.02022858,3.336694,-0.09519196,-0.04637742,-0.02768292,0.04508336,-0.9939585,0.09616151
634796812543910000,0.0742913,0.02346041,-0.7820137,0.36,-26.22,-47.46,166,68,5,0.4107696,-0.01479417,-0.01808747,3.335296,-0.09129095,-0.04373336,-0.02615119,0.04329282,-0.9941351,0.09558355
634796812544110000,0.07038123,0.04301075,-0.8054741,0.36,-26.22,-47.46,165,67,5,0.412898,0.0501242,0.05534524,3.3352,-0.08405112,-0.04367483,-0.02577392,0.03969789,-0.9942909,0.09563093
634796812544310000,0.04692082,0.04692082,-0.8367546,0.36,-26.22,-47.46,165,67,5,0.2255944,0.2459299,0.2426159,3.337107,-0.07686663,-0.04218626,-0.02472478,0.03617493,-0.9943499,0.09670118
634796812544510000,0.03910068,0.02737048,-0.8836755,0.6,-26.28,-47.52,165,67,5,0.1021228,0.1341682,0.2766711,3.34476,-0.07155752,-0.03512609,-0.02108737,0.03380138,-0.9941187,0.1007034
634796812544710000,0.03128055,0,-0.9540567,0.6,-26.28,-47.52,169,71,5,0.1468273,0.05964241,0.2798637,3.349347,-0.06947374,-0.03343642,-0.02021791,0.03280546,-0.9939309,0.103036
634796812544910000,0.01955034,-0.01173021,-1.016618,0.6,-26.28,-47.52,170,72,5,0.3469017,0.01601493,0.2011111,3.352813,-0.06350755,-0.03222871,-0.01936212,0.02986973,-0.9938517,0.1048384
634796812545120000,0.03519062,0.003910068,-1.098729,0.6,-26.28,-47.52,170,72,5,0.4426819,-0.2053225,0.088258,3.354387,-0.0539906,-0.03312206,-0.01932672,0.02507779,-0.9938952,0.1056988
634796812545310000,0.02737048,0.03128055,-1.192571,0.6,-26.28,-47.52,171,73,5,0.3660577,-0.321323,0.02967432,3.354537,-0.04490256,-0.03745436,-0.02100067,0.02032882,-0.9939582,0.1058077
634796812545510000,0.01564027,0.06256109,-1.317693,0.6,-26.28,-47.52,172,74,5,0.1510799,-0.1574324,-0.02994708,3.352628,-0.0395,-0.04099154,-0.02245592,0.01747667,-0.9940779,0.1048767
634796812545710000,0.04301075,0.1055719,-1.313783,0.6,-26.28,-47.52,172,74,5,0.1127547,0.3151071,0.03708867,3.3528,-0.03678727,-0.03395259,-0.01881646,0.01649846,-0.9941508,0.1050638
634796812545910000,0.08211143,0.113392,-1.227762,0.6,-26.28,-47.52,172,74,5,0.2138492,0.2991437,0.1711364,3.354901,-0.03250885,-0.02567315,-0.01449169,0.0147938,-0.9941275,0.1062217
634796812546110000,0.1564027,0.06647116,-1.180841,1.32,-26.1,-47.46,175,77,5,-0.1766919,-0.3479023,-0.1141194,3.355336,-0.03143287,-0.02363539,-0.01342483,0.01436466,-0.9941233,0.1064632
634796812546310000,0.1798632,0.08211143,-1.294233,1.32,-26.1,-47.46,173,75,5,-0.3906011,-0.6139585,-0.2290519,3.353159,-0.0349586,-0.02914381,-0.01633301,0.01584058,-0.9941798,0.1053056
634796812546510000,0.1446725,0.1837732,-1.368524,1.32,-26.1,-47.46,165,67,5,-0.2032975,-0.3234251,-0.01515744,3.350257,-0.04205656,-0.03969824,-0.02192492,0.01884178,-0.9941906,0.1036842
634796812546710000,0.1055719,0.2189638,-1.278592,1.26,-26.28,-46.98,166,68,5,0.1234042,0.4492339,0.4222231,3.357936,-0.04558038,-0.0368011,-0.02074705,0.02066528,-0.9937745,0.1074974
634796812546910000,0.1055719,0.1368524,-1.083089,1.26,-26.28,-46.98,166,68,5,0.09678077,0.5705556,0.4711774,3.365284,-0.04538155,-0.02600932,-0.01545185,0.02109404,-0.9934454,0.1112813
634796812547110000,0.1407625,0.06647116,-0.9384164,1.26,-26.28,-46.98,169,71,5,-0.08836738,0.3183343,0.3094152,3.369059,-0.04708266,-0.02092803,-0.01306463,0.02219855,-0.9932376,0.1132057
634796812547310000,0.1681329,0.08993158,-0.8993157,1.26,-26.28,-46.98,170,72,5,-0.3033409,-0.1946371,0.06569771,3.370622,-0.05285788,-0.02158535,-0.01373743,0.02501848,-0.9930794,0.1139346
634796812547510000,0.1603128,0.1524927,-0.914956,1.26,-26.28,-46.98,162,64,5,-0.2554508,-0.4042894,0.07955296,3.37262,-0.05910182,-0.02437508,-0.01550593,0.0279435,-0.9928713,0.1148403
634796812547710000,0.1212121,0.1837732,-0.9305963,1.26,-26.28,-46.98,162,64,5,-0.1734917,-0.4489869,0.1785123,3.376385,-0.06378412,-0.03171408,-0.01947352,0.02980687,-0.9925459,0.1165501
634796812547910000,0.08211143,0.1564027,-0.9345064,1.26,-26.28,-46.98,159,61,5,-0.1511159,-0.4415373,0.2934486,3.387398,-0.07295012,-0.04305053,-0.02581663,0.0335466,-0.9916639,0.1217048
634796812548110000,0.06256109,0.113392,-0.9384164,1.38,-26.4,-47.34,161,63,5,-0.1234104,-0.3468213,0.1955399,3.392067,-0.07932854,-0.0466597,-0.02807867,0.03642104,-0.9912335,0.12386
634796812548310000,0.05474096,0.08993158,-0.9188661,1.38,-26.4,-47.34,170,72,5,-0.09992965,-0.1552607,0.09226395,3.394141,-0.08352493,-0.04916966,-0.02962177,0.03831211,-0.9910017,0.124773
634796812548520000,0.05865103,0.09384164,-0.8758553,1.38,-26.4,-47.34,170,72,5,-0.08605418,-0.02543408,0.09752069,3.394795,-0.08581805,-0.05103624,-0.03070225,0.03932006,-0.990899,0.1250203
634796812548710000,0.06647116,0.09384164,-0.8250244,1.38,-26.4,-47.34,171,73,5,-0.02746826,0.01606942,0.1219525,3.395569,-0.08745622,-0.05103552,-0.03081982,0.04011976,-0.9908183,0.1253786
634796812548910000,0.07038123,0.07820137,-0.801564,0.72,-26.04,-47.52,168,70,5,0.1066224,0.008595259,0.1262034,3.396322,-0.08765935,-0.05048203,-0.03057355,0.04024418,-0.9907723,0.1257611
634796812549110000,0.0742913,0.05865103,-0.8093842,0.72,-26.04,-47.52,167,69,5,0.2215264,-0.001008728,0.1144583,3.398812,-0.08280063,-0.04973089,-0.02994306,0.03784787,-0.9907166,0.1270853
634796812549310000,0.08602151,0.03910068,-0.8172043,0.72,-26.04,-47.52,167,69,5,0.195985,0.06492662,0.07289421,3.399433,-0.07991528,-0.04834795,-0.02908609,0.03649883,-0.9907434,0.1274659
634796812549510000,0.1016618,0.03128055,-0.8211144,0.72,-26.04,-47.52,165,67,5,0.09161076,0.08085807,0.01221156,3.399214,-0.0784161,-0.04679107,-0.02821556,0.03585995,-0.9907997,0.1274112
634796812549710000,0.1173021,0.04301075,-0.8367546,0.72,-26.04,-47.52,163,65,5,0.2245265,-0.1117509,0.1431063,3.399196,-0.07703257,-0.04599582,-0.02773327,0.0352262,-0.9908336,0.1274387
634796812549910000,0.1251222,0.04692082,-0.8758553,0.72,-26.04,-47.52,161,63,5,0.2670955,-0.1894394,0.1739195,3.400957,-0.07395172,-0.04649329,-0.02781292,0.03364325,-0.9907694,0.1283437
634796812550110000,0.1173021,0.02346041,-0.9384164,0.54,-26.1,-47.88,159,61,5,0.2660313,-0.09364634,0.1803049,3.408266,-0.06560326,-0.05142688,-0.02982718,0.02907774,-0.9903764,0.1319909
634796812550310000,0.09775171,0.003910068,-0.9970675,0.54,-26.1,-47.88,159,61,5,0.292637,-0.02022171,0.1557619,3.411575,-0.06085587,-0.05189466,-0.02978949,0.02664624,-0.9902161,0.133692
634796812550510000,0.1016618,-0.003910068,-1.051808,0.54,-26.1,-47.88,162,64,5,0.2479395,0.01597524,0.1141882,3.413302,-0.0569787,-0.05066765,-0.02894427,0.0247846,-0.9901643,0.1346239
634796812550710000,0.1055719,0.007820137,-1.094819,0.54,-26.1,-47.88,165,67,5,0.1361701,0.00108631,0.0801269,3.414951,-0.05227065,-0.04749643,-0.02707612,0.02264697,-0.9901418,0.1355541
634796812550910000,0.113392,0.01955034,-1.12219,0.54,-26.1,-47.88,165,67,5,0.1041775,0.0404852,0.1056901,3.416246,-0.05017566,-0.04725587,-0.02682905,0.02160887,-0.9900784,0.136227
634796812551110000,0.1290323,0.02737048,-1.12219,0.54,-26.1,-47.88,165,67,5,0.3063561,0.0521838,0.15145,3.418241,-0.04737496,-0.04649793,-0.0262833,0.02024831,-0.9899797,0.1372621
634796812551310000,0.1212121,0.03519062,-1.102639,0.3,-26.58,-47.82,165,67,5,0.7618445,-0.007379072,0.1769855,3.423131,-0.0291307,-0.04550004,-0.02456365,0.01122571,-0.9897949,0.1399251
634796812551510000,0.1016618,0.03519062,-1.098729,0.3,-26.58,-47.82,164,66,5,0.8565605,0.05325313,0.1046081,3.42477,-0.01451135,-0.04454124,-0.023069,0.004038795,-0.9897453,0.1409173
634796812551710000,0.08602151,0.05865103,-1.184751,0.3,-26.58,-47.82,165,67,5,0.4468338,-0.1308373,-0.09862015,3.422203,-0.008401394,-0.04758083,-0.02414145,0.0008315315,-0.9898984,0.1397054
634796812551930000,0.05083089,0.1368524,-1.356794,0.3,-26.58,-47.82,165,67,5,-0.6056948,-0.3830586,-0.4817412,3.414217,-0.0152204,-0.05790842,-0.02971452,0.00360248,-0.9903099,0.1356112
634796812552110000,0.01564027,0.2228739,-1.442815,0.3,-26.58,-47.82,166,68,5,-0.1927754,0.4108541,-0.2582539,3.405123,-0.02571321,-0.06523728,-0.03401567,0.008453527,-0.9907774,0.1308878
634796812552310000,0.01955034,0.2346041,-1.329423,0.3,-26.58,-47.82,168,70,5,-0.1927754,0.4108541,-0.2582539,3.395151,-0.03144193,-0.04861188,-0.0260926,0.01251697,-0.9916077,0.1260078
634796812552510000,0.03910068,0.172043,-1.106549,-0.42,-27.6,-47.46,172,74,5,0.04348853,0.9333886,-0.1272806,3.390456,-0.03199744,-0.03245747,-0.0180858,0.01385849,-0.9920432,0.1238208
634796812552710000,0.05865103,0.1212121,-0.9423265,-0.42,-27.6,-47.46,172,74,5,-0.2203916,-0.09146073,-0.4976158,3.383087,-0.03413343,-0.02209401,-0.01302031,0.01561013,-0.9925375,0.1202419
634796812552910000,0.0742913,0.1446725,-0.9462366,-0.42,-27.6,-47.46,172,74,5,-0.2533826,-0.4799029,-0.5540197,3.373126,-0.04001427,-0.02654505,-0.01549128,0.01833741,-0.9930512,0.1152112
634796812553110000,0.07038123,0.2033236,-1.043988,-0.42,-27.6,-47.46,170,72,5,-0.1479938,-0.1946906,-0.4827167,3.365959,-0.04456138,-0.03117335,-0.01797803,0.02039173,-0.9933858,0.1115616
634796812553310000,0.07038123,0.2228739,-1.083089,-0.42,-27.6,-47.46,167,69,5,-0.1096057,0.2479959,-0.2879635,3.357285,-0.05012536,-0.0327158,-0.01895408,0.02315111,-0.9937905,0.107181
634796812553510000,0.08602151,0.1876833,-1.020528,0.48,-28.5,-47.28,170,72,5,-0.07023692,0.3129136,-0.1889905,3.347185,-0.05584192,-0.02309441,-0.0143461,0.02658371,-0.9943004,0.1022479
634796812553710000,0.1016618,0.1329423,-0.9462366,0.48,-28.5,-47.28,170,72,5,0.02022818,0.1351399,-0.1601998,3.343683,-0.05829548,-0.01928973,-0.01253115,0.02802121,-0.99446,0.1005458
634796812553910000,0.09775171,0.09775171,-0.8993157,0.48,-28.5,-47.28,168,70,5,0.1245267,0.05632854,-0.2549159,3.340551,-0.05902839,-0.01700044,-0.01138507,0.02851921,-0.9946126,0.09901837
634796812554110000,0.09384164,0.08993158,-0.8641251,0.48,-28.5,-47.28,166,68,5,0.02977949,0.1222605,-0.2378883,3.335768,-0.05933809,-0.01350915,-0.009595248,0.02886986,-0.9948485,0.09669101
634796812554310000,0.1055719,0.08993158,-0.8445748,0.48,-28.5,-47.28,164,66,5,-0.06063058,0.1169172,-0.2027688,3.332151,-0.06065822,-0.01154327,-0.008627659,0.0296376,-0.9950066,0.09491522
634796812554510000,0.1173021,0.09384164,-0.8445748,0.48,-28.5,-47.28,164,66,5,-0.04462644,0.121151,-0.1676189,3.329086,-0.06230807,-0.009183048,-0.007484941,0.03058237,-0.9951302,0.09342016
634796812554710000,0.1173021,0.08993158,-0.8641251,0.72,-29.46,-47.52,163,65,5,-0.006283475,-0.02781251,-0.09088472,3.326559,-0.06401587,-0.007445812,-0.006660527,0.03152181,-0.9952192,0.09218483
634796812554910000,0.1173021,0.08211143,-0.8914956,0.72,-29.46,-47.52,162,64,5,-0.02228825,-0.1352662,-0.08663761,3.325503,-0.06484675,-0.008854984,-0.007383217,0.03187412,-0.9952555,0.09163375
634796812555110000,0.09775171,0.09775171,-0.9384164,0.72,-29.46,-47.52,163,65,5,-0.03507236,-0.1139456,-0.007889953,3.325117,-0.06612086,-0.0113678,-0.008685734,0.03239423,-0.9952485,0.09139529
634796812555330000,0.08993158,0.1094819,-0.9540567,0.72,-29.46,-47.52,163,65,5,0.02131742,-0.07240014,0.04319392,3.325897,-0.06705832,-0.0129149,-0.009511126,0.032786,-0.9951947,0.09175271
634796812555510000,0.08993158,0.1173021,-0.9579667,0.72,-29.46,-47.52,166,68,5,0.126652,-0.08408384,0.1772616,3.327183,-0.06684041,-0.01375735,-0.009941314,0.03263251,-0.9951409,0.09237892
634796812555710000,0.08602151,0.1173021,-0.9540567,1.62,-30.24,-48.06,169,71,5,0.2181597,-0.1798496,0.3379596,3.33073,-0.0652442,-0.01503408,-0.01055923,0.03176028,-0.9949978,0.09413078
634796812555910000,0.06256109,0.113392,-0.9579667,1.62,-30.24,-48.06,169,71,5,0.4288763,-0.2362536,0.4901438,3.34542,-0.05729461,-0.01804519,-0.01188599,0.02757613,-0.9943897,0.1014343
634796812556110000,0.05474096,0.0742913,-0.969697,1.62,-30.24,-48.06,169,71,5,0.6512994,-0.1575009,0.5114283,3.35411,-0.04820704,-0.01738465,-0.0111967,0.02304272,-0.9940562,0.1058155
634796812556310000,0.07820137,0.03128055,-1.008798,1.62,-30.24,-48.06,169,71,5,0.1500311,-3.261124E-05,0.4177765,3.359622,-0.04653287,-0.01477242,-0.009871393,0.02232224,-0.9937865,0.1085957
634796812556510000,0.113392,0.05865103,-1.055718,1.62,-30.24,-48.06,172,74,5,-0.6002454,-0.05429671,0.193225,3.363309,-0.0542109,-0.01468563,-0.01029326,0.02612302,-0.9934916,0.1103899
634796812556710000,0.1212121,0.1290323,-1.067449,1.62,-30.24,-48.06,172,74,5,-0.721567,-0.02451373,0.1591222,3.365833,-0.06651163,-0.0136404,-0.01049365,0.03227756,-0.9931742,0.1115954
634796812556910000,0.1446725,0.1564027,-1.051808,2.7,-30.72,-48.24,170,72,5,-0.06067943,-0.08201477,0.318756,3.374613,-0.07940816,-0.01399255,-0.01155745,0.03861101,-0.9924467,0.1158764
634796812557110000,0.1642229,0.1603128,-1.063539,2.7,-30.72,-48.24,170,72,5,0.1340097,-0.245905,0.2655447,3.379601,-0.08007788,-0.01589406,-0.01263656,0.03880115,-0.9921384,0.1183087
634796812557310000,0.1603128,0.1642229,-1.110459,2.7,-30.72,-48.24,169,71,5,0.4745618,-0.2448408,0.1793425,3.383814,-0.0757215,-0.02025926,-0.01462092,0.03634964,-0.9919592,0.1203416
634796812557510000,0.1407625,0.1564027,-1.15738,2.7,-30.72,-48.24,167,69,5,0.688471,-0.1671524,0.05370325,3.385861,-0.06662917,-0.02369141,-0.01580839,0.03161567,-0.9919792,0.1213629
634796812557710000,0.1368524,0.1564027,-1.11828,2.7,-30.72,-48.24,168,70,5,0.3383409,0.07334199,0.3271856,3.387187,-0.05561661,-0.02583229,-0.01621906,0.02601163,-0.9920473,0.122075
634796812557910000,0.1485826,0.1290323,-1.016618,2.7,-30.72,-48.24,168,70,5,-0.2970107,-0.1714331,0.6017557,3.391586,-0.05357289,-0.02470732,-0.01559139,0.02503275,-0.9918078,0.1242888
634796812558110000,0.1251222,0.06647116,-0.9540567,2.34,-31.74,-48.48,169,71,5,-0.5055988,-0.2395435,0.6155906,3.412208,-0.07100797,-0.02810013,-0.01870023,0.0332746,-0.990205,0.1343025
634796812558310000,0.08602151,0.03128055,-0.9266862,2.34,-31.74,-48.48,169,71,5,-0.2714694,-0.06287234,0.3740115,3.418763,-0.07719612,-0.02614963,-0.01826968,0.0364105,-0.9896607,0.1375274
634796812558510000,0.0742913,0.03910068,-0.9305963,2.34,-31.74,-48.48,167,69,5,-0.1532904,-0.1000782,0.1899005,3.4212,-0.08003902,-0.02599657,-0.01843551,0.03780536,-0.9894401,0.13871
634796812558710000,0.08993158,0.06256109,-0.9814272,2.34,-31.74,-48.48,167,69,5,-0.08619444,-0.3459142,-0.003771507,3.42102,-0.08103322,-0.02988922,-0.02042643,0.03802702,-0.9894173,0.1385302
634796812558910000,0.1094819,0.1094819,-1.024438,2.34,-31.74,-48.48,170,72,5,-0.09249306,-0.08939954,0.1770791,3.420191,-0.08217192,-0.03599095,-0.02350738,0.03817358,-0.9894205,0.1379776
634796812559110000,0.1173021,0.1290323,-1.012708,2.34,-31.74,-48.48,171,73,5,0.02139383,0.05002503,0.2771163,3.425189,-0.08464908,-0.03309381,-0.02234428,0.03954524,-0.9890406,0.1404842
634796812559310000,0.1016618,0.1016618,-0.9775171,0.78,-32.16,-48.48,168,70,5,0.1288116,0.02022481,0.1834644,3.428764,-0.08419942,-0.02940404,-0.02055904,0.03954788,-0.9888148,0.1423379
634796812559510000,0.08602151,0.08211143,-0.969697,0.78,-32.16,-48.48,166,68,5,0.1617416,-0.07871375,0.03551671,3.429604,-0.08222938,-0.0278542,-0.01966893,0.03867674,-0.9887984,0.1428068
634796812559710000,0.08993158,0.09384164,-0.9853373,0.78,-32.16,-48.48,166,68,5,-0.03092912,-0.05418816,-0.05922338,3.428892,-0.08171701,-0.02706432,-0.01922816,0.03848721,-0.9888628,0.1424766
634796812559910000,0.09775171,0.1094819,-1.000978,0.78,-32.16,-48.48,168,70,5,-0.1713466,-0.08072919,-0.04754192,3.427104,-0.08375382,-0.02609622,-0.01885929,0.03958065,-0.988954,0.1415934
634796812560110000,0.1016618,0.1212121,-1.012708,-0.78,-32.34,-48.84,165,67,5,-0.12451,-0.05192285,-0.07204176,3.425496,-0.08722066,-0.02537131,-0.01871313,0.04136164,-0.9889992,0.1407818
634796812560310000,0.1016618,0.1329423,-1.004888,-0.78,-32.34,-48.84,165,67,5,0.028724,0.02472626,-0.1050171,3.420528,-0.08939885,-0.02127123,-0.01673312,0.04277113,-0.9893111,0.1383986
634796812560510000,0.1016618,0.1407625,-0.9931574,-0.78,-32.34,-48.84,165,67,5,0.03935624,0.06514776,-0.1411316,3.417576,-0.090415,-0.01824796,-0.01524397,0.04350689,-0.9894975,0.1369997
634796812560710000,0.1016618,0.1407625,-0.9970675,-0.78,-32.34,-48.84,165,67,5,-0.1915303,-0.1082898,-0.0548061,3.416039,-0.09227419,-0.01701343,-0.01472644,0.04452311,-0.9895632,0.1362537
634796812560910000,0.1055719,0.1329423,-1.020528,-0.78,-32.34,-48.84,165,67,5,-0.129758,-0.1221015,-0.09307681,3.414651,-0.09662127,-0.01678479,-0.01487709,0.04669984,-0.9895583,0.1355404
634796812561110000,0.1094819,0.1446725,-1.051808,-0.78,-32.34,-48.84,165,67,5,-0.01689252,-0.03908574,-0.01853178,3.412934,-0.1001942,-0.0169158,-0.01514235,0.04847173,-0.9895903,0.1346606
634796812561310000,0.1173021,0.1485826,-1.047898,-0.78,-32.34,-48.84,165,67,5,-0.02003657,0.07797616,0.08791862,3.412364,-0.1015177,-0.01550472,-0.01451933,0.04922621,-0.9895966,0.134405
634796812561510000,0.1094819,0.1251222,-1.004888,-2.16,-33.06,-49.44,164,66,5,0.004485098,0.1045511,0.09751325,3.414619,-0.1027577,-0.01194513,-0.01289811,0.05006587,-0.9894132,0.1356037
634796812561710000,0.1016618,0.09775171,-0.9736071,-2.16,-33.06,-49.44,163,65,5,0.04281455,-0.02639358,0.08898658,3.415671,-0.1027765,-0.01106811,-0.01249193,0.05012833,-0.9893408,0.1361468
634796812561910000,0.1094819,0.08993158,-0.9853373,-2.16,-33.06,-49.44,163,65,5,0.033261,-0.1402324,0.04424516,3.416878,-0.1029465,-0.01087475,-0.01243814,0.05021807,-0.9892542,0.1367479
634796812562110000,0.113392,0.08602151,-1.008798,-2.16,-33.06,-49.44,162,64,5,-0.0497641,-0.02527305,-0.01006874,3.41702,-0.1039507,-0.01019967,-0.0121765,0.05076033,-0.9892189,0.136829
634796812562310000,0.113392,0.09775171,-1.004888,-2.16,-33.06,-49.44,162,64,5,-0.180622,0.1662326,-0.02174765,3.416383,-0.1065266,-0.006296992,-0.01040605,0.05230553,-0.9891895,0.1366022
634796812562510000,0.1173021,0.09775171,-0.9775171,-2.82,-32.82,-49.62,161,63,5,-0.0773669,-0.01476256,0.03891829,3.416185,-0.110034,-0.001818299,-0.008425284,0.0543475,-0.989098,0.1366083
634796812562710000,0.1094819,0.1016618,-0.9736071,-2.82,-32.82,-49.62,161,63,5,0.03753567,-0.03390275,0.1017149,3.417943,-0.1123011,0.001530051,-0.00697334,0.05569137,-0.9889014,0.1375614
634796812562910000,0.1055719,0.09384164,-0.9775171,-2.82,-32.82,-49.62,160,62,5,0.07578181,-0.07964028,0.06980871,3.420112,-0.1112456,0.002742648,-0.00636104,0.05524595,-0.9887758,0.1386706
634796812563110000,0.1212121,0.06256109,-0.9892473,-2.82,-32.82,-49.62,160,62,5,-0.04021608,-0.07960771,-0.05786469,3.420794,-0.1103582,0.003127575,-0.00612792,0.05483175,-0.9887512,0.1390215
634796812563310000,0.1329423,0.05474096,-1.008798,-2.82,-32.82,-49.62,161,63,5,-0.2360017,-0.02740332,-0.05784085,3.420012,-0.1120253,0.003296137,-0.006138701,0.05566997,-0.9887589,0.1386341
634796812563510000,0.1290323,0.07820137,-1.028348,-2.1,-32.28,-50.34,159,61,5,0.0865078,0.0141403,-0.1527444,3.432896,-0.1190998,0.0270195,0.004705561,0.06083639,-0.9874508,0.1456621
634796812563710000,0.1173021,0.09384164,-1.028348,-2.1,-32.28,-50.34,159,61,5,0.0865078,0.0141403,-0.1527444,3.432896,-0.1190998,0.0270195,0.004705561,0.06083639,-0.9874508,0.1456621
634796812563910000,0.113392,0.08211143,-1.020528,-2.1,-32.28,-50.34,159,61,5,0.0865078,0.0141403,-0.1527444,3.432896,-0.1190998,0.0270195,0.004705561,0.06083639,-0.9874508,0.1456621
634796812564110000,0.1251222,0.05865103,-1.016618,-2.1,-32.28,-50.34,159,61,5,0.0865078,0.0141403,-0.1527444,3.432896,-0.1190998,0.0270195,0.004705561,0.06083639,-0.9874508,0.1456621
634796812564310000,0.1407625,0.04301075,-1.004888,-2.1,-32.28,-50.34,159,61,5,0.0865078,0.0141403,-0.1527444,3.432896,-0.1190998,0.0270195,0.004705561,0.06083639,-0.9874508,0.1456621
634796812564510000,0.1290323,0.06256109,-1.000978,-2.1,-32.28,-50.34,159,61,5,0.0865078,0.0141403,-0.1527444,3.432896,-0.1190998,0.0270195,0.004705561,0.06083639,-0.9874508,0.1456621
634796812564710000,0.1055719,0.09775171,-1.016618,-2.1,-32.28,-50.34,159,61,5,0.0865078,0.0141403,-0.1527444,3.432896,-0.1190998,0.0270195,0.004705561,0.06083639,-0.9874508,0.1456621
634796812564910000,0.1173021,0.09775171,-1.028348,-2.1,-32.28,-50.34,159,61,5,0.0865078,0.0141403,-0.1527444,3.432896,-0.1190998,0.0270195,0.004705561,0.06083639,-0.9874508,0.1456621
634796812565110000,0.1368524,0.06647116,-1.004888,-2.1,-32.28,-50.34,159,61,5,0.0865078,0.0141403,-0.1527444,3.432896,-0.1190998,0.0270195,0.004705561,0.06083639,-0.9874508,0.1456621
634796812565310000,0.1368524,0.05083089,-0.9853373,-2.1,-32.28,-50.34,159,61,5,0.0865078,0.0141403,-0.1527444,3.432896,-0.1190998,0.0270195,0.004705561,0.06083639,-0.9874508,0.1456621
634796812565510000,0.1055719,0.04692082,-0.9853373,-2.1,-32.28,-50.34,159,61,5,0.0865078,0.0141403,-0.1527444,3.432896,-0.1190998,0.0270195,0.004705561,0.06083639,-0.9874508,0.1456621
634796812565710000,0.1016618,0.05474096,-1.004888,-2.1,-32.28,-50.34,159,61,5,0.0865078,0.0141403,-0.1527444,3.432896,-0.1190998,0.0270195,0.004705561,0.06083639,-0.9874508,0.1456621
634796812565910000,0.1055719,0.0742913,-1.024438,-2.1,-32.28,-50.34,159,61,5,0.0865078,0.0141403,-0.1527444,3.432896,-0.1190998,0.0270195,0.004705561,0.06083639,-0.9874508,0.1456621
634796812566110000,0.1251222,0.08602151,-1.024438,-1.68,-31.44,-51.54,161,63,5,0.3737877,0.2407442,-0.02072344,3.427277,-0.1098435,0.03505087,0.009506537,0.05681776,-0.9880347,0.1430725
634796812566310000,0.1407625,0.08211143,-1.004888,-1.68,-31.44,-51.54,161,63,5,0.4248705,0.12361,0.1324566,3.427732,-0.1022201,0.03975499,0.01236463,0.05338608,-0.9881504,0.1433727
634796812566510000,0.1290323,0.06647116,-0.9892473,-1.68,-31.44,-51.54,161,63,5,0.5238435,-0.02326573,0.1973744,3.430996,-0.09352993,0.04261577,0.01432115,0.04931775,-0.9880989,0.1449928
634796812566710000,0.1446725,0.03519062,-1.008798,-1.68,-31.44,-51.54,160,62,5,0.4653111,-0.09345979,-0.01872228,3.434123,-0.08386993,0.04362964,0.01545269,0.04464151,-0.9880843,0.1464861
634796812566910000,0.1446725,0.003910068,-1.032258,-1.56,-31.44,-51.54,160,62,5,0.1886125,-0.129599,-0.1133812,3.433897,-0.07866573,0.04324007,0.01564597,0.04204037,-0.9882194,0.1463268
634796812567110000,0.1368524,0.01955034,-1.032258,-1.56,-31.44,-51.54,159,61,5,-0.08704975,0.03432971,-0.1281986,3.430901,-0.07586312,0.04478491,0.01667561,0.0407423,-0.9884738,0.1448508
634796812567310000,0.1407625,0.04692082,-1.024438,-1.56,-31.44,-51.54,160,62,5,0.04700398,0.06516957,-0.04940197,3.430405,-0.07430387,0.04703558,0.01791117,0.04012833,-0.9885097,0.1446301
634796812567510000,0.1407625,0.04301075,-1.008798,-1.56,-31.44,-51.54,160,62,5,0.170419,-0.02103969,0.03250314,3.431615,-0.07044959,0.0481131,0.01869947,0.03831159,-0.9884827,0.14521
634796812567710000,0.1329423,0.01955034,-0.9970675,-1.56,-31.44,-51.54,160,62,5,0.1225117,-0.09015761,0.09096783,3.433775,-0.06764673,0.04802072,0.01881731,0.03693995,-0.9883784,0.1462501
634796812567910000,0.1368524,0.007820137,-0.9970675,-1.74,-32.1,-51.42,159,61,5,-0.07324719,-0.01885538,-0.01977618,3.434292,-0.06701469,0.04811561,0.018901,0.0366393,-0.9883513,0.146501
634796812568110000,0.1368524,0.01955034,-0.9853373,-1.74,-32.1,-51.42,159,61,5,-0.1519214,-0.06994169,0.02593889,3.434341,-0.06723881,0.04901874,0.0193301,0.03681603,-0.9883304,0.1465409
634796812568330000,0.1251222,0.02346041,-0.9931574,-1.74,-32.1,-51.42,159,61,5,-0.07948089,-0.107187,0.0120797,3.436256,-0.06999254,0.0491563,0.01915975,0.03820514,-0.9881368,0.1475156
634796812568510000,0.1290323,0.02346041,-1.016618,-1.74,-32.1,-51.42,159,61,5,-0.02090381,-0.04013562,-0.03474301,3.43651,-0.06945372,0.04925621,0.01924406,0.0379486,-0.9881266,0.1476374
634796812568710000,0.1446725,0.03128055,-1.020528,-1.74,-32.1,-51.42,160,62,5,-0.07518844,0.05027733,-0.06027431,3.435872,-0.0697329,0.05100989,0.02010229,0.03820805,-0.9881422,0.1473516
634796812568910000,0.1485826,0.03910068,-1.012708,-1.74,-32.1,-51.42,160,62,5,-0.03898754,0.007666182,0.02486232,3.435658,-0.07009816,0.05221033,0.02067268,0.03847366,-0.9881316,0.1472684
634796812569110000,0.1407625,0.03519062,-1.008798,-1.74,-32.1,-51.42,160,62,5,0.03020774,-0.03060038,0.09510256,3.437066,-0.06953215,0.05348789,0.02131879,0.03830203,-0.9880189,0.1479776
634796812569310000,0.1329423,0.02346041,-1.004888,-1.14,-32.28,-50.94,160,62,5,0.04186898,-0.1039394,0.01957546,3.439272,-0.06786323,0.0539422,0.02162537,0.03753465,-0.9878792,0.1490564
634796812569520000,0.1368524,0.03128055,-1.008798,-1.14,-32.28,-50.94,160,62,5,-0.075206,-0.02512973,-0.01336869,3.440311,-0.06729221,0.05427932,0.02181509,0.03728874,-0.9878069,0.1495682
634796812569710000,0.1329423,0.04692082,-1.004888,-1.14,-32.28,-50.94,161,63,5,-0.03683855,-0.02832974,0.02711975,3.440695,-0.06751703,0.05484878,0.02207247,0.03744606,-0.9877649,0.1497688
634796812569910000,0.1290323,0.05474096,-1.004888,-1.14,-32.28,-50.94,160,62,5,0.09512026,-0.06766425,0.09631801,3.442369,-0.06604194,0.05505907,0.02225604,0.03675166,-0.9876636,0.1505817
634796812570110000,0.1329423,0.03519062,-1.004888,-1.14,-32.28,-50.94,160,62,5,0.1749162,-0.02823268,0.179331,3.44567,-0.06237244,0.05574917,0.02281538,0.03502863,-0.9874682,0.1521801
634796812570310000,0.1290323,0.01564027,-0.9931574,-1.02,-32.46,-49.92,162,64,5,0.07055283,0.002631873,0.1037774,3.448241,-0.06006288,0.05689835,0.02351498,0.03400501,-0.9872931,0.1534375
634796812570510000,0.1251222,0.01564027,-0.9736071,-1.02,-32.46,-49.92,161,63,5,-0.005020032,-0.01011531,0.03781128,3.449884,-0.05927467,0.05975973,0.02496053,0.03385351,-0.987132,0.154275
634796812570710000,0.1251222,0.02346041,-0.969697,-1.02,-32.46,-49.92,161,63,5,-0.01563078,-0.01011531,0.03781128,3.450872,-0.05832266,0.06012606,0.02519828,0.03342407,-0.9870657,0.154755
634796812570910000,0.1173021,0.02346041,-0.9736071,-1.02,-32.46,-49.92,161,63,5,-0.006036579,-0.11011,0.06546347,3.452631,-0.05597615,0.05910051,0.02484521,0.03220929,-0.9869848,0.155582
634796812571110000,0.113392,0.01955034,-0.9970675,-1.02,-32.46,-49.92,161,63,5,-0.04112632,-0.07066089,-0.000562444,3.453584,-0.05577063,0.05843103,0.02451548,0.03206796,-0.9869252,0.1560415
634796812571310000,0.1173021,0.02737048,-1.012708,-1.02,-32.46,-49.92,161,63,5,0.004663353,-0.016324,-0.04947913,3.45351,-0.05584478,0.05829537,0.02444393,0.03209323,-0.9869323,0.1560046
634796812571510000,0.1290323,0.03519062,-1.012708,-0.48,-32.64,-49.38,163,65,5,-0.01663413,-0.008878679,-0.03135995,3.452669,-0.05523682,0.05878377,0.02474578,0.03182047,-0.9869987,0.1555877
634796812571730000,0.1368524,0.03519062,-1.012708,-0.48,-32.64,-49.38,163,65,5,-0.07305829,-0.004639871,-0.04730577,3.450832,-0.05575156,0.06041586,0.02554091,0.03217667,-0.9871055,0.1547061
634796812571910000,0.1329423,0.03910068,-1.016618,-0.48,-32.64,-49.38,163,65,5,-0.06348483,0.05072654,-0.07282685,3.449424,-0.05657077,0.06213534,0.02634943,0.03269406,-0.9871717,0.1540415
634796812572110000,0.1368524,0.04692082,-1.012708,-0.48,-32.64,-49.38,163,65,5,0.0003402584,0.0251728,-0.04940357,3.448716,-0.05658531,0.06309664,0.02683454,0.032765,-0.987209,0.1537034
634796812572310000,0.1446725,0.04692082,-1.012708,-0.48,-32.64,-49.38,162,64,5,0.02802959,0.01774068,-0.000408132,3.448308,-0.05594039,0.0644486,0.02755832,0.03254373,-0.9872274,0.1535085
634796812572510000,0.1446725,0.04301075,-1.004888,-0.48,-32.64,-49.38,162,64,5,0.03118023,-0.03118676,0.06240276,3.449159,-0.05500173,0.0653379,0.02805572,0.03215984,-0.987161,0.1539256
634796812572710000,0.1407625,0.03128055,-1.004888,-0.18,-32.46,-48.78,162,64,5,0.01624627,-0.03013509,0.07834581,3.450595,-0.05439663,0.0658903,0.02835212,0.03192349,-0.9870499,0.1546316
634796812572920000,0.1290323,0.03128055,-1.000978,-0.18,-32.46,-48.78,162,64,5,0.09383669,0.0315574,0.09850745,3.452908,-0.05345201,0.06791449,0.02938782,0.03164601,-0.9868472,0.1557814
634796812573110000,0.1212121,0.02346041,-0.9931574,-0.18,-32.46,-48.78,162,64,5,0.09383669,0.0315574,0.09850745,3.454535,-0.05125976,0.06906593,0.0301019,0.03067744,-0.9867324,0.1565634
634796812573310000,0.1173021,0.01173021,-0.9853373,-0.18,-32.46,-48.78,163,65,5,0.05651687,-0.04509672,0.07828365,3.455817,-0.0499208,0.06920635,0.03025679,0.0300471,-0.9866501,0.157177
634796812573510000,0.1290323,0.01955034,-1.008798,-0.18,-32.46,-48.78,163,65,5,0.04587728,-0.04614934,-0.01534187,3.45598,-0.04947758,0.06840038,0.02989151,0.02976827,-0.986659,0.1572431
634796812573710000,0.1446725,0.02737048,-1.020528,-0.48,-32.76,-49.26,163,65,5,0.03842568,0.002802673,-0.01534921,3.455743,-0.04870677,0.06820095,0.02985714,0.0293689,-0.9866925,0.1571126
634796812573910000,0.1524927,0.02737048,-1.016618,-0.48,-32.76,-49.26,162,64,5,0.01288002,-0.01212755,0.002719519,3.455217,-0.04674721,0.06952929,0.03067405,0.02849742,-0.9867367,0.1568358
634796812574110000,0.1485826,0.03128055,-1.008798,-0.48,-32.76,-49.26,162,64,5,0.06182065,-0.01212298,0.0005661662,3.455178,-0.04573655,0.07045102,0.03120874,0.0280697,-0.9867371,0.1568088
634796812574310000,0.1446725,0.04301075,-1.004888,-0.48,-32.76,-49.26,162,64,5,0.0809882,0.003892551,0.01331303,3.455303,-0.04411983,0.07162809,0.03191467,0.02736544,-0.9867271,0.1568546
634796812574510000,0.1524927,0.04301075,-0.9970675,-0.48,-32.76,-49.26,161,63,5,0.07881697,0.01876818,0.06859516,3.455889,-0.04289937,0.07253993,0.03245248,0.02684365,-0.9866794,0.1571317
634796812574710000,0.1564027,0.03128055,-0.9892473,-0.42,-32.7,-48.78,162,64,5,0.04579725,-0.01846841,0.0536245,3.457148,-0.04156423,0.07381212,0.03316858,0.02630482,-0.9865729,0.15774
634796812574910000,0.1524927,0.02737048,-0.9931574,-0.42,-32.7,-48.78,161,63,5,0.02134115,-0.03552262,0.007803642,3.457887,-0.04097986,0.07460808,0.03359778,0.02609115,-0.9865069,0.1581007
634796812575110000,0.1485826,0.04301075,-0.9931574,-0.42,-32.7,-48.78,161,63,5,0.004349195,-0.03660739,0.040743,3.459311,-0.04043627,0.07529556,0.03396148,0.02590102,-0.9863865,0.158799
634796812575310000,0.1446725,0.03910068,-0.9931574,-0.42,-32.7,-48.78,160,62,5,0.06178968,-0.1174965,0.07262741,3.460231,-0.03955006,0.07468092,0.03371696,0.02543106,-0.9863374,0.1592333
634796812575520000,0.1407625,0.03128055,-0.9931574,-0.42,-32.7,-48.78,161,63,5,0.07028401,-0.1110874,0.0481183,3.461137,-0.03842187,0.07384002,0.03338069,0.02482346,-0.9862958,0.1596554
634796812575710000,0.1446725,0.03128055,-0.9970675,-0.42,-32.7,-48.78,161,63,5,0.02347013,-0.07693205,0.02572647,3.461582,-0.03778267,0.07300568,0.03301477,0.02444962,-0.9862846,0.1598589
634796812575910000,0.1407625,0.03910068,-1.004888,-0.42,-32.7,-48.78,161,63,5,0.05961994,-0.06095058,0.04483612,3.462032,-0.03732299,0.07263339,0.03286242,0.02420081,-0.9862613,0.1600712
634796812576110000,0.1329423,0.03128055,-1.000978,-0.42,-32.7,-48.78,161,63,5,0.1159875,-0.1226823,0.0277734,3.462736,-0.0350945,0.07200121,0.03271684,0.02306879,-0.9862159,0.1605491
634796812576320000,0.1329423,0.02737048,-0.9814272,-1.32,-32.64,-49.14,160,62,5,-0.171316,-0.02154381,0.03945902,3.463596,-0.0358448,0.07234621,0.03282073,0.02347475,-0.9861597,0.160816
634796812576510000,0.1329423,0.02346041,-0.9736071,-1.32,-32.64,-49.14,161,63,5,-0.2074996,-0.1363954,-0.01589229,3.463663,-0.04464125,0.06977808,0.03084565,0.02760812,-0.9860907,0.1609709
634796812576710000,0.1446725,0.03519062,-1.004888,-1.32,-32.64,-49.14,161,63,5,-0.2074996,-0.1363954,-0.01589229,3.463663,-0.04464125,0.06977808,0.03084565,0.02760812,-0.9860907,0.1609709
634796812576910000,0.1564027,0.05083089,-1.028348,-1.32,-32.64,-49.14,160,62,5,-0.1244038,-0.05127166,0.01386313,3.46383,-0.0470438,0.06970084,0.03061175,0.02878909,-0.9860447,0.1610896
634796812577110000,0.1681329,0.04301075,-1.043988,-1.32,-32.64,-49.14,160,62,5,0.01718269,-0.1204568,0.03084635,3.464069,-0.04794192,0.06965076,0.03051123,0.02923155,-0.9860135,0.1612209
634796812577310000,0.1759531,0.04692082,-1.075269,-1.56,-32.58,-48.9,160,62,5,0.2235997,-0.05660406,0.05743091,3.464434,-0.04122519,0.07111561,0.03177015,0.02604275,-0.9860486,0.161308
634796812577520000,0.1681329,0.06256109,-1.012708,-1.56,-32.58,-48.9,160,62,5,-0.2819233,0.2328655,0.2404601,3.466788,-0.03776622,0.07782709,0.03532945,0.02491556,-0.9857691,0.1624554
